0	0
10.3422	0
20.6843	0
31.0265	0
41.3687	0
51.7109	0
62.053	0
72.3952	0
82.7374	0
93.0796	0
103.422	0
113.764	0
124.106	0
134.448	0
144.79	0
155.133	0
165.475	0
175.817	0
186.159	0
196.501	0
206.843	0
217.186	0
227.528	0
237.87	0
248.212	0
258.554	0
268.897	0
279.239	0
289.581	0
299.923	0
310.265	0
320.607	0
330.95	0
341.292	0
351.634	0
361.976	0
372.318	0
382.66	0
393.003	0
403.345	0
413.687	0
424.029	0
434.371	0
444.714	0
455.056	0
465.398	0
475.74	0
486.082	0
496.424	0
506.767	0
517.109	0
527.451	0
537.793	0
548.135	0
558.477	0
568.82	0
579.162	0
589.504	0
599.846	0
610.188	0
620.53	0
630.873	0
641.215	0
651.557	0
661.899	0
672.241	0
682.584	0
692.926	0
703.268	0
713.61	0
723.952	0
734.294	0
744.637	0
754.979	0
765.321	0
775.663	0
786.005	0
796.347	0
806.69	0
817.032	0
827.374	0
837.716	0
848.058	0
858.401	0
868.743	0
879.085	0
889.427	0
899.769	0
910.111	0
920.454	0
930.796	0
941.138	0
951.48	0
961.822	0
972.164	0
982.507	0
992.849	0
1003.19	0
1013.53	0
1023.88	0
1034.22	0
1044.56	0
1054.9	0
1065.24	0
1075.59	0
1085.93	0
1096.27	0
1106.61	0
1116.95	0
1127.3	0
1137.64	0
1147.98	0
1158.32	0
1168.67	0
1179.01	0
1189.35	0
1199.69	0
1210.03	0
1220.38	0
1230.72	0
1241.06	0
1251.4	0
1261.75	0
1272.09	0
1282.43	0
1292.77	0
1303.11	0
1313.46	0
1323.8	0
1334.14	0
1344.48	0
1354.82	0
1365.17	0
1375.51	0
1385.85	0
1396.19	0
1406.54	0
1416.88	0
1427.22	0
1437.56	0
1447.9	0
1458.25	0
1468.59	0
1478.93	0
1489.27	0
1499.62	0
1509.96	0
1520.3	0
1530.64	0
1540.98	0
1551.33	0
1561.67	0
1572.01	0
1582.35	0
1592.69	0
1603.04	0
1613.38	0
1623.72	0
1634.06	0
1644.41	0
1654.75	0
1665.09	0
1675.43	0
1685.77	0
1696.12	0
1706.46	0
1716.8	0
1727.14	0
1737.49	0
1747.83	0
1758.17	0
1768.51	0
1778.85	0
1789.2	0
1799.54	0
1809.88	0
1820.22	0
1830.56	0
1840.91	0
1851.25	0
1861.59	0
1871.93	0
1882.28	9.09495e-13
1892.62	1.81899e-12
1902.96	2.72848e-12
1913.3	3.63798e-12
1923.64	5.45697e-12
1933.99	7.27596e-12
1944.33	9.09495e-12
1954.67	1.18234e-11
1965.01	1.54614e-11
1975.36	2.00089e-11
1985.7	2.63753e-11
1996.04	3.45608e-11
2006.38	4.45652e-11
2016.72	5.82077e-11
2027.07	7.54881e-11
2037.41	9.73159e-11
2047.75	1.2551e-10
2058.09	1.60981e-10
2068.43	2.05546e-10
2078.78	2.62844e-10
2089.12	3.34694e-10
2099.46	4.25644e-10
2109.8	5.38421e-10
2120.15	6.79393e-10
2130.49	8.54925e-10
2140.83	1.0732e-09
2151.17	1.34332e-09
2161.51	1.67711e-09
2171.86	2.0882e-09
2182.2	2.59297e-09
2192.54	3.21143e-09
2202.88	3.96631e-09
2213.23	4.88581e-09
2223.57	6.00267e-09
2233.91	7.35599e-09
2244.25	8.99217e-09
2254.59	1.09649e-08
2264.94	1.33377e-08
2275.28	1.61835e-08
2285.62	1.95905e-08
2295.96	2.36578e-08
2306.3	2.85027e-08
2316.65	3.42598e-08
2326.99	4.10855e-08
2337.33	4.91591e-08
2347.67	5.8687e-08
2358.02	6.99056e-08
2368.36	8.30869e-08
2378.7	9.85383e-08
2389.04	1.16613e-07
2399.38	1.37709e-07
2409.73	1.62281e-07
2420.07	1.90841e-07
2430.41	2.23967e-07
2440.75	2.62308e-07
2451.1	3.06598e-07
2461.44	3.57655e-07
2471.78	4.16398e-07
2482.12	4.83848e-07
2492.46	5.61148e-07
2502.81	6.49565e-07
2513.15	7.50506e-07
2523.49	8.65529e-07
2533.83	9.96356e-07
2544.17	1.14489e-06
2554.52	1.31321e-06
2564.86	1.50363e-06
2575.2	1.71866e-06
2585.54	1.96106e-06
2595.89	2.23385e-06
2606.23	2.54032e-06
2616.57	2.88405e-06
2626.91	3.26895e-06
2637.25	3.69925e-06
2647.6	4.17952e-06
2657.94	4.71475e-06
2668.28	5.3103e-06
2678.62	5.97197e-06
2688.97	6.706e-06
2699.31	7.51912e-06
2709.65	8.41857e-06
2719.99	9.41213e-06
2730.33	1.05081e-05
2740.68	1.17155e-05
2751.02	1.30439e-05
2761.36	1.45036e-05
2771.7	1.61055e-05
2782.04	1.78614e-05
2792.39	1.97838e-05
2802.73	2.18863e-05
2813.07	2.41832e-05
2823.41	2.66899e-05
2833.76	2.94227e-05
2844.1	3.23993e-05
2854.44	3.56385e-05
2864.78	3.91604e-05
2875.12	4.29867e-05
2885.47	4.71405e-05
2895.81	5.16467e-05
2906.15	5.6532e-05
2916.49	6.18252e-05
2926.83	6.75574e-05
2937.18	7.3762e-05
2947.52	8.04751e-05
2957.86	8.77358e-05
2968.2	9.55866e-05
2978.55	0.000104073
2988.89	0.000113246
2999.23	0.000123159
3009.57	0.000133871
3019.91	0.000145447
3030.26	0.000157958
3040.6	0.000171479
3050.94	0.000186095
3061.28	0.000201899
3071.62	0.00021899
3081.97	0.000237479
3092.31	0.000257486
3102.65	0.000279144
3112.99	0.000302597
3123.33	0.000328005
3133.68	0.000355541
3144.02	0.000385395
3154.36	0.000417776
3164.7	0.000452912
3175.05	0.000491052
3185.39	0.000532468
3195.73	0.000577457
3206.07	0.000626344
3216.41	0.000679482
3226.76	0.000737256
3237.1	0.000800083
3247.44	0.000868418
3257.78	0.000942754
3268.12	0.00102363
3278.47	0.00111161
3288.81	0.00120733
3299.15	0.00131146
3309.49	0.00142473
3319.83	0.00154792
3330.18	0.00168187
3340.52	0.00182747
3350.86	0.00198571
3361.2	0.0021576
3371.54	0.00234426
3381.89	0.00254685
3392.23	0.00276663
3402.57	0.00300494
3412.91	0.00326317
3423.25	0.00354284
3433.59	0.00384551
3443.94	0.00417285
3454.28	0.00452662
3464.62	0.00490868
3474.96	0.00532095
3485.3	0.00576547
3495.65	0.00624437
3505.99	0.00675986
3516.33	0.00731424
3526.67	0.00790992
3537.01	0.00854939
3547.36	0.00923522
3557.7	0.00997007
3568.04	0.0107567
3578.38	0.0115979
3588.72	0.0124965
3599.06	0.0134556
3609.41	0.0144781
3619.75	0.0155671
3630.09	0.0167257
3640.43	0.0179571
3650.77	0.0192644
3661.12	0.0206508
3671.46	0.0221196
3681.8	0.023674
3692.14	0.025317
3702.48	0.0270519
3712.82	0.0288818
3723.17	0.0308097
3733.51	0.0328386
3743.85	0.0349714
3754.19	0.0372108
3764.53	0.0395596
3774.88	0.0420202
3785.22	0.0445949
3795.56	0.0472861
3805.9	0.0500957
3816.24	0.0530254
3826.58	0.0560769
3836.93	0.0592514
3847.27	0.0625499
3857.61	0.0659733
3867.95	0.0695221
3878.29	0.0731962
3888.64	0.0769956
3898.98	0.0809198
3909.32	0.0849677
3919.66	0.0891382
3930	0.0934296
3940.34	0.0978397
3950.69	0.102366
3961.03	0.107006
3971.37	0.111756
3981.71	0.116612
3992.05	0.12157
4002.39	0.126625
4012.74	0.131772
4023.08	0.137006
4033.42	0.142321
4043.76	0.147709
4054.1	0.153164
4064.45	0.158679
4074.79	0.164246
4085.13	0.169857
4095.47	0.175502
4105.81	0.181173
4116.15	0.186861
4126.5	0.192556
4136.84	0.198247
4147.18	0.203925
4157.52	0.209578
4167.86	0.215196
4178.21	0.220767
4188.55	0.226281
4198.89	0.231725
4209.23	0.237087
4219.57	0.242357
4229.91	0.247521
4240.26	0.252569
4250.6	0.257488
4260.94	0.262266
4271.28	0.266891
4281.62	0.271352
4291.97	0.275637
4302.31	0.279734
4312.65	0.283632
4322.99	0.287321
4333.33	0.290789
4343.68	0.294027
4354.02	0.297023
4364.36	0.299769
4374.7	0.302256
4385.04	0.304474
4395.39	0.306415
4405.73	0.308072
4416.07	0.309437
4426.41	0.310504
4436.75	0.311267
4447.1	0.311721
4457.44	0.311859
4467.78	0.31168
4478.12	0.311179
4488.47	0.310353
4498.81	0.3092
4509.15	0.307719
4519.49	0.30591
4529.83	0.303772
4540.18	0.301306
4550.52	0.298515
4560.86	0.295399
4571.2	0.291962
4581.54	0.288209
4591.89	0.284142
4602.23	0.279767
4612.57	0.275091
4622.91	0.270118
4633.26	0.264857
4643.6	0.259315
4653.94	0.2535
4664.28	0.247421
4674.62	0.241087
4684.97	0.234507
4695.31	0.227694
4705.65	0.220656
4715.99	0.213405
4726.33	0.205953
4736.68	0.198312
4747.02	0.190494
4757.36	0.182511
4767.7	0.174376
4778.05	0.166103
4788.39	0.157704
4798.73	0.149192
4809.07	0.140582
4819.41	0.131886
4829.76	0.123118
4840.1	0.114292
4850.44	0.105421
4860.78	0.0965185
4871.12	0.0875977
4881.47	0.0786719
4891.81	0.069754
4902.15	0.060857
4912.49	0.0519933
4922.84	0.0431753
4933.18	0.0344151
4943.52	0.0257243
4953.86	0.0171144
4964.2	0.00859645
4974.55	0.000181115
4984.89	-0.00812132
4995.23	-0.016301
5005.57	-0.0243485
5015.91	-0.0322547
5026.26	-0.0400112
5036.6	-0.0476099
5046.94	-0.0550432
5057.28	-0.062304
5067.63	-0.0693856
5077.97	-0.076282
5088.31	-0.0829875
5098.65	-0.089497
5108.99	-0.0958059
5119.34	-0.10191
5129.68	-0.107806
5140.02	-0.11349
5150.36	-0.118961
5160.7	-0.124215
5171.05	-0.129251
5181.39	-0.134068
5191.73	-0.138666
5202.07	-0.143043
5212.42	-0.1472
5222.76	-0.151138
5233.1	-0.154857
5243.44	-0.158359
5253.78	-0.161645
5264.13	-0.164718
5274.47	-0.16758
5284.81	-0.170234
5295.15	-0.172682
5305.49	-0.174929
5315.84	-0.176977
5326.18	-0.178831
5336.52	-0.180495
5346.86	-0.181973
5357.21	-0.183269
5367.55	-0.184389
5377.89	-0.185336
5388.23	-0.186117
5398.57	-0.186736
5408.92	-0.187198
5419.26	-0.187509
5429.6	-0.187675
5439.94	-0.1877
5450.28	-0.18759
5460.63	-0.187351
5470.97	-0.186988
5481.31	-0.186507
5491.65	-0.185914
5502	-0.185213
5512.34	-0.184411
5522.68	-0.183513
5533.02	-0.182523
5543.36	-0.181448
5553.71	-0.180293
5564.05	-0.179062
5574.39	-0.177761
5584.73	-0.176394
5595.07	-0.174966
5605.42	-0.173483
5615.76	-0.171948
5626.1	-0.170365
5636.44	-0.168739
5646.79	-0.167075
5657.13	-0.165375
5667.47	-0.163644
5677.81	-0.161885
5688.15	-0.160102
5698.5	-0.158298
5708.84	-0.156477
5719.18	-0.15464
5729.52	-0.152791
5739.86	-0.150933
5750.21	-0.149068
5760.55	-0.147199
5770.89	-0.145327
5781.23	-0.143455
5791.58	-0.141584
5801.92	-0.139717
5812.26	-0.137855
5822.6	-0.135999
5832.94	-0.134152
5843.29	-0.132313
5853.63	-0.130485
5863.97	-0.128667
5874.31	-0.126862
5884.66	-0.12507
5895	-0.123291
5905.34	-0.121526
5915.68	-0.119775
5926.02	-0.11804
5936.37	-0.11632
5946.71	-0.114615
5957.05	-0.112926
5967.39	-0.111252
5977.73	-0.109594
5988.08	-0.107952
5998.42	-0.106326
6008.76	-0.104715
6019.1	-0.10312
6029.45	-0.101539
6039.79	-0.099974
6050.13	-0.0984234
6060.47	-0.0968872
6070.81	-0.0953652
6081.16	-0.0938571
6091.5	-0.0923624
6101.84	-0.090881
6112.18	-0.0894125
6122.52	-0.0879566
6132.87	-0.0865129
6143.21	-0.0850812
6153.55	-0.0836611
6163.89	-0.0822523
6174.24	-0.0808546
6184.58	-0.0794677
6194.92	-0.0780913
6205.26	-0.0767253
6215.6	-0.0753693
6225.95	-0.0740232
6236.29	-0.0726869
6246.63	-0.0713602
6256.97	-0.0700429
6267.32	-0.0687349
6277.66	-0.0674363
6288	-0.0661468
6298.34	-0.0648666
6308.68	-0.0635955
6319.03	-0.0623336
6329.37	-0.061081
6339.71	-0.0598376
6350.05	-0.0586036
6360.39	-0.0573791
6370.74	-0.0561641
6381.08	-0.0549589
6391.42	-0.0537635
6401.76	-0.0525781
6412.11	-0.051403
6422.45	-0.0502382
6432.79	-0.0490841
6443.13	-0.0479408
6453.47	-0.0468085
6463.82	-0.0456875
6474.16	-0.044578
6484.5	-0.0434801
6494.84	-0.0423943
6505.19	-0.0413206
6515.53	-0.0402594
6525.87	-0.0392108
6536.21	-0.0381751
6546.55	-0.0371524
6556.9	-0.0361431
6567.24	-0.0351472
6577.58	-0.034165
6587.92	-0.0331967
6598.26	-0.0322423
6608.61	-0.0313021
6618.95	-0.0303762
6629.29	-0.0294646
6639.63	-0.0285675
6649.98	-0.0276849
6660.32	-0.0268169
6670.66	-0.0259635
6681	-0.0251248
6691.34	-0.0243006
6701.69	-0.0234909
6712.03	-0.0226958
6722.37	-0.021915
6732.71	-0.0211486
6743.06	-0.0203962
6753.4	-0.0196579
6763.74	-0.0189333
6774.08	-0.0182223
6784.42	-0.0175247
6794.77	-0.0168401
6805.11	-0.0161683
6815.45	-0.015509
6825.79	-0.0148619
6836.14	-0.0142265
6846.48	-0.0136026
6856.82	-0.0129897
6867.16	-0.0123874
6877.5	-0.0117953
6887.85	-0.011213
6898.19	-0.0106399
6908.53	-0.0100756
6918.87	-0.00951953
6929.21	-0.00897128
6939.56	-0.00843028
6949.9	-0.00789601
6960.24	-0.00736791
6970.58	-0.00684545
6980.93	-0.00632807
6991.27	-0.00581521
7001.61	-0.0053063
7011.95	-0.00480079
7022.29	-0.0042981
7032.64	-0.00379767
7042.98	-0.00329894
7053.32	-0.00280136
7063.66	-0.00230437
7074.01	-0.00180742
7084.35	-0.00130999
7094.69	-0.00081154
7105.03	-0.000311564
7115.37	0.000190443
7125.72	0.000694968
7136.06	0.00120248
7146.4	0.00171344
7156.74	0.00222829
7167.09	0.00274743
7177.43	0.00327127
7187.77	0.00380019
7198.11	0.00433454
7208.45	0.00487465
7218.8	0.00542082
7229.14	0.00597335
7239.48	0.00653248
7249.82	0.00709844
7260.16	0.00767143
7270.51	0.00825164
7280.85	0.00883919
7291.19	0.00943422
7301.53	0.0100368
7311.88	0.010647
7322.22	0.0112649
7332.56	0.0118903
7342.9	0.0125234
7353.24	0.0131641
7363.59	0.0138122
7373.93	0.0144676
7384.27	0.0151303
7394.61	0.0157999
7404.95	0.0164763
7415.3	0.0171593
7425.64	0.0178486
7435.98	0.0185439
7446.32	0.0192449
7456.67	0.0199512
7467.01	0.0206624
7477.35	0.0213782
7487.69	0.0220982
7498.03	0.0228218
7508.38	0.0235487
7518.72	0.0242784
7529.06	0.0250102
7539.4	0.0257438
7549.74	0.0264785
7560.09	0.0272138
7570.43	0.0279491
7580.77	0.0286838
7591.11	0.0294173
7601.46	0.030149
7611.8	0.0308782
7622.14	0.0316043
7632.48	0.0323267
7642.82	0.0330447
7653.17	0.0337576
7663.51	0.0344647
7673.85	0.0351653
7684.19	0.0358589
7694.53	0.0365446
7704.88	0.0372219
7715.22	0.03789
7725.56	0.0385482
7735.9	0.0391959
7746.25	0.0398324
7756.59	0.040457
7766.93	0.041069
7777.27	0.0416679
7787.61	0.042253
7797.96	0.0428235
7808.3	0.043379
7818.64	0.0439187
7828.98	0.0444422
7839.32	0.0449487
7849.67	0.0454377
7860.01	0.0459087
7870.35	0.0463611
7880.69	0.0467944
7891.03	0.0472081
7901.38	0.0476017
7911.72	0.0479747
7922.06	0.0483266
7932.4	0.0486571
7942.75	0.0489657
7953.09	0.0492521
7963.43	0.0495158
7973.77	0.0497565
7984.11	0.0499739
7994.46	0.0501677
8004.8	0.0503375
8015.14	0.0504833
8025.48	0.0506046
8035.82	0.0507013
8046.17	0.0507733
8056.51	0.0508202
8066.85	0.0508421
8077.19	0.0508388
8087.54	0.0508101
8097.88	0.0507561
8108.22	0.0506766
8118.56	0.0505717
8128.9	0.0504414
8139.25	0.0502856
8149.59	0.0501044
8159.93	0.0498978
8170.27	0.0496661
8180.61	0.0494092
8190.96	0.0491273
8201.3	0.0488205
8211.64	0.0484891
8221.98	0.0481332
8232.32	0.0477531
8242.67	0.0473489
8253.01	0.0469209
8263.35	0.0464694
8273.69	0.0459947
8284.04	0.0454971
8294.38	0.0449769
8304.72	0.0444344
8315.06	0.04387
8325.4	0.0432841
8335.75	0.0426771
8346.09	0.0420493
8356.43	0.0414012
8366.77	0.0407332
8377.11	0.0400458
8387.46	0.0393393
8397.8	0.0386143
8408.14	0.0378713
8418.48	0.0371107
8428.82	0.0363331
8439.17	0.0355388
8449.51	0.0347286
8459.85	0.0339028
8470.19	0.033062
8480.54	0.0322068
8490.88	0.0313377
8501.22	0.0304553
8511.56	0.02956
8521.9	0.0286526
8532.25	0.0277335
8542.59	0.0268033
8552.93	0.0258627
8563.27	0.0249121
8573.61	0.0239522
8583.96	0.0229835
8594.3	0.0220067
8604.64	0.0210223
8614.98	0.0200309
8625.33	0.0190331
8635.67	0.0180295
8646.01	0.0170207
8656.35	0.0160072
8666.69	0.0149897
8677.04	0.0139687
8687.38	0.0129449
8697.72	0.0119187
8708.06	0.0108908
8718.4	0.00986171
8728.75	0.00883201
8739.09	0.00780228
8749.43	0.00677305
8759.77	0.00574488
8770.11	0.00471832
8780.46	0.0036939
8790.8	0.00267215
8801.14	0.0016536
8811.48	0.000638767
8821.83	-0.000371844
8832.17	-0.00137773
8842.51	-0.00237839
8852.85	-0.00337336
8863.19	-0.00436214
8873.54	-0.00534427
8883.88	-0.0063193
8894.22	-0.00728678
8904.56	-0.00824626
8914.9	-0.00919733
8925.25	-0.0101396
8935.59	-0.0110725
8945.93	-0.0119959
8956.27	-0.0129092
8966.62	-0.0138121
8976.96	-0.0147043
8987.3	-0.0155854
8997.64	-0.016455
9007.98	-0.0173128
9018.33	-0.0181586
9028.67	-0.0189919
9039.01	-0.0198126
9049.35	-0.0206203
9059.69	-0.0214148
9070.04	-0.0221958
9080.38	-0.0229631
9090.72	-0.0237164
9101.06	-0.0244556
9111.41	-0.0251804
9121.75	-0.0258906
9132.09	-0.0265862
9142.43	-0.0272668
9152.77	-0.0279324
9163.12	-0.0285829
9173.46	-0.029218
9183.8	-0.0298377
9194.14	-0.0304419
9204.48	-0.0310305
9214.83	-0.0316034
9225.17	-0.0321606
9235.51	-0.032702
9245.85	-0.0332275
9256.2	-0.0337372
9266.54	-0.0342311
9276.88	-0.034709
9287.22	-0.0351711
9297.56	-0.0356174
9307.91	-0.0360479
9318.25	-0.0364626
9328.59	-0.0368615
9338.93	-0.0372448
9349.27	-0.0376126
9359.62	-0.0379648
9369.96	-0.0383017
9380.3	-0.0386232
9390.64	-0.0389295
9400.99	-0.0392208
9411.33	-0.0394971
9421.67	-0.0397587
9432.01	-0.0400055
9442.35	-0.0402379
9452.7	-0.0404559
9463.04	-0.0406598
9473.38	-0.0408496
9483.72	-0.0410256
9494.06	-0.041188
9504.41	-0.0413369
9514.75	-0.0414726
9525.09	-0.0415952
9535.43	-0.041705
9545.78	-0.0418022
9556.12	-0.041887
9566.46	-0.0419596
9576.8	-0.0420202
9587.14	-0.0420691
9597.49	-0.0421065
9607.83	-0.0421327
9618.17	-0.0421478
9628.51	-0.0421521
9638.86	-0.0421458
9649.2	-0.0421293
9659.54	-0.0421027
9669.88	-0.0420662
9680.22	-0.0420202
9690.57	-0.0419648
9700.91	-0.0419003
9711.25	-0.041827
9721.59	-0.041745
9731.93	-0.0416547
9742.28	-0.0415562
9752.62	-0.0414499
9762.96	-0.0413358
9773.3	-0.0412144
9783.65	-0.0410858
9793.99	-0.0409502
9804.33	-0.0408079
9814.67	-0.0406591
9825.01	-0.040504
9835.36	-0.0403428
9845.7	-0.0401758
9856.04	-0.0400032
9866.38	-0.0398252
9876.72	-0.0396419
9887.07	-0.0394536
9897.41	-0.0392605
9907.75	-0.0390628
9918.09	-0.0388607
9928.44	-0.0386543
9938.78	-0.0384439
9949.12	-0.0382296
9959.46	-0.0380115
9969.8	-0.0377899
9980.15	-0.037565
9990.49	-0.0373368
10000.8	-0.0371055
10011.2	-0.0368714
10021.5	-0.0366344
10031.9	-0.0363948
10042.2	-0.0361527
10052.5	-0.0359083
10062.9	-0.0356615
10073.2	-0.0354127
10083.6	-0.0351618
10093.9	-0.0349091
10104.3	-0.0346545
10114.6	-0.0343982
10124.9	-0.0341403
10135.3	-0.033881
10145.6	-0.0336201
10156	-0.033358
10166.3	-0.0330946
10176.6	-0.0328299
10187	-0.0325642
10197.3	-0.0322974
10207.7	-0.0320295
10218	-0.0317608
10228.4	-0.0314911
10238.7	-0.0312206
10249	-0.0309492
10259.4	-0.0306771
10269.7	-0.0304043
10280.1	-0.0301307
10290.4	-0.0298565
10300.8	-0.0295816
10311.1	-0.0293061
10321.4	-0.02903
10331.8	-0.0287533
10342.1	-0.028476
10352.5	-0.0281981
10362.8	-0.0279197
10373.1	-0.0276406
10383.5	-0.0273611
10393.8	-0.0270809
10404.2	-0.0268002
10414.5	-0.0265188
10424.9	-0.0262369
10435.2	-0.0259544
10445.5	-0.0256712
10455.9	-0.0253875
10466.2	-0.025103
10476.6	-0.0248179
10486.9	-0.0245321
10497.3	-0.0242456
10507.6	-0.0239583
10517.9	-0.0236703
10528.3	-0.0233815
10538.6	-0.0230919
10549	-0.0228014
10559.3	-0.0225101
10569.7	-0.0222178
10580	-0.0219246
10590.3	-0.0216305
10600.7	-0.0213353
10611	-0.0210391
10621.4	-0.0207419
10631.7	-0.0204436
10642	-0.0201441
10652.4	-0.0198435
10662.7	-0.0195417
10673.1	-0.0192387
10683.4	-0.0189345
10693.8	-0.0186289
10704.1	-0.0183221
10714.4	-0.0180139
10724.8	-0.0177043
10735.1	-0.0173934
10745.5	-0.017081
10755.8	-0.0167672
10766.2	-0.0164519
10776.5	-0.0161351
10786.8	-0.0158168
10797.2	-0.015497
10807.5	-0.0151756
10817.9	-0.0148526
10828.2	-0.014528
10838.5	-0.0142018
10848.9	-0.013874
10859.2	-0.0135445
10869.6	-0.0132134
10879.9	-0.0128807
10890.3	-0.0125463
10900.6	-0.0122102
10910.9	-0.0118724
10921.3	-0.011533
10931.6	-0.0111919
10942	-0.0108491
10952.3	-0.0105047
10962.7	-0.0101586
10973	-0.00981087
10983.3	-0.00946152
10993.7	-0.00911055
11004	-0.00875798
11014.4	-0.00840383
11024.7	-0.00804813
11035	-0.00769089
11045.4	-0.00733214
11055.7	-0.00697192
11066.1	-0.00661024
11076.4	-0.00624716
11086.8	-0.00588269
11097.1	-0.00551689
11107.4	-0.00514979
11117.8	-0.00478143
11128.1	-0.00441187
11138.5	-0.00404114
11148.8	-0.00366931
11159.2	-0.00329642
11169.5	-0.00292253
11179.8	-0.00254769
11190.2	-0.00217197
11200.5	-0.00179543
11210.9	-0.00141813
11221.2	-0.00104014
11231.5	-0.000661529
11241.9	-0.000282367
11252.2	9.72721e-05
11262.6	0.000477314
11272.9	0.000857682
11283.3	0.0012383
11293.6	0.00161908
11303.9	0.00199994
11314.3	0.0023808
11324.6	0.00276158
11335	0.00314218
11345.3	0.00352251
11355.7	0.00390249
11366	0.00428203
11376.3	0.00466102
11386.7	0.00503938
11397	0.005417
11407.4	0.0057938
11417.7	0.00616966
11428.1	0.0065445
11438.4	0.00691822
11448.7	0.0072907
11459.1	0.00766186
11469.4	0.00803158
11479.8	0.00839977
11490.1	0.00876632
11500.4	0.00913112
11510.8	0.00949408
11521.1	0.00985508
11531.5	0.010214
11541.8	0.0105708
11552.2	0.0109253
11562.5	0.0112775
11572.8	0.0116271
11583.2	0.0119742
11593.5	0.0123186
11603.9	0.0126602
11614.2	0.0129989
11624.6	0.0133345
11634.9	0.0136671
11645.2	0.0139965
11655.6	0.0143226
11665.9	0.0146452
11676.3	0.0149644
11686.6	0.0152799
11696.9	0.0155918
11707.3	0.0158998
11717.6	0.0162039
11728	0.016504
11738.3	0.0168001
11748.7	0.0170919
11759	0.0173795
11769.3	0.0176627
11779.7	0.0179414
11790	0.0182156
11800.4	0.0184851
11810.7	0.01875
11821.1	0.01901
11831.4	0.0192651
11841.7	0.0195153
11852.1	0.0197604
11862.4	0.0200004
11872.8	0.0202352
11883.1	0.0204648
11893.4	0.0206889
11903.8	0.0209077
11914.1	0.021121
11924.5	0.0213287
11934.8	0.0215308
11945.2	0.0217272
11955.5	0.0219178
11965.8	0.0221026
11976.2	0.0222816
11986.5	0.0224546
11996.9	0.0226217
12007.2	0.0227827
12017.6	0.0229376
12027.9	0.0230863
12038.2	0.0232289
12048.6	0.0233652
12058.9	0.0234953
12069.3	0.023619
12079.6	0.0237364
12089.9	0.0238473
12100.3	0.0239518
12110.6	0.0240499
12121	0.0241414
12131.3	0.0242263
12141.7	0.0243047
12152	0.0243765
12162.3	0.0244416
12172.7	0.0245
12183	0.0245518
12193.4	0.0245969
12203.7	0.0246352
12214.1	0.0246668
12224.4	0.0246916
12234.7	0.0247096
12245.1	0.0247209
12255.4	0.0247253
12265.8	0.0247229
12276.1	0.0247137
12286.5	0.0246977
12296.8	0.0246748
12307.1	0.0246451
12317.5	0.0246085
12327.8	0.0245651
12338.2	0.0245149
12348.5	0.0244579
12358.8	0.024394
12369.2	0.0243233
12379.5	0.0242458
12389.9	0.0241615
12400.2	0.0240704
12410.6	0.0239726
12420.9	0.023868
12431.2	0.0237566
12441.6	0.0236386
12451.9	0.0235139
12462.3	0.0233825
12472.6	0.0232445
12483	0.0230999
12493.3	0.0229487
12503.6	0.022791
12514	0.0226268
12524.3	0.0224562
12534.7	0.0222791
12545	0.0220956
12555.3	0.0219057
12565.7	0.0217096
12576	0.0215073
12586.4	0.0212987
12596.7	0.021084
12607.1	0.0208632
12617.4	0.0206364
12627.7	0.0204036
12638.1	0.0201649
12648.4	0.0199203
12658.8	0.01967
12669.1	0.0194139
12679.5	0.0191522
12689.8	0.0188849
12700.1	0.0186121
12710.5	0.0183339
12720.8	0.0180504
12731.2	0.0177615
12741.5	0.0174675
12751.8	0.0171684
12762.2	0.0168643
12772.5	0.0165553
12782.9	0.0162414
12793.2	0.0159228
12803.6	0.0155996
12813.9	0.0152718
12824.2	0.0149396
12834.6	0.0146031
12844.9	0.0142623
12855.3	0.0139174
12865.6	0.0135685
12876	0.0132156
12886.3	0.012859
12896.6	0.0124987
12907	0.0121348
12917.3	0.0117675
12927.7	0.0113968
12938	0.0110229
12948.3	0.010646
12958.7	0.0102661
12969	0.00988331
12979.4	0.00949784
12989.7	0.00910979
13000.1	0.00871929
13010.4	0.00832646
13020.7	0.00793145
13031.1	0.00753438
13041.4	0.00713538
13051.8	0.00673461
13062.1	0.00633218
13072.5	0.00592824
13082.8	0.00552292
13093.1	0.00511637
13103.5	0.00470873
13113.8	0.00430012
13124.2	0.0038907
13134.5	0.0034806
13144.9	0.00306997
13155.2	0.00265894
13165.5	0.00224766
13175.9	0.00183627
13186.2	0.00142491
13196.6	0.00101372
13206.9	0.000602846
13217.2	0.000192421
13227.6	-0.00021741
13237.9	-0.000626508
13248.3	-0.00103473
13258.6	-0.00144195
13269	-0.00184801
13279.3	-0.00225279
13289.6	-0.00265615
13300	-0.00305795
13310.3	-0.00345806
13320.7	-0.00385634
13331	-0.00425266
13341.4	-0.0046469
13351.7	-0.00503891
13362	-0.00542859
13372.4	-0.00581579
13382.7	-0.00620039
13393.1	-0.00658227
13403.4	-0.00696131
13413.7	-0.00733739
13424.1	-0.00771039
13434.4	-0.0080802
13444.8	-0.00844669
13455.1	-0.00880977
13465.5	-0.00916931
13475.8	-0.00952521
13486.1	-0.00987737
13496.5	-0.0102257
13506.8	-0.01057
13517.2	-0.0109103
13527.5	-0.0112465
13537.9	-0.0115784
13548.2	-0.011906
13558.5	-0.0122292
13568.9	-0.0125479
13579.2	-0.012862
13589.6	-0.0131714
13599.9	-0.013476
13610.2	-0.0137759
13620.6	-0.0140708
13630.9	-0.0143608
13641.3	-0.0146457
13651.6	-0.0149255
13662	-0.0152002
13672.3	-0.0154696
13682.6	-0.0157337
13693	-0.0159925
13703.3	-0.0162459
13713.7	-0.0164939
13724	-0.0167364
13734.4	-0.0169733
13744.7	-0.0172047
13755	-0.0174305
13765.4	-0.0176506
13775.7	-0.0178651
13786.1	-0.0180738
13796.4	-0.0182768
13806.7	-0.018474
13817.1	-0.0186655
13827.4	-0.0188511
13837.8	-0.0190309
13848.1	-0.0192049
13858.5	-0.0193731
13868.8	-0.0195353
13879.1	-0.0196917
13889.5	-0.0198423
13899.8	-0.019987
13910.2	-0.0201257
13920.5	-0.0202587
13930.9	-0.0203857
13941.2	-0.0205069
13951.5	-0.0206222
13961.9	-0.0207317
13972.2	-0.0208354
13982.6	-0.0209333
13992.9	-0.0210253
14003.3	-0.0211116
14013.6	-0.0211921
14023.9	-0.0212669
14034.3	-0.021336
14044.6	-0.0213994
14055	-0.0214571
14065.3	-0.0215093
14075.6	-0.0215558
14086	-0.0215968
14096.3	-0.0216322
14106.7	-0.0216622
14117	-0.0216867
14127.4	-0.0217058
14137.7	-0.0217196
14148	-0.021728
14158.4	-0.0217312
14168.7	-0.0217291
14179.1	-0.0217218
14189.4	-0.0217095
14199.8	-0.021692
14210.1	-0.0216695
14220.4	-0.021642
14230.8	-0.0216095
14241.1	-0.0215722
14251.5	-0.0215301
14261.8	-0.0214832
14272.1	-0.0214316
14282.5	-0.0213753
14292.8	-0.0213145
14303.2	-0.0212491
14313.5	-0.0211793
14323.9	-0.021105
14334.2	-0.0210264
14344.5	-0.0209436
14354.9	-0.0208565
14365.2	-0.0207652
14375.6	-0.0206699
14385.9	-0.0205706
14396.3	-0.0204673
14406.6	-0.0203601
14416.9	-0.0202491
14427.3	-0.0201343
14437.6	-0.0200159
14448	-0.0198938
14458.3	-0.0197683
14468.6	-0.0196392
14479	-0.0195068
14489.3	-0.019371
14499.7	-0.019232
14510	-0.0190898
14520.4	-0.0189445
14530.7	-0.0187961
14541	-0.0186448
14551.4	-0.0184907
14561.7	-0.0183337
14572.1	-0.018174
14582.4	-0.0180116
14592.8	-0.0178466
14603.1	-0.0176792
14613.4	-0.0175093
14623.8	-0.017337
14634.1	-0.0171625
14644.5	-0.0169858
14654.8	-0.0168069
14665.1	-0.016626
14675.5	-0.0164432
14685.8	-0.0162584
14696.2	-0.0160719
14706.5	-0.0158836
14716.9	-0.0156937
14727.2	-0.0155022
14737.5	-0.0153091
14747.9	-0.0151147
14758.2	-0.014919
14768.6	-0.0147219
14778.9	-0.0145237
14789.3	-0.0143244
14799.6	-0.0141241
14809.9	-0.0139228
14820.3	-0.0137206
14830.6	-0.0135177
14841	-0.0133141
14851.3	-0.0131098
14861.7	-0.012905
14872	-0.0126997
14882.3	-0.012494
14892.7	-0.012288
14903	-0.0120818
14913.4	-0.0118754
14923.7	-0.0116689
14934	-0.0114624
14944.4	-0.011256
14954.7	-0.0110498
14965.1	-0.0108437
14975.4	-0.010638
14985.8	-0.0104327
14996.1	-0.0102278
15006.4	-0.0100235
15016.8	-0.00981971
15027.1	-0.00961665
15037.5	-0.00941435
15047.8	-0.00921287
15058.2	-0.0090123
15068.5	-0.00881271
15078.8	-0.00861417
15089.2	-0.00841674
15099.5	-0.00822051
15109.9	-0.00802555
15120.2	-0.00783191
15130.5	-0.00763968
15140.9	-0.00744892
15151.2	-0.0072597
15161.6	-0.00707209
15171.9	-0.00688615
15182.3	-0.00670195
15192.6	-0.00651956
15202.9	-0.00633904
15213.3	-0.00616045
15223.6	-0.00598385
15234	-0.00580931
15244.3	-0.00563689
15254.7	-0.00546665
15265	-0.00529865
15275.3	-0.00513295
15285.7	-0.00496959
15296	-0.00480865
15306.4	-0.00465017
15316.7	-0.00449421
15327	-0.00434082
15337.4	-0.00419006
15347.7	-0.00404197
15358.1	-0.0038966
15368.4	-0.00375401
15378.8	-0.00361423
15389.1	-0.00347733
15399.4	-0.00334333
15409.8	-0.00321229
15420.1	-0.00308425
15430.5	-0.00295924
15440.8	-0.00283732
15451.2	-0.00271851
15461.5	-0.00260286
15471.8	-0.0024904
15482.2	-0.00238117
15492.5	-0.00227519
15502.9	-0.00217251
15513.2	-0.00207315
15523.5	-0.00197713
15533.9	-0.0018845
15544.2	-0.00179528
15554.6	-0.00170948
15564.9	-0.00162714
15575.3	-0.00154827
15585.6	-0.0014729
15595.9	-0.00140104
15606.3	-0.00133272
15616.6	-0.00126795
15627	-0.00120674
15637.3	-0.00114911
15647.7	-0.00109506
15658	-0.00104461
15668.3	-0.000997774
15678.7	-0.000954547
15689	-0.000914939
15699.4	-0.000878954
15709.7	-0.000846593
15720.1	-0.000817857
15730.4	-0.000792746
15740.7	-0.000771257
15751.1	-0.000753386
15761.4	-0.000739127
15771.8	-0.000728473
15782.1	-0.000721415
15792.4	-0.000717943
15802.8	-0.000718044
15813.1	-0.000721706
15823.5	-0.000728912
15833.8	-0.000739647
15844.2	-0.000753891
15854.5	-0.000771625
15864.8	-0.000792827
15875.2	-0.000817475
15885.5	-0.000845543
15895.9	-0.000877005
15906.2	-0.000911834
15916.6	-0.000949999
15926.9	-0.000991471
15937.2	-0.00103622
15947.6	-0.0010842
15957.9	-0.00113539
15968.3	-0.00118975
15978.6	-0.00124723
15988.9	-0.00130781
15999.3	-0.00137143
16009.6	-0.00143805
16020	-0.00150763
16030.3	-0.00158013
16040.7	-0.00165549
16051	-0.00173367
16061.3	-0.00181461
16071.7	-0.00189827
16082	-0.00198459
16092.4	-0.00207352
16102.7	-0.00216499
16113.1	-0.00225897
16123.4	-0.00235537
16133.7	-0.00245416
16144.1	-0.00255525
16154.4	-0.0026586
16164.8	-0.00276414
16175.1	-0.0028718
16185.4	-0.00298152
16195.8	-0.00309323
16206.1	-0.00320686
16216.5	-0.00332234
16226.8	-0.00343961
16237.2	-0.00355858
16247.5	-0.0036792
16257.8	-0.00380137
16268.2	-0.00392504
16278.5	-0.00405012
16288.9	-0.00417654
16299.2	-0.00430421
16309.6	-0.00443307
16319.9	-0.00456304
16330.2	-0.00469402
16340.6	-0.00482595
16350.9	-0.00495874
16361.3	-0.00509231
16371.6	-0.00522658
16381.9	-0.00536146
16392.3	-0.00549687
16402.6	-0.00563273
16413	-0.00576896
16423.3	-0.00590546
16433.7	-0.00604215
16444	-0.00617896
16454.3	-0.00631578
16464.7	-0.00645254
16475	-0.00658915
16485.4	-0.00672552
16495.7	-0.00686158
16506.1	-0.00699722
16516.4	-0.00713237
16526.7	-0.00726694
16537.1	-0.00740084
16547.4	-0.00753399
16557.8	-0.00766631
16568.1	-0.0077977
16578.5	-0.00792809
16588.8	-0.00805738
16599.1	-0.0081855
16609.5	-0.00831237
16619.8	-0.00843789
16630.2	-0.008562
16640.5	-0.0086846
16650.8	-0.00880561
16661.2	-0.00892497
16671.5	-0.00904258
16681.9	-0.00915838
16692.2	-0.00927228
16702.6	-0.0093842
16712.9	-0.00949409
16723.2	-0.00960185
16733.6	-0.00970743
16743.9	-0.00981074
16754.3	-0.00991173
16764.6	-0.0100103
16775	-0.0101064
16785.3	-0.0102
16795.6	-0.010291
16806	-0.0103794
16816.3	-0.010465
16826.7	-0.0105479
16837	-0.0106279
16847.3	-0.0107051
16857.7	-0.0107793
16868	-0.0108505
16878.4	-0.0109187
16888.7	-0.0109838
16899.1	-0.0110458
16909.4	-0.0111046
16919.7	-0.0111602
16930.1	-0.0112126
16940.4	-0.0112616
16950.8	-0.0113074
16961.1	-0.0113498
16971.5	-0.0113888
16981.8	-0.0114244
16992.1	-0.0114566
17002.5	-0.0114854
17012.8	-0.0115107
17023.2	-0.0115325
17033.5	-0.0115508
17043.8	-0.0115655
17054.2	-0.0115768
17064.5	-0.0115845
17074.9	-0.0115887
17085.2	-0.0115894
17095.6	-0.0115865
17105.9	-0.0115801
17116.2	-0.0115702
17126.6	-0.0115568
17136.9	-0.0115399
17147.3	-0.0115195
17157.6	-0.0114956
17168	-0.0114683
17178.3	-0.0114375
17188.6	-0.0114033
17199	-0.0113658
17209.3	-0.0113249
17219.7	-0.0112807
17230	-0.0112333
17240.4	-0.0111826
17250.7	-0.0111286
17261	-0.0110716
17271.4	-0.0110114
17281.7	-0.0109482
17292.1	-0.0108819
17302.4	-0.0108127
17312.7	-0.0107406
17323.1	-0.0106656
17333.4	-0.0105879
17343.8	-0.0105074
17354.1	-0.0104243
17364.5	-0.0103385
17374.8	-0.0102502
17385.1	-0.0101595
17395.5	-0.0100664
17405.8	-0.00997092
17416.2	-0.00987324
17426.5	-0.00977339
17436.9	-0.00967145
17447.2	-0.00956752
17457.5	-0.00946165
17467.9	-0.00935395
17478.2	-0.0092445
17488.6	-0.00913338
17498.9	-0.00902068
17509.2	-0.00890649
17519.6	-0.0087909
17529.9	-0.008674
17540.3	-0.00855589
17550.6	-0.00843665
17561	-0.00831638
17571.3	-0.00819518
17581.6	-0.00807314
17592	-0.00795036
17602.3	-0.00782694
17612.7	-0.00770296
17623	-0.00757853
17633.4	-0.00745375
17643.7	-0.00732872
17654	-0.00720353
17664.4	-0.00707828
17674.7	-0.00695307
17685.1	-0.00682799
17695.4	-0.00670316
17705.7	-0.00657865
17716.1	-0.00645458
17726.4	-0.00633103
17736.8	-0.00620811
17747.1	-0.0060859
17757.5	-0.00596451
17767.8	-0.00584402
17778.1	-0.00572454
17788.5	-0.00560615
17798.8	-0.00548894
17809.2	-0.005373
17819.5	-0.00525842
17829.9	-0.0051453
17840.2	-0.00503371
17850.5	-0.00492374
17860.9	-0.00481547
17871.2	-0.00470899
17881.6	-0.00460438
17891.9	-0.0045017
17902.2	-0.00440105
17912.6	-0.00430249
17922.9	-0.00420609
17933.3	-0.00411194
17943.6	-0.00402009
17954	-0.00393061
17964.3	-0.00384357
17974.6	-0.00375902
17985	-0.00367704
17995.3	-0.00359767
18005.7	-0.00352097
18016	-0.003447
18026.4	-0.00337579
18036.7	-0.00330742
18047	-0.0032419
18057.4	-0.0031793
18067.7	-0.00311965
18078.1	-0.00306298
18088.4	-0.00300933
18098.8	-0.00295874
18109.1	-0.00291123
18119.4	-0.00286682
18129.8	-0.00282555
18140.1	-0.00278743
18150.5	-0.00275249
18160.8	-0.00272072
18171.1	-0.00269216
18181.5	-0.0026668
18191.8	-0.00264465
18202.2	-0.00262572
18212.5	-0.00261001
18222.9	-0.00259752
18233.2	-0.00258823
18243.5	-0.00258215
18253.9	-0.00257926
18264.2	-0.00257954
18274.6	-0.00258299
18284.9	-0.00258958
18295.3	-0.00259929
18305.6	-0.0026121
18315.9	-0.00262797
18326.3	-0.00264688
18336.6	-0.00266879
18347	-0.00269368
18357.3	-0.00272149
18367.6	-0.0027522
18378	-0.00278575
18388.3	-0.0028221
18398.7	-0.00286121
18409	-0.00290301
18419.4	-0.00294747
18429.7	-0.00299452
18440	-0.0030441
18450.4	-0.00309616
18460.7	-0.00315063
18471.1	-0.00320746
18481.4	-0.00326656
18491.8	-0.00332788
18502.1	-0.00339135
18512.4	-0.00345689
18522.8	-0.00352443
18533.1	-0.00359389
18543.5	-0.0036652
18553.8	-0.00373828
18564.1	-0.00381305
18574.5	-0.00388943
18584.8	-0.00396733
18595.2	-0.00404667
18605.5	-0.00412736
18615.9	-0.00420932
18626.2	-0.00429246
18636.5	-0.0043767
18646.9	-0.00446194
18657.2	-0.00454809
18667.6	-0.00463506
18677.9	-0.00472276
18688.3	-0.0048111
18698.6	-0.00489998
18708.9	-0.00498932
18719.3	-0.00507902
18729.6	-0.00516898
18740	-0.00525911
18750.3	-0.00534931
18760.6	-0.00543951
18771	-0.00552959
18781.3	-0.00561947
18791.7	-0.00570905
18802	-0.00579824
18812.4	-0.00588695
18822.7	-0.00597508
18833	-0.00606254
18843.4	-0.00614925
18853.7	-0.00623511
18864.1	-0.00632004
18874.4	-0.00640393
18884.8	-0.00648672
18895.1	-0.0065683
18905.4	-0.0066486
18915.8	-0.00672753
18926.1	-0.006805
18936.5	-0.00688094
18946.8	-0.00695527
18957.2	-0.0070279
18967.5	-0.00709876
18977.8	-0.00716777
18988.2	-0.00723485
18998.5	-0.00729995
19008.9	-0.00736297
19019.2	-0.00742386
19029.5	-0.00748255
19039.9	-0.00753897
19050.2	-0.00759305
19060.6	-0.00764474
19070.9	-0.00769398
19081.3	-0.00774071
19091.6	-0.00778487
19101.9	-0.00782641
19112.3	-0.00786527
19122.6	-0.00790142
19133	-0.0079348
19143.3	-0.00796537
19153.7	-0.00799308
19164	-0.0080179
19174.3	-0.00803979
19184.7	-0.00805871
19195	-0.00807463
19205.4	-0.00808752
19215.7	-0.00809735
19226	-0.0081041
19236.4	-0.00810774
19246.7	-0.00810826
19257.1	-0.00810563
19267.4	-0.00809983
19277.8	-0.00809086
19288.1	-0.00807871
19298.4	-0.00806336
19308.8	-0.0080448
19319.1	-0.00802305
19329.5	-0.00799809
19339.8	-0.00796992
19350.2	-0.00793855
19360.5	-0.00790398
19370.8	-0.00786623
19381.2	-0.0078253
19391.5	-0.00778121
19401.9	-0.00773396
19412.2	-0.00768359
19422.5	-0.0076301
19432.9	-0.00757352
19443.2	-0.00751387
19453.6	-0.00745118
19463.9	-0.00738548
19474.3	-0.00731679
19484.6	-0.00724515
19494.9	-0.0071706
19505.3	-0.00709316
19515.6	-0.00701288
19526	-0.00692979
19536.3	-0.00684394
19546.7	-0.00675537
19557	-0.00666413
19567.3	-0.00657025
19577.7	-0.0064738
19588	-0.00637481
19598.4	-0.00627334
19608.7	-0.00616945
19619	-0.00606318
19629.4	-0.00595458
19639.7	-0.00584373
19650.1	-0.00573067
19660.4	-0.00561546
19670.8	-0.00549816
19681.1	-0.00537884
19691.4	-0.00525755
19701.8	-0.00513435
19712.1	-0.00500932
19722.5	-0.0048825
19732.8	-0.00475398
19743.2	-0.00462381
19753.5	-0.00449206
19763.8	-0.0043588
19774.2	-0.00422409
19784.5	-0.004088
19794.9	-0.0039506
19805.2	-0.00381195
19815.6	-0.00367213
19825.9	-0.0035312
19836.2	-0.00338923
19846.6	-0.0032463
19856.9	-0.00310246
19867.3	-0.00295778
19877.6	-0.00281235
19887.9	-0.00266621
19898.3	-0.00251945
19908.6	-0.00237213
19919	-0.00222431
19929.3	-0.00207606
19939.7	-0.00192746
19950	-0.00177856
19960.3	-0.00162943
19970.7	-0.00148013
19981	-0.00133074
19991.4	-0.00118131
