0	0
13.9771	0
23.2952	0
32.6133	0
41.9313	0
51.2494	0
60.5675	0
74.5446	0
83.8627	0
93.1808	0
102.499	0
111.817	0
121.135	0
130.453	0
144.43	0
153.748	0
163.066	0
172.384	0
181.702	0
191.021	0
200.339	0
214.316	0
223.634	0
232.952	0
242.27	0
251.588	0
260.906	0
270.224	0
284.201	0
293.519	0
302.837	0
312.156	0
321.474	0
330.792	0
340.11	0
354.087	0
363.405	0
372.723	0
382.041	0
391.359	0
400.677	0
414.654	0
423.972	0
433.291	0
442.609	0
451.927	0
461.245	0
470.563	0
484.54	0
493.858	0
503.176	0
512.494	0
521.812	0
531.13	0
540.448	0
554.426	0
563.744	0
573.062	0
582.38	0
591.698	0
601.016	0
610.334	0
624.311	0
633.629	0
642.947	0
652.265	0
661.583	0
670.902	0
680.22	0
694.197	0
703.515	0
712.833	0
722.151	0
731.469	0
740.787	0
750.105	0
764.082	0
773.4	0
782.718	0
792.037	0
801.355	0
810.673	0
824.65	0
833.968	0
843.286	9.09495e-13
852.604	2.72848e-12
861.922	7.27596e-12
871.24	2.00089e-11
880.558	5.54792e-11
894.535	2.31921e-10
903.853	5.79348e-10
913.171	1.39698e-09
922.49	3.25872e-09
931.808	7.36145e-09
941.126	1.61126e-08
950.444	3.42134e-08
964.421	1.00224e-07
973.739	1.98113e-07
983.057	3.81162e-07
992.375	7.14399e-07
1001.69	1.30546e-06
1011.01	2.3277e-06
1020.33	4.05283e-06
1034.31	8.91944e-06
1043.62	1.468e-05
1052.94	2.36515e-05
1062.26	3.73274e-05
1071.58	5.77442e-05
1080.9	8.76138e-05
1090.21	0.000130462
1104.19	0.000229159
1113.51	0.000326433
1122.83	0.000457284
1132.15	0.000630316
1141.46	0.000855367
1150.78	0.00114343
1160.1	0.0015065
1174.08	0.00221988
1183.4	0.00282751
1192.71	0.00355659
1202.03	0.0044205
1211.35	0.00543221
1220.67	0.00660414
1234.65	0.00868848
1243.96	0.0103127
1253.28	0.0121386
1262.6	0.0141796
1271.92	0.0164518
1281.24	0.0189746
1290.55	0.0217736
1304.53	0.0265635
1313.85	0.030217
1323.17	0.0343074
1332.48	0.0389102
1341.8	0.044118
1351.12	0.0500416
1360.44	0.0568118
1374.42	0.068891
1383.73	0.0784834
1393.05	0.0895378
1402.37	0.10227
1411.69	0.116908
1421.01	0.133688
1430.32	0.152849
1444.3	0.186565
1453.62	0.212677
1462.94	0.241924
1472.26	0.274467
1481.57	0.310429
1490.89	0.349884
1500.21	0.392855
1514.19	0.463814
1523.51	0.515289
1532.82	0.569881
1542.14	0.627333
1551.46	0.687321
1560.78	0.749464
1570.1	0.813326
1584.07	0.911277
1593.39	0.977243
1602.71	1.04309
1612.03	1.10823
1621.35	1.17209
1630.66	1.23408
1644.64	1.32231
1653.96	1.37718
1663.28	1.42829
1672.59	1.47517
1681.91	1.51739
1691.23	1.55459
1700.55	1.58641
1714.53	1.62345
1723.84	1.64069
1733.16	1.65177
1742.48	1.65654
1751.8	1.65495
1761.12	1.64694
1770.43	1.63251
1784.41	1.59893
1793.73	1.56868
1803.05	1.53228
1812.37	1.48988
1821.68	1.44164
1831	1.38779
1840.32	1.32853
1854.3	1.23013
1863.62	1.1586
1872.93	1.0827
1882.25	1.0028
1891.57	0.919269
1900.89	0.832513
1910.21	0.742958
1924.18	0.60436
1933.5	0.509803
1942.82	0.414083
1952.14	0.317698
1961.46	0.22115
1970.77	0.124945
1980.09	0.0295848
1994.07	-0.110787
2003.39	-0.201889
2012.7	-0.29047
2022.02	-0.376097
2031.34	-0.458356
2040.66	-0.536872
2054.64	-0.646887
2063.95	-0.714626
2073.27	-0.777587
2082.59	-0.835569
2091.91	-0.888412
2101.23	-0.936003
2110.54	-0.978269
2124.52	-1.03164
2133.84	-1.06057
2143.16	-1.08425
2152.48	-1.10281
2161.79	-1.11639
2171.11	-1.12516
2180.43	-1.12934
2194.41	-1.12748
2203.73	-1.1212
2213.04	-1.11119
2222.36	-1.09776
2231.68	-1.08117
2241	-1.06172
2250.32	-1.03971
2264.29	-1.00252
2273.61	-0.975347
2282.93	-0.946583
2292.25	-0.916488
2301.56	-0.885304
2310.88	-0.853261
2320.2	-0.820572
2334.18	-0.770759
2343.5	-0.737291
2352.81	-0.703804
2362.13	-0.670442
2371.45	-0.637335
2380.77	-0.604599
2390.09	-0.572339
2404.06	-0.525038
2413.38	-0.494344
2422.7	-0.4644
2432.02	-0.435266
2441.34	-0.406989
2450.65	-0.379616
2464.63	-0.340326
2473.95	-0.315358
2483.27	-0.291398
2492.59	-0.268466
2501.9	-0.246578
2511.22	-0.225746
2520.54	-0.205978
2534.52	-0.178331
2543.83	-0.161238
2553.15	-0.145211
2562.47	-0.130246
2571.79	-0.116334
2581.11	-0.103461
2590.43	-0.0916153
2604.4	-0.0757319
2613.72	-0.0663703
2623.04	-0.0579637
2632.36	-0.0504865
2641.67	-0.0439112
2650.99	-0.038208
2660.31	-0.0333457
2674.29	-0.0275565
2683.61	-0.0246494
2692.92	-0.0224624
2702.24	-0.0209584
2711.56	-0.0201
2720.88	-0.0198488
2730.2	-0.0201663
2744.17	-0.0216243
2753.49	-0.0231943
2762.81	-0.0251978
2772.13	-0.0275967
2781.45	-0.0303534
2790.76	-0.033431
2800.08	-0.0367933
2814.06	-0.0422937
2823.38	-0.0462156
2832.7	-0.0503033
2842.01	-0.0545254
2851.33	-0.0588517
2860.65	-0.0632536
2874.63	-0.0699388
2883.94	-0.0744137
2893.26	-0.0788755
2902.58	-0.0833024
2911.9	-0.0876745
2921.22	-0.0919732
2930.53	-0.096182
2944.51	-0.102294
2953.83	-0.106216
2963.15	-0.110002
2972.47	-0.113644
2981.78	-0.117134
2991.1	-0.120466
3000.42	-0.123635
3014.4	-0.128075
3023.71	-0.130823
3033.03	-0.133402
3042.35	-0.135811
3051.67	-0.138053
3060.99	-0.140128
3070.3	-0.14204
3084.28	-0.14461
3093.6	-0.14613
3102.92	-0.1475
3112.24	-0.148723
3121.55	-0.149805
3130.87	-0.150749
3140.19	-0.15156
3154.17	-0.152534
3163.48	-0.153026
3172.8	-0.153397
3182.12	-0.153648
3191.44	-0.153783
3200.76	-0.153802
3210.07	-0.153707
3224.05	-0.153354
3233.37	-0.152978
3242.69	-0.15249
3252	-0.151889
3261.32	-0.151176
3270.64	-0.15035
3284.62	-0.148896
3293.94	-0.147783
3303.25	-0.146555
3312.57	-0.14521
3321.89	-0.143749
3331.21	-0.142171
3340.52	-0.140477
3354.5	-0.137719
3363.82	-0.135737
3373.14	-0.133642
3382.45	-0.131437
3391.77	-0.129125
3401.09	-0.126707
3410.41	-0.124189
3424.38	-0.120232
3433.7	-0.117481
3443.02	-0.114647
3452.34	-0.111734
3461.66	-0.10875
3470.97	-0.105702
3480.29	-0.102595
3494.27	-0.0978439
3503.59	-0.0946262
3512.9	-0.0913777
3522.22	-0.0881063
3531.54	-0.0848202
3540.86	-0.0815273
3550.17	-0.0782358
3564.15	-0.0733182
3573.47	-0.0700644
3582.79	-0.0668388
3592.1	-0.063649
3601.42	-0.0605017
3610.74	-0.0574038
3620.06	-0.0543615
3634.03	-0.0499156
3643.35	-0.047038
3652.67	-0.0442355
3661.99	-0.0415127
3671.3	-0.038874
3680.62	-0.0363231
3694.6	-0.032669
3703.92	-0.030352
3713.23	-0.0281331
3722.55	-0.0260144
3731.87	-0.0239975
3741.19	-0.0220837
3750.5	-0.0202737
3764.48	-0.0177544
3773.8	-0.0162053
3783.11	-0.0147602
3792.43	-0.0134181
3801.75	-0.012178
3811.07	-0.0110383
3820.39	-0.00999735
3834.36	-0.0086161
3843.68	-0.00781175
3853	-0.00709727
3862.31	-0.0064695
3871.63	-0.00592499
3880.95	-0.00546006
3890.27	-0.00507077
3904.24	-0.0046195
3913.56	-0.00440064
3922.88	-0.00424199
3932.2	-0.00413871
3941.51	-0.00408586
3950.83	-0.00407834
3960.15	-0.004111
3974.13	-0.00422381
3983.44	-0.00433384
3992.76	-0.00446554
4002.08	-0.0046136
4011.4	-0.00477279
4020.71	-0.00493793
4030.03	-0.00510396
4044.01	-0.00534388
4053.33	-0.00549083
4062.64	-0.00562207
4071.96	-0.00573331
4081.28	-0.00582046
4090.6	-0.00587969
4104.57	-0.00590845
4113.89	-0.00588287
4123.21	-0.00581809
4132.53	-0.00571153
4141.84	-0.00556092
4151.16	-0.00536427
4160.48	-0.00511987
4174.46	-0.00466073
4183.77	-0.00429136
4193.09	-0.00387044
4202.41	-0.00339744
4211.73	-0.00287204
4221.04	-0.00229413
4230.36	-0.00166376
4244.34	-0.000620333
4253.66	0.000140014
4262.98	0.000951599
4272.29	0.00181387
4281.61	0.00272624
4290.93	0.00368809
4300.25	0.00469879
4314.22	0.00630514
4323.54	0.00743541
4332.86	0.00861257
4342.18	0.00983619
4351.5	0.0111059
4360.81	0.0124214
4370.13	0.0137824
4384.11	0.015909
4393.43	0.0173833
4402.75	0.0189028
4412.06	0.0204676
4421.38	0.0220777
4430.7	0.0237333
4440.02	0.0254342
4453.99	0.0280709
4463.31	0.0298854
4472.63	0.0317451
4481.95	0.0336498
4491.27	0.0355989
4500.58	0.037592
4514.56	0.0406622
4523.88	0.0427613
4533.2	0.0449006
4542.52	0.0470785
4551.83	0.0492931
4561.15	0.0515423
4570.47	0.0538236
4584.45	0.0572993
4593.77	0.0596477
4603.08	0.062017
4612.4	0.0644031
4621.72	0.0668019
4631.04	0.0692088
4640.36	0.0716191
4654.33	0.0752295
4663.65	0.0776252
4672.97	0.0800055
4682.29	0.0823644
4691.6	0.0846961
4700.92	0.0869943
4710.24	0.0892529
4724.22	0.092553
4733.54	0.0946853
4742.85	0.0967563
4752.17	0.0987598
4761.49	0.10069
4770.81	0.10254
4780.13	0.104306
4794.1	0.106783
4803.42	0.108313
4812.74	0.109739
4822.06	0.111058
4831.37	0.112266
4840.69	0.113357
4850.01	0.11433
4863.99	0.11556
4873.31	0.116224
4882.62	0.116759
4891.94	0.117165
4901.26	0.11744
4910.58	0.117583
4924.56	0.117551
4933.87	0.117365
4943.19	0.117048
4952.51	0.116601
4961.83	0.116025
4971.15	0.115321
4980.46	0.114493
4994.44	0.113022
5003.76	0.111892
5013.08	0.110648
5022.39	0.109292
5031.71	0.107828
5041.03	0.106259
5050.35	0.104591
5064.33	0.101912
5073.64	0.100013
5082.96	0.0980315
5092.28	0.0959708
5101.6	0.0938363
5110.92	0.0916332
5120.23	0.0893667
5134.21	0.0858597
5143.53	0.0834581
5152.85	0.0810117
5162.17	0.078526
5171.48	0.0760064
5180.8	0.0734581
5190.12	0.0708865
5204.1	0.0669967
5213.41	0.0643894
5222.73	0.0617768
5232.05	0.0591635
5241.37	0.0565546
5250.69	0.0539545
5260	0.0513678
5273.98	0.0475223
5283.3	0.0449876
5292.62	0.0424807
5301.94	0.0400053
5311.25	0.0375648
5320.57	0.0351627
5334.55	0.0316379
5343.87	0.0293445
5353.19	0.0270993
5362.5	0.0249045
5371.82	0.0227622
5381.14	0.0206745
5390.46	0.0186428
5404.43	0.0157036
5413.75	0.0138181
5423.07	0.0119928
5432.39	0.0102284
5441.71	0.0085256
5451.02	0.00688459
5460.34	0.0053056
5474.32	0.00305338
5483.64	0.00162916
5492.96	0.000266389
5502.27	-0.0010354
5511.59	-0.00227677
5520.91	-0.00345836
5530.23	-0.00458091
5544.2	-0.00615576
5553.52	-0.00713424
5562.84	-0.00805663
5572.16	-0.00892381
5581.48	-0.0097367
5590.79	-0.0104962
5600.11	-0.0112031
5614.09	-0.0121669
5623.41	-0.012746
5632.73	-0.0132754
5642.04	-0.0137557
5651.36	-0.0141874
5660.68	-0.0145711
5674.66	-0.0150577
5683.98	-0.0153232
5693.29	-0.015542
5702.61	-0.0157143
5711.93	-0.0158402
5721.25	-0.0159198
5730.57	-0.0159531
5744.54	-0.0159162
5753.86	-0.0158336
5763.18	-0.0157043
5772.5	-0.0155284
5781.81	-0.0153056
5791.13	-0.0150358
5800.45	-0.0147187
5814.43	-0.0141545
5823.75	-0.0137191
5833.06	-0.0132363
5842.38	-0.0127061
5851.7	-0.0121285
5861.02	-0.0115039
5870.34	-0.0108324
5884.31	-0.00973823
5893.63	-0.00895149
5902.95	-0.00811966
5912.27	-0.00724347
5921.58	-0.0063238
5930.9	-0.00536164
5940.22	-0.00435809
5954.2	-0.00277791
5963.52	-0.00167658
5972.83	-0.000538715
5982.15	0.000634017
5991.47	0.00183985
6000.79	0.00307692
6010.11	0.00434323
6024.08	0.006293
6033.4	0.0076232
6042.72	0.00897503
6052.04	0.0103462
6061.36	0.0117342
6070.67	0.0131367
6084.65	0.015262
6093.97	0.0166896
6103.29	0.0181228
6112.6	0.0195591
6121.92	0.0209959
6131.24	0.0224306
6140.56	0.0238607
6154.54	0.0259918
6163.85	0.0273995
6173.17	0.028794
6182.49	0.030173
6191.81	0.031534
6201.13	0.0328749
6210.44	0.0341934
6224.42	0.0361247
6233.74	0.0373783
6243.06	0.0386023
6252.38	0.0397951
6261.69	0.0409548
6271.01	0.0420797
6280.33	0.0431683
6294.31	0.0447295
6303.62	0.0457206
6312.94	0.0466703
6322.26	0.0475775
6331.58	0.048441
6340.9	0.0492598
6350.21	0.0500329
6364.19	0.051105
6373.51	0.0517603
6382.83	0.0523673
6392.15	0.0529254
6401.46	0.0534341
6410.78	0.0538931
6420.1	0.054302
6434.08	0.0548209
6443.4	0.0551038
6452.71	0.0553362
6462.03	0.055518
6471.35	0.0556494
6480.67	0.0557307
6494.64	0.055759
6503.96	0.0557159
6513.28	0.0556238
6522.6	0.0554832
6531.92	0.0552945
6541.23	0.0550583
6550.55	0.0547752
6564.53	0.0542643
6573.85	0.0538671
6583.17	0.0534256
6592.48	0.0529405
6601.8	0.0524127
6611.12	0.051843
6620.44	0.0512322
6634.41	0.0502409
6643.73	0.0495312
6653.05	0.0487835
6662.37	0.0479987
6671.69	0.0471775
6681.01	0.0463209
6690.32	0.0454297
6704.3	0.0440296
6713.62	0.0430551
6722.94	0.0420488
6732.25	0.0410111
6741.57	0.0399429
6750.89	0.0388448
6760.21	0.0377172
6774.19	0.035972
6783.5	0.0347734
6792.82	0.0335471
6802.14	0.0322936
6811.46	0.0310132
6820.78	0.0297063
6830.09	0.0283732
6844.07	0.0263248
6853.39	0.024927
6862.71	0.0235037
6872.03	0.0220551
6881.34	0.0205812
6890.66	0.0190821
6904.64	0.0167865
6913.96	0.0152249
6923.27	0.0136383
6932.59	0.0120268
6941.91	0.0103906
6951.23	0.00872958
6960.55	0.0070439
6974.52	0.00446932
6983.84	0.00272239
6993.16	0.000951208
7002.48	-0.000844058
7011.8	-0.00266319
7021.11	-0.00450595
7030.43	-0.00637204
7044.41	-0.00921419
7053.73	-0.011137
7063.05	-0.0130819
7072.36	-0.0150481
7081.68	-0.0170353
7091	-0.0190428
7100.32	-0.0210698
7114.29	-0.0241456
7123.61	-0.0262183
7132.93	-0.0283079
7142.25	-0.0304133
7151.57	-0.0325336
7160.89	-0.0346677
7170.2	-0.0368146
7184.18	-0.0400561
7193.5	-0.0422296
7202.82	-0.0444115
7212.13	-0.0466005
7221.45	-0.0487953
7230.77	-0.0509943
7240.09	-0.0531961
7254.07	-0.0565008
7263.38	-0.058703
7272.7	-0.0609026
7282.02	-0.0630979
7291.34	-0.0652874
7300.66	-0.0674693
7314.63	-0.0707244
7323.95	-0.0728801
7333.27	-0.0750223
7342.59	-0.0771494
7351.9	-0.0792596
7361.22	-0.0813511
7370.54	-0.0834224
7384.52	-0.0864877
7393.84	-0.088501
7403.15	-0.0904882
7412.47	-0.0924477
7421.79	-0.0943779
7431.11	-0.0962773
7440.43	-0.0981444
7454.4	-0.100881
7463.72	-0.102661
7473.04	-0.104404
7482.36	-0.106108
7491.67	-0.107773
7500.99	-0.109396
7510.31	-0.110978
7524.29	-0.113268
7533.6	-0.11474
7542.92	-0.116166
7552.24	-0.117546
7561.56	-0.118878
7570.88	-0.120162
7580.19	-0.121398
7594.17	-0.12316
7603.49	-0.124272
7612.81	-0.125334
7622.13	-0.126346
7631.44	-0.127306
7640.76	-0.128215
7650.08	-0.129073
7664.06	-0.130264
7673.37	-0.130994
7682.69	-0.131672
7692.01	-0.132299
7701.33	-0.132875
7710.65	-0.1334
7724.62	-0.134093
7733.94	-0.134492
7743.26	-0.134841
7752.58	-0.135141
7761.89	-0.135392
7771.21	-0.135594
7780.53	-0.135749
7794.51	-0.135891
7803.83	-0.135928
7813.14	-0.135918
7822.46	-0.135863
7831.78	-0.135764
7841.1	-0.135619
7850.41	-0.135432
7864.39	-0.135069
7873.71	-0.134775
7883.03	-0.13444
7892.35	-0.134064
7901.66	-0.133648
7910.98	-0.133192
7920.3	-0.132698
7934.28	-0.131886
7943.59	-0.131298
7952.91	-0.130673
7962.23	-0.130013
7971.55	-0.129318
7980.87	-0.128589
7990.18	-0.127826
8004.16	-0.126619
8013.48	-0.125775
8022.8	-0.124899
8032.12	-0.123992
8041.43	-0.123055
8050.75	-0.122089
8060.07	-0.121093
8074.05	-0.119548
8083.36	-0.118484
8092.68	-0.117393
8102	-0.116277
8111.32	-0.115135
8120.64	-0.113969
8134.61	-0.112176
8143.93	-0.110953
8153.25	-0.109707
8162.57	-0.108441
8171.88	-0.107154
8181.2	-0.105848
8190.52	-0.104523
8204.5	-0.102502
8213.82	-0.101133
8223.13	-0.0997481
8232.45	-0.0983481
8241.77	-0.0969336
8251.09	-0.0955054
8260.41	-0.0940643
8274.38	-0.0918799
8283.7	-0.0904097
8293.02	-0.0889291
8302.34	-0.0874389
8311.65	-0.0859398
8320.97	-0.0844323
8330.29	-0.0829172
8344.27	-0.0806314
8353.59	-0.0790997
8362.9	-0.0775622
8372.22	-0.0760195
8381.54	-0.0744719
8390.86	-0.07292
8400.18	-0.0713639
8414.15	-0.0690228
8423.47	-0.0674578
8432.79	-0.0658895
8442.11	-0.0643181
8451.43	-0.0627437
8460.74	-0.0611664
8470.06	-0.0595861
8484.04	-0.05721
8493.36	-0.0556221
8502.67	-0.054031
8511.99	-0.0524365
8521.31	-0.0508384
8530.63	-0.0492365
8544.61	-0.0468261
8553.92	-0.0452137
8563.24	-0.0435966
8572.56	-0.0419746
8581.88	-0.0403475
8591.2	-0.0387149
8600.51	-0.0370766
8614.49	-0.0346079
8623.81	-0.0329544
8633.13	-0.0312945
8642.45	-0.029628
8651.76	-0.027955
8661.08	-0.0262752
8670.4	-0.0245886
8684.38	-0.0220464
8693.69	-0.0203434
8703.01	-0.018634
8712.33	-0.0169185
8721.65	-0.0151973
8730.97	-0.0134705
8740.28	-0.0117387
8754.26	-0.00913265
8763.58	-0.00739053
8772.9	-0.00564535
8782.22	-0.00389782
8791.53	-0.00214872
8800.85	-0.000398878
8810.17	0.00135082
8824.15	0.003973
8833.47	0.00571808
8842.78	0.00745948
8852.1	0.0091961
8861.42	0.0109268
8870.74	0.0126503
8880.06	0.0143655
8894.03	0.01692
8903.35	0.0186088
8912.67	0.0202849
8921.99	0.0219469
8931.31	0.0235935
8940.62	0.0252234
8954.6	0.0276342
8963.92	0.0292167
8973.24	0.0307781
8982.55	0.032317
8991.87	0.0338323
9001.19	0.0353227
9010.51	0.0367872
9024.49	0.0389326
9033.8	0.0403272
9043.12	0.041692
9052.44	0.0430261
9061.76	0.0443286
9071.08	0.0455985
9080.39	0.046835
9094.37	0.0486256
9103.69	0.0497755
9113.01	0.0508895
9122.33	0.0519672
9131.64	0.053008
9140.96	0.0540113
9150.28	0.0549769
9164.26	0.0563536
9173.57	0.0572233
9182.89	0.0580541
9192.21	0.058846
9201.53	0.0595988
9210.85	0.0603125
9220.16	0.060987
9234.14	0.0619253
9243.46	0.0625021
9252.78	0.0630399
9262.1	0.063539
9271.41	0.0639994
9280.73	0.0644216
9290.05	0.0648057
9304.03	0.0653111
9313.35	0.0656013
9322.66	0.0658545
9331.98	0.0660711
9341.3	0.0662516
9350.62	0.0663962
9364.59	0.0665469
9373.91	0.0666038
9383.23	0.0666265
9392.55	0.0666153
9401.87	0.0665707
9411.19	0.0664932
9420.5	0.0663833
9434.48	0.0661587
9443.8	0.0659698
9453.12	0.0657502
9462.43	0.0655004
9471.75	0.0652208
9481.07	0.064912
9490.39	0.0645745
9504.37	0.0640154
9513.68	0.0636083
9523	0.0631743
9532.32	0.0627138
9541.64	0.0622276
9550.96	0.061716
9560.27	0.0611797
9574.25	0.06033
9583.57	0.0597343
9592.89	0.0591159
9602.21	0.0584755
9611.52	0.0578135
9620.84	0.0571308
9630.16	0.0564279
9644.14	0.0553373
9653.45	0.0545871
9662.77	0.0538193
9672.09	0.0530346
9681.41	0.0522339
9690.73	0.0514179
9700.05	0.0505874
9714.02	0.0493167
9723.34	0.0484541
9732.66	0.0475803
9741.98	0.0466962
9751.29	0.0458028
9760.61	0.044901
9774.59	0.0435352
9783.91	0.0426173
9793.23	0.0416949
9802.54	0.0407691
9811.86	0.0398409
9821.18	0.0389115
9830.5	0.0379822
9844.47	0.0365908
9853.79	0.0356666
9863.11	0.0347467
9872.43	0.0338321
9881.75	0.0329241
9891.07	0.0320239
9900.38	0.0311327
9914.36	0.0298155
9923.68	0.0289521
9933	0.028102
9942.31	0.0272661
9951.63	0.0264458
9960.95	0.0256421
9970.27	0.0248561
9984.25	0.0237128
9993.56	0.0229757
10002.9	0.02226
10012.2	0.0215666
10021.5	0.0208964
10030.8	0.0202502
10040.2	0.019629
10054.1	0.0187455
10063.4	0.0181898
10072.8	0.0176615
10082.1	0.0171611
10091.4	0.0166893
10100.7	0.0162464
10110	0.015833
10124	0.0152687
10133.3	0.0149302
10142.7	0.014622
10152	0.0143444
10161.3	0.0140972
10170.6	0.0138806
10184.6	0.0136127
10193.9	0.0134719
10203.2	0.0133611
10212.5	0.01328
10221.9	0.0132282
10231.2	0.0132052
10240.5	0.0132106
10254.5	0.0132705
10263.8	0.0133442
10273.1	0.013444
10282.4	0.0135692
10291.7	0.013719
10301.1	0.0138924
10310.4	0.0140886
10324.4	0.0144235
10333.7	0.0146724
10343	0.0149406
10352.3	0.015227
10361.6	0.0155304
10370.9	0.0158498
10380.3	0.016184
10394.2	0.0167104
10403.6	0.0170763
10412.9	0.0174529
10422.2	0.017839
10431.5	0.0182332
10440.8	0.0186345
10450.1	0.0190416
10464.1	0.0196605
10473.4	0.0200771
10482.8	0.0204954
10492.1	0.0209143
10501.4	0.0213328
10510.7	0.0217498
10520	0.0221642
10534	0.0227789
10543.3	0.0231827
10552.6	0.0235806
10562	0.0239717
10571.3	0.0243552
10580.6	0.0247302
10594.6	0.0252754
10603.9	0.0256262
10613.2	0.0259661
10622.5	0.0262945
10631.9	0.0266108
10641.2	0.0269145
10650.5	0.027205
10664.5	0.0276151
10673.8	0.0278708
10683.1	0.0281118
10692.4	0.0283379
10701.7	0.0285487
10711.1	0.0287438
10720.4	0.0289231
10734.3	0.0291617
10743.7	0.0293004
10753	0.0294223
10762.3	0.0295275
10771.6	0.0296158
10780.9	0.029687
10790.3	0.029741
10804.2	0.0297895
10813.6	0.0298001
10822.9	0.0297932
10832.2	0.0297687
10841.5	0.0297266
10850.8	0.0296668
10860.1	0.0295893
10874.1	0.0294399
10883.4	0.0293181
10892.8	0.0291785
10902.1	0.0290213
10911.4	0.0288463
10920.7	0.0286536
10930	0.0284433
10944	0.0280949
10953.3	0.0278408
10962.6	0.0275694
10972	0.0272807
10981.3	0.0269749
10990.6	0.026652
11004.6	0.0261364
11013.9	0.0257719
11023.2	0.0253912
11032.5	0.0249944
11041.8	0.0245818
11051.2	0.0241538
11060.5	0.0237106
11074.5	0.0230181
11083.8	0.0225386
11093.1	0.0220452
11102.4	0.0215385
11111.7	0.0210188
11121	0.0204867
11130.4	0.0199427
11144.3	0.0191055
11153.7	0.0185342
11163	0.0179529
11172.3	0.0173623
11181.6	0.016763
11190.9	0.0161558
11200.3	0.0155412
11214.2	0.0146072
11223.5	0.0139773
11232.9	0.0133426
11242.2	0.0127038
11251.5	0.0120615
11260.8	0.0114165
11270.1	0.0107695
11284.1	0.00979682
11293.4	0.00914794
11302.8	0.00849952
11312.1	0.00785224
11321.4	0.00720674
11330.7	0.00656366
11340	0.00592362
11354	0.00497052
11363.3	0.00434056
11372.6	0.00371556
11382	0.00309599
11391.3	0.00248229
11400.6	0.00187488
11414.6	0.000976336
11423.9	0.000386151
11433.2	-0.00019664
11442.5	-0.00077181
11451.8	-0.00133918
11461.2	-0.00189859
11470.5	-0.00244996
11484.5	-0.00326179
11493.8	-0.00379285
11503.1	-0.00431582
11512.4	-0.00483078
11521.7	-0.00533782
11531	-0.00583711
11540.4	-0.0063288
11554.3	-0.00705257
11563.7	-0.00752625
11573	-0.00799316
11582.3	-0.00845359
11591.6	-0.00890785
11600.9	-0.00935624
11610.2	-0.00979911
11624.2	-0.0104538
11633.5	-0.0108843
11642.9	-0.0113104
11652.2	-0.0117325
11661.5	-0.012151
11670.8	-0.012566
11680.1	-0.012978
11694.1	-0.0135909
11703.4	-0.0139964
11712.7	-0.0143998
11722.1	-0.0148012
11731.4	-0.015201
11740.7	-0.0155991
11750	-0.0159957
11764	-0.0165882
11773.3	-0.0169816
11782.6	-0.0173737
11791.9	-0.0177646
11801.3	-0.0181541
11810.6	-0.0185422
11824.6	-0.0191214
11833.9	-0.0195054
11843.2	-0.0198874
11852.5	-0.0202672
11861.8	-0.0206445
11871.1	-0.0210191
11880.5	-0.0213906
11894.4	-0.0219414
11903.8	-0.0223038
11913.1	-0.0226619
11922.4	-0.0230152
11931.7	-0.0233635
11941	-0.0237062
11950.4	-0.024043
11964.3	-0.0245362
11973.6	-0.0248563
11983	-0.0251691
11992.3	-0.025474
12001.6	-0.0257708
12010.9	-0.0260591
12020.2	-0.0263384
12034.2	-0.0267401
12043.5	-0.0269958
12052.9	-0.0272416
12062.2	-0.0274773
12071.5	-0.0277025
12080.8	-0.0279173
12090.1	-0.0281215
12104.1	-0.0284075
12113.4	-0.0285848
12122.7	-0.0287513
12132.1	-0.0289072
12141.4	-0.0290524
12150.7	-0.0291873
12160	-0.029312
12174	-0.0294804
12183.3	-0.0295807
12192.6	-0.0296719
12201.9	-0.0297543
12211.3	-0.0298285
12220.6	-0.0298948
12234.6	-0.0299808
12243.9	-0.03003
12253.2	-0.0300734
12262.5	-0.0301115
12271.8	-0.0301452
12281.1	-0.0301751
12290.5	-0.030202
12304.4	-0.0302381
12313.8	-0.0302606
12323.1	-0.0302827
12332.4	-0.0303052
12341.7	-0.0303289
12351	-0.0303548
12360.3	-0.0303834
12374.3	-0.0304336
12383.6	-0.030473
12393	-0.030518
12402.3	-0.0305696
12411.6	-0.0306283
12420.9	-0.0306951
12430.2	-0.0307706
12444.2	-0.0309016
12453.5	-0.0310019
12462.8	-0.0311132
12472.2	-0.0312361
12481.5	-0.0313713
12490.8	-0.0315192
12500.1	-0.0316803
12514.1	-0.0319477
12523.4	-0.0321437
12532.7	-0.0323543
12542	-0.0325797
12551.4	-0.0328203
12560.7	-0.0330761
12570	-0.0333473
12584	-0.0337832
12593.3	-0.0340932
12602.6	-0.0344188
12611.9	-0.0347597
12621.2	-0.0351159
12630.6	-0.0354871
12644.5	-0.0360717
12653.9	-0.0364795
12663.2	-0.0369012
12672.5	-0.0373366
12681.8	-0.0377851
12691.1	-0.0382462
12700.5	-0.0387193
12714.4	-0.0394505
12723.7	-0.0399512
12733.1	-0.0404619
12742.4	-0.0409817
12751.7	-0.0415099
12761	-0.0420457
12770.3	-0.0425885
12784.3	-0.0434136
12793.6	-0.0439699
12803	-0.0445301
12812.3	-0.0450933
12821.6	-0.0456587
12830.9	-0.0462253
12840.2	-0.0467923
12854.2	-0.0476415
12863.5	-0.0482055
12872.8	-0.0487667
12882.2	-0.0493242
12891.5	-0.0498772
12900.8	-0.0504248
12910.1	-0.0509663
12924.1	-0.0517649
12933.4	-0.0522873
12942.7	-0.0528007
12952	-0.0533044
12961.4	-0.0537977
12970.7	-0.05428
12984.7	-0.0549813
12994	-0.0554333
13003.3	-0.0558722
13012.6	-0.0562975
13021.9	-0.0567089
13031.2	-0.0571058
13040.6	-0.0574879
13054.5	-0.0580327
13063.9	-0.0583766
13073.2	-0.0587048
13082.5	-0.0590171
13091.8	-0.0593135
13101.1	-0.0595938
13110.4	-0.059858
13124.4	-0.0602243
13133.7	-0.0604485
13143.1	-0.0606569
13152.4	-0.0608496
13161.7	-0.0610268
13171	-0.0611888
13180.3	-0.0613358
13194.3	-0.0615288
13203.6	-0.0616397
13212.9	-0.0617367
13222.3	-0.0618203
13231.6	-0.0618909
13240.9	-0.0619488
13250.2	-0.0619946
13264.2	-0.0620416
13273.5	-0.062059
13282.8	-0.062066
13292.2	-0.0620629
13301.5	-0.0620503
13310.8	-0.0620287
13320.1	-0.0619985
13334.1	-0.0619381
13343.4	-0.0618886
13352.7	-0.0618321
13362	-0.0617691
13371.4	-0.0617
13380.7	-0.0616252
13394.6	-0.0615032
13404	-0.0614157
13413.3	-0.0613238
13422.6	-0.0612277
13431.9	-0.0611277
13441.2	-0.061024
13450.6	-0.0609168
13464.5	-0.0607498
13473.9	-0.0606345
13483.2	-0.0605162
13492.5	-0.060395
13501.8	-0.0602708
13511.1	-0.0601436
13520.4	-0.0600135
13534.4	-0.0598126
13543.7	-0.0596747
13553.1	-0.0595335
13562.4	-0.0593888
13571.7	-0.0592404
13581	-0.0590881
13590.3	-0.0589317
13604.3	-0.0586888
13613.6	-0.0585208
13622.9	-0.0583478
13632.3	-0.0581693
13641.6	-0.0579851
13650.9	-0.0577947
13660.2	-0.0575979
13674.2	-0.0572897
13683.5	-0.0570751
13692.8	-0.0568528
13702.1	-0.0566224
13711.5	-0.0563835
13720.8	-0.0561358
13730.1	-0.055879
13744.1	-0.0554757
13753.4	-0.0551945
13762.7	-0.0549029
13772	-0.0546007
13781.3	-0.0542875
13790.7	-0.0539633
13804.6	-0.0534554
13814	-0.0531022
13823.3	-0.052737
13832.6	-0.0523598
13841.9	-0.0519703
13851.2	-0.0515684
13860.6	-0.0511541
13874.5	-0.050509
13883.8	-0.0500632
13893.2	-0.0496048
13902.5	-0.0491337
13911.8	-0.0486501
13921.1	-0.048154
13930.4	-0.0476455
13944.4	-0.0468597
13953.7	-0.0463207
13963.1	-0.0457697
13972.4	-0.0452071
13981.7	-0.0446329
13991	-0.0440474
14000.3	-0.043451
14014.3	-0.0425362
14023.6	-0.0419134
14032.9	-0.0412806
14042.3	-0.0406382
14051.6	-0.0399864
14060.9	-0.0393257
14070.2	-0.0386563
14084.2	-0.0376371
14093.5	-0.0369479
14102.8	-0.0362516
14112.1	-0.0355484
14121.5	-0.0348388
14130.8	-0.0341232
14140.1	-0.0334021
14154.1	-0.032311
14163.4	-0.0315779
14172.7	-0.0308407
14182	-0.0300999
14191.3	-0.029356
14200.7	-0.0286094
14214.6	-0.0274852
14224	-0.0267336
14233.3	-0.0259808
14242.6	-0.0252272
14251.9	-0.0244732
14261.2	-0.0237193
14270.5	-0.0229659
14284.5	-0.0218375
14293.8	-0.021087
14303.2	-0.0203384
14312.5	-0.0195921
14321.8	-0.0188484
14331.1	-0.0181078
14340.4	-0.0173706
14354.4	-0.016272
14363.7	-0.0155449
14373	-0.0148225
14382.4	-0.0141052
14391.7	-0.0133932
14401	-0.0126868
14410.3	-0.0119865
14424.3	-0.0109479
14433.6	-0.0102639
14442.9	-0.00958699
14452.2	-0.00891741
14461.6	-0.00825544
14470.9	-0.00760135
14480.2	-0.00695541
14494.2	-0.0060023
14503.5	-0.00537777
14512.8	-0.00476221
14522.1	-0.00415584
14531.5	-0.00355886
14540.8	-0.00297146
14550.1	-0.00239384
14564.1	-0.00154609
14573.4	-0.00099363
14582.7	-0.000451498
14592	8.01659e-05
14601.3	0.000601239
14610.7	0.00111161
14624.6	0.00185688
14634	0.00234007
14643.3	0.00281227
14652.6	0.00327341
14661.9	0.00372344
14671.2	0.00416234
14680.5	0.00459009
14694.5	0.00521079
14703.8	0.00561066
14713.2	0.00599942
14722.5	0.0063771
14731.8	0.00674376
14741.1	0.00709946
14750.4	0.00744428
14764.4	0.00794131
14773.7	0.00825935
14783	0.00856687
14792.4	0.00886402
14801.7	0.00915093
14811	0.00942775
14820.3	0.00969464
14834.3	0.0100767
14843.6	0.0103196
14852.9	0.0105532
14862.2	0.0107776
14871.6	0.0109932
14880.9	0.0112001
14890.2	0.0113986
14904.2	0.011681
14913.5	0.0118593
14922.8	0.01203
14932.1	0.0121933
14941.4	0.0123494
14950.8	0.0124986
14960.1	0.0126411
14974.1	0.0128429
14983.4	0.0129697
14992.7	0.0130907
15002	0.0132061
15011.3	0.0133162
15020.7	0.0134211
15034.6	0.0135693
15043.9	0.0136625
15053.3	0.0137512
15062.6	0.0138359
15071.9	0.0139167
15081.2	0.0139937
15090.5	0.0140674
15104.5	0.0141717
15113.8	0.0142375
15123.2	0.0143004
15132.5	0.0143608
15141.8	0.0144187
15151.1	0.0144744
15160.4	0.0145279
15174.4	0.0146045
15183.7	0.0146534
15193	0.0147007
15202.4	0.0147466
15211.7	0.014791
15221	0.0148343
15230.3	0.0148764
15244.3	0.0149378
15253.6	0.0149776
15262.9	0.0150166
15272.2	0.0150549
15281.6	0.0150926
15290.9	0.0151297
15300.2	0.0151663
15314.2	0.0152205
15323.5	0.0152561
15332.8	0.0152914
15342.1	0.0153264
15351.4	0.0153611
15360.8	0.0153956
15370.1	0.0154298
15384.1	0.0154808
15393.4	0.0155145
15402.7	0.015548
15412	0.0155813
15421.3	0.0156144
15430.6	0.0156473
15444.6	0.0156961
15453.9	0.0157284
15463.3	0.0157603
15472.6	0.0157919
15481.9	0.0158232
15491.2	0.0158541
15500.5	0.0158847
15514.5	0.0159296
15523.8	0.015959
15533.1	0.0159879
15542.5	0.0160162
15551.8	0.0160439
15561.1	0.016071
15570.4	0.0160975
15584.4	0.0161359
15593.7	0.0161605
15603	0.0161844
15612.3	0.0162074
15621.7	0.0162296
15631	0.0162509
15640.3	0.0162713
15654.3	0.0163001
15663.6	0.016318
15672.9	0.016335
15682.2	0.016351
15691.6	0.0163659
15700.9	0.0163797
15710.2	0.0163925
15724.2	0.0164096
15733.5	0.0164196
15742.8	0.0164286
15752.1	0.0164365
15761.4	0.0164434
15770.8	0.0164491
15780.1	0.0164539
15794.1	0.0164591
15803.4	0.0164614
15812.7	0.0164628
15822	0.0164634
15831.3	0.0164631
15840.6	0.016462
15854.6	0.0164592
15863.9	0.0164566
15873.3	0.0164535
15882.6	0.01645
15891.9	0.0164461
15901.2	0.0164421
15910.5	0.016438
15924.5	0.016432
15933.8	0.0164282
15943.1	0.0164247
15952.5	0.0164218
15961.8	0.0164194
15971.1	0.0164179
15980.4	0.0164173
15994.4	0.0164185
16003.7	0.0164209
16013	0.0164248
16022.3	0.0164303
16031.7	0.0164377
16041	0.0164471
16050.3	0.0164587
16064.3	0.0164804
16073.6	0.016498
16082.9	0.0165184
16092.2	0.0165417
16101.5	0.0165679
16110.9	0.0165974
16120.2	0.0166301
16134.2	0.0166856
16143.5	0.0167271
16152.8	0.0167723
16162.1	0.0168213
16171.4	0.0168741
16180.8	0.0169309
16190.1	0.0169916
16204	0.0170902
16213.4	0.0171611
16222.7	0.0172359
16232	0.0173148
16241.3	0.0173978
16250.6	0.0174847
16264.6	0.0176224
16273.9	0.0177189
16283.2	0.0178192
16292.6	0.017923
16301.9	0.0180303
16311.2	0.0181409
16320.5	0.0182546
16334.5	0.0184308
16343.8	0.0185516
16353.1	0.0186749
16362.5	0.0188004
16371.8	0.018928
16381.1	0.0190572
16390.4	0.019188
16404.4	0.0193863
16413.7	0.0195194
16423	0.019653
16432.3	0.0197867
16441.7	0.0199201
16451	0.020053
16460.3	0.0201849
16474.3	0.02038
16483.6	0.0205078
16492.9	0.0206333
16502.2	0.020756
16511.5	0.0208756
16520.9	0.0209916
16530.2	0.0211036
16544.2	0.0212631
16553.5	0.0213631
16562.8	0.0214576
16572.1	0.0215461
16581.4	0.0216282
16590.7	0.0217034
16600.1	0.0217714
16614	0.0218588
16623.4	0.0219068
16632.7	0.0219462
16642	0.0219767
16651.3	0.0219979
16660.6	0.0220095
16674.6	0.0220085
16683.9	0.0219953
16693.2	0.0219718
16702.6	0.0219379
16711.9	0.0218936
16721.2	0.021839
16730.5	0.0217739
16744.5	0.0216571
16753.8	0.0215667
16763.1	0.0214665
16772.4	0.0213567
16781.8	0.0212379
16791.1	0.0211102
16800.4	0.0209743
16814.4	0.0207558
16823.7	0.0206013
16833	0.0204404
16842.3	0.0202737
16851.7	0.0201019
16861	0.0199256
16870.3	0.0197455
16884.3	0.0194698
16893.6	0.0192833
16902.9	0.0190954
16912.2	0.0189069
16921.5	0.0187184
16930.9	0.0185305
16940.2	0.0183438
16954.1	0.0180671
16963.5	0.0178857
16972.8	0.0177072
16982.1	0.017532
16991.4	0.0173605
17000.7	0.0171927
17010.1	0.0170291
17024	0.0167914
17033.4	0.0166382
17042.7	0.0164892
17052	0.0163442
17061.3	0.016203
17070.6	0.0160655
17084.6	0.0158652
17093.9	0.0157351
17103.2	0.0156072
17112.6	0.0154811
17121.9	0.015356
17131.2	0.0152315
17140.5	0.0151068
17154.5	0.0149179
17163.8	0.0147896
17173.1	0.0146586
17182.4	0.0145239
17191.8	0.0143848
17201.1	0.0142403
17210.4	0.0140896
17224.4	0.0138497
17233.7	0.0136792
17243	0.0134992
17252.3	0.0133087
17261.6	0.0131066
17271	0.0128919
17280.3	0.0126637
17294.3	0.0122936
17303.6	0.0120269
17312.9	0.011743
17322.2	0.0114409
17331.5	0.0111194
17340.8	0.0107775
17350.2	0.0104142
17364.1	0.00982674
17373.5	0.00940525
17382.8	0.00895868
17392.1	0.00848602
17401.4	0.00798625
17410.7	0.00745842
17420.1	0.00690157
17434	0.00600991
17443.3	0.00537662
17452.7	0.00471129
17462	0.00401316
17471.3	0.00328154
17480.6	0.00251579
17494.6	0.00130192
17503.9	0.000448485
17513.2	-0.000440757
17522.6	-0.0013661
17531.9	-0.00232773
17541.2	-0.00332577
17550.5	-0.0043602
17564.5	-0.00597986
17573.8	-0.00710461
17583.1	-0.00826491
17592.4	-0.00946027
17601.8	-0.0106901
17611.1	-0.0119536
17620.4	-0.0132499
17634.4	-0.0152539
17643.7	-0.0166278
17653	-0.0180306
17662.3	-0.0194609
17671.6	-0.0209172
17681	-0.0223979
17690.3	-0.0239011
17704.3	-0.0261943
17713.6	-0.0277457
17722.9	-0.0293128
17732.2	-0.0308934
17741.5	-0.0324852
17750.8	-0.0340859
17760.2	-0.0356929
17774.1	-0.03811
17783.5	-0.039722
17792.8	-0.0413313
17802.1	-0.0429352
17811.4	-0.0445311
17820.7	-0.0461162
17830	-0.0476875
17844	-0.0500128
17853.3	-0.0515377
17862.7	-0.053039
17872	-0.054514
17881.3	-0.0559597
17890.6	-0.0573735
17904.6	-0.0594282
17913.9	-0.06075
17923.2	-0.0620304
17932.5	-0.0632667
17941.9	-0.0644563
17951.2	-0.0655968
17960.5	-0.0666858
17974.5	-0.0682175
17983.8	-0.0691676
17993.1	-0.0700583
18002.4	-0.0708877
18011.8	-0.0716539
18021.1	-0.0723549
18030.4	-0.0729892
18044.4	-0.0738119
18053.7	-0.0742726
18063	-0.0746615
18072.3	-0.0749775
18081.6	-0.0752196
18091	-0.075387
18100.3	-0.0754788
18114.2	-0.0754738
18123.6	-0.0753747
18132.9	-0.0751987
18142.2	-0.0749457
18151.5	-0.0746157
18160.8	-0.0742091
18170.2	-0.0737262
18184.1	-0.0728599
18193.5	-0.0721887
18202.8	-0.0714436
18212.1	-0.0706256
18221.4	-0.0697358
18230.7	-0.0687755
18240	-0.0677462
18254	-0.0660761
18263.3	-0.0648811
18272.7	-0.0636228
18282	-0.0623033
18291.3	-0.0609246
18300.6	-0.0594888
18314.6	-0.057233
18323.9	-0.0556645
18333.2	-0.054047
18342.5	-0.052383
18351.9	-0.0506752
18361.2	-0.0489261
18370.5	-0.0471385
18384.5	-0.0443905
18393.8	-0.0425182
18403.1	-0.0406168
18412.4	-0.0386892
18421.7	-0.0367382
18431.1	-0.0347666
18440.4	-0.032777
18454.4	-0.0297653
18463.7	-0.0277432
18473	-0.0257129
18482.3	-0.023677
18491.6	-0.0216383
18500.9	-0.0195992
18510.3	-0.0175624
18524.2	-0.014517
18533.6	-0.0124966
18542.9	-0.010487
18552.2	-0.00849045
18561.5	-0.00650908
18570.8	-0.00454504
18580.2	-0.00260037
18594.1	0.000276045
18603.4	0.0021639
18612.8	0.00402591
18622.1	0.00586041
18631.4	0.00766586
18640.7	0.00944077
18650	0.0111838
18664	0.0137357
18673.3	0.0153936
18682.7	0.0170156
18692	0.0186006
18701.3	0.0201479
18710.6	0.0216566
18724.6	0.0238461
18733.9	0.0252558
18743.2	0.0266251
18752.5	0.0279536
18761.9	0.029241
18771.2	0.0304872
18780.5	0.031692
18794.5	0.0334217
18803.8	0.0345232
18813.1	0.0355836
18822.4	0.0366031
18831.7	0.0375821
18841.1	0.0385209
18850.4	0.03942
18864.4	0.0406952
18873.7	0.0414972
18883	0.0422615
18892.3	0.0429886
18901.6	0.0436794
18910.9	0.0443346
18920.3	0.044955
18934.2	0.0458221
18943.6	0.0463592
18952.9	0.0468646
18962.2	0.0473391
18971.5	0.0477838
18980.8	0.0481996
18990.1	0.0485875
19004.1	0.0491193
19013.4	0.0494418
19022.8	0.0497399
19032.1	0.0500146
19041.4	0.0502669
19050.7	0.0504978
19060	0.0507082
19074	0.0509876
19083.3	0.0511512
19092.6	0.0512976
19102	0.0514277
19111.3	0.0515425
19120.6	0.0516428
19134.6	0.0517679
19143.9	0.0518356
19153.2	0.0518915
19162.5	0.0519364
19171.8	0.0519709
19181.2	0.0519958
19190.5	0.0520117
19204.5	0.0520198
19213.8	0.0520155
19223.1	0.0520041
19232.4	0.051986
19241.7	0.0519616
19251.1	0.0519313
19260.4	0.0518954
19274.3	0.051832
19283.7	0.0517836
19293	0.0517306
19302.3	0.0516733
19311.6	0.0516117
19320.9	0.051546
19330.3	0.0514763
19344.2	0.0513645
19353.6	0.0512852
19362.9	0.051202
19372.2	0.0511149
19381.5	0.0510239
19390.8	0.050929
19400.1	0.05083
19414.1	0.0506738
19423.4	0.0505642
19432.8	0.0504502
19442.1	0.0503315
19451.4	0.050208
19460.7	0.0500796
19470	0.049946
19484	0.0497354
19493.3	0.0495879
19502.6	0.0494345
19512	0.049275
19521.3	0.0491091
19530.6	0.0489367
19544.6	0.0486652
19553.9	0.0484753
19563.2	0.048278
19572.5	0.0480731
19581.8	0.0478604
19591.2	0.0476397
19600.5	0.0474108
19614.5	0.0470516
19623.8	0.0468012
19633.1	0.046542
19642.4	0.0462738
19651.7	0.0459963
19661	0.0457096
19670.4	0.0454133
19684.3	0.0449509
19693.7	0.0446305
19703	0.0443002
19712.3	0.04396
19721.6	0.0436099
19730.9	0.0432497
19740.2	0.0428795
19754.2	0.0423053
19763.5	0.04191
19772.9	0.0415046
19782.2	0.0410892
19791.5	0.0406638
19800.8	0.0402286
19810.1	0.0397835
19824.1	0.0390978
19833.4	0.0386287
19842.7	0.0381502
19852.1	0.0376624
19861.4	0.0371655
19870.7	0.0366596
19880	0.036145
19894	0.0353572
19903.3	0.0348217
19912.6	0.0342782
19922	0.0337269
19931.3	0.0331682
19940.6	0.0326023
19954.6	0.0317405
19963.9	0.0311578
19973.2	0.030569
19982.5	0.0299743
19991.8	0.0293741
