Timestep	RLE_info_counter	boundary_non_rle_encoded_edges_and_vertices	memory_saving_factor
0:	34593	531	3531	6.64972
1:	34922	531	3543	6.67232
2:	35253	531	3555	6.69492
3:	35559	531	3583	6.74765
4:	35762	541	3635	6.71904
5:	35821	541	3635	6.71904
6:	36113	541	3645	6.73752
7:	36280	541	3655	6.75601
8:	36577	541	3677	6.79667
9:	36665	541	3683	6.80776
10:	36816	541	3699	6.83734
11:	36950	541	3703	6.84473
12:	37182	541	3719	6.87431
13:	37372	541	3737	6.90758
14:	37530	555	3765	6.78378
15:	37665	555	3775	6.8018
16:	37841	569	3839	6.74692
17:	38014	569	3857	6.77856
18:	38207	569	3869	6.79965
19:	38340	569	3877	6.81371
20:	38496	569	3893	6.84183
21:	38637	569	3899	6.85237
22:	38792	569	3915	6.88049
23:	38950	569	3929	6.9051
24:	39154	569	3943	6.9297
25:	39281	569	3949	6.94025
26:	39418	569	3951	6.94376
27:	39599	569	3967	6.97188
28:	39742	569	3969	6.9754
29:	39912	569	3979	6.99297
30:	40058	569	3989	7.01054
31:	40228	569	3999	7.02812
