Timestep	RLE_info_counter	boundary_non_rle_encoded_edges_and_vertices	memory_saving_factor
0:	34593	30366	49638	1.63466
1:	34922	30584	50020	1.6355
2:	35253	30835	50459	1.63642
3:	35559	31125	50917	1.63589
4:	35762	31261	51161	1.63658
5:	35821	31295	51227	1.63691
6:	36113	31513	51597	1.63732
7:	36280	31661	51849	1.63763
8:	36577	31883	52233	1.63827
9:	36665	31973	52375	1.6381
10:	36816	32140	52628	1.63746
11:	36950	32304	52870	1.63664
12:	37182	32514	53220	1.63683
13:	37372	32595	53387	1.63789
14:	37530	32783	53677	1.63734
15:	37665	32881	53853	1.63782
16:	37841	32979	54053	1.63901
17:	38014	33204	54378	1.63769
18:	38207	33359	54637	1.63785
19:	38340	33461	54817	1.63824
20:	38496	33573	55013	1.63861
21:	38637	33755	55277	1.63759
22:	38792	33923	55533	1.63703
23:	38950	34051	55745	1.6371
24:	39154	34195	55999	1.63764
25:	39281	34317	56181	1.63712
26:	39418	34463	56405	1.63668
27:	39599	34633	56679	1.63656
28:	39742	34727	56849	1.63703
29:	39912	34885	57099	1.63678
30:	40058	35047	57349	1.63635
31:	40228	35211	57609	1.63611
