Timestep	RLE_info_counter	boundary_non_rle_encoded_edges_and_vertices	memory_saving_factor
0:	34593	43	537	12.4884
1:	34922	43	539	12.5349
2:	35253	43	543	12.6279
3:	35559	43	549	12.7674
4:	35762	43	551	12.814
5:	35821	43	551	12.814
6:	36113	43	555	12.907
7:	36280	43	557	12.9535
8:	36577	43	567	13.186
9:	36665	43	567	13.186
10:	36816	43	573	13.3256
11:	36950	43	573	13.3256
12:	37182	43	577	13.4186
13:	37372	43	589	13.6977
14:	37530	43	591	13.7442
15:	37665	43	599	13.9302
16:	37841	43	603	14.0233
17:	38014	43	611	14.2093
18:	38207	43	615	14.3023
19:	38340	43	617	14.3488
20:	38496	43	621	14.4419
21:	38637	43	621	14.4419
22:	38792	43	627	14.5814
23:	38950	43	633	14.7209
24:	39154	43	641	14.907
25:	39281	43	645	15
26:	39418	43	645	15
27:	39599	43	651	15.1395
28:	39742	43	651	15.1395
29:	39912	43	653	15.186
30:	40058	43	661	15.3721
31:	40228	43	667	15.5116
