Timestep	RLE_info_counter	boundary_non_rle_encoded_edges_and_vertices	memory_saving_factor
0:	34593	279	2193	7.86022
1:	34922	279	2203	7.89606
2:	35253	279	2211	7.92473
3:	35559	279	2229	7.98925
4:	35762	279	2239	8.02509
5:	35821	279	2239	8.02509
6:	36113	279	2245	8.04659
7:	36280	279	2249	8.06093
8:	36577	279	2267	8.12545
9:	36665	279	2269	8.13262
10:	36816	279	2283	8.1828
11:	36950	279	2287	8.19713
12:	37182	279	2293	8.21864
13:	37372	279	2307	8.26882
14:	37530	279	2313	8.29032
15:	37665	279	2323	8.32616
16:	37841	279	2335	8.36918
17:	38014	279	2345	8.40502
18:	38207	279	2349	8.41935
19:	38340	279	2353	8.43369
20:	38496	279	2359	8.4552
21:	38637	289	2405	8.3218
22:	38792	289	2417	8.36332
23:	38950	289	2425	8.391
24:	39154	289	2439	8.43945
25:	39281	297	2495	8.40067
26:	39418	297	2495	8.40067
27:	39599	297	2505	8.43434
28:	39742	297	2507	8.44108
29:	39912	297	2513	8.46128
30:	40058	297	2521	8.48822
31:	40228	297	2531	8.52189
