Timestep	RLE_info_counter	boundary_non_rle_encoded_edges_and_vertices	memory_saving_factor
0:	34593	1900	7812	4.11158
1:	34755	1916	7862	4.10334
2:	35052	1916	7886	4.11587
3:	35339	1941	7965	4.10355
4:	35451	1951	7993	4.09687
5:	35608	1962	8032	4.09378
6:	35801	1962	8060	4.10805
7:	36078	1988	8150	4.0996
8:	36258	2004	8208	4.09581
9:	36460	2004	8240	4.11178
10:	36631	2004	8258	4.12076
11:	36809	2035	8353	4.10467
12:	36969	2049	8395	4.09712
13:	37165	2049	8417	4.10786
14:	37362	2049	8445	4.12152
15:	37546	2049	8471	4.13421
16:	37725	2049	8503	4.14983
17:	37924	2059	8549	4.15202
18:	38100	2059	8567	4.16076
19:	38268	2059	8581	4.16756
20:	38442	2059	8613	4.1831
21:	38626	2069	8655	4.18318
22:	38830	2095	8715	4.1599
23:	38976	2121	8785	4.14191
24:	39210	2135	8833	4.13724
25:	39345	2149	8861	4.12331
26:	39533	2187	8959	4.09648
27:	39700	2215	9017	4.07088
28:	39918	2245	9117	4.06102
29:	40117	2259	9171	4.05976
30:	40281	2259	9199	4.07216
31:	40462	2259	9217	4.08012
32:	40603	2259	9233	4.08721
33:	40777	2259	9255	4.09695
34:	40919	2259	9269	4.10314
35:	41121	2273	9329	4.10427
36:	41362	2283	9391	4.11345
37:	41580	2283	9411	4.12221
38:	41710	2283	9431	4.13097
39:	41879	2313	9515	4.11371
40:	42028	2313	9531	4.12062
41:	42222	2341	9623	4.11064
42:	42395	2341	9641	4.11833
43:	42607	2341	9661	4.12687
44:	42793	2341	9685	4.13712
45:	42937	2357	9747	4.13534
46:	43132	2371	9805	4.13539
47:	43291	2385	9835	4.12369
48:	43459	2399	9875	4.1163
49:	43658	2399	9905	4.1288
50:	43867	2399	9931	4.13964
51:	44001	2399	9945	4.14548
52:	44165	2413	9989	4.13966
53:	44320	2429	10051	4.13792
54:	44511	2429	10073	4.14697
55:	44649	2441	10105	4.1397
56:	44933	2454	10170	4.14425
57:	45066	2466	10202	4.13706
58:	45254	2466	10214	4.14193
59:	45399	2480	10250	4.13306
60:	45571	2480	10260	4.1371
61:	45730	2480	10280	4.14516
62:	45917	2480	10302	4.15403
63:	46167	2494	10378	4.16119
64:	46334	2510	10434	4.15697
65:	46478	2510	10448	4.16255
66:	46708	2510	10476	4.17371
67:	46849	2534	10532	4.15627
68:	47056	2546	10572	4.1524
69:	47194	2558	10602	4.14464
70:	47422	2599	10731	4.1289
71:	47592	2599	10743	4.13351
72:	47751	2629	10807	4.11069
73:	47931	2655	10889	4.10132
74:	48083	2655	10909	4.10885
75:	48254	2655	10931	4.11714
76:	48453	2669	10965	4.10828
77:	48669	2685	11011	4.10093
78:	48865	2723	11101	4.07675
79:	49016	2747	11167	4.06516
80:	49182	2747	11179	4.06953
81:	49339	2747	11205	4.079
82:	49475	2747	11217	4.08336
83:	49655	2761	11275	4.08367
84:	49858	2775	11327	4.0818
85:	50049	2789	11397	4.08641
86:	50223	2789	11423	4.09573
87:	50403	2805	11489	4.0959
88:	50586	2805	11521	4.10731
89:	50732	2805	11537	4.11301
90:	50869	2805	11555	4.11943
91:	51103	2813	11597	4.12264
92:	51286	2827	11643	4.1185
93:	51480	2841	11697	4.11721
94:	51677	2855	11755	4.11734
95:	51805	2855	11769	4.12224
96:	52025	2855	11787	4.12855
97:	52188	2869	11839	4.12652
98:	52400	2869	11873	4.13838
99:	52545	2879	11901	4.13373
100:	52717	2879	11925	4.14206
101:	52968	2903	11995	4.13193
102:	53092	2929	12069	4.12052
103:	53288	2929	12107	4.13349
104:	53472	2929	12131	4.14169
105:	53666	2939	12175	4.14257
106:	53873	2939	12195	4.14937
107:	54057	2953	12231	4.14189
108:	54230	2983	12321	4.13041
109:	54400	3007	12393	4.12138
110:	54580	3007	12411	4.12737
111:	54778	3007	12429	4.13336
112:	54930	3007	12445	4.13868
113:	55155	3007	12479	4.14998
114:	55309	3007	12487	4.15264
115:	55501	3007	12513	4.16129
116:	55715	3007	12541	4.1706
117:	55858	3021	12585	4.16584
118:	56036	3021	12605	4.17246
119:	56239	3031	12633	4.16793
120:	56439	3045	12677	4.16322
121:	56641	3073	12751	4.14937
122:	56804	3099	12815	4.1352
123:	56956	3125	12879	4.12128
124:	57170	3151	12967	4.1152
125:	57358	3180	13058	4.10629
126:	57549	3180	13086	4.11509
127:	57742	3180	13118	4.12516
128:	57891	3180	13138	4.13145
129:	58109	3180	13164	4.13962
130:	58310	3196	13224	4.13767
131:	58488	3196	13252	4.14643
132:	58649	3196	13272	4.15269
133:	58803	3226	13344	4.13639
134:	59043	3256	13434	4.12592
135:	59241	3256	13452	4.13145
136:	59425	3256	13466	4.13575
137:	59634	3270	13518	4.13394
138:	59780	3296	13560	4.11408
139:	60030	3340	13678	4.09521
140:	60163	3352	13714	4.09129
141:	60345	3364	13758	4.08977
142:	60502	3378	13800	4.08526
143:	60678	3392	13850	4.08314
144:	60905	3392	13878	4.09139
145:	61061	3392	13900	4.09788
146:	61262	3392	13930	4.10672
147:	61487	3406	13968	4.101
148:	61692	3434	14034	4.08678
149:	61872	3487	14161	4.06108
150:	62040	3515	14227	4.04751
151:	62256	3547	14299	4.03129
152:	62372	3563	14333	4.02273
153:	62593	3577	14397	4.02488
154:	62766	3591	14447	4.02311
155:	62988	3591	14467	4.02868
156:	63196	3591	14491	4.03537
157:	63390	3607	14547	4.03299
158:	63561	3607	14581	4.04242
159:	63699	3623	14629	4.03781
160:	63895	3623	14657	4.04554
161:	64091	3633	14705	4.04762
162:	64257	3663	14765	4.03085
163:	64471	3679	14807	4.02473
164:	64659	3693	14855	4.02247
165:	64893	3693	14895	4.03331
166:	65057	3693	14915	4.03872
167:	65227	3693	14941	4.04576
168:	65413	3707	14997	4.04559
169:	65596	3717	15035	4.04493
170:	65814	3717	15057	4.05085
171:	66012	3717	15079	4.05677
172:	66165	3717	15105	4.06376
173:	66309	3717	15121	4.06807
174:	66470	3717	15137	4.07237
175:	66686	3717	15175	4.08259
176:	66876	3717	15193	4.08744
177:	67096	3729	15261	4.09252
178:	67274	3745	15327	4.09266
179:	67467	3745	15343	4.09693
180:	67660	3745	15357	4.10067
181:	67868	3761	15419	4.09971
182:	68004	3777	15467	4.09505
183:	68188	3777	15497	4.10299
184:	68338	3793	15547	4.09887
185:	68643	3821	15649	4.09552
186:	68787	3835	15685	4.08996
187:	68989	3847	15737	4.09072
188:	69151	3847	15759	4.09644
189:	69319	3847	15775	4.1006
190:	69509	3847	15801	4.10736
191:	69742	3847	15819	4.11204
192:	69942	3855	15869	4.11647
193:	70134	3879	15933	4.1075
194:	70290	3893	15971	4.10249
195:	70482	3907	16015	4.09905
196:	70681	3935	16091	4.0892
197:	70904	3965	16185	4.08197
198:	71043	3965	16213	4.08903
199:	71239	3995	16299	4.07985
200:	71354	4011	16359	4.07853
201:	71536	4021	16405	4.07983
202:	71711	4021	16431	4.0863
203:	71885	4035	16477	4.08352
204:	72063	4035	16493	4.08748
205:	72239	4035	16517	4.09343
206:	72527	4035	16563	4.10483
207:	72783	4035	16599	4.11375
208:	72990	4047	16655	4.11539
209:	73171	4061	16707	4.11401
210:	73315	4077	16757	4.11013
211:	73521	4091	16797	4.10584
212:	73701	4135	16889	4.0844
213:	73872	4135	16927	4.09359
214:	74089	4145	16975	4.0953
215:	74269	4145	16997	4.1006
216:	74498	4145	17033	4.10929
217:	74668	4183	17127	4.09443
218:	74819	4193	17175	4.09611
219:	74974	4209	17231	4.09385
220:	75124	4209	17251	4.0986
221:	75338	4209	17275	4.1043
222:	75582	4209	17305	4.11143
223:	75782	4209	17325	4.11618
224:	75914	4209	17339	4.11951
225:	76099	4225	17401	4.11858
226:	76331	4225	17435	4.12663
227:	76489	4225	17447	4.12947
228:	76673	4241	17497	4.12568
229:	76861	4241	17511	4.12898
230:	77035	4241	17531	4.13369
231:	77250	4251	17563	4.1315
232:	77427	4275	17627	4.12327
233:	77571	4299	17681	4.11282
234:	77751	4322	17746	4.10597
235:	77965	4380	17872	4.08037
236:	78166	4393	17915	4.07808
237:	78383	4405	17961	4.07741
238:	78549	4419	18013	4.07626
239:	78731	4419	18033	4.08079
240:	78889	4419	18045	4.0835
241:	79033	4435	18095	4.08005
242:	79237	4459	18153	4.07109
243:	79464	4488	18236	4.06328
244:	79646	4502	18284	4.06131
245:	79816	4502	18298	4.06442
246:	79989	4502	18336	4.07286
247:	80199	4506	18386	4.08034
248:	80375	4506	18418	4.08744
249:	80542	4506	18440	4.09232
250:	80748	4518	18478	4.08986
251:	80934	4534	18534	4.08778
252:	81158	4543	18577	4.08915
253:	81351	4567	18619	4.07686
254:	81537	4578	18652	4.07427
255:	81696	4614	18748	4.06329
256:	81874	4655	18847	4.04876
257:	82084	4667	18905	4.05078
258:	82262	4667	18933	4.05678
259:	82452	4667	18971	4.06492
260:	82619	4680	19024	4.06496
261:	82811	4708	19088	4.05438
262:	83007	4750	19182	4.03832
263:	83165	4774	19268	4.03603
264:	83351	4786	19312	4.0351
265:	83589	4786	19346	4.04221
266:	83750	4802	19404	4.04082
267:	83957	4802	19446	4.04956
268:	84198	4802	19480	4.05664
269:	84394	4802	19504	4.06164
270:	84580	4802	19538	4.06872
271:	84748	4802	19550	4.07122
272:	84946	4816	19586	4.06686
273:	85156	4826	19630	4.06755
274:	85356	4838	19686	4.06904
275:	85494	4838	19698	4.07152
276:	85688	4852	19744	4.06925
277:	85850	4852	19758	4.07214
278:	86076	4852	19772	4.07502
279:	86309	4866	19828	4.0748
280:	86493	4894	19896	4.06539
281:	86665	4926	19978	4.05562
282:	86863	4940	20030	4.05466
283:	87049	4954	20084	4.0541
284:	87289	4954	20120	4.06136
285:	87476	4954	20140	4.0654
286:	87666	4954	20156	4.06863
287:	87846	4970	20212	4.0668
288:	88114	4970	20248	4.07404
289:	88290	4986	20304	4.0722
290:	88446	5000	20342	4.0684
291:	88667	5000	20368	4.0736
292:	88838	5016	20420	4.07097
293:	89038	5038	20484	4.0659
294:	89292	5094	20632	4.05026
295:	89485	5108	20688	4.05012
296:	89641	5108	20712	4.05482
297:	89795	5108	20726	4.05756
298:	90066	5124	20796	4.05855
299:	90286	5140	20854	4.0572
300:	90494	5140	20888	4.06381
301:	90690	5122	20874	4.07536
302:	90860	5122	20896	4.07966
303:	91006	5122	20908	4.082
304:	91229	5122	20930	4.08629
305:	91411	5122	20958	4.09176
306:	91614	5122	20992	4.0984
307:	91802	5122	21008	4.10152
308:	92040	5122	21046	4.10894
309:	92276	5122	21072	4.11402
310:	92468	5168	21198	4.10178
311:	92682	5168	21228	4.10759
312:	92812	5182	21274	4.10536
313:	92981	5196	21324	4.10393
314:	93240	5206	21380	4.1068
315:	93434	5218	21442	4.10924
316:	93610	5218	21470	4.1146
317:	93830	5234	21542	4.11578
318:	93976	5234	21560	4.11922
319:	94182	5234	21586	4.12419
320:	94366	5234	21624	4.13145
321:	94506	5264	21704	4.1231
322:	94766	5278	21768	4.12429
323:	94959	5302	21838	4.11882
324:	95181	5302	21868	4.12448
325:	95352	5302	21896	4.12976
326:	95508	5302	21910	4.1324
327:	95689	5302	21926	4.13542
328:	95847	5326	21990	4.1288
329:	96056	5340	22046	4.12846
330:	96322	5376	22158	4.12165
331:	96512	5392	22214	4.11981
332:	96656	5400	22240	4.11852
333:	96827	5410	22290	4.12015
334:	96995	5432	22366	4.11745
335:	97179	5432	22392	4.12224
336:	97368	5432	22412	4.12592
337:	97586	5432	22432	4.1296
338:	97773	5432	22452	4.13328
339:	97946	5448	22520	4.13363
340:	98129	5448	22548	4.13877
341:	98305	5448	22574	4.14354
342:	98460	5459	22649	4.14893
343:	98653	5485	22725	4.14312
344:	98844	5481	22737	4.14833
345:	99069	5497	22799	4.14754
346:	99280	5507	22849	4.14908
347:	99398	5507	22865	4.15199
348:	99573	5507	22883	4.15526
349:	99793	5521	22935	4.15414
350:	100008	5535	22989	4.15339
351:	100218	5549	23031	4.15048
352:	100435	5563	23075	4.14794
353:	100619	5550	23066	4.15604
354:	100799	5558	23100	4.15617
355:	100996	5572	23134	4.15183
356:	101204	5586	23174	4.14859
357:	101327	5596	23212	4.14796
358:	101528	5596	23240	4.15297
359:	101695	5612	23288	4.14968
360:	101948	5642	23376	4.14321
361:	102086	5658	23426	4.14033
362:	102323	5672	23450	4.13434
363:	102510	5702	23536	4.12767
364:	102646	5728	23592	4.11872
365:	102818	5768	23674	4.10437
366:	103079	5792	23742	4.0991
367:	103249	5808	23796	4.09711
368:	103495	5808	23830	4.10296
369:	103620	5818	23860	4.10107
370:	103825	5856	23950	4.08982
371:	104065	5896	24078	4.08379
372:	104243	5912	24148	4.08457
373:	104416	5912	24182	4.09032
374:	104620	5912	24208	4.09472
375:	104804	5940	24272	4.0862
376:	105037	5952	24320	4.08602
377:	105226	5978	24388	4.07963
378:	105408	6008	24466	4.07224
379:	105570	6032	24530	4.06664
380:	105820	6032	24564	4.07228
381:	106062	6032	24596	4.07759
382:	106271	6048	24656	4.07672
383:	106409	6048	24674	4.0797
384:	106618	6048	24698	4.08366
385:	106826	6062	24740	4.08116
386:	107028	6078	24784	4.07766
387:	107187	6094	24820	4.07286
388:	107394	6108	24872	4.07204
389:	107533	6120	24908	4.06993
390:	107762	6163	25017	4.05922
391:	107967	6191	25093	4.05314
392:	108164	6189	25115	4.05801
393:	108316	6201	25141	4.05435
394:	108548	6201	25155	4.0566
395:	108745	6213	25179	4.05263
396:	108932	6223	25215	4.0519
397:	109080	6251	25237	4.03727
398:	109232	6271	25305	4.03524
399:	109418	6287	25337	4.03006
400:	109645	6303	25379	4.0265
401:	109879	6317	25427	4.02517
402:	110087	6331	25461	4.02164
403:	110290	6361	25539	4.01493
404:	110415	6351	25557	4.02409
405:	110533	6365	25593	4.0209
406:	110722	6365	25609	4.02341
407:	110911	6365	25623	4.02561
408:	111129	6365	25649	4.02969
409:	111306	6395	25733	4.02392
410:	111570	6411	25811	4.02605
411:	111738	6411	25847	4.03166
412:	111936	6411	25883	4.03728
413:	112098	6441	25985	4.03431
414:	112291	6441	26003	4.03711
415:	112468	6441	26025	4.04052
416:	112687	6441	26053	4.04487
417:	112889	6441	26073	4.04797
418:	113032	6440	26096	4.05217
419:	113158	6462	26166	4.04921
420:	113337	6462	26184	4.052
421:	113581	6460	26208	4.05697
422:	113764	6488	26296	4.05302
423:	114005	6518	26386	4.04817
424:	114232	6518	26408	4.05155
425:	114350	6563	26523	4.04129
426:	114550	6577	26581	4.04151
427:	114753	6591	26637	4.04142
428:	114856	6589	26643	4.04356
429:	114989	6599	26689	4.0444
430:	115250	6599	26735	4.05137
431:	115498	6599	26781	4.05834
432:	115692	6615	26849	4.05881
433:	115873	6615	26885	4.06425
434:	116003	6615	26903	4.06697
435:	116173	6629	26931	4.0626
436:	116366	6643	27003	4.06488
437:	116582	6643	27033	4.0694
438:	116808	6667	27111	4.06645
439:	116984	6681	27157	4.06481
440:	117219	6665	27161	4.07517
441:	117403	6678	27204	4.07367
442:	117634	6690	27248	4.07294
443:	117815	6732	27334	4.06031
444:	118016	6748	27376	4.05691
445:	118183	6788	27462	4.04567
446:	118394	6853	27637	4.03283
447:	118561	6863	27687	4.03424
448:	118672	6863	27699	4.03599
449:	118842	6879	27753	4.03445
450:	119037	6879	27779	4.03823
451:	119235	6895	27831	4.0364
452:	119553	6895	27857	4.04017
453:	119696	6911	27909	4.03834
454:	119821	6916	27926	4.03788
455:	119983	6916	27946	4.04078
456:	120129	6904	27944	4.04751
457:	120295	6904	27952	4.04867
458:	120424	6914	27984	4.04744
459:	120648	6896	27998	4.06003
460:	120844	6896	28018	4.06294
461:	120984	6912	28072	4.06134
462:	121174	6896	28060	4.06903
463:	121315	6896	28080	4.07193
464:	121483	6912	28134	4.07031
465:	121654	6912	28150	4.07263
466:	121852	6942	28248	4.06914
467:	122063	6958	28314	4.06927
468:	122297	6968	28376	4.07233
469:	122408	6968	28396	4.0752
470:	122548	6984	28458	4.07474
471:	122699	6984	28476	4.07732
472:	122980	6998	28532	4.07716
473:	123138	7012	28564	4.07359
474:	123342	7026	28580	4.06775
475:	123451	7066	28668	4.05718
476:	123614	7079	28715	4.05636
477:	123807	7089	28763	4.05741
478:	124012	7111	28833	4.0547
479:	124157	7111	28841	4.05583
480:	124300	7123	28861	4.0518
481:	124456	7123	28875	4.05377
482:	124676	7133	28915	4.05369
483:	124840	7163	28999	4.04844
484:	124998	7173	29033	4.04754
485:	125194	7199	29111	4.04376
486:	125346	7227	29157	4.03445
487:	125526	7237	29205	4.03551
488:	125686	7237	29227	4.03855
489:	125846	7269	29335	4.03563
490:	126020	7281	29395	4.03722
491:	126158	7321	29485	4.02746
492:	126371	7335	29543	4.02768
493:	126490	7349	29601	4.02789
494:	126653	7335	29589	4.03395
495:	126818	7347	29637	4.03389
496:	127038	7327	29641	4.04545
497:	127227	7327	29681	4.05091
498:	127331	7327	29699	4.05336
499:	127540	7339	29769	4.05627
500:	127743	7379	29885	4.05001
501:	127883	7381	29905	4.05162
502:	128046	7389	29941	4.0521
503:	128240	7393	29957	4.05208
504:	128420	7361	29947	4.06833
505:	128537	7357	29953	4.07136
506:	128668	7341	29937	4.07805
507:	128854	7341	29961	4.08132
508:	129015	7321	29945	4.09029
509:	129119	7307	29903	4.09238
510:	129308	7321	29933	4.08865
511:	129479	7339	29995	4.08707
512:	129718	7339	30031	4.09197
513:	129857	7395	30133	4.07478
514:	130116	7395	30167	4.07938
515:	130198	7409	30197	4.07572
516:	130364	7427	30243	4.07203
517:	130533	7427	30249	4.07284
518:	130724	7417	30251	4.0786
519:	130865	7427	30289	4.07823
520:	131023	7427	30329	4.08361
521:	131151	7441	30383	4.08319
522:	131269	7473	30471	4.07748
523:	131524	7465	30499	4.0856
524:	131728	7502	30598	4.07865
525:	131829	7534	30688	4.07327
526:	131974	7508	30660	4.08364
527:	132111	7522	30714	4.08322
528:	132271	7504	30722	4.09408
529:	132384	7524	30764	4.08878
530:	132582	7548	30840	4.08585
531:	132777	7564	30894	4.08435
532:	132929	7570	30932	4.08613
533:	133114	7584	30980	4.08492
534:	133294	7562	30974	4.09601
535:	133412	7548	30976	4.10387
536:	133588	7564	31032	4.10259
537:	133677	7578	31076	4.10082
538:	133950	7578	31112	4.10557
539:	134134	7578	31132	4.10821
540:	134292	7590	31188	4.10909
541:	134445	7606	31228	4.10571
542:	134602	7606	31268	4.11097
543:	134795	7599	31273	4.11541
544:	134954	7615	31331	4.11438
545:	135168	7639	31421	4.11323
546:	135357	7629	31425	4.11915
547:	135504	7621	31419	4.12269
548:	135710	7651	31533	4.12142
549:	135866	7681	31627	4.11756
550:	136005	7681	31639	4.11913
551:	136205	7675	31661	4.12521
552:	136430	7689	31721	4.1255
553:	136676	7689	31759	4.13045
554:	136924	7702	31834	4.13321
555:	137152	7715	31899	4.13467
556:	137285	7704	31876	4.13759
557:	137428	7714	31886	4.13352
558:	137664	7726	31930	4.1328
559:	137892	7760	32018	4.12603
560:	138059	7768	32036	4.1241
561:	138276	7812	32124	4.11214
562:	138449	7841	32183	4.10445
563:	138673	7839	32189	4.10626
564:	138943	7861	32237	4.10088
565:	139094	7871	32269	4.09973
566:	139303	7899	32339	4.09406
567:	139474	7941	32411	4.08148
568:	139707	7955	32465	4.08108
569:	139938	7979	32545	4.07883
570:	140116	7993	32589	4.07719
571:	140356	8003	32639	4.07835
572:	140521	8043	32725	4.06876
573:	140688	8059	32767	4.06589
574:	141013	8067	32841	4.07103
575:	141225	8067	32867	4.07425
576:	141372	8097	32959	4.07052
577:	141544	8125	33033	4.0656
578:	141789	8149	33131	4.06565
579:	142004	8163	33175	4.06407
580:	142212	8173	33223	4.06497
581:	142548	8173	33279	4.07182
582:	142716	8189	33333	4.07046
583:	142867	8189	33373	4.07534
584:	143125	8203	33439	4.07644
585:	143309	8197	33455	4.08137
586:	143453	8192	33464	4.08496
587:	143731	8208	33532	4.08528
588:	143992	8223	33611	4.08744
589:	144177	8239	33661	4.08557
590:	144409	8239	33689	4.08897
591:	144595	8265	33749	4.08336
592:	144802	8295	33829	4.07824
593:	145020	8276	33836	4.08845
594:	145275	8276	33878	4.09352
595:	145563	8276	33894	4.09546
596:	145819	8286	33960	4.09848
597:	146012	8302	34008	4.09636
598:	146287	8328	34102	4.09486
599:	146451	8354	34162	4.0893
600:	146666	8394	34238	4.07887
601:	146909	8399	34263	4.07941
602:	147125	8427	34349	4.07607
603:	147357	8447	34415	4.07423
604:	147633	8493	34511	4.06346
605:	147859	8523	34615	4.06136
606:	148072	8569	34727	4.05263
607:	148282	8569	34767	4.0573
608:	148491	8571	34821	4.06265
609:	148704	8571	34817	4.06219
610:	149086	8577	34849	4.06308
611:	149269	8592	34904	4.06238
612:	149445	8618	34972	4.05802
613:	149668	8626	34992	4.05657
614:	149892	8648	35084	4.05689
615:	150154	8678	35168	4.05255
616:	150393	8646	35174	4.06824
617:	150697	8656	35212	4.06793
618:	150906	8668	35280	4.07014
619:	151134	8668	35310	4.0736
620:	151308	8662	35324	4.07804
621:	151500	8662	35352	4.08127
622:	151743	8662	35364	4.08266
623:	151967	8676	35410	4.08137
624:	152284	8716	35518	4.07503
625:	152545	8730	35568	4.07423
626:	152801	8756	35666	4.07332
627:	152976	8776	35730	4.07133
628:	153157	8790	35776	4.07008
629:	153410	8804	35860	4.07315
630:	153630	8804	35864	4.0736
631:	153908	8834	35954	4.06996
632:	154165	8862	36044	4.06725
633:	154407	8876	36110	4.06827
634:	154573	8878	36146	4.07141
635:	154878	8888	36204	4.07336
636:	155121	8904	36274	4.0739
637:	155279	8904	36292	4.07592
638:	155560	8920	36356	4.07578
639:	155892	8966	36484	4.06915
640:	156170	9002	36586	4.06421
641:	156398	8996	36604	4.06892
642:	156646	8980	36622	4.07817
643:	156798	9006	36710	4.07617
644:	157029	9006	36744	4.07995
645:	157333	9006	36784	4.08439
646:	157588	9032	36868	4.08193
647:	157868	9046	36932	4.08269
648:	158061	9060	36974	4.08102
649:	158260	9046	36966	4.08645
650:	158455	9072	37046	4.08355
651:	158721	9056	37054	4.09165
652:	158977	9056	37072	4.09364
653:	159230	9058	37114	4.09737
654:	159437	9026	37098	4.11013
655:	159786	9041	37181	4.11249
656:	160043	9041	37225	4.11735
657:	160267	9082	37358	4.11341
658:	160526	9092	37382	4.11153
659:	160727	9133	37461	4.10172
660:	160931	9169	37551	4.09543
661:	161272	9182	37608	4.09584
662:	161494	9194	37676	4.09789
663:	161702	9194	37666	4.0968
664:	161895	9197	37713	4.10058
665:	162133	9179	37715	4.10884
666:	162409	9209	37803	4.10501
667:	162654	9223	37843	4.10311
668:	162909	9209	37849	4.11
669:	163112	9223	37893	4.10853
670:	163458	9220	37932	4.1141
671:	163778	9246	38020	4.11205
672:	164011	9286	38128	4.10597
673:	164203	9330	38222	4.09668
674:	164488	9324	38226	4.09974
675:	164726	9368	38332	4.0918
676:	164975	9408	38416	4.08333
677:	165228	9418	38472	4.08494
678:	165521	9458	38570	4.07803
679:	165716	9458	38590	4.08014
680:	165933	9449	38599	4.08498
681:	166304	9509	38757	4.07582
682:	166521	9509	38779	4.07814
683:	166661	9509	38801	4.08045
684:	166889	9543	38907	4.07702
685:	167153	9557	38971	4.07774
686:	167462	9593	39053	4.07099
687:	167740	9639	39187	4.06546
688:	167976	9655	39251	4.06535
689:	168268	9655	39305	4.07095
690:	168532	9669	39369	4.07167
691:	168794	9669	39397	4.07457
692:	168966	9679	39449	4.07573
693:	169153	9679	39463	4.07718
694:	169428	9719	39601	4.0746
695:	169620	9719	39617	4.07624
696:	169904	9767	39753	4.07013
697:	170183	9767	39795	4.07443
698:	170493	9820	39938	4.06701
699:	170763	9818	39972	4.0713
700:	170934	9816	39984	4.07335
701:	171173	9856	40086	4.06717
702:	171400	9892	40186	4.06247
703:	171642	9892	40252	4.06915
704:	171887	9892	40284	4.07238
705:	172101	9892	40308	4.07481
706:	172344	9908	40368	4.07428
707:	172576	9922	40418	4.07357
708:	172784	9948	40480	4.06916
709:	173036	9948	40504	4.07157
710:	173313	9960	40564	4.07269
711:	173560	9948	40560	4.0772
712:	173804	9952	40596	4.07918
713:	173990	9968	40650	4.07805
714:	174123	9984	40702	4.07672
715:	174306	10008	40762	4.07294
716:	174590	10020	40792	4.07106
717:	174889	10036	40830	4.06835
718:	175007	10076	40920	4.06114
719:	175409	10114	41034	4.05715
720:	175577	10114	41050	4.05873
721:	175734	10140	41098	4.05306
722:	175981	10164	41142	4.04782
723:	176171	10188	41194	4.04338
724:	176357	10256	41326	4.02945
725:	176580	10294	41442	4.02584
726:	176855	10302	41470	4.02543
727:	177099	10346	41578	4.01875
728:	177318	10365	41631	4.0165
729:	177518	10379	41667	4.01455
730:	177736	10341	41635	4.02621
731:	177929	10357	41689	4.0252
732:	178167	10357	41717	4.0279
733:	178335	10363	41757	4.02943
