Timestep	RLE_info_counter	boundary_non_rle_encoded_edges_and_vertices	memory_saving_factor
0:	34593	30366	49638	1.63466
1:	34755	30428	49766	1.63553
2:	35052	30648	50154	1.63645
3:	35339	30917	50591	1.63635
4:	35451	31065	50813	1.6357
5:	35608	31163	50981	1.63595
6:	35801	31243	51155	1.63733
7:	36078	31513	51579	1.63675
8:	36258	31647	51823	1.63753
9:	36460	31811	52101	1.63783
10:	36631	31935	52315	1.63817
11:	36809	32142	52634	1.63755
12:	36969	32332	52910	1.63646
13:	37165	32458	53152	1.63756
14:	37362	32639	53427	1.63691
15:	37546	32779	53683	1.63773
16:	37725	32905	53917	1.63857
17:	37924	33040	54164	1.63935
18:	38100	33248	54474	1.63841
19:	38268	33386	54696	1.63829
20:	38442	33560	54974	1.63808
21:	38626	33753	55273	1.63757
22:	38830	33953	55579	1.63694
23:	38976	34075	55789	1.63724
24:	39210	34251	56089	1.63759
25:	39345	34385	56289	1.63702
26:	39533	34559	56571	1.63694
27:	39700	34687	56793	1.6373
28:	39918	34869	57089	1.63724
29:	40117	35121	57451	1.6358
30:	40281	35285	57719	1.63579
31:	40462	35433	57967	1.63596
32:	40603	35596	58208	1.63524
33:	40777	35740	58460	1.6357
34:	40919	35830	58634	1.63645
35:	41121	35978	58886	1.63672
36:	41362	36180	59214	1.63665
37:	41580	36411	59571	1.63607
38:	41710	36509	59739	1.63628
39:	41879	36641	59953	1.63623
40:	42028	36795	60195	1.63596
41:	42222	37021	60543	1.63537
42:	42395	37163	60777	1.63542
43:	42607	37383	61121	1.63499
44:	42793	37507	61347	1.63561
45:	42937	37624	61546	1.63582
46:	43132	37734	61764	1.63683
47:	43291	37900	62014	1.63625
48:	43459	38068	62282	1.63607
49:	43658	38220	62554	1.63668
50:	43867	38362	62812	1.63735
51:	44001	38503	63027	1.63694
52:	44165	38619	63237	1.63746
53:	44320	38702	63402	1.63821
54:	44511	38872	63682	1.63825
55:	44649	38978	63862	1.63841
56:	44933	39156	64182	1.63914
57:	45066	39354	64472	1.63826
58:	45254	39510	64728	1.63827
59:	45399	39600	64882	1.63843
60:	45571	39821	65203	1.6374
61:	45730	40039	65511	1.63618
62:	45917	40203	65779	1.63617
63:	46167	40395	66113	1.63666
64:	46334	40573	66395	1.63643
65:	46478	40713	66609	1.63606
66:	46708	40831	66851	1.63726
67:	46849	40981	67087	1.63703
68:	47056	41233	67455	1.63595
69:	47194	41357	67663	1.63607
70:	47422	41507	67961	1.63734
71:	47592	41625	68165	1.6376
72:	47751	41723	68337	1.63787
73:	47931	41867	68581	1.63807
74:	48083	42037	68839	1.63758
75:	48254	42160	69058	1.638
76:	48453	42275	69281	1.63882
77:	48669	42513	69637	1.63802
78:	48865	42707	69945	1.63779
79:	49016	42781	70083	1.63818
80:	49182	42997	70395	1.63721
81:	49339	43155	70647	1.63705
82:	49475	43348	70936	1.63643
83:	49655	43416	71100	1.63765
84:	49858	43604	71392	1.63728
85:	50049	43771	71675	1.6375
86:	50223	43896	71902	1.63801
87:	50403	44106	72212	1.63724
88:	50586	44240	72462	1.63793
89:	50732	44360	72674	1.63828
90:	50869	44496	72886	1.63803
91:	51103	44636	73138	1.63854
92:	51286	44768	73354	1.63854
93:	51480	44948	73638	1.63829
94:	51677	45237	74051	1.63696
95:	51805	45337	74231	1.63732
96:	52025	45497	74495	1.63736
97:	52188	45699	74805	1.63691
98:	52400	45979	75223	1.63603
99:	52545	46067	75365	1.63599
100:	52717	46217	75609	1.63596
101:	52968	46479	76021	1.6356
102:	53092	46591	76209	1.6357
103:	53288	46779	76505	1.63546
104:	53472	46941	76751	1.63505
105:	53666	47097	77015	1.63524
106:	53873	47319	77361	1.63488
107:	54057	47517	77651	1.63417
108:	54230	47641	77879	1.63471
109:	54400	47829	78173	1.63443
110:	54580	48031	78481	1.63397
111:	54778	48181	78735	1.63415
112:	54930	48270	78900	1.63456
113:	55155	48454	79216	1.63487
114:	55309	48612	79464	1.63466
115:	55501	48730	79692	1.63538
116:	55715	48871	79949	1.63592
117:	55858	49059	80221	1.63519
118:	56036	49193	80453	1.63546
119:	56239	49324	80690	1.63592
120:	56439	49464	80930	1.63614
121:	56641	49644	81228	1.63621
122:	56804	49798	81480	1.63621
123:	56956	49922	81682	1.63619
124:	57170	50094	81966	1.63624
125:	57358	50306	82282	1.63563
126:	57549	50433	82521	1.63625
127:	57742	50585	82791	1.63667
128:	57891	50661	82957	1.63749
129:	58109	50913	83343	1.63697
130:	58310	51097	83639	1.63687
131:	58488	51271	83903	1.63646
132:	58649	51374	84098	1.63698
133:	58803	51562	84374	1.63636
134:	59043	51720	84666	1.63701
135:	59241	51852	84910	1.63755
136:	59425	52020	85162	1.6371
137:	59634	52214	85478	1.63707
138:	59780	52346	85690	1.63699
139:	60030	52574	86058	1.63689
140:	60163	52704	86264	1.63676
141:	60345	52846	86528	1.63736
142:	60502	53022	86802	1.63709
143:	60678	53092	86966	1.63802
144:	60905	53286	87268	1.63773
145:	61061	53458	87538	1.63751
146:	61262	53674	87866	1.63703
147:	61487	53863	88185	1.63721
148:	61692	53995	88417	1.6375
149:	61872	54195	88725	1.63714
150:	62040	54413	89051	1.63658
151:	62256	54583	89325	1.6365
152:	62372	54661	89473	1.63687
153:	62593	54832	89766	1.63711
154:	62766	55079	90121	1.63621
155:	62988	55283	90445	1.63604
156:	63196	55471	90755	1.63608
157:	63390	55639	91037	1.63621
158:	63561	55841	91355	1.63598
159:	63699	55941	91527	1.63613
160:	63895	56027	91721	1.63709
161:	64091	56199	92007	1.63716
162:	64257	56369	92249	1.63652
163:	64471	56469	92447	1.63713
164:	64659	56681	92753	1.6364
165:	64893	56819	93023	1.63718
166:	65057	56921	93207	1.63748
167:	65227	57085	93475	1.63747
168:	65413	57223	93713	1.63768
169:	65596	57360	93960	1.63808
170:	65814	57570	94294	1.6379
171:	66012	57770	94608	1.63767
172:	66165	57894	94836	1.6381
173:	66309	58046	95072	1.63787
174:	66470	58169	95277	1.63793
175:	66686	58357	95593	1.63807
176:	66876	58523	95863	1.63804
177:	67096	58687	96137	1.63813
178:	67274	58867	96421	1.63795
179:	67467	58987	96635	1.63824
180:	67660	59145	96901	1.63836
181:	67868	59432	97316	1.63743
182:	68004	59552	97518	1.63753
183:	68188	59732	97800	1.63731
184:	68338	59804	97956	1.63795
185:	68643	60146	98466	1.63712
186:	68787	60288	98704	1.63721
187:	68989	60514	99030	1.63648
188:	69151	60738	99342	1.63558
189:	69319	60922	99636	1.63547
190:	69509	61115	99925	1.63503
191:	69742	61274	100204	1.63534
192:	69942	61490	100540	1.63506
193:	70134	61729	100883	1.63429
194:	70290	61913	101157	1.63386
195:	70482	62055	101403	1.63408
196:	70681	62217	101683	1.63433
197:	70904	62454	102062	1.63419
198:	71043	62590	102280	1.63413
199:	71239	62722	102534	1.63474
200:	71354	62844	102720	1.63452
201:	71536	63126	103106	1.63334
202:	71711	63276	103344	1.63323
203:	71885	63400	103564	1.6335
204:	72063	63534	103790	1.63361
205:	72239	63740	104098	1.63317
206:	72527	63940	104454	1.63363
207:	72783	64059	104703	1.63448
208:	72990	64345	105107	1.63349
209:	73171	64535	105405	1.6333
210:	73315	64707	105651	1.63276
211:	73521	64910	105976	1.63266
212:	73701	65080	106244	1.63251
213:	73872	65220	106484	1.63269
214:	74089	65408	106802	1.63286
215:	74269	65574	107072	1.63284
216:	74498	65780	107428	1.63314
217:	74668	65960	107706	1.6329
218:	74819	66090	107926	1.63302
219:	74974	66191	108107	1.63326
220:	75124	66319	108313	1.63321
221:	75338	66523	108635	1.63304
222:	75582	66759	109011	1.6329
223:	75782	66927	109283	1.63287
224:	75914	67015	109449	1.6332
225:	76099	67199	109739	1.63305
226:	76331	67403	110061	1.63288
227:	76489	67576	110316	1.63247
228:	76673	67774	110614	1.6321
229:	76861	68060	111020	1.63121
230:	77035	68242	111306	1.63105
231:	77250	68418	111606	1.63124
232:	77427	68548	111838	1.63153
233:	77571	68692	112070	1.63149
234:	77751	68848	112326	1.63151
235:	77965	69126	112712	1.63053
236:	78166	69280	112970	1.63063
237:	78383	69410	113230	1.63132
238:	78549	69580	113508	1.63133
239:	78731	69696	113718	1.63163
240:	78889	69816	113928	1.63183
241:	79033	69970	114176	1.63179
242:	79237	70202	114510	1.63115
243:	79464	70351	114787	1.63163
244:	79646	70533	115073	1.63148
245:	79816	70667	115309	1.63172
246:	79989	70885	115631	1.63125
247:	80199	71029	115889	1.63157
248:	80375	71151	116109	1.63187
249:	80542	71293	116341	1.63187
250:	80748	71481	116643	1.6318
251:	80934	71623	116897	1.63212
252:	81158	71803	117201	1.63226
253:	81351	72013	117507	1.63175
254:	81537	72149	117719	1.63161
255:	81696	72321	117995	1.63155
256:	81874	72423	118197	1.63204
257:	82084	72607	118513	1.63225
258:	82262	72871	118881	1.63139
259:	82452	73029	119147	1.6315
260:	82619	73209	119411	1.6311
261:	82811	73377	119691	1.63118
262:	83007	73588	120034	1.63116
263:	83165	73758	120294	1.63093
264:	83351	74002	120654	1.63042
265:	83589	74221	121007	1.63036
266:	83750	74377	121245	1.63014
267:	83957	74532	121498	1.63015
268:	84198	74744	121838	1.63007
269:	84394	74946	122134	1.62963
270:	84580	75238	122544	1.62875
271:	84748	75422	122832	1.6286
272:	84946	75580	123104	1.62879
273:	85156	75790	123426	1.62853
274:	85356	75942	123684	1.62866
275:	85494	76070	123886	1.62858
276:	85688	76230	124148	1.6286
277:	85850	76386	124408	1.62868
278:	86076	76508	124658	1.62935
279:	86309	76702	124990	1.62955
280:	86493	76906	125290	1.62913
281:	86665	77014	125510	1.6297
282:	86863	77174	125774	1.62975
283:	87049	77320	126006	1.62967
284:	87289	77532	126348	1.62962
285:	87476	77702	126618	1.62953
286:	87666	77866	126890	1.62959
287:	87846	78085	127207	1.62908
288:	88114	78243	127519	1.62978
289:	88290	78385	127759	1.62989
290:	88446	78511	127981	1.6301
291:	88667	78639	128235	1.63068
292:	88838	78802	128494	1.63059
293:	89038	79044	128850	1.6301
294:	89292	79272	129222	1.63011
295:	89485	79392	129446	1.63047
296:	89641	79554	129708	1.63044
297:	89795	79638	129878	1.63085
298:	90066	79846	130226	1.63096
299:	90286	80064	130562	1.63072
300:	90494	80312	130934	1.63032
301:	90690	80474	131206	1.63041
302:	90860	80596	131438	1.63083
303:	91006	80704	131626	1.63097
304:	91229	80866	131902	1.63112
305:	91411	81043	132187	1.63107
306:	91614	81199	132465	1.63136
307:	91802	81398	132760	1.631
308:	92040	81588	133076	1.63107
309:	92276	81816	133446	1.63105
310:	92468	82068	133810	1.63048
311:	92682	82274	134112	1.63007
312:	92812	82411	134335	1.63006
313:	92981	82573	134589	1.62994
314:	93240	82797	134957	1.62997
315:	93434	82969	135239	1.62999
316:	93610	83161	135541	1.62986
317:	93830	83454	135972	1.6293
318:	93976	83660	136260	1.62874
319:	94182	83794	136506	1.62907
320:	94366	84028	136866	1.62881
321:	94506	84138	137070	1.62911
322:	94766	84358	137422	1.62903
323:	94959	84542	137708	1.62887
324:	95181	84678	137960	1.62923
325:	95352	84902	138286	1.62877
326:	95508	85066	138528	1.62848
327:	95689	85264	138824	1.62817
328:	95847	85464	139108	1.62768
329:	96056	85616	139368	1.62783
330:	96322	85870	139782	1.62783
331:	96512	86014	140018	1.62785
332:	96656	86162	140242	1.62765
333:	96827	86338	140526	1.62763
334:	96995	86522	140820	1.62756
335:	97179	86678	141082	1.62766
336:	97368	86816	141330	1.62793
337:	97586	87066	141696	1.62746
338:	97773	87274	142006	1.62713
339:	97946	87386	142216	1.62745
340:	98129	87528	142466	1.62766
341:	98305	87732	142788	1.62755
342:	98460	87881	143027	1.62751
343:	98653	88011	143277	1.62794
344:	98844	88203	143589	1.62794
345:	99069	88418	143924	1.62777
346:	99280	88621	144237	1.62757
347:	99398	88662	144346	1.62805
348:	99573	88756	144526	1.62835
349:	99793	88962	144842	1.62813
350:	100008	89172	145186	1.62816
351:	100218	89356	145472	1.628
352:	100435	89636	145878	1.62745
353:	100619	89802	146152	1.62749
354:	100799	90014	146466	1.62715
355:	100996	90206	146770	1.62705
356:	101204	90452	147116	1.62645
357:	101327	90692	147448	1.62581
358:	101528	90790	147646	1.62624
359:	101695	90964	147938	1.62634
360:	101948	91116	148242	1.62696
361:	102086	91249	148455	1.62692
362:	102323	91441	148779	1.62705
363:	102510	91540	148984	1.62753
364:	102646	91728	149250	1.62709
365:	102818	91912	149522	1.6268
366:	103079	92136	149880	1.62673
367:	103249	92189	150019	1.6273
368:	103495	92402	150382	1.62748
369:	103620	92536	150596	1.62743
370:	103825	92723	150887	1.62729
371:	104065	92951	151243	1.62713
372:	104243	93123	151531	1.62721
373:	104416	93217	151707	1.62746
374:	104620	93415	152015	1.62731
375:	104804	93575	152275	1.6273
376:	105037	93737	152571	1.62765
377:	105226	93943	152905	1.62764
378:	105408	94097	153173	1.62782
379:	105570	94199	153343	1.62786
380:	105820	94381	153669	1.62818
381:	106062	94643	154043	1.62762
382:	106271	94870	154406	1.62755
383:	106409	94952	154538	1.62754
384:	106618	95202	154898	1.62705
385:	106826	95526	155372	1.62649
386:	107028	95700	155676	1.62671
387:	107187	95808	155876	1.62696
388:	107394	95890	156064	1.62753
389:	107533	96058	156298	1.62712
390:	107762	96304	156668	1.62681
391:	107967	96456	156942	1.62708
392:	108164	96736	157344	1.62653
393:	108316	96996	157696	1.6258
394:	108548	97160	157976	1.62594
395:	108745	97313	158223	1.62592
396:	108932	97537	158553	1.62557
397:	109080	97724	158816	1.62515
398:	109232	97824	159010	1.62547
399:	109418	97952	159244	1.62574
400:	109645	98141	159573	1.62596
401:	109879	98197	159765	1.62698
402:	110087	98323	159999	1.62728
403:	110290	98531	160327	1.62717
404:	110415	98647	160523	1.62725
405:	110533	98707	160645	1.62749
406:	110722	98919	160967	1.62726
407:	110911	99050	161188	1.62734
408:	111129	99156	161406	1.6278
409:	111306	99312	161646	1.62766
410:	111570	99455	161909	1.62796
411:	111738	99627	162175	1.62782
412:	111936	99897	162559	1.62727
413:	112098	99939	162695	1.62794
414:	112291	100200	163080	1.62754
415:	112468	100322	163288	1.62764
416:	112687	100572	163690	1.62759
417:	112889	100646	163872	1.6282
418:	113032	100808	164124	1.62809
419:	113158	100945	164347	1.62808
420:	113337	101065	164565	1.62831
421:	113581	101181	164799	1.62875
422:	113764	101343	165057	1.6287
423:	114005	101595	165465	1.62867
424:	114232	101825	165819	1.62847
425:	114350	101943	166013	1.62849
426:	114550	102119	166297	1.62846
427:	114753	102290	166580	1.62851
428:	114856	102458	166804	1.62802
429:	114989	102628	167040	1.62763
430:	115250	102752	167304	1.62823
431:	115498	102933	167619	1.62843
432:	115692	103262	168086	1.62776
433:	115873	103540	168488	1.62727
434:	116003	103662	168694	1.62735
435:	116173	103769	168879	1.62745
436:	116366	103959	169175	1.62732
437:	116582	104119	169449	1.62746
438:	116808	104335	169773	1.62719
439:	116984	104595	170139	1.62665
440:	117219	104827	170501	1.6265
441:	117403	105035	170835	1.62646
442:	117634	105227	171139	1.62638
443:	117815	105499	171493	1.62554
444:	118016	105788	171924	1.62517
445:	118183	105933	172191	1.62547
446:	118394	106121	172515	1.62564
447:	118561	106253	172719	1.62554
448:	118672	106401	172937	1.62533
449:	118842	106669	173305	1.6247
450:	119037	106815	173543	1.62471
451:	119235	106967	173791	1.62472
452:	119553	107229	174235	1.62489
453:	119696	107387	174481	1.62479
454:	119821	107515	174681	1.62471
455:	119983	107611	174863	1.62495
456:	120129	107763	175103	1.62489
457:	120295	107865	175291	1.6251
458:	120424	107945	175445	1.62532
459:	120648	108155	175789	1.62534
460:	120844	108293	176037	1.62556
461:	120984	108457	176293	1.62546
462:	121174	108615	176565	1.6256
463:	121315	108828	176874	1.62526
464:	121483	108964	177090	1.62522
465:	121654	109154	177380	1.62504
466:	121852	109322	177662	1.62513
467:	122063	109460	177910	1.62534
468:	122297	109732	178326	1.6251
469:	122408	109798	178442	1.62518
470:	122548	109866	178604	1.62565
471:	122699	109997	178807	1.62556
472:	122980	110258	179242	1.62566
473:	123138	110436	179524	1.62559
474:	123342	110736	179922	1.62478
475:	123451	110848	180086	1.62462
476:	123614	111011	180345	1.62457
477:	123807	111128	180554	1.62474
478:	124012	111278	180822	1.62496
479:	124157	111410	181040	1.62499
480:	124300	111564	181264	1.62475
481:	124456	111698	181476	1.6247
482:	124676	111906	181814	1.6247
483:	124840	112088	182104	1.62465
484:	124998	112264	182362	1.6244
485:	125194	112472	182696	1.62437
486:	125346	112605	182917	1.62441
487:	125526	112725	183125	1.62453
488:	125686	112825	183319	1.62481
489:	125846	112969	183573	1.62499
490:	126020	113127	183827	1.62496
491:	126158	113273	184061	1.62493
492:	126371	113449	184353	1.62499
493:	126490	113645	184615	1.62449
494:	126653	113759	184813	1.6246
495:	126818	113943	185077	1.62429
496:	127038	114097	185335	1.62436
497:	127227	114427	185785	1.62361
498:	127331	114641	186069	1.62306
499:	127540	114716	186240	1.62349
500:	127743	114979	186637	1.62323
501:	127883	115149	186897	1.62309
502:	128046	115310	187150	1.62302
503:	128240	115497	187463	1.6231
504:	128420	115633	187715	1.62337
505:	128537	115775	187921	1.62316
506:	128668	115913	188127	1.623
507:	128854	116027	188365	1.62346
508:	129015	116157	188563	1.62335
509:	129119	116349	188829	1.62295
510:	129308	116501	189077	1.62296
511:	129479	116614	189304	1.62334
512:	129718	116706	189472	1.6235
513:	129857	116908	189776	1.62329
514:	130116	117210	190212	1.62283
515:	130198	117216	190258	1.62314
516:	130364	117521	190665	1.62239
517:	130533	117695	190921	1.62217
518:	130724	117959	191317	1.62189
519:	130865	118147	191591	1.62163
520:	131023	118338	191878	1.62144
521:	131151	118462	192060	1.62128
522:	131269	118668	192338	1.62081
523:	131524	118932	192766	1.62081
524:	131728	119017	192947	1.62117
525:	131829	119216	193228	1.62082
526:	131974	119372	193474	1.62077
527:	132111	119354	193530	1.62148
528:	132271	119480	193756	1.62166
529:	132384	119652	193988	1.62127
530:	132582	119888	194342	1.62103
531:	132777	120039	194579	1.62096
532:	132929	120197	194819	1.62083
533:	133114	120358	195070	1.62075
534:	133294	120487	195319	1.62108
535:	133412	120519	195399	1.62131
536:	133588	120707	195695	1.62124
537:	133677	120773	195821	1.6214
538:	133950	120941	196143	1.62181
539:	134134	121048	196354	1.62212
540:	134292	121324	196732	1.62154
541:	134445	121429	196915	1.62165
542:	134602	121617	197213	1.62159
543:	134795	121813	197523	1.62153
544:	134954	121952	197756	1.62159
545:	135168	122076	198006	1.62199
546:	135357	122279	198291	1.62163
547:	135504	122354	198470	1.6221
548:	135710	122554	198790	1.62206
549:	135866	122802	199146	1.62168
550:	136005	122914	199328	1.62169
551:	136205	123014	199546	1.62214
552:	136430	123194	199838	1.62214
553:	136676	123480	200262	1.62182
554:	136924	123722	200660	1.62186
555:	137152	123955	201015	1.62168
556:	137285	124147	201277	1.62128
557:	137428	124373	201575	1.62073
558:	137664	124641	201987	1.62055
559:	137892	124850	202332	1.6206
560:	138059	124936	202486	1.62072
561:	138276	125125	202797	1.62076
562:	138449	125269	203063	1.62102
563:	138673	125484	203390	1.62084
564:	138943	125756	203804	1.62063
565:	139094	126005	204175	1.62037
566:	139303	126183	204465	1.62038
567:	139474	126354	204730	1.62029
568:	139707	126468	204970	1.62073
569:	139938	126764	205404	1.62037
570:	140116	126898	205642	1.62053
571:	140356	127084	205960	1.62066
572:	140521	127320	206296	1.6203
573:	140688	127460	206518	1.62026
574:	141013	127717	206937	1.62028
575:	141225	127906	207242	1.62027
576:	141372	128046	207482	1.62037
577:	141544	128219	207739	1.62019
578:	141789	128420	208096	1.62043
579:	142004	128593	208383	1.62048
580:	142212	128734	208638	1.62069
581:	142548	128936	209034	1.62122
582:	142716	129118	209322	1.62117
583:	142867	129180	209458	1.62144
584:	143125	129298	209732	1.62208
585:	143309	129516	210070	1.62196
586:	143453	129774	210416	1.6214
587:	143731	129994	210756	1.62127
588:	143992	130180	211112	1.62169
589:	144177	130324	211366	1.62185
590:	144409	130552	211726	1.62178
591:	144595	130685	211957	1.62189
592:	144802	130909	212303	1.62176
593:	145020	131055	212585	1.62211
594:	145275	131171	212821	1.62247
595:	145563	131416	213204	1.62236
596:	145819	131744	213666	1.62183
597:	146012	131934	213956	1.62169
598:	146287	132261	214455	1.62145
599:	146451	132461	214771	1.62139
600:	146666	132617	215027	1.62141
601:	146909	132741	215285	1.62184
602:	147125	132972	215634	1.62165
603:	147357	133242	216050	1.62149
604:	147633	133471	216435	1.62159
605:	147859	133731	216845	1.6215
606:	148072	133911	217133	1.62147
607:	148282	134103	217459	1.62158
608:	148491	134242	217746	1.62204
609:	148704	134504	218130	1.62174
610:	149086	134776	218584	1.62183
611:	149269	134974	218868	1.62156
612:	149445	135163	219159	1.62144
613:	149668	135407	219489	1.62096
614:	149892	135680	219900	1.62073
615:	150154	135866	220216	1.62083
616:	150393	136058	220560	1.62107
617:	150697	136264	220942	1.62143
618:	150906	136342	221150	1.62202
619:	151134	136660	221618	1.62167
620:	151308	136762	221834	1.62204
621:	151500	137008	222198	1.62179
622:	151743	137150	222462	1.62203
623:	151967	137302	222742	1.62228
624:	152284	137452	223030	1.6226
625:	152545	137745	223461	1.62228
626:	152801	138031	223895	1.62206
627:	152976	138219	224183	1.62194
628:	153157	138403	224471	1.62187
629:	153410	138631	224873	1.6221
630:	153630	138795	225145	1.62214
631:	153908	138961	225453	1.62242
632:	154165	139263	225937	1.62238
633:	154407	139490	226316	1.62245
634:	154573	139648	226552	1.62231
635:	154878	139886	226950	1.62239
636:	155121	140305	227515	1.62157
637:	155279	140495	227795	1.62137
638:	155560	140708	228148	1.62143
639:	155892	140984	228582	1.62133
640:	156170	141256	229006	1.62121
641:	156398	141460	229338	1.62122
642:	156646	141732	229756	1.62106
643:	156798	141738	229860	1.62172
644:	157029	141986	230234	1.62153
645:	157333	142194	230620	1.62187
646:	157588	142391	230989	1.62222
647:	157868	142649	231423	1.62232
648:	158061	142813	231703	1.62242
649:	158260	142935	231947	1.62274
650:	158455	143056	232148	1.62278
651:	158721	143310	232548	1.62269
652:	158977	143440	232782	1.62285
653:	159230	143664	233124	1.6227
654:	159437	143884	233468	1.62261
655:	159786	144048	233806	1.62311
656:	160043	144264	234180	1.62327
657:	160267	144451	234511	1.62346
658:	160526	144661	234849	1.62344
659:	160727	144691	235003	1.62417
660:	160931	144921	235349	1.62398
661:	161272	145305	235921	1.62363
662:	161494	145531	236311	1.62378
663:	161702	145683	236601	1.62408
664:	161895	145842	236872	1.62417
665:	162133	146012	237186	1.62443
666:	162409	146244	237566	1.62445
667:	162654	146466	237894	1.62423
668:	162909	146637	238201	1.62443
669:	163112	146887	238577	1.62422
670:	163458	147192	239068	1.62419
671:	163778	147523	239571	1.62396
672:	164011	147860	240042	1.62344
673:	164203	148081	240391	1.62338
674:	164488	148265	240753	1.6238
675:	164726	148475	241097	1.62382
676:	164975	148751	241495	1.62348
677:	165228	149003	241875	1.62329
678:	165521	149303	242339	1.62314
679:	165716	149545	242697	1.6229
680:	165933	149751	243025	1.62286
681:	166304	150143	243643	1.62274
682:	166521	150291	243889	1.62278
683:	166661	150417	244119	1.62295
684:	166889	150638	244458	1.62282
685:	167153	150900	244904	1.62296
686:	167462	150973	245129	1.62366
687:	167740	151193	245517	1.62386
688:	167976	151370	245822	1.62398
689:	168268	151622	246248	1.62409
690:	168532	151903	246663	1.62382
691:	168794	152260	247160	1.62328
692:	168966	152483	247485	1.62303
693:	169153	152728	247840	1.62275
694:	169428	152874	248126	1.62308
695:	169620	153054	248414	1.62305
696:	169904	153216	248702	1.62321
697:	170183	153488	249108	1.62298
698:	170493	153790	249592	1.62294
699:	170763	154052	249996	1.6228
700:	170934	154267	250309	1.62257
701:	171173	154705	250905	1.62183
702:	171400	154894	251244	1.62204
703:	171642	155016	251502	1.62243
704:	171887	155178	251814	1.62274
705:	172101	155366	252126	1.62279
706:	172344	155487	252353	1.62298
707:	172576	155619	252619	1.62332
708:	172784	155780	252870	1.62325
709:	173036	155907	253123	1.62355
710:	173313	156118	253506	1.62381
711:	173560	156384	253910	1.62363
712:	173804	156586	254258	1.62376
713:	173990	156787	254579	1.62373
714:	174123	156885	254767	1.62391
715:	174306	157055	255017	1.62374
716:	174590	157273	255367	1.62372
717:	174889	157565	255821	1.62359
718:	175007	157651	255993	1.6238
719:	175409	158014	256602	1.62392
720:	175577	158193	256877	1.62382
721:	175734	158397	257179	1.62364
722:	175981	158743	257663	1.62315
723:	176171	158778	257766	1.62344
724:	176357	158908	258014	1.62367
725:	176580	159156	258396	1.62354
726:	176855	159470	258866	1.62329
727:	177099	159624	259174	1.62365
728:	177318	159818	259496	1.6237
729:	177518	159890	259696	1.62422
730:	177736	160050	259954	1.6242
731:	177929	160234	260248	1.62417
732:	178167	160432	260568	1.62416
733:	178335	160652	260876	1.62386
