0	0
16.3148	0
24.4721	0
32.6293	0
40.7865	0
57.1005	0
65.2573	0
73.4141	0
81.5708	0
97.8842	0
106.041	0
114.198	0
122.354	0
130.511	0
146.577	0
154.572	0
162.559	0
170.547	0
186.521	0
194.508	0
202.495	0
210.482	0
226.456	0
234.444	0
242.431	0
250.4	0
266.34	0
274.31	0
282.297	0
290.284	0
306.258	0
314.245	0
322.232	0
330.218	0
346.175	0
354.162	0
362.149	0
370.135	0
386.109	0
394.096	0
401.896	0
417.498	0
425.299	0
433.1	0
440.901	0
456.329	0
464.044	0
471.739	9.09495e-13
487.168	2.72848e-12
494.774	4.54747e-12
502.381	8.18545e-12
517.595	2.36469e-11
525.186	4.09273e-11
532.796	6.91216e-11
540.406	1.15506e-10
555.586	3.0559e-10
563.156	4.87489e-10
570.727	7.67614e-10
585.868	1.83627e-09
593.45	2.79488e-09
601.031	4.20823e-09
616.194	9.25502e-09
623.775	1.35251e-08
631.357	1.95787e-08
646.52	3.99232e-08
654.101	5.62686e-08
661.682	7.8644e-08
676.845	1.49951e-07
684.427	2.04661e-07
692.008	2.77253e-07
707.153	4.97678e-07
714.727	6.59934e-07
722.301	8.6929e-07
737.439	1.47921e-06
745.003	1.91156e-06
752.568	2.45566e-06
760.132	3.13649e-06
775.261	5.03206e-06
782.826	6.3227e-06
790.39	7.90339e-06
805.519	1.21657e-05
813.084	1.49854e-05
820.648	1.83732e-05
835.777	2.72518e-05
843.342	3.29758e-05
850.906	3.9737e-05
866.035	5.7015e-05
873.599	6.79017e-05
881.164	8.05687e-05
896.293	0.000112227
903.857	0.000131774
911.421	0.000154215
926.55	0.000209209
934.114	0.000242556
941.679	0.00028039
956.807	0.000371502
964.372	0.000425869
971.936	0.000486906
987.065	0.000631633
994.629	0.00071676
1002.19	0.000811437
1017.32	0.00103291
1024.89	0.00116159
1032.45	0.00130356
1040.02	0.00145991
1055.14	0.00182045
1062.71	0.00202717
1070.27	0.00225322
1085.4	0.00276857
1092.97	0.00306094
1100.53	0.00337885
1115.66	0.00409789
1123.22	0.00450021
1130.79	0.00493296
1145.92	0.00590786
1153.48	0.00645718
1161.04	0.0070462
1176.17	0.00832179
1183.74	0.00904842
1191.3	0.00987251
1206.43	0.0130381
1213.99	0.0153321
1221.56	0.0178555
1236.69	0.0200125
1244.25	0.0215252
1251.82	0.024406
1266.94	0.0320509
1274.51	0.0367259
1282.07	0.0417594
1297.11	0.0541073
1304.63	0.0615314
1312.15	0.069741
1327.18	0.0887977
1334.69	0.0998346
1342.2	0.111964
1357.23	0.139938
1364.75	0.155898
1372.26	0.173284
1387.29	0.212842
1394.81	0.235315
1402.32	0.259751
1417.35	0.314877
1424.87	0.345715
1432.37	0.378741
1447.36	0.451679
1454.86	0.491606
1462.33	0.533653
1477.3	0.624327
1484.78	0.672716
1492.26	0.722977
1507.19	0.828299
1514.65	0.882973
1522.1	0.938755
1537.01	1.05263
1544.47	1.11016
1551.92	1.16769
1566.83	1.28145
1574.29	1.33699
1581.74	1.39118
1596.65	1.49404
1604.1	1.54204
1611.55	1.58732
1626.44	1.6684
1633.89	1.70359
1641.33	1.73485
1656.23	1.78454
1663.67	1.80251
1671.12	1.8156
1686.01	1.82649
1693.46	1.82398
1700.9	1.81603
1715.79	1.78344
1723.24	1.7587
1730.69	1.72833
1745.58	1.65074
1753.02	1.60365
1760.47	1.55113
1775.36	1.43033
1782.81	1.36236
1790.25	1.28959
1805.14	1.13052
1812.59	1.04471
1820.04	0.955198
1834.92	0.765877
1842.36	0.666814
1857.24	0.460567
1864.68	0.353509
1872.11	0.249106
1886.98	0.05863
1894.42	-0.169594
1901.85	-0.23403
1916.72	-0.350399
1924.16	-0.400216
1931.59	-0.429352
1946.45	-0.425755
1953.88	-0.458978
1961.31	-0.493781
1976.17	-0.561328
1983.6	-0.590836
1991.03	-0.619239
2005.89	-0.674232
2013.32	-0.710379
2020.75	-0.739243
2035.61	-0.783663
2043.04	-0.801432
2050.47	-0.817014
2065.33	-0.843218
2072.76	-0.854403
2080.2	-0.864724
2095.06	-0.883957
2102.49	-0.892561
2117.35	-0.906884
2124.78	-0.91231
2132.21	-0.916426
2147.07	-0.920462
2154.5	-0.920341
2161.93	-0.918827
2176.79	-0.912014
2184.22	-0.906934
2191.65	-0.900862
2206.51	-0.88601
2213.94	-0.877322
2221.37	-0.867836
2236.23	-0.846578
2243.66	-0.83486
2251.09	-0.822456
2265.95	-0.795752
2273.38	-0.781542
2280.81	-0.766825
2295.67	-0.736069
2303.1	-0.720127
2310.53	-0.703869
2325.39	-0.670568
2332.82	-0.653599
2340.25	-0.636465
2355.11	-0.601841
2362.54	-0.58442
2377.4	-0.549541
2384.83	-0.532156
2392.26	-0.514856
2407.12	-0.480649
2414.55	-0.463807
2421.98	-0.447179
2436.84	-0.414666
2444.27	-0.398826
2451.7	-0.383289
2466.56	-0.353195
2473.99	-0.338667
2481.42	-0.324503
2496.28	-0.297312
2503.71	-0.284306
2511.14	-0.271705
2525.96	-0.247811
2533.37	-0.236506
2540.77	-0.225624
2555.57	-0.205142
2562.96	-0.195562
2570.34	-0.186403
2585.11	-0.169337
2592.5	-0.161419
2607.27	-0.146783
2614.65	-0.140049
2622.03	-0.133692
2636.8	-0.122077
2644.19	-0.116797
2651.57	-0.111856
2666.34	-0.102946
2673.73	-0.0989555
2681.11	-0.0952611
2695.84	-0.0887348
2703.2	-0.0858707
2710.57	-0.0832592
2725.29	-0.0787543
2732.66	-0.0768417
2740.02	-0.0751431
2754.75	-0.0723514
2762.11	-0.0712405
2776.84	-0.0695452
2784.2	-0.0689439
2791.56	-0.0684958
2806.29	-0.0680274
2813.65	-0.0679915
2821.02	-0.0680775
2835.74	-0.0685865
2843.11	-0.068995
2850.47	-0.0694971
2865.2	-0.070755
2872.56	-0.071498
2887.29	-0.073181
2894.65	-0.0741091
2902.01	-0.0750872
2916.74	-0.0771715
2924.1	-0.0782672
2931.47	-0.0793916
2946.19	-0.0817075
2953.56	-0.0828896
2960.92	-0.0840818
2975.64	-0.0864797
2983.01	-0.0876773
2990.37	-0.0888687
3005.1	-0.0912189
3012.46	-0.0923707
3027.19	-0.0946116
3034.55	-0.0956946
3041.91	-0.0967489
3056.64	-0.0987606
3064	-0.0997131
3071.37	-0.100627
3086.09	-0.102331
3093.46	-0.103117
3100.82	-0.103856
3115.55	-0.105191
3122.91	-0.105782
3130.27	-0.106323
3145	-0.107244
3152.36	-0.107623
3167.09	-0.108217
3174.45	-0.10843
3181.82	-0.108587
3196.54	-0.108733
3203.9	-0.108721
3211.27	-0.108655
3225.99	-0.108356
3233.36	-0.108124
3240.72	-0.107839
3255.45	-0.107112
3262.81	-0.106672
3270.17	-0.106181
3284.9	-0.105055
3292.26	-0.104422
3306.99	-0.103022
3314.35	-0.102259
3321.72	-0.101455
3336.44	-0.0997317
3343.8	-0.098816
3351.17	-0.0978665
3365.89	-0.095873
3373.26	-0.0948326
3380.62	-0.0937656
3395.35	-0.0915586
3402.71	-0.0904223
3410.07	-0.0892665
3424.8	-0.0869034
3432.16	-0.0856995
3446.89	-0.0832553
3454.25	-0.0820181
3461.61	-0.080773
3476.34	-0.0782645
3483.7	-0.0770039
3491.07	-0.0757407
3505.79	-0.0732115
3513.15	-0.0719476
3520.52	-0.0706857
3535.24	-0.0681712
3542.61	-0.0669204
3557.33	-0.0644353
3564.7	-0.0632023
3572.06	-0.0619765
3586.78	-0.0595485
3594.15	-0.0583471
3601.51	-0.0571547
3616.24	-0.054798
3623.6	-0.0536341
3630.96	-0.0524802
3645.69	-0.0502028
3653.05	-0.0490795
3660.41	-0.0479665
3675.14	-0.0457716
3682.5	-0.0446897
3697.23	-0.0425563
3704.59	-0.0415047
3711.96	-0.0404629
3726.68	-0.0384083
3734.04	-0.0373951
3741.41	-0.036391
3756.13	-0.0344092
3763.5	-0.0334309
3770.86	-0.0324606
3785.59	-0.0305432
3792.95	-0.0295953
3800.31	-0.0286543
3815.04	-0.0267915
3822.4	-0.0258691
3837.13	-0.0240405
3844.49	-0.0231337
3851.85	-0.0222315
3866.58	-0.0204393
3873.94	-0.0195489
3881.31	-0.0186617
3896.03	-0.0168962
3903.4	-0.0160174
3910.76	-0.0151408
3925.48	-0.0133935
3932.85	-0.0125223
3940.21	-0.0116526
3954.94	-0.00991681
3962.3	-0.00905047
3977.03	-0.00732042
3984.39	-0.00645663
3991.75	-0.00559367
4006.48	-0.00387055
4013.84	-0.00301071
4021.21	-0.00215234
4035.93	-0.000441494
4043.3	0.000409931
4050.66	0.00125773
4065.39	0.00293889
4072.75	0.00377043
4080.11	0.00459463
4094.84	0.00621441
4102.2	0.00700687
4116.93	0.00855362
4124.29	0.00930822
4131.68	0.010053
4146.46	0.0114565
4153.84	0.0121293
4161.23	0.0127978
4176.01	0.0141293
4183.39	0.0147807
4190.78	0.0157137
4205.56	0.0173223
4212.95	0.0180689
4220.33	0.0188958
4235.11	0.0210249
4242.5	0.0207279
4257.27	0.022461
4264.66	0.0239539
4272.05	0.0255429
4286.82	0.0287794
4294.21	0.0303355
4301.6	0.0318575
4316.37	0.0348314
4323.76	0.0363693
4331.15	0.0379841
4345.93	0.0414408
4353.31	0.0432211
4360.7	0.0449933
4375.48	0.0484857
4382.86	0.0502393
4390.26	0.0520172
4405.04	0.0556351
4412.43	0.0574654
4427.21	0.0611592
4434.6	0.0630114
4442	0.0648537
4456.89	0.0684904
4464.33	0.0702541
4471.78	0.0719792
4486.67	0.0753471
4494.11	0.0770138
4501.55	0.0786819
4516.61	0.0820756
4524.13	0.0837816
4531.66	0.0854871
4546.71	0.0888628
4554.23	0.0905136
4561.76	0.0921274
4576.81	0.0952163
4584.34	0.0966825
4591.86	0.0980936
4606.91	0.100748
4614.44	0.101991
4621.97	0.103178
4637.02	0.10539
4644.54	0.106414
4652.07	0.107383
4667.12	0.109155
4674.65	0.109954
4682.17	0.110694
4697.22	0.111984
4704.75	0.112529
4712.28	0.113005
4727.33	0.113737
4734.85	0.113989
4742.38	0.114163
4757.43	0.114273
4764.96	0.114208
4772.48	0.114063
4780.01	0.113839
4795.06	0.113158
4802.59	0.112703
4810.11	0.112174
4825.16	0.110897
4832.69	0.110152
4840.21	0.109336
4855.27	0.107494
4862.79	0.106471
4870.32	0.10538
4885.37	0.103001
4892.9	0.101716
4900.42	0.100371
4915.47	0.0975113
4923	0.0960019
4930.52	0.0944437
4945.58	0.091194
4953.1	0.0895088
4960.63	0.0877873
4975.68	0.0842478
4983.21	0.0824355
4990.73	0.0805987
5005.78	0.0768635
5013.31	0.0749711
5020.84	0.0730662
5035.92	0.0692221
5043.47	0.0672935
5051.01	0.0653645
5066.12	0.0615113
5073.68	0.0595922
5081.25	0.0576828
5096.38	0.0539004
5103.94	0.05203
5111.51	0.0501745
5126.63	0.0465095
5134.2	0.0446992
5141.76	0.0429029
5156.89	0.0393481
5164.46	0.0375875
5172.02	0.0358371
5187.15	0.0323668
5194.71	0.0306488
5202.28	0.0289451
5217.41	0.0255951
5224.97	0.023958
5232.54	0.0223526
5240.1	0.0207837
5255.23	0.0177708
5262.79	0.0163281
5270.36	0.0149339
5285.49	0.0121841
5293.05	0.0105673
5300.62	0.00929561
5315.75	0.00666137
5323.31	0.00590325
5330.88	0.00536544
5346	0.00443182
5353.57	0.00392583
5361.13	0.00337995
5376.26	0.00210708
5383.83	0.00155831
5391.39	0.00104275
5406.52	5.76281e-05
5414.08	-0.000457899
5421.65	-0.000976486
5436.78	-0.00202157
5444.34	-0.00252118
5451.91	-0.00299052
5467.03	-0.00382262
5474.6	-0.00418924
5482.16	-0.00452931
5497.29	-0.00514734
5504.86	-0.0054311
5512.42	-0.00569984
5527.55	-0.00619498
5535.11	-0.00642205
5542.68	-0.0066358
5550.24	-0.00683638
5565.37	-0.00719659
5572.94	-0.00735414
5580.5	-0.0074945
5595.63	-0.00771587
5603.15	-0.0077927
5610.67	-0.00784555
5625.7	-0.00787551
5633.22	-0.00785169
5640.73	-0.00780193
5655.75	-0.00762602
5663.27	-0.0075009
5670.79	-0.00735201
5685.82	-0.00698645
5693.33	-0.00677156
5700.85	-0.00653637
5715.88	-0.00600782
5723.39	-0.00571546
5730.91	-0.0054048
5745.94	-0.0047291
5753.44	-0.00436493
5760.94	-0.00398272
5775.93	-0.00316411
5783.41	-0.00272932
5790.89	-0.00227636
5805.85	-0.00131837
5813.33	-0.000814166
5820.81	-0.000293861
5835.74	0.000790489
5843.2	0.00135289
5850.65	0.00192825
5865.56	0.0031142
5873.02	0.00372294
5880.47	0.00434095
5895.38	0.00560118
5902.84	0.00624165
5910.3	0.0068879
5925.2	0.00819375
5932.65	0.00885228
5940.1	0.00951357
5955	0.0108416
5962.44	0.0115066
5977.33	0.012835
5984.78	0.0134964
5992.23	0.0141543
6007.12	0.015452
6014.56	0.0160875
6022.01	0.0166992
6036.9	0.0178469
6044.35	0.0184881
6051.79	0.019072
6066.69	0.0200291
6074.13	0.0200976
6081.58	0.0205618
6096.47	0.0214684
6103.92	0.0220836
6111.36	0.0227596
6126.25	0.0241409
6133.7	0.0248124
6141.15	0.0254393
6156.04	0.0266622
6163.48	0.0273103
6170.92	0.0279924
6185.8	0.0294081
6193.23	0.0301161
6200.67	0.0308124
6215.54	0.0321425
6222.97	0.0327681
6230.41	0.0333702
6245.28	0.0345178
6252.72	0.0350601
6260.15	0.0355733
6275.01	0.0364865
6282.44	0.0368797
6297.3	0.037539
6304.73	0.0378102
6312.16	0.0380461
6327.02	0.0384234
6334.45	0.0385709
6341.88	0.0386951
6356.74	0.038882
6364.17	0.0389456
6371.6	0.0389883
6386.47	0.0390053
6393.9	0.0389769
6401.33	0.0389233
6416.19	0.0387428
6423.62	0.0386189
6431.05	0.0384746
6445.91	0.0381269
6453.34	0.0379215
6460.77	0.0376919
6475.63	0.037147
6483.06	0.0368253
6490.49	0.0364676
6505.35	0.0356401
6512.78	0.0351707
6520.21	0.0346661
6535.07	0.0335594
6542.5	0.0329618
6557.36	0.0316866
6564.79	0.0310109
6572.22	0.0303099
6587.08	0.0288306
6594.51	0.028051
6601.94	0.0272443
6616.8	0.025549
6624.23	0.0246607
6631.66	0.0237455
6646.52	0.0218335
6653.95	0.0208345
6661.38	0.0198039
6676.25	0.0176254
6683.68	0.0164624
6691.11	0.0152426
6705.97	0.0124928
6713.4	0.0110199
6720.83	0.00713423
6735.69	0.00455519
6743.12	0.00321976
6750.55	0.00298106
6765.41	0.00100845
6772.84	-2.50489e-05
6780.27	-0.00110208
6795.13	-0.00320824
6802.56	-0.00424088
6817.42	-0.0064432
6824.85	-0.00753531
6832.28	-0.00862754
6847.14	-0.0107858
6854.57	-0.0118555
6861.99	-0.0129185
6876.79	-0.0150336
6884.2	-0.0161067
6891.6	-0.0171959
6906.4	-0.0194091
6913.8	-0.0205275
6921.19	-0.0216488
6935.96	-0.0239019
6943.34	-0.0250321
6950.73	-0.0261643
6965.5	-0.0284359
6972.88	-0.0295759
6980.27	-0.030719
6995.04	-0.0330149
7002.42	-0.0341676
7017.19	-0.0364803
7024.57	-0.0376389
7031.96	-0.038798
7046.73	-0.041115
7054.11	-0.0422718
7061.5	-0.0434269
7076.27	-0.045731
7083.65	-0.0468796
7091.04	-0.0480255
7105.81	-0.0503086
7113.19	-0.0514454
7120.57	-0.0525785
7135.34	-0.0548329
7142.73	-0.0559535
7150.11	-0.0570693
7164.88	-0.059285
7172.27	-0.0603843
7187.04	-0.0625638
7194.42	-0.0636434
7201.81	-0.0647158
7216.58	-0.0668371
7223.96	-0.0678854
7231.34	-0.0689249
7246.11	-0.0709761
7253.5	-0.071987
7260.88	-0.0729878
7275.65	-0.0749571
7283.04	-0.075925
7290.42	-0.0768812
7305.19	-0.0787575
7312.58	-0.0796768
7327.34	-0.081476
7334.73	-0.0823554
7342.11	-0.0832208
7356.88	-0.0849084
7364.27	-0.08573
7371.65	-0.0865365
7386.42	-0.0881027
7393.81	-0.0888619
7401.19	-0.0896048
7415.96	-0.0910406
7423.35	-0.091733
7430.73	-0.0924081
7445.5	-0.0937054
7452.88	-0.0943271
7460.27	-0.0949305
7475.04	-0.0960817
7482.42	-0.0966291
7497.19	-0.0976664
7504.58	-0.098156
7511.96	-0.098626
7526.73	-0.0995065
7534.11	-0.0999168
7541.5	-0.100307
7556.27	-0.101026
7563.65	-0.101355
7571.04	-0.101664
7585.81	-0.102219
7593.19	-0.102465
7600.58	-0.102691
7615.35	-0.10308
7622.73	-0.103244
7630.12	-0.103386
7644.88	-0.10361
7652.27	-0.10369
7667.04	-0.10379
7674.43	-0.103809
7681.81	-0.103808
7696.59	-0.103744
7703.98	-0.103682
7711.37	-0.1036
7726.14	-0.103376
7733.53	-0.103235
7740.92	-0.103074
7755.69	-0.102694
7763.08	-0.102475
7770.47	-0.102238
7785.24	-0.101706
7792.63	-0.101413
7800.02	-0.101102
7814.8	-0.100425
7822.18	-0.10006
7836.96	-0.0992777
7844.35	-0.0988611
7851.73	-0.0984278
7866.51	-0.0975118
7873.9	-0.0970296
7881.29	-0.0965317
7896.06	-0.0954895
7903.45	-0.0949458
7910.84	-0.0943873
7925.61	-0.0932273
7933	-0.0926263
7940.39	-0.0920117
7955.16	-0.0907427
7962.55	-0.090089
7977.33	-0.0887444
7984.72	-0.0880543
7992.1	-0.0873525
8006.88	-0.0859156
8014.27	-0.085181
8021.66	-0.0844361
8036.43	-0.0829166
8043.82	-0.0821426
8051.21	-0.0813595
8065.98	-0.0797674
8073.37	-0.0789589
8080.76	-0.0781426
8095.53	-0.0764876
8102.92	-0.0756496
8110.31	-0.074805
8125.09	-0.0730972
8132.47	-0.0722346
8147.25	-0.0704934
8154.64	-0.0696154
8162.02	-0.0687329
8176.8	-0.0669555
8184.19	-0.066061
8191.58	-0.0651632
8206.35	-0.0633582
8213.74	-0.0624516
8221.13	-0.0615426
8235.9	-0.0597183
8243.29	-0.0588035
8250.68	-0.0578872
8265.45	-0.0560509
8272.84	-0.0551313
8280.23	-0.054211
8295.01	-0.052369
8302.39	-0.0514477
8317.17	-0.049605
8324.56	-0.048684
8331.95	-0.0477634
8346.72	-0.0459237
8354.11	-0.0450049
8361.47	-0.04409
8376.2	-0.0422631
8383.56	-0.0413512
8390.93	-0.0404405
8405.65	-0.0386228
8413.02	-0.037716
8420.38	-0.0368105
8435.11	-0.0350042
8442.47	-0.0341033
8457.2	-0.0323065
8464.56	-0.0314106
8471.92	-0.0305164
8486.65	-0.0287334
8494.01	-0.0278447
8501.38	-0.0269578
8516.1	-0.0251897
8523.47	-0.0243087
8530.83	-0.0234296
8545.56	-0.0216778
8552.92	-0.0208051
8560.28	-0.0199346
8575.01	-0.0182004
8582.37	-0.0173368
8597.1	-0.0156169
8604.46	-0.0147608
8611.83	-0.0139072
8626.55	-0.0122082
8633.92	-0.0113629
8641.28	-0.0105205
8656.01	-0.00884467
8663.37	-0.00801147
8670.73	-0.00718152
8685.46	-0.0055318
8692.82	-0.00471224
8700.19	-0.00389639
8714.91	-0.00227639
8722.28	-0.00147259
8737	0.000121565
8744.37	0.000911372
8751.73	0.0016959
8766.46	0.0032475
8773.82	0.00401364
8781.18	0.00477258
8795.91	0.00626608
8803.28	0.00699913
8810.64	0.00772207
8825.37	0.00913513
8832.73	0.00982377
8840.09	0.0104991
8854.82	0.0118062
8862.18	0.0124373
8876.91	0.0136565
8884.27	0.0142377
8891.64	0.014799
8906.36	0.015874
8913.73	0.0163945
8921.09	0.0169101
8935.82	0.0183539
8943.18	0.0191614
8950.54	0.0198804
8965.27	0.0203839
8972.63	0.0207186
8987.36	0.0219239
8994.72	0.0225188
9002.09	0.0230726
9016.81	0.0243148
9024.18	0.0250255
9031.54	0.0257649
9046.27	0.0272518
9053.63	0.0280009
9060.99	0.0287558
9075.72	0.0302337
9083.08	0.0309141
9090.45	0.0315433
9105.17	0.0326837
9112.54	0.0332132
9127.26	0.0342195
9134.63	0.0347045
9141.99	0.0351825
9156.72	0.0361253
9164.08	0.0365917
9171.44	0.0370553
9186.17	0.0379715
9193.53	0.0384211
9200.9	0.0388622
9215.62	0.0397102
9222.99	0.0401141
9230.35	0.0405038
9245.08	0.0412395
9252.44	0.0415847
9267.17	0.0422251
9274.53	0.0425175
9281.89	0.0427891
9296.62	0.0432646
9303.98	0.0434664
9311.35	0.0436435
9326.07	0.0439251
9333.46	0.0440314
9340.85	0.0441159
9355.63	0.0442254
9363.01	0.0442531
9370.4	0.0442645
9385.18	0.0442427
9392.57	0.044211
9407.34	0.0441093
9414.73	0.0440406
9422.12	0.0439609
9436.89	0.0437718
9444.28	0.0436641
9451.67	0.043549
9466.45	0.0433002
9473.83	0.0431684
9481.22	0.0430333
9496	0.0427559
9503.39	0.0426146
9510.78	0.0424715
9525.57	0.0421755
9532.96	0.0420194
9540.35	0.0418552
9555.13	0.0414938
9562.52	0.0412933
9577.3	0.0408486
9584.7	0.0406049
9592.14	0.0403465
9607.03	0.0397983
9614.48	0.0395127
9621.92	0.0392221
9636.81	0.0386334
9644.26	0.0383378
9651.7	0.0380424
9666.59	0.0374537
9674.04	0.0371602
9681.48	0.036867
9696.37	0.0362797
9703.82	0.0359848
9711.26	0.0356886
9726.34	0.0350839
9733.88	0.0347791
9741.42	0.0344731
9756.51	0.0338594
9764.05	0.0335533
9771.59	0.0332489
9786.7	0.0326475
9794.26	0.032352
9801.82	0.0320606
9816.96	0.0314896
9824.54	0.0312089
9832.11	0.0309307
9847.26	0.0303783
9854.84	0.0301027
9862.42	0.0298267
9877.57	0.0292734
9885.14	0.0289964
9892.72	0.0287197
9900.22	0.0284466
9915.25	0.0279056
9922.77	0.0276395
9930.28	0.0273773
9945.32	0.0268669
9952.83	0.0266197
9960.35	0.0263785
9975.36	0.0259162
9982.86	0.0256959
9990.36	0.0254832
10005.4	0.0250816
10012.8	0.0248938
10020.3	0.0247141
10035.3	0.0243794
10042.7	0.0242238
10050.2	0.0240754
10065.2	0.0237981
10072.7	0.0236677
10080.1	0.0235426
10095	0.0233041
10102.5	0.0231899
10117.4	0.0229706
10124.9	0.0228654
10132.3	0.0227633
10147.2	0.0225695
10154.7	0.0224785
10162.1	0.0223917
10177	0.0222324
10184.5	0.0221604
10192	0.0220938
10206.9	0.0219772
10214.3	0.0219273
10221.8	0.0218829
10236.7	0.0218099
10244.1	0.0217809
10251.6	0.0217566
10266.4	0.0217202
10273.9	0.0217073
10281.3	0.0216975
10296.2	0.0216852
10303.7	0.0216821
10311.1	0.0216805
10326	0.0216813
10333.5	0.0216833
10340.9	0.0216862
10355.8	0.0216947
10363.2	0.0217001
10370.7	0.0217062
10385.6	0.0217204
10393	0.0217283
10400.5	0.0217366
10415.4	0.0217532
10422.8	0.0217611
10430.3	0.0217684
10445.1	0.0217798
10452.6	0.0217833
10460	0.021785
10474.9	0.0217813
10482.3	0.0217755
10497.2	0.0217547
10504.6	0.0217393
10512	0.0217204
10526.9	0.0216711
10534.3	0.0216406
10541.8	0.021606
10556.6	0.0215239
10564	0.0214761
10571.5	0.0214238
10586.3	0.0213046
10593.8	0.0212375
10601.2	0.0211652
10616.1	0.0210041
10623.5	0.0209151
10630.9	0.0208202
10645.8	0.0206124
10653.2	0.0204991
10660.6	0.0203794
10675.5	0.0201202
10682.9	0.0199804
10690.4	0.0198335
10705.2	0.0195177
10712.7	0.0193484
10720.1	0.0191713
10734.9	0.0187927
10742.4	0.0185908
10757.2	0.0181617
10764.7	0.0179342
10772.1	0.0176983
10787	0.0172015
10794.4	0.016941
10801.8	0.0166728
10816.7	0.0161149
10824.1	0.015826
10831.5	0.015531
10846.4	0.0149247
10853.8	0.0146142
10861.3	0.0142995
10876.1	0.0136589
10883.6	0.0133338
10891	0.0130058
10905.8	0.0123425
10913.3	0.0120068
10920.7	0.0116668
10935.6	0.0109331
10943	0.0105103
10950.4	0.0100702
10965.3	0.00883566
10972.7	0.00831107
10980.1	0.00796233
10995	0.00714657
11002.4	0.00676938
11017.3	0.00672287
11024.7	0.006381
11032.2	0.00602831
11047	0.00530498
11054.4	0.0048392
11061.9	0.00443084
11076.7	0.00368606
11084.2	0.00332406
11091.6	0.00296105
11106.5	0.00222625
11113.9	0.00186572
11121.3	0.00151021
11136.2	0.000813895
11143.6	0.000474263
11151	0.000137122
11165.9	-0.000540836
11173.3	-0.000885684
11180.8	-0.00123585
11195.6	-0.00195217
11203.1	-0.00231754
11210.5	-0.0026872
11225.3	-0.00343801
11232.8	-0.00381848
11240.2	-0.00420177
11255.1	-0.00497395
11262.5	-0.00536112
11277.4	-0.0061334
11284.8	-0.00651703
11292.2	-0.00689831
11307.1	-0.00765317
11314.5	-0.00802695
11321.9	-0.00839866
11336.8	-0.00913731
11344.2	-0.00950504
11351.7	-0.00987227
11366.5	-0.0106068
11373.9	-0.0109748
11381.4	-0.0113434
11396.2	-0.0120833
11403.7	-0.0124543
11411.1	-0.0128258
11426	-0.0135691
11433.4	-0.0139403
11440.8	-0.0143105
11455.7	-0.015047
11463.1	-0.0154126
11470.5	-0.0157759
11485.4	-0.016495
11492.8	-0.0168503
11500.3	-0.0172026
11515.1	-0.017898
11522.6	-0.0182409
11537.4	-0.0189175
11544.8	-0.0192514
11552.3	-0.0195825
11567.1	-0.020237
11574.6	-0.0205607
11582	-0.0208823
11596.9	-0.0215195
11604.3	-0.0218353
11611.7	-0.0221491
11626.6	-0.0227707
11634	-0.0230783
11641.4	-0.0233834
11656.3	-0.0239862
11663.8	-0.0242837
11671.2	-0.024578
11686.1	-0.0251561
11693.6	-0.0254396
11701	-0.0257192
11715.9	-0.0262663
11723.3	-0.0265339
11730.8	-0.0267973
11745.7	-0.0273124
11753.1	-0.0275641
11760.6	-0.0278121
11775.5	-0.0282972
11782.9	-0.0285345
11790.4	-0.0287685
11805.3	-0.0292269
11812.7	-0.0294513
11820.2	-0.0296726
11835.1	-0.0301058
11842.5	-0.030318
11857.4	-0.0307329
11864.9	-0.0309355
11872.4	-0.0311347
11887.3	-0.031523
11894.7	-0.031712
11902.2	-0.0318975
11917.1	-0.032258
11924.6	-0.032433
11932	-0.0326045
11947	-0.0329371
11954.4	-0.0330988
11961.9	-0.0332572
11976.9	-0.0335639
11984.4	-0.0337124
11991.9	-0.0338577
12006.8	-0.034139
12014.3	-0.034275
12021.8	-0.034408
12036.7	-0.0346651
12044.2	-0.0347891
12051.7	-0.0349103
12066.8	-0.0351461
12074.4	-0.0352595
12081.9	-0.03537
12097.1	-0.0355822
12104.6	-0.035684
12112.2	-0.0357829
12127.3	-0.0359721
12134.8	-0.0360625
12142.4	-0.0361502
12157.5	-0.0363174
12165.1	-0.036397
12172.6	-0.0364741
12180.2	-0.0365486
12195.3	-0.0366903
12202.9	-0.0367576
12210.4	-0.0368225
12225.5	-0.0369456
12233.1	-0.0370039
12240.6	-0.0370601
12255.7	-0.0371664
12263.3	-0.0372166
12270.9	-0.0372649
12286	-0.0373559
12293.5	-0.0373988
12301.1	-0.03744
12316.2	-0.0375175
12323.8	-0.0375539
12331.3	-0.0375888
12346.4	-0.0376543
12354	-0.037685
12361.5	-0.0377144
12376.7	-0.0377695
12384.2	-0.0377953
12391.8	-0.03782
12406.9	-0.0378662
12414.4	-0.0378878
12422	-0.0379085
12437.1	-0.0379471
12444.7	-0.0379651
12452.2	-0.0379824
12467.3	-0.0380146
12474.9	-0.0380296
12482.5	-0.0380439
12490	-0.0380575
12505.1	-0.0380828
12512.7	-0.0380945
12520.2	-0.0381057
12535.4	-0.0381262
12542.9	-0.0381356
12550.5	-0.0381444
12565.6	-0.0381605
12573.1	-0.0381678
12580.7	-0.0381745
12595.8	-0.0381865
12603.4	-0.0381917
12610.9	-0.0381964
12626	-0.0382044
12633.6	-0.0382076
12641.1	-0.0382104
12656.2	-0.0382145
12663.7	-0.0382158
12671.2	-0.0382166
12686.3	-0.0382169
12693.8	-0.0382164
12701.3	-0.0382153
12716.4	-0.0382118
12723.9	-0.0382093
12731.4	-0.0382064
12746.5	-0.0381991
12754	-0.0381947
12761.5	-0.0381899
12776.6	-0.0381787
12784.1	-0.0381723
12791.6	-0.0381655
12806.7	-0.0381504
12814.2	-0.0381421
12821.8	-0.0381332
12836.8	-0.038114
12844.3	-0.0381036
12851.9	-0.0380927
12866.9	-0.0380693
12874.4	-0.0380567
12882	-0.0380436
12897	-0.0380158
12904.5	-0.038001
12912.1	-0.0379856
12927.1	-0.037953
12934.6	-0.0379357
12942.2	-0.0379179
12957.2	-0.0378802
12964.7	-0.0378604
12972.3	-0.0378399
12987.3	-0.0377968
12994.8	-0.0377741
13002.4	-0.0377507
13017.4	-0.0377015
13025	-0.0376758
13032.5	-0.0376492
13040	-0.0376217
13055.1	-0.0375642
13062.6	-0.0375341
13070.1	-0.037503
13085.2	-0.037438
13092.7	-0.037404
13100.2	-0.037369
13115.3	-0.0372957
13122.8	-0.0372575
13130.3	-0.0372181
13145.4	-0.0371357
13152.9	-0.0370928
13160.4	-0.0370486
13175.5	-0.0369564
13183	-0.0369083
13190.5	-0.0368589
13205.6	-0.0367559
13213.1	-0.0367023
13220.6	-0.0366472
13235.7	-0.0365326
13243.2	-0.036473
13250.7	-0.0364117
13265.8	-0.0362845
13273.3	-0.0362183
13280.8	-0.0361505
13295.9	-0.0360095
13303.4	-0.0359364
13310.9	-0.0358614
13326	-0.0357057
13333.5	-0.035625
13341	-0.0355423
13356.1	-0.0353708
13363.6	-0.035282
13371.1	-0.035191
13386.2	-0.0350025
13393.7	-0.034905
13401.3	-0.0348051
13416.3	-0.0345985
13423.8	-0.0344916
13431.4	-0.0343823
13446.4	-0.0341563
13453.9	-0.0340395
13461.5	-0.0339202
13476.5	-0.0336737
13484	-0.0335464
13491.6	-0.0334165
13506.6	-0.0331484
13514.1	-0.0330103
13521.7	-0.0328692
13536.7	-0.0325787
13544.2	-0.0324291
13551.8	-0.0322766
13566.8	-0.0319627
13574.3	-0.0318013
13581.9	-0.031637
13596.9	-0.0312993
13604.5	-0.0311259
13612	-0.0309495
13627	-0.0305875
13634.6	-0.030402
13642.1	-0.0302134
13657.1	-0.0298271
13664.7	-0.0296294
13672.2	-0.0294287
13687.2	-0.0290182
13694.8	-0.0288085
13702.3	-0.0285959
13717.3	-0.0281617
13724.9	-0.0279403
13732.4	-0.027716
13747.4	-0.027259
13755	-0.0270263
13762.5	-0.0267908
13770	-0.0265527
13785.1	-0.0260684
13792.6	-0.0258224
13800.1	-0.0255739
13815.2	-0.0250695
13822.7	-0.0248136
13830.2	-0.0245555
13845.3	-0.0240324
13852.8	-0.0237676
13860.3	-0.0235008
13875.4	-0.0229609
13882.9	-0.0226881
13890.4	-0.0224134
13905.5	-0.0218588
13913	-0.021579
13920.5	-0.0212977
13935.6	-0.0207305
13943.1	-0.0204448
13950.6	-0.0201578
13965.7	-0.0195802
13973.2	-0.0192898
13980.7	-0.0189984
13995.8	-0.0184129
14003.3	-0.0181189
14010.9	-0.0178243
14025.9	-0.0172332
14033.4	-0.0169369
14041	-0.0166402
14056	-0.016046
14063.5	-0.0157486
14071.1	-0.0154512
14086.1	-0.0148562
14093.6	-0.0145589
14101.2	-0.0142618
14116.2	-0.0136685
14123.7	-0.0133725
14131.3	-0.013077
14146.3	-0.0124876
14153.8	-0.012194
14161.4	-0.0119011
14176.4	-0.011318
14184	-0.0110278
14191.5	-0.0107387
14206.5	-0.0101638
14214.1	-0.00987814
14221.6	-0.00959377
14236.6	-0.00902909
14244.2	-0.0087489
14251.7	-0.00847021
14266.7	-0.00791755
14274.3	-0.00764368
14281.8	-0.00737153
14296.8	-0.00683254
14304.4	-0.0065658
14311.9	-0.00630095
14326.9	-0.0057771
14334.5	-0.00551819
14342	-0.00526133
14357.1	-0.00475334
14364.6	-0.00450229
14372.2	-0.00425345
14387.2	-0.00376253
14395	-0.00351209
14402.9	-0.00326414
14410.7	-0.00301873
14426.3	-0.00253433
14434.2	-0.00229543
14442	-0.00205921
14457.7	-0.00159486
14465.6	-0.00136678
14473.4	-0.00114147
14481.2	-0.000918948
14496.9	-0.000482333
14504.8	-0.000268282
14512.6	-5.70939e-05
14520.5	0.000151215
14536.2	0.000559126
14544	0.000758924
14551.9	0.000956198
14567.8	0.00134403
14575.7	0.00153338
14583.6	0.00171976
14591.5	0.00190305
14607.4	0.00226035
14615.3	0.00243432
14623.2	0.00260515
14631.1	0.00277283
14647	0.00309867
14654.9	0.00325679
14662.8	0.00341169
14670.7	0.00356335
14686.6	0.00385688
14694.5	0.00399871
14702.4	0.00413721
14710.4	0.00427237
14726.2	0.00453256
14734.1	0.00465754
14742.1	0.00477907
14757.9	0.0050117
14765.8	0.00512275
14773.7	0.00523026
14781.7	0.00533421
14797.5	0.00553139
14805.4	0.0056246
14813.4	0.00571423
14821.3	0.00580029
14837.1	0.00596181
14845.1	0.00603734
14853	0.00610946
14860.9	0.00617824
14876.7	0.00630618
14884.7	0.00636557
14892.6	0.00642218
14900.5	0.00647607
14916.4	0.00657638
14924.4	0.00662315
14932.3	0.00666798
14940.2	0.00671109
14956.3	0.00679424
14964.5	0.0068347
14972.6	0.00687433
14980.8	0.00691339
14996.9	0.00698989
15005	0.00702825
15012.9	0.00706643
15020.9	0.00710518
15036.7	0.00718512
15044.7	0.0072266
15052.6	0.00726936
15060.6	0.00731342
15076.5	0.00740569
15084.5	0.00745398
15092.4	0.00750373
15100.4	0.00755489
15116.3	0.00766121
15124.3	0.00771619
15132.2	0.00777222
15140.2	0.00782916
15156.1	0.00794507
15164.1	0.00800369
15172	0.00806248
15187.9	0.00817979
15195.9	0.00823791
15203.8	0.0082954
15211.8	0.00835207
15227.7	0.00846225
15235.7	0.00851542
15243.6	0.00856711
15251.6	0.00861718
15267.5	0.00871202
15275.4	0.00875608
15283.3	0.00879848
15291.2	0.00883886
15307	0.00891335
15315	0.00894742
15322.9	0.00897938
15330.8	0.00900911
15346.5	0.00906235
15354.4	0.00908596
15362.3	0.00910763
15370.2	0.00912741
15385.9	0.00916155
15393.8	0.00917605
15401.7	0.00918895
15417.5	0.00921026
15425.3	0.00921877
15433.1	0.00922603
15440.9	0.00923212
15456.6	0.00924114
15464.4	0.00924423
15472.3	0.00924649
15480.1	0.00924798
15495.7	0.00924901
15503.6	0.00924868
15511.4	0.00924789
15527	0.00924516
15534.9	0.00924335
15542.7	0.00924132
15550.5	0.00923911
15566.2	0.00923441
15574	0.009232
15581.8	0.00922961
15597.5	0.00922506
15605.3	0.00922297
15613.1	0.00922106
15620.9	0.00921936
15636.6	0.0092167
15644.4	0.00921581
15652.2	0.00921524
15660.1	0.00921502
15675.7	0.00921573
15683.5	0.00921669
15691.4	0.00921809
15707	0.00922223
15714.8	0.00922501
15722.7	0.00922827
15730.5	0.00923202
15746.1	0.00924105
15754	0.00924635
15761.8	0.00925217
15777.4	0.00926541
15785.3	0.00927284
15793.1	0.00928081
15800.9	0.00928934
15816.6	0.00930803
15824.3	0.00931806
15832	0.00932863
15847.4	0.00935137
15855.1	0.00936356
15862.9	0.00937629
15870.6	0.00938956
15886	0.00941775
15893.7	0.00943267
15901.4	0.00944813
15916.8	0.00948073
15924.5	0.00949787
15932.2	0.00951559
15947.6	0.00955276
15955.3	0.00957222
15963	0.00959225
15970.7	0.00961283
15986.1	0.00965574
15993.7	0.00967809
16001.4	0.00970104
16016.8	0.00974871
16024.5	0.00977344
16032.1	0.00979877
16047.5	0.00985118
16055.2	0.00987827
16062.8	0.00990595
16070.5	0.00993422
16085.9	0.00999251
16093.6	0.0100225
16101.2	0.0100531
16116.6	0.010116
16124.3	0.0101483
16131.9	0.0101812
16147.3	0.0102486
16155	0.0102831
16162.6	0.0103181
16170.3	0.0103537
16185.7	0.0104265
16193.3	0.0104637
16201	0.0105014
16216.4	0.0105782
16224	0.0106173
16231.7	0.0106569
16247.1	0.0107373
16254.7	0.0107781
16262.4	0.0108193
16270.1	0.0108608
16285.5	0.0109447
16293.1	0.010987
16300.8	0.0110295
16316.2	0.0111147
16323.8	0.0111574
16331.5	0.0111999
16346.9	0.0112844
16354.5	0.0113263
16362.2	0.0113677
16377.6	0.0114488
16385.2	0.0114884
16392.9	0.0115273
16400.6	0.0115653
16415.9	0.0116387
16423.6	0.011674
16431.3	0.0117084
16446.6	0.0117742
16454.3	0.0118058
16462	0.0118366
16477.4	0.0118967
16485	0.0119264
16492.7	0.0119563
16500.4	0.0119866
16515.7	0.0120498
16523.4	0.0120833
16531.1	0.0121183
16546.4	0.0121925
16554.1	0.0122316
16561.8	0.0122719
16577.1	0.0123558
16584.8	0.0123997
16592.5	0.0124451
16600.2	0.0124923
16615.5	0.0125931
16623.2	0.0126476
16630.9	0.0127049
16646.2	0.0128273
16653.9	0.0128918
16661.6	0.0129581
16676.9	0.0130951
16684.6	0.0131649
16692.2	0.0132344
16707.4	0.0133727
16715	0.0134406
16722.6	0.0135076
16730.2	0.0135734
16745.4	0.0137002
16753	0.0137614
16760.5	0.0138194
16775.7	0.0139229
16783.3	0.0139689
16790.8	0.0140121
16806	0.0140917
16813.6	0.0141288
16821.2	0.0141646
16836.3	0.0142327
16843.9	0.0142653
16851.5	0.0142969
16866.6	0.0143563
16874.2	0.0143838
16881.8	0.0144095
16896.9	0.0144546
16904.5	0.0144736
16912	0.0144899
16927.2	0.0145135
16934.7	0.0145203
16942.3	0.0145235
16957.4	0.0145182
16965	0.0145095
16972.6	0.0144965
16980.1	0.0144792
16995.2	0.0144309
17002.8	0.0143996
17010.4	0.0143634
17025.5	0.0142754
17033.1	0.0142234
17040.6	0.0141658
17055.8	0.0140329
17063.3	0.0139572
17070.9	0.0138753
17086	0.0136915
17093.6	0.0135893
17101.2	0.01348
17116.3	0.0132393
17123.8	0.0131076
17131.4	0.012968
17146.5	0.0126648
17154.1	0.012501
17161.7	0.0123287
17176.8	0.0119587
17184.4	0.0117607
17191.9	0.0115539
17207.1	0.0111137
17214.6	0.0108802
17222.2	0.0106377
17237.3	0.0101238
17244.9	0.00984455
17252.4	0.00954911
17260	0.00923962
17275.1	0.00858355
17282.7	0.00823791
17290.3	0.00788073
17305.4	0.00713268
17313	0.0067426
17320.5	0.00634255
17335.7	0.00551492
17343.2	0.00508855
17350.8	0.00465454
17365.9	0.00376552
17373.5	0.00331132
17381	0.00285114
17396.2	0.0019141
17403.7	0.00143784
17411.3	0.000956815
17426.4	-1.82678e-05
17434	-0.000511652
17441.6	-0.00100844
17456.7	-0.00201062
17464.2	-0.00251205
17471.7	-0.00301513
17486.8	-0.00402427
17494.3	-0.00452934
17501.8	-0.00503406
17516.8	-0.00604045
17524.3	-0.00654091
17531.9	-0.00703903
17546.9	-0.00802637
17554.4	-0.00851471
17561.9	-0.00899827
17576.9	-0.00995291
17584.4	-0.0104219
17592	-0.0108861
17607	-0.0117969
17614.5	-0.0122429
17622	-0.0126824
17637.1	-0.013541
17644.6	-0.0139598
17652.1	-0.0143714
17667.1	-0.0151723
17674.6	-0.0155616
17682.1	-0.0159431
17697.2	-0.016683
17704.7	-0.0170411
17712.2	-0.0173914
17727.2	-0.018068
17734.8	-0.0183942
17742.3	-0.0187124
17757.3	-0.0193243
17764.8	-0.019618
17772.3	-0.0199034
17787.4	-0.0204496
17794.9	-0.0207102
17802.4	-0.0209625
17817.4	-0.0214418
17824.9	-0.0216687
17832.5	-0.0218872
17847.5	-0.0222982
17855	-0.0224908
17862.5	-0.0226746
17870	-0.0228497
17885.1	-0.0231732
17892.6	-0.0233216
17900.1	-0.023461
17915.1	-0.0237126
17922.6	-0.0238246
17930.2	-0.0239275
17945.2	-0.0241054
17952.7	-0.0241804
17960.2	-0.024246
17975.2	-0.0243488
17982.8	-0.024386
17990.3	-0.0244136
18005.3	-0.0244402
18012.8	-0.0244392
18020.3	-0.0244285
18035.4	-0.0243783
18042.9	-0.0243387
18050.4	-0.0242895
18065.4	-0.0241624
18072.9	-0.0240844
18080.5	-0.0239969
18095.5	-0.0237934
18103	-0.0236774
18110.5	-0.023552
18125.6	-0.0232733
18133.1	-0.02312
18140.6	-0.0229575
18155.6	-0.0226053
18163.1	-0.0224157
18170.6	-0.0222172
18185.7	-0.021794
18193.2	-0.0215694
18200.7	-0.0213364
18215.7	-0.0208452
18223.3	-0.0205874
18230.8	-0.0203215
18245.8	-0.0197662
18253.3	-0.019477
18260.8	-0.0191804
18275.9	-0.0185653
18283.4	-0.0182471
18290.9	-0.0179221
18305.9	-0.0172522
18313.4	-0.0169077
18321	-0.016557
18336	-0.0158378
18343.5	-0.0154697
18351	-0.0150961
18366	-0.0143333
18373.6	-0.0139444
18381.1	-0.0135509
18396.1	-0.0127502
18403.6	-0.0123435
18411.1	-0.0119328
18426.2	-0.0110999
18433.7	-0.0106781
18441.2	-0.010253
18456.2	-0.00939325
18463.7	-0.00895901
18471.3	-0.00852207
18486.3	-0.00764071
18493.8	-0.00719661
18501.3	-0.00675046
18516.4	-0.0058526
18523.9	-0.00540123
18531.4	-0.00494843
18546.4	-0.00403922
18553.9	-0.00358314
18561.4	-0.00312628
18576.5	-0.00221088
18584	-0.00175266
18591.5	-0.00129431
18606.5	-0.000377837
18614.1	7.99714e-05
18621.6	0.00053729
18636.6	0.00144985
18644.1	0.00190479
18651.6	0.00235865
18666.7	0.00326252
18674.2	0.00371226
18681.7	0.00416035
18696.7	0.00505105
18704.2	0.0054934
18711.8	0.00593357
18726.8	0.0068069
18734.3	0.00723982
18741.8	0.00767008
18756.8	0.00852216
18764.4	0.00894376
18771.9	0.00936226
18786.9	0.0101895
18794.4	0.0105981
18801.9	0.0110031
18817	0.0118023
18824.5	0.0121962
18832	0.0125863
18847	0.0133544
18854.5	0.0137323
18862.1	0.014106
18877.1	0.0148406
18884.6	0.0152012
18892.1	0.0155574
18907.2	0.0162561
18914.7	0.0165985
18922.2	0.0169362
18937.2	0.0175971
18944.7	0.0179203
18952.2	0.0182386
18967.3	0.0188602
18974.8	0.0191634
18982.3	0.019461
18997.3	0.0200939
19004.9	0.020232
19012.4	0.0204814
19027.4	0.0209593
19034.9	0.0212219
19042.4	0.0214994
19057.5	0.0220489
19065	0.022313
19072.5	0.0225671
19080	0.0228146
19095	0.0232902
19102.6	0.023515
19110.1	0.0237315
19125.1	0.0241464
19132.6	0.0243458
19140.1	0.024538
19155.2	0.0248963
19162.7	0.0250626
19170.2	0.0252216
19185.2	0.025524
19192.7	0.0256701
19200.3	0.0258134
19215.3	0.0260882
19222.8	0.0262171
19230.3	0.0263382
19245.3	0.0265515
19252.8	0.026643
19260.2	0.0267237
19275	0.0268593
19282.4	0.0269168
19297.1	0.0270157
19304.5	0.027058
19311.8	0.0270957
19326.6	0.0271568
19333.9	0.0271798
19341.3	0.0271976
19356	0.0272177
19363.4	0.0272206
19370.8	0.0272191
19385.5	0.0272034
19392.8	0.0271884
19400.2	0.027168
19414.9	0.0271076
19422.3	0.0270664
19437	0.0269611
19444.4	0.0268974
19451.7	0.0268272
19466.5	0.0266694
19473.8	0.0265829
19481.2	0.026492
19495.9	0.0262982
19503.3	0.0261958
19510.7	0.0260903
19525.4	0.0258703
19532.7	0.0257563
19540.1	0.0256398
19554.8	0.0253992
19562.2	0.025275
19576.9	0.0250183
19584.3	0.0248855
19591.7	0.0247497
19606.4	0.024469
19613.7	0.0243241
19621.1	0.0241763
19635.8	0.0238728
19643.2	0.0237173
19650.6	0.0235595
19665.3	0.0232376
19672.6	0.0230736
19680	0.0229076
19694.7	0.0225697
19702.1	0.0223978
19716.8	0.0220479
19724.2	0.0218698
19731.6	0.0216896
19746.3	0.021323
19753.6	0.0211366
19761	0.0209483
19775.7	0.0205661
19783.1	0.0203725
19790.5	0.0201774
19805.2	0.0197829
19812.6	0.0195838
19827.3	0.0191821
19834.6	0.0189796
19842	0.0187761
19856.7	0.0183658
19864.1	0.0181592
19871.5	0.0179515
19886.2	0.0175334
19893.6	0.0173229
19900.9	0.0171117
19915.6	0.0166871
19923	0.0164739
19930.4	0.0162602
19945.1	0.0158319
19952.5	0.0156174
19967.2	0.0151881
19974.5	0.0149735
19981.9	0.0147589
19996.6	0.0143304
