0	0
19.2069	0
38.4138	0
57.6207	0
76.8276	0
96.0345	0
115.241	0
134.448	0
153.655	0
172.862	0
192.069	0
211.276	0
230.483	0
249.69	0
268.897	0
288.103	0
307.31	0
326.517	0
345.724	0
364.931	0
384.138	0
403.345	0
422.552	0
441.759	0
460.966	0
480.172	0
499.379	0
518.586	0
537.793	0
557	0
576.207	0
595.414	0
614.621	0
633.828	0
653.034	0
672.241	0
691.448	0
710.655	0
729.862	0
749.069	0
768.276	0
787.483	0
806.69	0
825.897	0
845.103	0
864.31	0
883.517	0
902.724	0
921.931	0
941.138	0
960.345	0
979.552	0
998.759	0
1017.97	0
1037.17	0
1056.38	0
1075.39	0
1094.12	0
1112.49	0
1130.4	0
1147.75	0
1164.5	0
1180.58	0
1195.97	0
1210.24	0
1218.03	0
1228.6	0
1241.88	0
1255.99	0
1271.07	0
1286.95	0
1303.38	0
1320.11	0
1336.92	0
1353.75	0
1370.56	0
1387.37	0
1404.18	0
1421.02	0
1437.89	0
1454.78	0
1471.7	0
1488.65	0
1505.62	0
1522.53	0
1539.31	0
1555.96	0
1572.45	0
1588.79	0
1604.98	0
1621.04	0
1637	0
1652.9	0
1668.71	0
1684.44	0
1700.09	0
1715.69	0
1731.24	0
1746.77	0
1762.29	0
1777.82	0
1793.38	0
1808.96	0
1824.58	0
1840.23	0
1855.93	0
1871.67	0
1887.44	0
1903.24	0
1919.07	0
1934.94	0
1950.84	0
1966.77	0
1982.78	0
1998.98	0
2015.28	0
2031.63	0
2048.02	0
2064.42	0
2080.7	0
2096.91	0
2113.08	0
2129.23	0
2145.36	-9.09495e-13
2161.47	-9.09495e-13
2177.56	-1.81899e-12
2193.63	-2.72848e-12
2209.68	-4.54747e-12
2225.71	-7.27596e-12
2241.73	-1.18234e-11
2257.73	-1.81899e-11
2273.72	-2.81943e-11
2289.7	-4.36557e-11
2305.67	-6.63931e-11
2321.64	-1.00044e-10
2337.61	-1.49157e-10
2353.57	-2.21007e-10
2369.54	-3.2378e-10
2385.51	-4.72937e-10
2401.47	-6.8485e-10
2417.42	-9.85892e-10
2433.37	-1.41063e-09
2449.31	-2.00453e-09
2465.21	-2.82671e-09
2481.1	-3.95994e-09
2496.98	-5.51336e-09
2512.89	-7.63703e-09
2528.82	-1.05192e-08
2544.76	-1.44064e-08
2560.69	-1.96169e-08
2576.61	-2.65609e-08
2592.54	-3.5765e-08
2608.45	-4.78958e-08
2624.37	-6.38029e-08
2640.29	-8.45539e-08
2656.21	-1.11489e-07
2672.13	-1.46278e-07
2688.05	-1.90995e-07
2703.98	-2.48202e-07
2719.92	-3.21053e-07
2735.86	-4.13404e-07
2751.81	-5.29977e-07
2767.78	-6.76496e-07
2783.76	-8.59854e-07
2799.75	-1.08832e-06
2815.75	-1.37178e-06
2831.76	-1.722e-06
2847.78	-2.15293e-06
2863.81	-2.68102e-06
2879.85	-3.32563e-06
2895.9	-4.10939e-06
2911.96	-5.05866e-06
2928.03	-6.20404e-06
2944.12	-7.58082e-06
2960.21	-9.22958e-06
2976.31	-1.11967e-05
2992.42	-1.35351e-05
3008.54	-1.63047e-05
3024.67	-1.95732e-05
3040.8	-2.34163e-05
3056.94	-2.79192e-05
3073.08	-3.31764e-05
3089.24	-3.92957e-05
3105.4	-4.63923e-05
3121.56	-5.45911e-05
3137.71	-6.40291e-05
3153.87	-7.4856e-05
3170.02	-8.7234e-05
3186.17	-0.000101338
3202.31	-0.000117355
3218.45	-0.000135484
3234.58	-0.000155921
3250.7	-0.000178882
3266.8	-0.000204593
3282.89	-0.000233273
3298.96	-0.000265152
3315.01	-0.000300467
3331.04	-0.000339462
3347.07	-0.000382387
3363.17	-0.000429699
3379.34	-0.000481717
3395.59	-0.000538687
3411.89	-0.000600813
3428.23	-0.000668261
3444.59	-0.000741086
3460.96	-0.000819364
3477.36	-0.000903188
3493.77	-0.000992518
3510.2	-0.0010872
3526.64	-0.00118698
3543.08	-0.00129151
3559.51	-0.00140032
3575.9	-0.0015125
3592.23	-0.00162723
3608.44	-0.00174311
3624.53	-0.00185909
3640.51	-0.00197392
3656.37	-0.00208626
3672.1	-0.0021945
3687.81	-0.00229773
3703.58	-0.00239434
3719.38	-0.00248194
3735.17	-0.00255778
3750.96	-0.00261911
3766.75	-0.00266287
3782.53	-0.00268574
3798.32	-0.00268407
3814.1	-0.00265392
3829.88	-0.00259106
3845.67	-0.00249082
3861.5	-0.00234799
3877.36	-0.0021571
3893.25	-0.00191248
3909.15	-0.00160822
3925.05	-0.00123819
3940.94	-0.000796572
3956.83	-0.000276653
3972.71	0.000328475
3988.59	0.0010259
4004.48	0.00182284
4020.36	0.00272575
4036.23	0.00374191
4052.09	0.00487822
4068	0.0061467
4083.93	0.00755235
4099.88	0.00910281
4115.85	0.0108055
4131.83	0.0126675
4147.84	0.0146956
4163.87	0.0168961
4179.92	0.0192747
4196.04	0.021846
4212.23	0.0246137
4228.43	0.0275751
4244.63	0.0307286
4260.81	0.0340742
4276.99	0.0376128
4293.16	0.041343
4309.32	0.0452623
4325.46	0.0493672
4341.6	0.053653
4357.72	0.058114
4373.82	0.0627433
4389.92	0.0675329
4406.01	0.0724736
4422.09	0.0775573
4438.16	0.0827703
4454.23	0.0880989
4470.28	0.0935287
4486.32	0.0990441
4502.36	0.104632
4518.4	0.110274
4534.42	0.115944
4550.41	0.121625
4566.38	0.127295
4582.34	0.132936
4598.28	0.138527
4614.19	0.144042
4630.06	0.149452
4645.88	0.154738
4661.67	0.159882
4677.41	0.164857
4693.1	0.169643
4708.74	0.174223
4724.35	0.178581
4739.95	0.1827
4755.53	0.186566
4771.11	0.19016
4786.76	0.193481
4802.46	0.196503
4818.2	0.199206
4833.92	0.201562
4849.69	0.203568
4865.45	0.205201
4881.26	0.206456
4897.07	0.207318
4912.95	0.207778
4928.86	0.207826
4944.78	0.207456
4960.71	0.206663
4976.65	0.205445
4992.61	0.203803
4993.14	0.203742
4994.53	0.203577
4995.76	0.20343
4996.99	0.203278
4998.21	0.203126
4999.45	0.202971
5000.71	0.202808
5002.05	0.202634
5003.52	0.202438
5005.02	0.202235
5006.52	0.202029
5008.02	0.201819
5009.52	0.201605
5011.29	0.201346
5013.05	0.201086
5014.81	0.20082
5017.01	0.200481
5019.43	0.200099
5022.18	0.199652
5024.94	0.199191
5027.72	0.198716
5030.51	0.198226
5033.31	0.197721
5036.13	0.197202
5038.96	0.196667
5042.51	0.195979
5046.17	0.195247
5050.1	0.19444
5054.23	0.193564
5058.57	0.192616
5063.04	0.19161
5067.64	0.190541
5072.7	0.189331
5078.02	0.188015
5083.58	0.186597
5089.43	0.185058
5095.4	0.183435
5101.4	0.181753
5107.47	0.179999
5113.86	0.1781
5120.93	0.175936
5128.11	0.173669
5135.56	0.171247
5143.34	0.168645
5151.61	0.165799
5160.52	0.162641
5169.69	0.159299
5179.1	0.155775
5188.95	0.151985
5199.74	0.147729
5211.05	0.143149
5222.96	0.138208
5235.53	0.132871
5248.66	0.127175
5262.29	0.121149
5276.45	0.114774
5291.16	0.108054
5306.19	0.101102
5321.6	0.0939058
5321.6	0.0939047
5321.6	0.0939038
5321.6	0.0939029
5321.6	0.093902
5321.61	0.0939011
5321.61	0.0939002
5321.61	0.0938993
5321.61	0.0938983
5321.61	0.0938974
5321.62	0.0938965
5321.62	0.0938956
5321.62	0.0938947
5321.62	0.0938938
5321.62	0.0938929
5321.63	0.093892
5321.63	0.093891
5321.63	0.0938901
5321.63	0.0938892
5321.63	0.0938883
5321.63	0.0938874
5321.64	0.0938865
5321.64	0.0938856
5321.64	0.0938846
5321.64	0.0938837
5321.64	0.0938828
5321.65	0.0938819
5321.65	0.093881
5321.65	0.0938801
5321.65	0.0938792
5321.65	0.0938782
5321.66	0.0938773
5321.66	0.0938764
5321.66	0.0938755
5321.66	0.0938746
5321.66	0.0938737
5321.67	0.0938728
5321.67	0.0938718
5321.67	0.0938709
5321.67	0.09387
5321.67	0.0938691
5321.68	0.0938682
5321.68	0.0938673
5321.68	0.0938664
5321.68	0.0938654
5321.68	0.0938645
5321.69	0.0938636
5321.69	0.0938627
5321.69	0.0938617
5321.69	0.0938608
5321.69	0.0938598
5321.7	0.0938588
5321.7	0.0938578
5321.7	0.0938567
5321.7	0.0938556
5321.7	0.0938546
5321.71	0.0938535
5321.71	0.0938524
5321.71	0.0938512
5321.71	0.0938501
5321.72	0.0938489
5321.72	0.0938477
5321.72	0.0938465
5321.72	0.0938453
5321.73	0.0938442
5321.73	0.0938429
5321.73	0.0938416
5321.74	0.0938402
5321.74	0.0938388
5321.74	0.0938373
5321.74	0.0938359
5321.75	0.0938343
5321.75	0.0938327
5321.75	0.0938311
5321.76	0.0938294
5321.76	0.0938277
5321.77	0.0938259
5321.77	0.093824
5321.77	0.0938221
5321.78	0.0938201
5321.78	0.0938181
5321.79	0.093816
5321.79	0.0938138
5321.8	0.0938115
5321.8	0.0938092
5321.81	0.0938071
5321.81	0.0938046
5321.82	0.093802
5321.82	0.0937994
5321.83	0.0937966
5321.83	0.0937938
5321.84	0.093791
5321.85	0.0937881
5321.85	0.0937851
5321.86	0.0937821
5321.87	0.093779
5321.87	0.0937759
5321.88	0.0937727
5321.89	0.0937694
5321.89	0.093766
5321.9	0.0937626
5321.91	0.0937591
5321.92	0.0937555
5321.92	0.0937518
5321.93	0.0937481
5321.94	0.0937443
5321.95	0.0937404
5321.96	0.0937365
5321.96	0.093735
5321.97	0.0937324
5321.97	0.0937303
5321.98	0.0937262
5321.99	0.093722
5322	0.0937179
5322.01	0.0937136
5322.01	0.0937094
5322.02	0.0937051
5322.03	0.0937007
5322.04	0.0936963
5322.05	0.0936919
5322.06	0.0936874
5322.07	0.0936829
5322.08	0.0936784
5322.09	0.0936738
5322.1	0.0936692
5322.11	0.0936646
5322.12	0.09366
5322.13	0.0936553
5322.14	0.0936506
5322.15	0.0936459
5322.16	0.0936412
5322.17	0.0936364
5322.18	0.0936317
5322.19	0.0936269
5322.2	0.0936221
5322.21	0.0936172
5322.22	0.0936124
5322.23	0.0936075
5322.24	0.0936026
5322.25	0.0935977
5322.26	0.0935928
5322.27	0.0935879
5322.28	0.0935829
5322.3	0.0935779
5322.31	0.0935729
5322.32	0.0935679
5322.33	0.0935628
5322.34	0.0935578
5322.35	0.0935526
5322.36	0.0935475
5322.37	0.0935423
5322.38	0.0935371
5322.39	0.0935319
5322.4	0.0935267
5322.42	0.0935213
5322.43	0.0935158
5322.44	0.0935102
5322.45	0.0935048
5322.46	0.0934993
5322.48	0.0934935
5322.49	0.0934876
5322.5	0.0934816
5322.51	0.0934755
5322.53	0.0934694
5322.54	0.0934631
5322.55	0.0934563
5322.57	0.0934494
5322.58	0.0934424
5322.6	0.0934352
5322.62	0.093428
5322.63	0.0934208
5322.64	0.093414
5322.66	0.0934066
5330.03	0.0899493
5340.06	0.0852269
5350.2	0.0804464
5360.16	0.0757489
5370	0.0711101
5380.02	0.0663941
5390.08	0.0616748
5400.03	0.0570284
5410.06	0.0523731
5420.03	0.0477703
5430.01	0.0432018
5440.32	0.0385263
5450.02	0.0341708
5460.03	0.0297239
5470.07	0.0253247
5480.35	0.0208789
5490.05	0.0167463
5500.15	0.0125113
5510.59	0.00821137
5520.43	0.00423402
5530.26	0.000330971
5540.95	-0.00382441
5550.33	-0.00740198
5560.35	-0.0111639
5571.07	-0.0151524
5581.19	-0.018957
5590.44	-0.0225685
5601.35	-0.0272413
5611.19	-0.032213
5621.3	-0.0387034
5630.18	-0.0463449
5640.81	-0.0593768
5650.16	-0.0762888
5661.37	-0.107015
5671.23	-0.148178
5681.34	-0.210434
5691.67	-0.303978
5700.46	-0.416016
5711.21	-0.608065
5720.33	-0.833543
5731.48	-1.21196
5740.95	-1.64725
5750.6	-2.22675
5760.44	-2.99265
5770.48	-3.99828
5780.76	-5.3107
5791.3	-7.01375
5802.12	-9.21194
5811	-11.4139
5820.09	-14.0963
5831.79	-18.2698
5841.41	-22.4009
5851.3	-27.3768
5861.44	-33.347
5871.87	-40.4803
5882.57	-48.9665
5890.79	-56.345
5902.02	-67.7193
5910.64	-77.5393
5922.41	-92.5728
5931.45	-105.45
5940.67	-119.837
5950.09	-135.862
5962.94	-160.004
5972.82	-180.368
5982.89	-202.816
5993.18	-227.479
6000.15	-245.216
6010.79	-273.855
6021.65	-305.037
6032.74	-338.87
6040.26	-362.949
6051.75	-401.417
6063.46	-442.733
6071.4	-471.831
6083.47	-517.808
6091.65	-550.005
6104.09	-600.591
6112.51	-635.821
6121.02	-672.232
6133.99	-729.017
6142.76	-768.28
6151.64	-808.638
6160.63	-850.064
6173.98	-912.523
6183.26	-956.468
6192.66	-1001.37
6202.18	-1047.17
6211.82	-1093.82
6221.58	-1141.27
6231.46	-1189.46
6241.47	-1238.32
6251.6	-1287.8
6261.86	-1337.85
6272.25	-1388.43
6282.78	-1439.49
6293.44	-1490.99
6304.26	-1542.91
6315.23	-1595.24
6320.78	-1621.56
6332.02	-1674.52
6342.71	-1724.4
6354.31	-1777.99
6360.17	-1804.84
6372.01	-1858.6
6384	-1912.34
6390.05	-1939.2
6402.27	-1992.86
6414.65	-2046.42
6420.91	-2073.16
6430.83	-2115.15
6440.01	-2153.52
6452.91	-2206.61
6465.99	-2259.49
6472.6	-2285.85
6485.96	-2338.37
6492.72	-2364.54
6506.37	-2416.65
6513.28	-2442.6
6520.24	-2468.48
6534.32	-2519.99
6541.37	-2545.38
6555.78	-2596.38
6563.07	-2621.75
6570.41	-2647.02
6585.28	-2697.28
6592.8	-2722.27
6600.38	-2747.14
6615.73	-2796.58
6623.5	-2821.13
6631.33	-2845.57
6647.18	-2894.1
6655.2	-2918.19
6660.89	-2935.08
6672.88	-2970.17
6680.83	-2993.05
6696.49	-3037.29
6704.2	-3058.66
6711.84	-3079.54
6726.87	-3119.92
6734.27	-3139.43
6741.6	-3158.52
6756.03	-3195.46
6763.14	-3213.33
6770.3	-3231.14
6784.17	-3265.02
6791	-3281.44
6801.63	-3306.62
6813.29	-3333.72
6820.53	-3350.29
6834.45	-3381.62
6840.02	-3393.97
6852.6	-3421.43
6864.96	-3447.89
6872.54	-3463.85
6880.67	-3480.75
6894.27	-3508.53
6901.9	-3523.85
6910.21	-3540.33
6920.01	-3559.49
6930.1	-3578.91
6940.29	-3598.2
6950.4	-3617.04
6960.14	-3634.9
6970.26	-3653.16
6980.33	-3671.06
6990.17	-3688.28
7000.06	-3705.32
7011.38	-3724.49
7021.33	-3741.08
7031	-3756.94
7040.19	-3771.81
7051.52	-3789.85
7060.17	-3803.41
7070.18	-3818.87
7080.38	-3834.39
7090.44	-3849.46
7100.59	-3864.44
7111.68	-3880.54
7123.81	-3897.85
7133.81	-3911.88
7146.02	-3928.73
7153.26	-3938.57
7162.01	-3950.34
7171.22	-3962.56
7180.62	-3974.86
7198.2	-3997.42
7208.1	-4009.88
7218.02	-4022.17
7227.93	-4034.29
7231.35	-4038.43
7240.08	-4048.9
7251.74	-4062.7
7260.2	-4072.55
7274.46	-4088.91
7280.38	-4095.6
7294.81	-4111.68
7301.65	-4119.19
7317.33	-4136.13
7326.72	-4146.11
7336.68	-4156.54
7343.5	-4163.59
7353.47	-4173.79
7363.44	-4183.85
7373.15	-4193.52
7382.58	-4202.78
7391.75	-4211.68
7400.69	-4220.24
7417.94	-4236.48
7424.61	-4242.65
7432.8	-4250.16
7440.85	-4257.45
7456.49	-4271.41
7464.1	-4278.1
7471.59	-4284.61
7486.2	-4297.12
7493.33	-4303.15
7500.36	-4309.03
7514.11	-4320.38
7520.85	-4325.87
7532.62	-4335.33
7542.45	-4343.13
7558.02	-4355.28
7568.12	-4363.03
7578.22	-4370.68
7588.34	-4378.24
7598.46	-4385.71
7606.98	-4391.92
7617.12	-4399.22
7627.27	-4406.44
7630.01	-4408.38
7641.63	-4416.5
7650.76	-4422.8
7661.96	-4430.42
7670.11	-4435.91
7680.3	-4442.69
7690.51	-4449.39
7700.72	-4456.02
7710.94	-4462.57
7721.18	-4469.04
7730.33	-4474.75
7740.13	-4480.81
7750.87	-4487.36
7760.49	-4493.16
7770.4	-4499.06
7781.76	-4505.74
7791.94	-4511.64
7800.25	-4516.4
7811.97	-4523.05
7821.53	-4528.4
7831.68	-4534.01
7842.52	-4539.93
7853.72	-4545.96
7861.62	-4550.17
7873.61	-4556.48
7881.88	-4560.78
7890.44	-4565.19
7903.4	-4571.77
7910.95	-4575.56
7920.04	-4580.07
7933.79	-4586.82
7943.25	-4591.39
7950.18	-4594.7
7960.01	-4599.36
7970.71	-4604.37
7980.06	-4608.69
7990.74	-4613.57
8001.97	-4618.63
8012.02	-4623.1
8022.56	-4627.74
8030.01	-4630.98
8040.09	-4635.32
8050.11	-4639.58
8060.05	-4643.75
8070.13	-4647.95
8080.17	-4652.07
8090.47	-4656.26
8100.15	-4660.14
8110.27	-4664.17
8120.59	-4668.23
8130.08	-4671.94
8141.04	-4676.17
8150.91	-4679.95
8160.12	-4683.44
8170.06	-4687.19
8180.83	-4691.21
8190.55	-4694.81
8201.16	-4698.72
8210.69	-4702.22
8221.4	-4706.14
8230.38	-4709.41
8240.01	-4712.92
8250.2	-4716.63
8261.01	-4720.55
8272.44	-4724.66
8280.43	-4727.44
8292.96	-4731.68
8301.69	-4734.56
8310.71	-4737.47
8322.47	-4741.19
8332.13	-4744.17
8341.51	-4747.01
8351.68	-4750.04
8362.08	-4753.08
8372.73	-4756.16
8383.61	-4759.26
8394.72	-4762.38
8400.37	-4763.95
8411.84	-4767.11
8423.57	-4770.3
8430.1	-4772.05
8440.35	-4774.78
8450.01	-4777.32
8460.74	-4780.1
8472.64	-4783.15
8482.83	-4785.71
8496.42	-4789.07
8503.37	-4790.77
8510.43	-4792.48
8524.91	-4795.95
8532.35	-4797.7
8547.64	-4801.24
8555.51	-4803.1
8563.54	-4805.02
8571.73	-4807
8580.08	-4809.03
8597.34	-4813.23
8606.25	-4815.4
8615.37	-4817.68
8624.68	-4819.99
8634.21	-4822.31
8643.97	-4824.73
8653.94	-4827.15
8664	-4829.62
8674.45	-4832.12
8689.61	-4835.77
8700.67	-4838.35
8711.83	-4840.96
8723	-4843.56
8729.28	-4844.98
8740.46	-4847.49
8751.66	-4849.99
8762.86	-4852.47
8774.07	-4854.87
8784.15	-4857.02
8795.26	-4859.38
8804.56	-4861.34
8815.56	-4863.64
8821.19	-4864.8
8821.72	-4864.91
8830.14	-4866.65
8841.42	-4868.95
8850.73	-4870.82
8860.13	-4872.69
8872.26	-4875.08
8881.3	-4876.84
8893.77	-4879.24
8900.79	-4880.57
8915.95	-4883.41
8923.83	-4884.86
8930.65	-4886.11
8947.18	-4889.08
8950.57	-4889.68
8967.57	-4892.66
8976.02	-4894.1
8984.38	-4895.5
8992.39	-4896.83
9000.06	-4898.08
9010.2	-4899.7
9020.13	-4901.25
9030.66	-4902.84
9040.74	-4904.31
9050.2	-4907.22
9061.5	-4910.81
9070.14	-4913.39
9082.25	-4916.8
9090.24	-4918.9
9101.73	-4921.74
9110.98	-4923.99
9120.73	-4926.34
9130.95	-4928.77
9141.59	-4931.26
9152.61	-4933.79
9160.17	-4935.49
9171.78	-4938.06
9183.74	-4940.65
9191.91	-4942.39
9200.26	-4944.14
9213.15	-4946.8
9222.03	-4948.6
9231.19	-4950.44
9240.67	-4952.32
9250.54	-4954.24
9260.84	-4956.24
9271.62	-4958.3
9282.93	-4960.43
9294.77	-4962.65
9300.88	-4963.78
9313.49	-4966.11
9326.58	-4968.5
9333.28	-4969.72
9340.1	-4970.95
9354.01	-4973.46
9361.1	-4974.73
9375.53	-4977.3
9382.87	-4978.61
9390.28	-4979.92
9405.32	-4982.59
9412.94	-4983.93
9420.63	-4985.29
9436.22	-4988.02
9444.11	-4989.39
9452.07	-4990.68
9460.07	-4991.89
9478.5	-4994.63
9488.85	-4996.29
9499.15	-4998.61
9503	-4999.24
9510.34	-5001.1
9521.28	-5003.93
9531.42	-5006.68
9541.52	-5009.34
9551.58	-5011.92
9561.6	-5014.45
9571.57	-5016.91
9581.49	-5019.31
9591.37	-5021.64
9600.03	-5023.64
9611.3	-5026.18
9620.13	-5028.13
9633.06	-5030.91
9643.9	-5033.18
9650.4	-5034.51
9665.23	-5037.49
9670.11	-5038.45
9680.31	-5040.43
9690.31	-5042.33
9700.64	-5044.28
9710.75	-5046.21
9722.3	-5048.43
9730.99	-5050.1
9740.82	-5051.99
9751.9	-5054.12
9760.17	-5055.71
9774.53	-5058.46
9785.47	-5060.54
9791.39	-5061.66
9804.22	-5064.08
9811.11	-5065.36
9825.73	-5068.07
9833.49	-5069.5
9841.56	-5070.97
9855.09	-5073.41
9863.74	-5074.96
9872.49	-5076.51
9881.36	-5078.09
9890.37	-5079.7
9908.88	-5083.09
9918.43	-5084.87
9928.2	-5086.71
9938.25	-5088.62
9948.59	-5090.6
9959.27	-5092.66
9970.33	-5094.81
9981.54	-5097
9992.76	-5099.19
10004	-5101.4
10015.2	-5103.61
10026.4	-5105.82
10037.6	-5108.04
10048.9	-5110.25
10060.1	-5112.47
10071.3	-5114.68
10082.5	-5116.89
10093.7	-5119.09
10104.8	-5121.24
10104.9	-5121.27
10105	-5121.29
10110	-5122.27
10120.3	-5124.27
10130	-5126.15
10140	-5128.09
10150.2	-5130.04
10160.4	-5132
10170	-5133.83
10180.1	-5135.75
10190.9	-5137.77
10200.4	-5139.56
10210.4	-5141.42
10221.6	-5143.48
10233.2	-5145.62
10242.9	-5147.39
10252.7	-5149.16
10260.6	-5150.58
10270	-5152.28
10280.2	-5154.11
10290	-5155.87
10300.2	-5157.69
10310.5	-5159.53
10320.3	-5161.29
10330.4	-5163.09
10340.3	-5164.87
10350.4	-5166.69
10360.5	-5168.49
10370.4	-5170.27
10380.1	-5172.02
10390.1	-5173.81
10400.1	-5175.62
10410	-5177.42
10420.2	-5179.25
10430.2	-5181.05
10440.3	-5182.87
10450.2	-5184.65
10460.7	-5186.55
10470.4	-5188.3
10480.7	-5190.16
10490.6	-5191.93
10500	-5193.61
10510.8	-5195.53
10521	-5197.33
10530.5	-5199.01
10540.4	-5200.73
10550.6	-5202.51
10560	-5204.13
10571	-5206
10581.1	-5207.71
10590.2	-5209.23
10601	-5211.01
10610.7	-5212.59
10620.7	-5214.2
10630.7	-5215.81
10641.2	-5217.46
10650.5	-5218.9
10660.1	-5220.37
10671.6	-5222.1
10680	-5223.35
10691	-5224.95
10701.4	-5226.46
10711.7	-5227.91
10720.7	-5229.16
10733	-5230.83
10742.3	-5232.07
10751.7	-5233.31
10761.3	-5234.55
10771.1	-5235.8
10781.2	-5237.06
10791.7	-5238.34
10802.6	-5239.65
10810.2	-5240.55
10822	-5241.92
10830.2	-5242.85
10842.5	-5244.22
10850.9	-5245.14
10863.7	-5246.5
10872.3	-5247.4
10881.1	-5248.29
10894.4	-5249.61
10903.5	-5250.48
10912.7	-5251.35
10922.1	-5252.21
10931.6	-5253.06
10941.4	-5253.9
10951.2	-5254.73
10961.2	-5255.55
10971.3	-5256.36
10981.6	-5257.16
10992	-5257.95
11002.5	-5258.73
11013.2	-5259.49
11023.9	-5260.25
11034.8	-5261
11040.3	-5261.37
11051.5	-5262.11
11062.8	-5262.85
11074.4	-5263.58
11080.2	-5263.95
11092.1	-5264.68
11104.2	-5265.4
11110	-5265.75
11122.5	-5266.48
11135.1	-5267.21
11140.5	-5267.51
11150	-5268.05
11160.2	-5268.61
11170.3	-5269.17
11180.8	-5269.74
11190.6	-5270.26
11200.7	-5270.8
11210.5	-5271.32
11220.1	-5271.82
11231.3	-5272.4
11240.7	-5272.89
11251	-5273.41
11260.2	-5273.88
11272	-5274.48
11280.5	-5274.9
11291.7	-5275.47
11301.3	-5275.95
11311.5	-5276.45
11322.4	-5276.99
11331.1	-5277.43
11340.4	-5277.88
11350.4	-5278.37
11361.4	-5278.9
11373.6	-5279.5
11382.6	-5279.93
11392.4	-5280.4
11402.9	-5280.9
11414.2	-5281.43
11420.1	-5281.71
11432.5	-5282.29
11440.9	-5282.68
11454.6	-5283.31
11461.7	-5283.63
11476.4	-5284.31
11482.4	-5284.58
11498	-5285.28
11506.2	-5285.64
11514.6	-5286.02
11523.2	-5286.4
11532	-5286.78
11541	-5287.18
11550.2	-5287.57
11569	-5288.38
11578.6	-5288.79
11587.6	-5289.16
11596	-5289.51
11604	-5289.84
11611.5	-5290.15
11621.9	-5290.57
11631.7	-5290.97
11642.6	-5291.4
11653.6	-5291.84
11660	-5292.08
11670.3	-5292.48
11680.4	-5292.86
11691.6	-5293.29
11701.5	-5293.66
11713.5	-5294.1
11722.9	-5294.44
11732.9	-5294.8
11743.8	-5295.18
11755.7	-5295.6
11762.2	-5295.83
11776.3	-5296.31
11783.9	-5296.57
11791.8	-5296.84
11800.2	-5297.12
11815.8	-5297.64
11825.2	-5297.96
11835.8	-5298.31
11844.2	-5298.58
11855.2	-5298.94
11865.9	-5299.29
11876.9	-5299.65
11888.1	-5300.01
11899.3	-5300.37
11910.6	-5300.7
11921.8	-5301.04
11933	-5301.38
11944.2	-5301.73
11955.4	-5302.06
11966.7	-5302.39
11977.9	-5302.73
11986.8	-5303
11998	-5303.34
12009.3	-5303.67
12020.5	-5304.02
12021.2	-5304.04
12025.3	-5304.16
12030.4	-5304.31
12049.7	-5304.9
12060.9	-5305.23
12072.1	-5305.56
12083.4	-5305.91
12094.6	-5306.24
12104.2	-5306.52
12115.4	-5306.84
12126.6	-5307.18
12129.3	-5307.26
12131.6	-5307.33
12140.8	-5307.6
12151.1	-5307.92
12162.6	-5308.26
12173.8	-5308.58
12185	-5308.88
12196.3	-5309.19
12207.5	-5309.48
12218.7	-5309.76
12229.9	-5310.02
12241.1	-5310.27
12252.4	-5310.51
12263.6	-5310.73
12274.8	-5310.93
12286	-5311.12
12295.1	-5311.27
12303.7	-5311.4
12314.6	-5311.55
12324.8	-5311.68
12335.2	-5311.8
12345.9	-5311.91
12357.1	-5312.02
12368.3	-5312.1
12369.5	-5312.11
12371.2	-5312.12
12387.3	-5312.22
12398.6	-5312.27
12409.8	-5312.29
12419.3	-5312.31
12430.5	-5312.33
12431.6	-5312.33
12440.6	-5312.33
12460	-5312.31
12469.3	-5312.28
12477.7	-5312.26
12485.2	-5312.23
12493.2	-5312.19
12501.2	-5312.15
12512.5	-5312.09
12523.8	-5312.02
12530.9	-5311.96
12540.1	-5311.9
12550.3	-5311.82
12560.2	-5311.74
12570	-5311.66
12580.3	-5311.58
12590.1	-5311.49
12600.2	-5311.41
12610.5	-5311.32
12620.1	-5311.23
12630.8	-5311.14
12641.3	-5311.05
12650.3	-5310.98
12660	-5310.89
12670	-5310.81
12680.3	-5310.74
12690.1	-5310.67
12700.7	-5310.59
12710	-5310.53
12720.2	-5310.47
12730.3	-5310.41
12740.3	-5310.35
12750.1	-5310.31
12760.4	-5310.26
12770.2	-5310.22
12780.7	-5310.18
12790.4	-5310.15
12800.9	-5310.13
12810	-5310.1
12820.1	-5310.09
12831.1	-5310.08
12840	-5310.07
12851.1	-5310.06
12861.1	-5310.07
12871.6	-5310.07
12880.8	-5310.08
12890.4	-5310.1
12900.4	-5310.12
12911	-5310.14
12922.1	-5310.17
12931.3	-5310.19
12941	-5310.23
12951	-5310.26
12961.2	-5310.31
12971.6	-5310.35
12982.4	-5310.4
12990.6	-5310.44
13002.1	-5310.5
13010.9	-5310.55
13020.3	-5310.6
13030.3	-5310.65
13041	-5310.72
13052.4	-5310.79
13060.5	-5310.84
13072.6	-5310.92
13081.4	-5310.98
13090.6	-5311.04
13100.1	-5311.11
13110	-5311.18
13120.3	-5311.25
13130.9	-5311.33
13142	-5311.4
13153.4	-5311.49
13165.3	-5311.58
13171.5	-5311.62
13184.1	-5311.72
13190.6	-5311.77
13204	-5311.88
13210.9	-5311.94
13224.3	-5312.05
13231.7	-5312.11
13246.7	-5312.23
13254.6	-5312.29
13262.6	-5312.36
13270.7	-5312.43
13287.7	-5312.57
13294.9	-5312.63
13302.8	-5312.7
13311.9	-5312.78
13321.3	-5312.86
13330.8	-5312.94
13340.6	-5313.02
13350.7	-5313.11
13362.7	-5313.21
13370.4	-5313.27
13381.8	-5313.37
13390.4	-5313.44
13404.1	-5313.56
13413.5	-5313.64
13420.4	-5313.7
13439.7	-5313.85
13450.9	-5313.94
13462	-5314.03
13470.7	-5314.1
13480.2	-5314.18
13488.2	-5314.24
13494.8	-5314.3
13500.3	-5314.34
13514.5	-5314.45
13524.9	-5314.54
13533.6	-5314.6
13543.7	-5314.68
13553.7	-5314.76
13563.6	-5314.84
13573.4	-5314.91
13580.5	-5314.97
13590	-5315.04
13600	-5315.12
13610.2	-5315.19
13620.4	-5315.27
13630.7	-5315.34
13640.8	-5315.41
13650	-5315.48
13660.1	-5315.55
13670.2	-5315.62
13680.1	-5315.69
13690	-5315.75
13700.1	-5315.82
13710.6	-5315.89
13720.2	-5315.95
13730.8	-5316.02
13741	-5316.08
13750.7	-5316.14
13761.3	-5316.21
13771	-5316.27
13781.6	-5316.33
13790.9	-5316.38
13800.8	-5316.44
13811.1	-5316.5
13822.2	-5316.56
13831.6	-5316.62
13841.6	-5316.67
13852.2	-5316.73
13860.5	-5316.78
13872.4	-5316.84
13882	-5316.89
13890.6	-5316.94
13900.7	-5316.99
13910.9	-5317.05
13920.7	-5317.1
13931.5	-5317.16
13941.1	-5317.2
13950.6	-5317.25
13963.5	-5317.32
13973	-5317.37
13982.3	-5317.41
13991.9	-5317.46
14002.1	-5317.51
14013.4	-5317.57
14025.2	-5317.62
14031.3	-5317.65
14043.8	-5317.71
14050.3	-5317.74
14063.6	-5317.8
14070.6	-5317.83
14085	-5317.9
14092.5	-5317.93
14100.3	-5317.97
14116.4	-5318.04
14124.8	-5318.07
14133.3	-5318.11
14141.9	-5318.15
14150.5	-5318.19
14168.2	-5318.27
14177.2	-5318.31
14186.3	-5318.35
14195.5	-5318.39
14204.9	-5318.44
14214.4	-5318.48
14224	-5318.53
14233.8	-5318.57
14243.7	-5318.62
14253.7	-5318.67
14263.9	-5318.72
14274.1	-5318.77
14284.6	-5318.82
14295.2	-5318.87
14306.1	-5318.92
14317.1	-5318.98
14328.3	-5319.03
14339.5	-5319.09
14350.7	-5319.14
14361.8	-5319.2
14372.7	-5319.25
14383.3	-5319.3
14392.4	-5319.35
14403.6	-5319.4
14414.9	-5319.45
14426.1	-5319.51
14437.3	-5319.56
14448.5	-5319.61
14459.7	-5319.66
14471	-5319.71
14482.2	-5319.76
14493.4	-5319.81
14504.6	-5319.86
14515.4	-5319.9
14523.7	-5319.94
14532.2	-5319.97
14543.4	-5320.02
14554.6	-5320.06
14565.8	-5320.11
14576.4	-5320.15
14586.5	-5320.19
14596.1	-5320.22
14607.4	-5320.26
14607.8	-5320.27
14608.2	-5320.27
14610.2	-5320.28
14620.1	-5320.31
14631	-5320.35
14641.3	-5320.38
14651	-5320.42
14660.5	-5320.45
14670.6	-5320.48
14680.7	-5320.52
14690.3	-5320.55
14700.5	-5320.58
14711.5	-5320.62
14722.1	-5320.65
14732.1	-5320.68
14740.3	-5320.71
14753.2	-5320.75
14760.6	-5320.77
14772.2	-5320.8
14781.6	-5320.83
14790	-5320.86
14800	-5320.88
14810.1	-5320.91
14820.2	-5320.94
14830.1	-5320.97
14840.1	-5320.99
14850.1	-5321.02
14860.1	-5321.04
14870.1	-5321.07
14880.2	-5321.09
14890.7	-5321.12
14900.5	-5321.14
14911	-5321.16
14921	-5321.18
14930.5	-5321.2
14940.3	-5321.22
14950.7	-5321.24
14960.4	-5321.26
14970.6	-5321.28
14980	-5321.3
14991.3	-5321.32
15000.1	-5321.33
15010.8	-5321.35
15020.3	-5321.37
15030.2	-5321.38
15040.5	-5321.4
15051.3	-5321.42
15060.7	-5321.44
15070.3	-5321.45
15080	-5321.47
15090.1	-5321.49
15100.1	-5321.5
15110.9	-5321.52
15120.4	-5321.54
15130.3	-5321.56
15140.6	-5321.58
15150.6	-5321.6
15160	-5321.61
15171.3	-5321.64
15180	-5321.65
15192	-5321.68
15201.2	-5321.7
15210.7	-5321.72
15220.4	-5321.74
15230.4	-5321.76
15240.7	-5321.79
15251.4	-5321.81
15262.5	-5321.84
15270.1	-5321.86
15281.9	-5321.89
15294.1	-5321.92
15302.4	-5321.94
15310.8	-5321.96
15323.7	-5322
15332.4	-5322.02
15341.3	-5322.05
15350.4	-5322.07
15364.2	-5322.11
15373.6	-5322.14
15383.1	-5322.17
15393.2	-5322.2
15403.7	-5322.23
15414.8	-5322.26
15420.5	-5322.28
15432.2	-5322.32
15444.3	-5322.36
15450.6	-5322.38
15463.5	-5322.42
15470.2	-5322.44
15484	-5322.48
15491	-5322.51
15505.6	-5322.56
15513.1	-5322.58
15520.6	-5322.61
15535.9	-5322.66
15543.7	-5322.68
15551.6	-5322.71
15567.7	-5322.77
15575.8	-5322.79
15584	-5322.82
15592.2	-5322.85
15600.5	-5322.88
15618	-5322.94
15627.4	-5322.97
15637.2	-5323
15647.1	-5323.04
15657.2	-5323.07
15667.3	-5323.11
15677.4	-5323.14
15687.5	-5323.17
15697.6	-5323.21
15707.7	-5323.24
15717.7	-5323.27
15727.8	-5323.31
15737.9	-5323.34
15747.9	-5323.37
15754.5	-5323.4
15761.6	-5323.42
15771.6	-5323.45
15781.6	-5323.48
15791.6	-5323.52
15802.8	-5323.55
15814	-5323.59
15825.2	-5323.62
15836.4	-5323.66
15847.6	-5323.69
15858.9	-5323.73
15870.1	-5323.76
15878	-5323.78
15885.9	-5323.81
15897.1	-5323.84
15908.3	-5323.87
15919.5	-5323.9
15930.8	-5323.93
15942	-5323.96
15953.2	-5324
15964.4	-5324.03
15975.6	-5324.05
15986.9	-5324.08
15998.1	-5324.11
16009.3	-5324.14
16020.5	-5324.17
16031.7	-5324.2
16043	-5324.22
16054.2	-5324.25
16065.4	-5324.27
16076.6	-5324.3
16087.8	-5324.32
16099.1	-5324.35
16110.3	-5324.37
16121.5	-5324.39
16132.7	-5324.42
16134.6	-5324.42
16136.3	-5324.42
16137.9	-5324.43
16140.7	-5324.43
16151.3	-5324.45
16164.6	-5324.48
16175.8	-5324.5
16187	-5324.52
16198.2	-5324.54
16209.4	-5324.56
16220.7	-5324.57
16231.9	-5324.59
16243.1	-5324.61
16244	-5324.61
16251.2	-5324.62
16263.4	-5324.64
16272.9	-5324.65
16282.7	-5324.67
16292.3	-5324.68
16306.9	-5324.7
16313.8	-5324.71
16320.7	-5324.72
16334.7	-5324.73
16342	-5324.74
16357.4	-5324.76
16365.7	-5324.77
16374.4	-5324.78
16383.8	-5324.78
16394.2	-5324.79
16404.7	-5324.8
16415.4	-5324.81
16426.7	-5324.82
16437.9	-5324.83
16446.1	-5324.84
16457.3	-5324.85
16468.5	-5324.86
16472.3	-5324.86
16489.2	-5324.87
16500.4	-5324.88
16511.7	-5324.89
16522.9	-5324.9
16534.1	-5324.9
16545.3	-5324.91
16556.5	-5324.92
16567.8	-5324.92
16579	-5324.93
16590.2	-5324.94
16590.2	-5324.94
16590.2	-5324.94
16600.1	-5324.94
16610.3	-5324.95
16620.7	-5324.95
16631	-5324.96
16640.9	-5324.97
16650.1	-5324.97
16660.7	-5324.98
16670.6	-5324.99
16680.6	-5324.99
16690.1	-5325
16700.7	-5325.01
16714.9	-5325.02
16720.1	-5325.03
16731.2	-5325.04
16743	-5325.05
16752.8	-5325.06
16765.8	-5325.08
16772.5	-5325.08
16786.3	-5325.1
16793.3	-5325.11
16800.5	-5325.12
16815	-5325.14
16820	-5325.15
16830.9	-5325.16
16842.7	-5325.18
16852.1	-5325.2
16865	-5325.22
16873.2	-5325.23
16882.9	-5325.25
16894.2	-5325.27
16905.4	-5325.29
16910.7	-5325.3
16922.9	-5325.33
16933.4	-5325.35
16944.6	-5325.37
16954.4	-5325.39
16965.6	-5325.42
16976.8	-5325.44
16988	-5325.47
16999.2	-5325.49
17010.5	-5325.52
17021.5	-5325.55
17031.8	-5325.57
17043	-5325.6
17054.2	-5325.62
17065.4	-5325.65
17076.6	-5325.67
17087.9	-5325.7
17099.1	-5325.73
17110.3	-5325.75
17117	-5325.77
17128.2	-5325.79
17139.4	-5325.82
17150.6	-5325.84
17161.9	-5325.87
17173.1	-5325.89
17184.3	-5325.91
17195.5	-5325.94
17206.7	-5325.96
17218	-5325.98
17229.2	-5326
17240.4	-5326.02
17251.6	-5326.04
17262.8	-5326.06
17274.1	-5326.08
17285.3	-5326.09
17296.5	-5326.11
17307.7	-5326.13
17318.9	-5326.14
17330.2	-5326.16
17341.4	-5326.17
17352.6	-5326.18
17363.8	-5326.2
17375	-5326.21
17386.3	-5326.22
17397.5	-5326.23
17408.7	-5326.24
17419.9	-5326.25
17431.1	-5326.26
17442.4	-5326.27
17453.6	-5326.28
17464.8	-5326.28
17476	-5326.29
17487.2	-5326.3
17497	-5326.3
17508.2	-5326.31
17519.4	-5326.31
17530.6	-5326.32
17541.8	-5326.32
17553.1	-5326.32
17564.3	-5326.33
17575.5	-5326.33
17586.7	-5326.33
17597.9	-5326.34
17601.8	-5326.34
17605.1	-5326.34
17608.4	-5326.34
17611.7	-5326.34
17615	-5326.34
17618.4	-5326.34
17622.7	-5326.34
17627.9	-5326.34
17634.5	-5326.34
17645.8	-5326.35
17657	-5326.35
17668.2	-5326.35
17679.4	-5326.35
17689.8	-5326.35
17701	-5326.35
17712.2	-5326.35
17723.4	-5326.35
17734.7	-5326.36
17745.9	-5326.36
17757.1	-5326.36
17768.3	-5326.36
17779.5	-5326.36
17790.8	-5326.36
17791	-5326.36
17791.2	-5326.36
17791.4	-5326.36
17800.1	-5326.36
17810.5	-5326.36
17820.3	-5326.36
17830.8	-5326.36
17841	-5326.37
17850.3	-5326.37
17860.5	-5326.37
17870.5	-5326.37
17880.2	-5326.37
17890.5	-5326.37
17900.3	-5326.37
17910.7	-5326.38
17920.8	-5326.38
17931	-5326.38
17940.2	-5326.38
17953.6	-5326.38
17962.7	-5326.39
17972	-5326.39
17981.7	-5326.39
17991.5	-5326.39
18001.5	-5326.4
18011.7	-5326.4
18022	-5326.4
18032.3	-5326.41
18042.8	-5326.41
18053.4	-5326.41
18064	-5326.42
18074.6	-5326.42
18083	-5326.42
18091.6	-5326.43
18100.7	-5326.43
18110.3	-5326.43
18120.2	-5326.44
18130.2	-5326.44
18140.4	-5326.45
18150.9	-5326.45
18161.7	-5326.46
18172.9	-5326.46
18184.1	-5326.47
18195.3	-5326.48
18206.5	-5326.48
18217.8	-5326.49
18229	-5326.49
18240.2	-5326.5
18251.4	-5326.51
18262.6	-5326.51
18273.9	-5326.52
18285.1	-5326.53
18296.3	-5326.53
18307.5	-5326.54
18318.7	-5326.55
18329.9	-5326.55
18340.3	-5326.56
18351.5	-5326.57
18362.7	-5326.57
18373.9	-5326.58
18385.2	-5326.59
18396.4	-5326.6
18407.6	-5326.6
18418.8	-5326.61
18430	-5326.62
18441.3	-5326.63
18452.5	-5326.63
18463.7	-5326.64
18474.9	-5326.65
18486.1	-5326.66
18497.4	-5326.67
18508.6	-5326.67
18519.8	-5326.68
18531	-5326.69
18542.2	-5326.7
18553.5	-5326.7
18564.7	-5326.71
18575.9	-5326.72
18587.1	-5326.73
18598.3	-5326.74
18609.5	-5326.74
18620.8	-5326.75
18632	-5326.76
18643.2	-5326.77
18654.4	-5326.78
18665.6	-5326.78
18676.9	-5326.79
18688.1	-5326.8
18699.3	-5326.81
18710.5	-5326.82
18721.7	-5326.83
18733	-5326.83
18744.2	-5326.84
18755.4	-5326.85
18766.6	-5326.86
18777.8	-5326.87
18789.1	-5326.88
18800.3	-5326.88
18811.5	-5326.89
18822.7	-5326.9
18833.9	-5326.91
18845.2	-5326.92
18856.4	-5326.93
18859.4	-5326.93
18862.2	-5326.93
18865.1	-5326.94
18867.9	-5326.94
18870.7	-5326.94
18873.5	-5326.94
18876.3	-5326.94
18879.3	-5326.95
18882.2	-5326.95
18885.2	-5326.95
18892	-5326.96
18903.4	-5326.97
18913.6	-5326.98
18920.8	-5326.98
18934.4	-5326.99
18946.3	-5327
18957.6	-5327.01
18968.8	-5327.02
18975.4	-5327.03
18986.6	-5327.04
18997.8	-5327.05
19007.8	-5327.06
19019	-5327.07
19030.3	-5327.08
19041.5	-5327.09
19045.5	-5327.1
19052.3	-5327.11
19065.5	-5327.12
19073.9	-5327.13
19082.1	-5327.14
19091.1	-5327.15
19100.6	-5327.16
19111.8	-5327.17
19123	-5327.18
19134.2	-5327.19
19145.5	-5327.21
19154.3	-5327.22
19165.5	-5327.23
19176.7	-5327.24
19188	-5327.26
19199.2	-5327.27
19210.4	-5327.29
19221.6	-5327.3
19232.8	-5327.31
19244.1	-5327.33
19255.3	-5327.34
19266.5	-5327.36
19277.7	-5327.37
19288.9	-5327.39
19300.2	-5327.4
19311.4	-5327.42
19322.6	-5327.44
19332.3	-5327.45
19343.5	-5327.47
19354.7	-5327.48
19365.9	-5327.5
19377.2	-5327.51
19388.4	-5327.53
19399.6	-5327.55
19410.8	-5327.56
19422	-5327.58
19433.3	-5327.6
19439.8	-5327.61
19451	-5327.62
19462.2	-5327.64
19473.4	-5327.66
19484.6	-5327.67
19495.8	-5327.69
19496	-5327.69
19496.2	-5327.69
19496.4	-5327.69
19500.1	-5327.7
19510.1	-5327.71
19521.2	-5327.73
19530.9	-5327.74
19541.3	-5327.76
19551.2	-5327.77
19563.4	-5327.79
19572.9	-5327.81
19584	-5327.82
19590.3	-5327.83
19604.5	-5327.85
19612.4	-5327.86
19621	-5327.88
19630.4	-5327.89
19640.1	-5327.91
19650.6	-5327.92
19660.3	-5327.93
19671.8	-5327.95
19682	-5327.97
19690.5	-5327.98
19701.6	-5327.99
19710.8	-5328.01
19720.4	-5328.02
19730.4	-5328.03
19740.7	-5328.05
19751.4	-5328.06
19763.1	-5328.08
19772.8	-5328.09
19783.2	-5328.1
19790.5	-5328.11
19801.9	-5328.13
19813.6	-5328.14
19821.6	-5328.15
19834.1	-5328.17
19842.8	-5328.18
19851.8	-5328.19
19861.3	-5328.2
19871.4	-5328.22
19882.1	-5328.23
19893.6	-5328.24
19906	-5328.26
19912.5	-5328.27
19926.5	-5328.28
19933.9	-5328.29
19941.6	-5328.3
19958	-5328.32
19966.8	-5328.33
19975.9	-5328.34
19985.3	-5328.35
19995.2	-5328.36
