0	0
10.3534	0
20.7068	0
31.0603	0
41.4137	0
51.7671	0
62.1205	0
72.4739	0
82.8273	0
93.1808	0
103.534	0
113.888	0
124.241	0
134.594	0
144.948	0
150.125	0
160.478	0
170.831	0
181.185	0
191.538	0
201.892	0
212.245	0
222.598	0
232.952	0
243.305	0
253.659	0
264.012	0
274.366	0
284.719	0
295.072	0
300.249	0
310.603	0
320.956	0
331.309	0
341.663	0
352.016	0
362.37	0
372.723	0
383.076	0
393.43	0
403.783	0
414.137	0
424.49	0
434.844	0
440.02	0
450.374	0
460.727	0
471.081	0
481.434	0
491.787	0
502.141	0
512.494	0
522.848	0
533.201	0
543.554	0
553.908	0
564.261	0
574.615	0
584.968	0
590.145	0
600.498	0
610.852	0
621.205	0
631.559	0
641.912	0
652.265	0
662.619	0
672.972	0
683.326	0
693.679	0
704.032	0
714.386	0
724.739	0
735.093	0
740.269	0
750.623	0
760.976	0
771.33	0
781.683	0
792.037	0
802.39	0
812.743	0
823.097	0
833.45	0
843.804	0
854.157	0
864.51	0
874.864	0
880.041	0
890.394	0
900.747	0
911.101	0
921.454	0
931.808	0
942.161	0
952.514	0
962.868	0
973.221	0
983.575	0
993.928	0
1004.28	0
1014.63	0
1024.99	0
1030.17	0
1040.52	0
1050.87	0
1061.23	0
1071.58	0
1081.93	0
1092.29	0
1102.64	0
1112.99	0
1123.35	0
1133.7	0
1144.05	0
1154.41	0
1164.76	0
1175.11	0
1180.29	0
1190.64	0
1201	0
1211.35	0
1221.7	0
1232.06	0
1242.41	0
1252.76	0
1263.12	0
1273.47	0
1283.82	0
1294.18	0
1304.53	0
1314.88	0
1320.06	0
1330.41	0
1340.77	0
1351.12	0
1361.47	0
1371.83	0
1382.18	0
1392.53	0
1402.89	0
1413.24	0
1423.6	0
1433.95	0
1444.3	0
1454.66	0
1465.01	0
1470.19	0
1480.54	0
1490.89	0
1501.25	0
1511.6	0
1521.95	0
1532.31	0
1542.66	0
1553.01	0
1563.37	0
1573.72	0
1584.07	0
1594.43	0
1604.78	0
1615.13	0
1620.31	0
1630.66	0
1641.02	0
1651.37	0
1661.72	0
1672.08	0
1682.43	0
1692.78	0
1703.14	0
1713.49	0
1723.84	0
1734.2	0
1744.55	0
1754.9	0
1760.08	0
1770.43	0
1780.79	0
1791.14	0
1801.49	0
1811.85	0
1822.2	0
1832.56	0
1842.91	0
1853.26	0
1863.62	0
1873.97	0
1884.32	0
1894.68	0
1905.03	0
1910.21	0
1920.56	0
1930.91	0
1941.27	0
1951.62	0
1961.97	0
1972.33	0
1982.68	0
1993.03	0
2003.39	0
2013.74	0
2024.09	0
2034.45	0
2044.8	0
2055.15	0
2060.33	0
2070.68	0
2081.04	0
2091.39	-9.09495e-13
2101.74	-2.72848e-12
2112.1	-4.54747e-12
2122.45	-9.09495e-12
2132.8	-1.63709e-11
2143.16	-3.18323e-11
2153.51	-5.91172e-11
2163.86	-1.10049e-10
2174.22	-1.99179e-10
2184.57	-3.55612e-10
2194.92	-6.28461e-10
2200.1	-8.32188e-10
2210.45	-1.44155e-09
2220.81	-2.46382e-09
2231.16	-4.1573e-09
2241.52	-6.92853e-09
2251.87	-1.14051e-08
2262.22	-1.85501e-08
2272.58	-2.98141e-08
2282.93	-4.73647e-08
2293.28	-7.43894e-08
2303.64	-1.15529e-07
2313.99	-1.77449e-07
2324.34	-2.69613e-07
2334.7	-4.05304e-07
2345.05	-6.02938e-07
2350.23	-7.32551e-07
2360.58	-1.07314e-06
2370.93	-1.55641e-06
2381.29	-2.23519e-06
2391.64	-3.17912e-06
2401.99	-4.47891e-06
2412.35	-6.25151e-06
2422.7	-8.64603e-06
2433.05	-1.18505e-05
2443.41	-1.60997e-05
2453.76	-2.16835e-05
2464.11	-2.89557e-05
2474.47	-3.83447e-05
2484.82	-5.03623e-05
2495.17	-6.56149e-05
2500.35	-7.46719e-05
2510.7	-9.61435e-05
2521.06	-0.00012284
2531.41	-0.00015577
2541.76	-0.000196069
2552.12	-0.000245008
2562.47	-0.000303992
2572.82	-0.000374553
2583.18	-0.000458348
2593.53	-0.000557147
2603.88	-0.000672816
2614.24	-0.0008073
2624.59	-0.000962601
2634.94	-0.00114075
2640.12	-0.00123902
2650.47	-0.00145523
2660.83	-0.00169927
2671.18	-0.00197303
2681.54	-0.00227824
2691.89	-0.00261651
2702.24	-0.00298923
2712.6	-0.00339756
2722.95	-0.00384242
2733.3	-0.00432443
2743.66	-0.00484392
2754.01	-0.00540088
2764.36	-0.005995
2774.72	-0.0066256
2785.07	-0.00729169
2790.25	-0.00763764
2800.6	-0.00835437
2810.95	-0.00910265
2821.31	-0.00988038
2831.66	-0.0106851
2842.01	-0.0115143
2852.37	-0.0123649
2862.72	-0.0132337
2873.07	-0.0141174
2883.43	-0.0150124
2893.78	-0.0159147
2904.13	-0.0168203
2914.49	-0.0177248
2924.84	-0.0186235
2930.02	-0.0190692
2940.37	-0.01995
2950.72	-0.0208119
2961.08	-0.021649
2971.43	-0.0224548
2981.78	-0.0232222
2992.14	-0.0239432
3002.49	-0.0246092
3012.84	-0.0252107
3023.2	-0.0257369
3033.55	-0.0261762
3043.9	-0.0265155
3054.26	-0.0267404
3064.61	-0.026835
3074.96	-0.0267819
3080.14	-0.026694
3090.49	-0.0263832
3100.85	-0.025874
3111.2	-0.0251434
3121.55	-0.0241665
3131.91	-0.022917
3142.26	-0.0213673
3152.61	-0.0194885
3162.97	-0.0172505
3173.32	-0.0146228
3183.67	-0.011574
3194.03	-0.00807291
3204.38	-0.00408863
3214.73	0.000409123
3225.09	0.00544939
3230.26	0.00818161
3240.62	0.0140863
3250.97	0.0205979
3261.32	0.0277373
3271.68	0.0355223
3282.03	0.0439667
3292.38	0.0530803
3302.74	0.062868
3313.09	0.07333
3323.44	0.0844613
3333.79	0.0962514
3344.15	0.108684
3354.5	0.121739
3364.85	0.135388
3370.03	0.142426
3380.38	0.156905
3390.74	0.171889
3401.09	0.187332
3411.44	0.203186
3421.8	0.219397
3432.15	0.235909
3442.5	0.25266
3452.86	0.269589
3463.21	0.28663
3473.56	0.303715
3483.91	0.320776
3494.27	0.337744
3504.62	0.354547
3514.97	0.371116
3520.15	0.379291
3530.5	0.395377
3540.86	0.411054
3551.21	0.426253
3561.56	0.440906
3571.92	0.454949
3582.27	0.468317
3592.62	0.480947
3602.97	0.492779
3613.33	0.503756
3623.68	0.513824
3634.03	0.522929
3644.39	0.531023
3654.74	0.538061
3665.09	0.544
3670.27	0.546546
3680.62	0.550768
3690.97	0.553804
3701.33	0.555628
3711.68	0.556218
3722.03	0.555556
3732.39	0.55363
3742.74	0.550434
3753.09	0.545968
3763.44	0.540235
3773.8	0.533246
3784.15	0.525018
3794.5	0.515571
3804.86	0.504933
3810.03	0.499178
3820.38	0.486816
3830.74	0.473354
3841.09	0.458837
3851.44	0.443313
3861.8	0.426836
3872.15	0.409462
3882.5	0.391253
3892.85	0.372269
3903.21	0.352576
3913.56	0.33224
3923.91	0.31133
3934.27	0.289914
3944.62	0.268062
3954.97	0.245843
3960.15	0.234617
3970.5	0.211977
3980.85	0.189142
3991.21	0.166179
4001.56	0.143153
4011.91	0.12013
4022.27	0.0971725
4032.62	0.0743411
4042.97	0.0516957
4053.32	0.029294
4063.68	0.00719192
4074.03	-0.0145565
4084.38	-0.0358991
4094.74	-0.0567853
4105.09	-0.0771664
4110.27	-0.0871528
4120.62	-0.106689
4130.97	-0.125606
4141.33	-0.143861
4151.68	-0.161414
4162.03	-0.178225
4172.38	-0.194258
4182.74	-0.209477
4193.09	-0.223849
4203.44	-0.237345
4213.8	-0.249935
4224.15	-0.261594
4234.5	-0.2723
4244.86	-0.282032
4250.03	-0.286527
4260.39	-0.29477
4270.74	-0.302003
4281.09	-0.308221
4291.45	-0.31342
4301.8	-0.317599
4312.15	-0.320764
4322.51	-0.322923
4332.86	-0.324089
4343.21	-0.32428
4353.57	-0.323518
4363.92	-0.321828
4374.27	-0.319241
4384.63	-0.315792
4394.98	-0.311517
4400.16	-0.309083
4410.51	-0.303649
4420.86	-0.297499
4431.22	-0.290683
4441.57	-0.283251
4451.92	-0.275256
4462.28	-0.266752
4472.63	-0.257796
4482.98	-0.248444
4493.34	-0.238751
4503.69	-0.228773
4514.04	-0.218567
4524.4	-0.208186
4534.75	-0.197683
4545.1	-0.187109
4550.28	-0.181811
4560.63	-0.171221
4570.99	-0.160678
4581.34	-0.150224
4591.69	-0.139898
4602.05	-0.129736
4612.4	-0.119772
4622.75	-0.110036
4633.11	-0.100555
4643.46	-0.0913521
4653.81	-0.0824478
4664.17	-0.0738597
4674.52	-0.0656024
4684.87	-0.0576875
4690.05	-0.0538615
4700.4	-0.0464769
4710.76	-0.0394534
4721.11	-0.0327943
4731.46	-0.0265014
4741.82	-0.0205742
4752.17	-0.0150112
4762.52	-0.00980918
4772.88	-0.00496381
4783.23	-0.000469801
4793.58	0.00367901
4803.94	0.00748952
4814.29	0.0109692
4824.64	0.014126
4835	0.0169682
4840.17	0.018274
4850.53	0.0206606
4860.88	0.0227547
4871.23	0.0245653
4881.59	0.0261017
4891.94	0.0273734
4902.3	0.0283899
4912.65	0.0291606
4923	0.0296954
4933.36	0.030004
4943.71	0.0300963
4954.06	0.0299826
4964.42	0.0296728
4974.77	0.0291775
4985.12	0.0285071
4990.3	0.0281096
5000.65	0.0271965
5011.01	0.0261351
5021.36	0.0249364
5031.71	0.0236115
5042.07	0.0221713
5052.42	0.0206269
5062.77	0.0189895
5073.13	0.0172699
5083.48	0.0154791
5093.83	0.0136276
5104.19	0.011726
5114.54	0.00978423
5124.89	0.00781212
5130.07	0.00681762
5140.42	0.00481731
5150.78	0.00280905
5161.13	0.000800867
5171.48	-0.00119977
5181.84	-0.00318604
5192.19	-0.00515175
5202.54	-0.00709141
5212.9	-0.0090002
5223.25	-0.010874
5233.6	-0.0127093
5243.96	-0.0145034
5254.31	-0.0162541
5264.66	-0.0179599
5275.02	-0.0196199
5280.19	-0.0204326
5290.55	-0.0220233
5300.9	-0.0235681
5311.25	-0.0250678
5321.61	-0.0265235
5331.96	-0.0279366
5342.31	-0.0293088
5352.67	-0.0306419
5363.02	-0.031938
5373.37	-0.033199
5383.73	-0.0344271
5394.08	-0.0356243
5404.43	-0.0367928
5414.79	-0.0379343
5425.14	-0.0390508
5430.32	-0.0396001
5440.67	-0.0406819
5451.02	-0.0417425
5461.38	-0.0427829
5471.73	-0.0438041
5482.08	-0.044807
5492.44	-0.0457921
5502.79	-0.0467598
5513.14	-0.0477103
5523.5	-0.0486436
5533.85	-0.0495597
5544.2	-0.0504582
5554.56	-0.0513388
5564.91	-0.0522012
5570.09	-0.0526253
5580.44	-0.0534591
5590.79	-0.0542733
5601.15	-0.0550672
5611.5	-0.0558404
5621.85	-0.0565922
5632.21	-0.0573221
5642.56	-0.0580299
5652.91	-0.058715
5663.27	-0.0593774
5673.62	-0.0600168
5683.97	-0.0606331
5694.33	-0.0612264
5704.68	-0.0617969
5715.03	-0.0623448
5720.21	-0.0626104
5730.57	-0.0631251
5740.92	-0.0636182
5751.27	-0.0640902
5761.63	-0.0645418
5771.98	-0.0649735
5782.33	-0.0653861
5792.69	-0.0657803
5803.04	-0.0661566
5813.39	-0.0665158
5823.75	-0.0668585
5834.1	-0.0671852
5844.45	-0.0674964
5854.81	-0.0677926
5865.16	-0.0680739
5870.34	-0.0682091
5880.69	-0.0684686
5891.04	-0.0687134
5901.4	-0.0689435
5911.75	-0.0691585
5922.1	-0.0693579
5932.46	-0.0695411
5942.81	-0.0697073
5953.16	-0.0698555
5963.52	-0.0699846
5973.87	-0.0700932
5984.22	-0.0701799
5994.58	-0.0702432
6004.93	-0.0702812
6010.11	-0.0702902
6020.46	-0.070287
6030.81	-0.0702537
6041.17	-0.0701882
6051.52	-0.0700885
6061.87	-0.0699522
6072.23	-0.0697771
6082.58	-0.069561
6092.93	-0.0693015
6103.29	-0.0689965
6113.64	-0.0686438
6123.99	-0.0682411
6134.35	-0.0677866
6144.7	-0.0672781
6155.05	-0.066714
6160.23	-0.0664105
6170.58	-0.0657597
6180.94	-0.0650493
6191.29	-0.0642781
6201.64	-0.063445
6212	-0.062549
6222.35	-0.0615896
6232.7	-0.0605664
6243.06	-0.0594791
6253.41	-0.0583277
6263.76	-0.0571127
6274.12	-0.0558344
6284.47	-0.0544936
6294.82	-0.0530914
6300	-0.0523676
6310.35	-0.0508755
6320.71	-0.0493255
6331.06	-0.0477193
6341.41	-0.046059
6351.77	-0.0443467
6362.12	-0.0425849
6372.47	-0.0407761
6382.83	-0.038923
6393.18	-0.0370286
6403.53	-0.0350959
6413.89	-0.0331281
6424.24	-0.0311284
6434.59	-0.0291001
6444.95	-0.0270467
6450.12	-0.0260117
6460.48	-0.0239273
6470.83	-0.0218266
6481.18	-0.0197133
6491.54	-0.017591
6501.89	-0.0154633
6512.24	-0.0133338
6522.6	-0.0112062
6532.95	-0.00908397
6543.3	-0.00697067
6553.66	-0.00486979
6564.01	-0.00278473
6574.37	-0.000718844
6584.72	0.00132459
6595.07	0.00334241
6600.25	0.00434073
6610.6	0.00631435
6620.96	0.0082548
6631.31	0.0101593
6641.66	0.0120251
6652.02	0.0138496
6662.37	0.0156304
6672.72	0.0173652
6683.08	0.0190518
6693.43	0.0206882
6703.78	0.0222724
6714.14	0.0238028
6724.49	0.0252778
6734.84	0.0266959
6740.02	0.0273832
6750.37	0.0287138
6760.73	0.0299846
6771.08	0.0311949
6781.43	0.032344
6791.79	0.0334314
6802.14	0.0344566
6812.49	0.0354195
6822.85	0.03632
6833.2	0.0371582
6843.55	0.0379343
6853.91	0.0386488
6864.26	0.0393021
6874.61	0.0398949
6884.97	0.040428
6890.14	0.0406724
6900.5	0.0411176
6910.85	0.0415054
6921.2	0.0418371
6931.56	0.0421137
6941.91	0.0423368
6952.26	0.0425075
6962.62	0.0426274
6972.97	0.0426979
6983.32	0.0427206
6993.68	0.0426971
7004.03	0.0426289
7014.38	0.0425177
7024.74	0.0423651
7035.09	0.0421727
7040.27	0.0420621
7050.62	0.0418131
7060.97	0.0415285
7071.33	0.0412098
7081.68	0.0408587
7092.03	0.0404767
7102.39	0.0400654
7112.74	0.0396263
7123.09	0.0391609
7133.45	0.0386706
7143.8	0.038157
7154.16	0.0376213
7164.51	0.0370649
7174.86	0.0364893
7180.04	0.0361946
7190.39	0.0355924
7200.75	0.034974
7211.1	0.0343407
7221.45	0.0336936
7231.81	0.033034
7242.16	0.032363
7252.51	0.0316817
7262.87	0.0309913
7273.22	0.0302929
7283.57	0.0295875
7293.93	0.0288763
7304.28	0.0281605
7314.63	0.027441
7324.99	0.0267191
7330.16	0.0263576
7340.52	0.0256341
7350.87	0.024911
7361.22	0.0241895
7371.58	0.0234708
7381.93	0.0227561
7392.28	0.0220465
7402.64	0.0213435
7412.99	0.0206482
7423.34	0.0199619
7433.7	0.019286
7444.05	0.0186218
7454.4	0.0179705
7464.76	0.0173335
7475.11	0.0167122
7480.28	0.0164078
7490.64	0.0158123
7500.99	0.0152358
7511.34	0.0146794
7521.7	0.0141443
7532.05	0.0136319
7542.4	0.0131431
7552.76	0.012679
7563.11	0.0122408
7573.46	0.0118292
7583.82	0.0114452
7594.17	0.0110894
7604.52	0.0107626
7614.88	0.0104653
7620.05	0.0103278
7630.41	0.0100755
7640.76	0.00985339
7651.11	0.00966174
7661.47	0.0095005
7671.82	0.0093695
7682.17	0.00926845
7692.53	0.00919694
7702.88	0.00915439
7713.23	0.00914011
7723.59	0.00915326
7733.94	0.00919288
7744.29	0.00925787
7754.65	0.00934703
7765	0.00945902
7770.18	0.00952313
7780.53	0.00966665
7790.88	0.00982922
7801.24	0.0100092
7811.59	0.0102047
7821.94	0.010414
7832.3	0.0106352
7842.65	0.0108664
7853	0.0111054
7863.36	0.0113504
7873.71	0.0115992
7884.06	0.0118497
7894.42	0.0120999
7904.77	0.0123476
7915.12	0.0125909
7920.3	0.0127102
7930.65	0.0129428
7941.01	0.0131658
7951.36	0.0133772
7961.71	0.013575
7972.07	0.0137573
7982.42	0.0139223
7992.77	0.0140682
8003.13	0.0141932
8013.48	0.0142957
8023.83	0.0143741
8034.19	0.0144269
8044.54	0.0144526
8054.89	0.01445
8060.07	0.0144376
8070.42	0.0143901
8080.78	0.0143112
8091.13	0.0142
8101.48	0.0140555
8111.83	0.0138768
8122.19	0.0136634
8132.54	0.0134146
8142.89	0.0131298
8153.25	0.0128088
8163.6	0.0124512
8173.95	0.0120569
8184.31	0.0116258
8194.66	0.011158
8205.01	0.0106537
8210.19	0.010388
8220.54	0.00982952
8230.9	0.00923552
8241.25	0.00860657
8251.6	0.00794335
8261.96	0.00724666
8272.31	0.00651742
8282.66	0.00575662
8293.02	0.00496537
8303.37	0.00414486
8313.72	0.00329638
8324.08	0.00242128
8334.43	0.00152101
8344.78	0.000597073
8355.14	-0.000348963
8360.32	-0.000829762
8370.67	-0.00180588
8381.02	-0.00279996
8391.38	-0.00381025
8401.73	-0.00483501
8412.08	-0.00587245
8422.44	-0.00692078
8432.79	-0.00797821
8443.14	-0.00904293
8453.5	-0.0101132
8463.85	-0.0111871
8474.2	-0.0122631
8484.56	-0.0133394
8494.91	-0.0144142
8500.09	-0.0149505
8510.44	-0.0160202
8520.79	-0.0170844
8531.15	-0.0181416
8541.5	-0.0191904
8551.85	-0.0202294
8562.21	-0.0212572
8572.56	-0.0222725
8582.91	-0.0232741
8593.27	-0.0242609
8603.62	-0.0252318
8613.97	-0.0261857
8624.33	-0.0271217
8634.68	-0.028039
8645.03	-0.0289368
8650.21	-0.0293781
8660.56	-0.0302451
8670.92	-0.0310908
8681.27	-0.0319147
8691.62	-0.0327163
8701.98	-0.033495
8712.33	-0.0342506
8722.68	-0.0349826
8733.04	-0.035691
8743.39	-0.0363753
8753.74	-0.0370356
8764.1	-0.0376718
8774.45	-0.0382837
8784.8	-0.0388715
8795.16	-0.0394352
8800.33	-0.039708
8810.69	-0.0402358
8821.04	-0.0407399
8831.39	-0.0412206
8841.75	-0.0416781
8852.1	-0.0421128
8862.45	-0.0425251
8872.81	-0.0429154
8883.16	-0.0432841
8893.51	-0.0436318
8903.87	-0.0439588
8914.22	-0.0442659
8924.57	-0.0445535
8934.93	-0.0448222
8940.1	-0.0449497
8950.46	-0.0451913
8960.81	-0.0454157
8971.17	-0.0456234
8981.52	-0.0458151
8991.87	-0.0459915
9002.23	-0.0461532
9012.58	-0.046301
9022.93	-0.0464354
9033.29	-0.0465571
9043.64	-0.0466668
9053.99	-0.0467651
9064.35	-0.0468525
9074.7	-0.0469297
9085.05	-0.0469972
9090.23	-0.0470275
9100.58	-0.0470815
9110.94	-0.0471272
9121.29	-0.0471649
9131.64	-0.0471952
9142	-0.0472184
9152.35	-0.0472349
9162.7	-0.0472451
9173.06	-0.0472492
9183.41	-0.0472476
9193.76	-0.0472405
9204.12	-0.047228
9214.47	-0.0472104
9224.82	-0.0471878
9230	-0.0471747
9240.35	-0.0471448
9250.71	-0.0471102
9261.06	-0.0470709
9271.41	-0.0470269
9281.77	-0.0469782
9292.12	-0.0469249
9302.47	-0.0468668
9312.83	-0.046804
9323.18	-0.0467364
9333.53	-0.0466639
9343.89	-0.0465865
9354.24	-0.0465042
9364.59	-0.0464167
9374.95	-0.0463241
9380.12	-0.0462759
9390.48	-0.0461754
9400.83	-0.0460696
9411.18	-0.0459584
9421.54	-0.0458417
9431.89	-0.0457195
9442.24	-0.0455917
9452.6	-0.0454581
9462.95	-0.0453188
9473.31	-0.0451737
9483.66	-0.0450227
9494.01	-0.0448657
9504.37	-0.0447027
9514.72	-0.0445335
9525.07	-0.044358
9530.25	-0.0442679
9540.6	-0.0440828
9550.96	-0.0438912
9561.31	-0.043693
9571.66	-0.0434878
9582.02	-0.0432757
9592.37	-0.0430565
9602.72	-0.0428298
9613.08	-0.0425956
9623.43	-0.0423536
9633.78	-0.0421036
9644.14	-0.0418454
9654.49	-0.0415787
9664.84	-0.0413033
9670.02	-0.0411622
9680.37	-0.0408732
9690.73	-0.0405748
9701.08	-0.0402668
9711.43	-0.0399489
9721.79	-0.039621
9732.14	-0.0392827
9742.49	-0.0389339
9752.85	-0.0385745
9763.2	-0.0382041
9773.55	-0.0378227
9783.91	-0.0374303
9794.26	-0.0370266
9804.61	-0.0366117
9814.97	-0.0361856
9820.14	-0.0359684
9830.5	-0.0355255
9840.85	-0.0350715
9851.2	-0.0346066
9861.56	-0.034131
9871.91	-0.0336448
9882.26	-0.0331483
9892.62	-0.0326419
9902.97	-0.0321259
9913.32	-0.0316006
9923.68	-0.0310665
9934.03	-0.0305241
9944.38	-0.0299737
9954.74	-0.0294161
9965.09	-0.0288516
9970.27	-0.0285669
9980.62	-0.0279933
9990.97	-0.0274142
10001.3	-0.0268304
10011.7	-0.0262425
10022	-0.025651
10032.4	-0.0250567
10042.7	-0.0244602
10053.1	-0.0238621
10063.4	-0.0232631
10073.8	-0.0226638
10084.2	-0.0220649
10094.5	-0.021467
10104.9	-0.0208707
10110	-0.0205734
10120.4	-0.0199807
10130.7	-0.0193912
10141.1	-0.0188054
10151.5	-0.018224
10161.8	-0.0176474
10172.2	-0.0170763
10182.5	-0.0165111
10192.9	-0.0159524
10203.2	-0.0154007
10213.6	-0.0148565
10223.9	-0.0143202
10234.3	-0.0137924
10244.6	-0.0132734
10255	-0.0127636
10260.2	-0.0125124
10270.5	-0.0120174
10280.9	-0.0115327
10291.2	-0.0110586
10301.6	-0.0105957
10311.9	-0.0101442
10322.3	-0.00970447
10332.6	-0.0092769
10343	-0.00886182
10353.3	-0.00845957
10363.7	-0.00807047
10374.1	-0.00769486
10384.4	-0.00733305
10394.8	-0.00698535
10405.1	-0.00665207
10410.3	-0.00649093
10420.6	-0.00617985
10431	-0.00588394
10441.3	-0.00560347
10451.7	-0.00533874
10462.1	-0.00509002
10472.4	-0.00485755
10482.8	-0.00464159
10493.1	-0.00444237
10503.5	-0.00426011
10513.8	-0.00409501
10524.2	-0.00394723
10534.5	-0.00381693
10544.9	-0.00370424
10550.1	-0.00365453
10560.4	-0.0035684
10570.8	-0.00350004
10581.1	-0.00344944
10591.5	-0.00341655
10601.8	-0.00340128
10612.2	-0.0034035
10622.5	-0.00342299
10632.9	-0.00345952
10643.2	-0.00351277
10653.6	-0.00358237
10663.9	-0.0036679
10674.3	-0.00376888
10684.7	-0.00388475
10695	-0.00401492
10700.2	-0.00408516
10710.5	-0.00423552
10720.9	-0.00439842
10731.2	-0.00457307
10741.6	-0.00475864
10751.9	-0.00495426
10762.3	-0.00515901
10772.7	-0.00537194
10783	-0.0055921
10793.4	-0.00581851
10803.7	-0.00605015
10814.1	-0.00628604
10824.4	-0.00652517
10834.8	-0.00676656
10845.1	-0.00700923
10850.3	-0.00713074
10860.7	-0.00737354
10871	-0.00761529
10881.4	-0.00785511
10891.7	-0.00809218
10902.1	-0.0083257
10912.4	-0.00855494
10922.8	-0.00877924
10933.1	-0.00899796
10943.5	-0.00921057
10953.8	-0.00941656
10964.2	-0.00961552
10974.5	-0.00980709
10984.9	-0.00999099
10990.1	-0.01008
11000.4	-0.010252
11010.8	-0.0104159
11021.1	-0.0105717
11031.5	-0.0107194
11041.8	-0.0108591
11052.2	-0.0109909
11062.6	-0.0111149
11072.9	-0.0112315
11083.3	-0.011341
11093.6	-0.0114436
11104	-0.0115397
11114.3	-0.0116297
11124.7	-0.011714
11135	-0.0117931
11140.2	-0.0118308
11150.6	-0.0119028
11160.9	-0.0119706
11171.3	-0.0120348
11181.6	-0.0120956
11192	-0.0121535
11202.3	-0.0122089
11212.7	-0.0122621
11223	-0.0123134
11233.4	-0.0123631
11243.7	-0.0124114
11254.1	-0.0124585
11264.4	-0.0125044
11274.8	-0.0125493
11285.1	-0.0125931
11290.3	-0.0126146
11300.7	-0.0126567
11311	-0.0126974
11321.4	-0.0127365
11331.7	-0.0127738
11342.1	-0.0128089
11352.4	-0.0128413
11362.8	-0.0128706
11373.2	-0.0128962
11383.5	-0.0129176
11393.9	-0.0129341
11404.2	-0.012945
11414.6	-0.0129496
11424.9	-0.012947
11430.1	-0.0129428
11440.4	-0.012928
11450.8	-0.0129039
11461.2	-0.0128698
11471.5	-0.0128245
11481.9	-0.0127673
11492.2	-0.0126972
11502.6	-0.0126133
11512.9	-0.0125146
11523.3	-0.0124002
11533.6	-0.0122693
11544	-0.0121209
11554.3	-0.0119543
11564.7	-0.0117686
11575	-0.011563
11580.2	-0.0114525
11590.6	-0.0112159
11600.9	-0.0109576
11611.3	-0.0106773
11621.6	-0.0103743
11632	-0.0100483
11642.3	-0.00969872
11652.7	-0.00932541
11663	-0.00892812
11673.4	-0.00850669
11683.8	-0.00806106
11694.1	-0.00759126
11704.5	-0.00709738
11714.8	-0.00657963
11725.2	-0.00603828
11730.3	-0.00575886
11740.7	-0.00518282
11751.1	-0.00458424
11761.4	-0.00396369
11771.8	-0.00332183
11782.1	-0.00265939
11792.5	-0.00197716
11802.8	-0.00127603
11813.2	-0.000556924
11823.5	0.000179143
11833.9	0.000931113
11844.2	0.00169787
11854.6	0.00247825
11864.9	0.00327105
11870.1	0.00367172
11880.5	0.00448081
11890.8	0.00529916
11901.2	0.00612545
11911.5	0.00695838
11921.9	0.0077966
11932.2	0.00863879
11942.6	0.00948361
11952.9	0.0103297
11963.3	0.0111759
11973.6	0.0120207
11984	0.0128631
11994.4	0.0137016
12004.7	0.0145352
12015.1	0.0153628
12020.2	0.0157739
12030.6	0.0165902
12040.9	0.0173978
12051.3	0.0181957
12061.7	0.018983
12072	0.0197588
12082.4	0.0205224
12092.7	0.0212729
12103.1	0.0220098
12113.4	0.0227325
12123.8	0.0234404
12134.1	0.024133
12144.5	0.02481
12154.8	0.025471
12160	0.0257954
12170.4	0.0264319
12180.7	0.0270517
12191.1	0.0276548
12201.4	0.0282409
12211.8	0.0288101
12222.1	0.0293623
12232.5	0.0298975
12242.8	0.0304158
12253.2	0.0309172
12263.5	0.0314019
12273.9	0.0318699
12284.2	0.0323214
12294.6	0.0327566
12305	0.0331755
12310.1	0.0333789
12320.5	0.0337738
12330.8	0.0341529
12341.2	0.0345164
12351.5	0.0348643
12361.9	0.0351968
12372.3	0.0355141
12382.6	0.0358163
12393	0.0361034
12403.3	0.0363757
12413.7	0.0366331
12424	0.0368757
12434.4	0.0371036
12444.7	0.0373169
12455.1	0.0375155
12460.3	0.0376093
12470.6	0.037786
12481	0.037948
12491.3	0.0380955
12501.7	0.0382284
12512	0.0383468
12522.4	0.0384506
12532.7	0.0385398
12543.1	0.0386145
12553.4	0.0386748
12563.8	0.0387208
12574.1	0.0387524
12584.5	0.0387698
12594.8	0.0387732
12600	0.0387697
12610.4	0.0387523
12620.7	0.0387214
12631.1	0.0386772
12641.4	0.03862
12651.8	0.0385501
12662.1	0.0384679
12672.5	0.0383739
12682.9	0.0382684
12693.2	0.0381521
12703.6	0.0380254
12713.9	0.037889
12724.3	0.0377435
12734.6	0.0375895
12745	0.0374279
12750.1	0.0373444
12760.5	0.0371727
12770.9	0.0369952
12781.2	0.0368128
12791.6	0.0366264
12801.9	0.0364369
12812.3	0.0362451
12822.6	0.0360521
12833	0.0358587
12843.3	0.0356659
12853.7	0.0354746
12864	0.0352858
12874.4	0.0351004
12884.7	0.0349194
12895.1	0.0347435
12900.3	0.0346578
12910.6	0.0344914
12921	0.0343323
12931.3	0.0341814
12941.7	0.0340393
12952	0.0339066
12962.4	0.0337842
12972.7	0.0336724
12983.1	0.0335719
12993.5	0.033483
13003.8	0.0334061
13014.2	0.0333415
13024.5	0.0332893
13034.9	0.0332498
13040	0.0332347
13050.4	0.0332141
13060.8	0.0332059
13071.1	0.03321
13081.5	0.033226
13091.8	0.0332537
13102.2	0.0332924
13112.5	0.0333417
13122.9	0.0334008
13133.2	0.0334689
13143.6	0.0335453
13153.9	0.0336289
13164.3	0.0337187
13174.6	0.0338136
13185	0.0339124
13190.2	0.0339628
13200.5	0.0340649
13210.9	0.0341675
13221.2	0.0342691
13231.6	0.0343681
13241.9	0.0344631
13252.3	0.0345522
13262.6	0.0346339
13273	0.0347063
13283.3	0.0347677
13293.7	0.0348162
13304.1	0.0348501
13314.4	0.0348673
13324.8	0.0348661
13335.1	0.0348446
13340.3	0.0348257
13350.6	0.0347702
13361	0.0346896
13371.4	0.0345823
13381.7	0.0344462
13392.1	0.0342797
13402.4	0.0340809
13412.8	0.0338483
13423.1	0.0335801
13433.5	0.0332749
13443.8	0.032931
13454.2	0.0325471
13464.5	0.0321219
13474.9	0.0316541
13480.1	0.0314039
13490.4	0.0308702
13500.8	0.0302913
13511.1	0.0296663
13521.5	0.0289946
13531.8	0.0282755
13542.2	0.0275086
13552.5	0.0266936
13562.9	0.0258303
13573.2	0.0249186
13583.6	0.0239586
13594	0.0229507
13604.3	0.0218952
13614.7	0.0207927
13625	0.0196439
13630.2	0.0190524
13640.5	0.0178358
13650.9	0.0165753
13661.2	0.0152721
13671.6	0.0139276
13682	0.0125432
13692.3	0.0111207
13702.7	0.00966173
13713	0.00816817
13723.4	0.006642
13733.7	0.00508533
13744.1	0.00350034
13754.4	0.00188932
13764.8	0.000254657
13775.1	-0.00140121
13780.3	-0.0022363
13790.7	-0.00391921
13801	-0.00561688
13811.4	-0.00732663
13821.7	-0.00904575
13832.1	-0.0107715
13842.4	-0.012501
13852.8	-0.0142316
13863.1	-0.0159604
13873.5	-0.0176845
13883.8	-0.0194012
13894.2	-0.0211076
13904.6	-0.0228009
13914.9	-0.0244783
13920.1	-0.0253103
13930.4	-0.0269588
13940.8	-0.0285846
13951.1	-0.0301851
13961.5	-0.0317578
13971.9	-0.0333
13982.2	-0.0348094
13992.6	-0.0362834
14002.9	-0.03772
14013.3	-0.0391167
14023.6	-0.0404715
14034	-0.0417824
14044.3	-0.0430474
14054.7	-0.0442647
14065	-0.0454327
14070.2	-0.0459976
14080.6	-0.0470885
14090.9	-0.0481262
14101.3	-0.0491096
14111.6	-0.0500373
14122	-0.0509085
14132.3	-0.0517222
14142.7	-0.0524776
14153	-0.0531743
14163.4	-0.0538116
14173.7	-0.0543894
14184.1	-0.0549073
14194.4	-0.0553655
14204.8	-0.0557639
14215.2	-0.0561028
14220.3	-0.0562501
14230.7	-0.0565005
14241	-0.0566927
14251.4	-0.0568273
14261.7	-0.0569052
14272.1	-0.0569273
14282.5	-0.0568948
14292.8	-0.0568088
14303.2	-0.0566706
14313.5	-0.0564816
14323.9	-0.0562434
14334.2	-0.0559575
14344.6	-0.0556255
14354.9	-0.0552493
14360.1	-0.0550452
14370.5	-0.054606
14380.8	-0.0541271
14391.2	-0.0536105
14401.5	-0.0530581
14411.9	-0.052472
14422.2	-0.0518542
14432.6	-0.0512067
14442.9	-0.0505315
14453.3	-0.0498307
14463.6	-0.0491062
14474	-0.0483602
14484.3	-0.0475946
14494.7	-0.0468114
14505.1	-0.0460125
14510.2	-0.0456077
14520.6	-0.0447889
14530.9	-0.043959
14541.3	-0.0431201
14551.6	-0.0422738
14562	-0.0414219
14572.3	-0.0405663
14582.7	-0.0397086
14593.1	-0.0388505
14603.4	-0.0379938
14613.8	-0.0371402
14624.1	-0.0362914
14634.5	-0.0354492
14644.8	-0.0346154
14655.2	-0.0337918
14660.4	-0.0333844
14670.7	-0.0325796
14681.1	-0.0317898
14691.4	-0.0310168
14701.8	-0.0302629
14712.1	-0.0295298
14722.5	-0.0288198
14732.8	-0.0281349
14743.2	-0.0274771
14753.5	-0.0268484
14763.9	-0.0262508
14774.2	-0.025686
14784.6	-0.0251557
14794.9	-0.0246615
14800.1	-0.0244283
14810.5	-0.0239906
14820.8	-0.0235917
14831.2	-0.0232322
14841.5	-0.0229126
14851.9	-0.0226328
14862.2	-0.0223923
14872.6	-0.0221906
14883	-0.0220263
14893.3	-0.021898
14903.7	-0.0218038
14914	-0.0217415
14924.4	-0.0217085
14934.7	-0.021702
14945.1	-0.0217188
14950.2	-0.0217349
14960.6	-0.0217805
14971	-0.0218407
14981.3	-0.0219121
14991.7	-0.0219909
15002	-0.0220734
15012.4	-0.0221561
15022.7	-0.0222355
15033.1	-0.0223083
15043.4	-0.0223714
15053.8	-0.0224219
15064.1	-0.0224573
15074.5	-0.0224752
15084.8	-0.0224738
15090	-0.0224652
15100.4	-0.0224317
15110.7	-0.0223753
15121.1	-0.0222952
15131.4	-0.0221909
15141.8	-0.0220622
15152.1	-0.0219093
15162.5	-0.0217323
15172.8	-0.0215321
15183.2	-0.0213094
15193.6	-0.0210652
15203.9	-0.0208008
15214.3	-0.0205175
15224.6	-0.0202168
15235	-0.0199003
15240.1	-0.0197367
15250.5	-0.0193997
15260.9	-0.0190514
15271.2	-0.0186934
15281.6	-0.0183278
15291.9	-0.0179565
15302.3	-0.0175814
15312.6	-0.0172046
15323	-0.016828
15333.3	-0.0164538
15343.7	-0.0160841
15354	-0.015721
15364.4	-0.0153667
15374.7	-0.0150234
15385.1	-0.0146935
15390.3	-0.0145342
15400.6	-0.0142285
15411	-0.0139421
15421.3	-0.0136774
15431.7	-0.0134369
15442	-0.0132231
15452.4	-0.0130388
15462.7	-0.0128865
15473.1	-0.0127688
15483.4	-0.0126887
15493.8	-0.0126486
15504.2	-0.0126513
15514.5	-0.0126995
15524.9	-0.0127958
15530	-0.0128629
15540.4	-0.0130361
15550.7	-0.0132638
15561.1	-0.0135482
15571.5	-0.0138916
15581.8	-0.014296
15592.2	-0.0147633
15602.5	-0.0152953
15612.9	-0.0158935
15623.2	-0.0165592
15633.6	-0.0172934
15643.9	-0.018097
15654.3	-0.0189706
15664.6	-0.0199145
15675	-0.0209287
15680.2	-0.021462
15690.5	-0.0225811
15700.9	-0.0237692
15711.2	-0.0250255
15721.6	-0.0263486
15731.9	-0.0277371
15742.3	-0.029189
15752.6	-0.0307022
15763	-0.0322745
15773.3	-0.033903
15783.7	-0.0355851
15794	-0.0373174
15804.4	-0.0390967
15814.8	-0.0409195
15825.1	-0.0427819
15830.3	-0.0437268
15840.6	-0.0456414
15851	-0.0475855
15861.3	-0.049555
15871.7	-0.0515454
15882.1	-0.0535521
15892.4	-0.0555705
15902.8	-0.0575961
15913.1	-0.0596239
15923.5	-0.0616492
15933.8	-0.0636672
15944.2	-0.065673
15954.5	-0.0676617
15964.9	-0.0696285
15970.1	-0.0706022
15980.4	-0.0725269
15990.8	-0.0744177
16001.1	-0.0762696
16011.5	-0.0780779
16021.8	-0.0798379
16032.2	-0.081545
16042.5	-0.0831946
16052.9	-0.0847822
16063.2	-0.0863034
16073.6	-0.0877538
16083.9	-0.0891294
16094.3	-0.0904259
16104.7	-0.0916394
16115	-0.0927661
16120.2	-0.0932957
16130.5	-0.0942853
16140.9	-0.0951791
16151.2	-0.0959739
16161.6	-0.0966666
16171.9	-0.0972543
16182.3	-0.0977343
16192.7	-0.0981043
16203	-0.098362
16213.4	-0.0985054
16223.7	-0.0985329
16234.1	-0.098443
16244.4	-0.0982346
16254.8	-0.0979069
16265.1	-0.0974593
16270.3	-0.0971904
16280.7	-0.0965625
16291	-0.0958146
16301.4	-0.0949472
16311.7	-0.0939612
16322.1	-0.0928577
16332.4	-0.0916382
16342.8	-0.0903044
16353.1	-0.0888583
16363.5	-0.0873024
16373.8	-0.0856393
16384.2	-0.083872
16394.5	-0.0820035
16404.9	-0.0800375
16410.1	-0.0790191
16420.4	-0.0769138
16430.8	-0.0747207
16441.1	-0.072444
16451.5	-0.0700883
16461.8	-0.0676582
16472.2	-0.0651586
16482.6	-0.0625945
16492.9	-0.059971
16503.3	-0.0572934
16513.6	-0.054567
16524	-0.0517973
16534.3	-0.0489897
16544.7	-0.0461497
16555	-0.043283
16560.2	-0.0418413
16570.6	-0.0389447
16580.9	-0.0360352
16591.3	-0.0331182
16601.6	-0.030199
16612	-0.0272831
16622.3	-0.0243755
16632.7	-0.0214815
16643	-0.0186059
16653.4	-0.0157535
16663.7	-0.0129291
16674.1	-0.010137
16684.4	-0.00738158
16694.8	-0.00466687
16705.1	-0.00199676
16710.3	-0.000679577
16720.7	0.00191686
16731	0.00445998
16741.4	0.00694669
16751.7	0.00937414
16762.1	0.0117397
16772.4	0.014041
16782.8	0.0162759
16793.2	0.0184424
16803.5	0.0205389
16813.9	0.0225639
16824.2	0.0245162
16834.6	0.0263949
16844.9	0.028199
16850.1	0.029073
16860.5	0.0307644
16870.8	0.0323804
16881.2	0.0339208
16891.5	0.0353859
16901.9	0.0367759
16912.2	0.0380913
16922.6	0.0393329
16932.9	0.0405015
16943.3	0.0415981
16953.6	0.0426238
16964	0.04358
16974.3	0.044468
16984.7	0.0452894
16995	0.0460459
17000.2	0.0464003
17010.6	0.0470626
17020.9	0.0476645
17031.3	0.0482078
17041.6	0.0486946
17052	0.0491269
17062.3	0.0495068
17072.7	0.0498364
17083	0.0501179
17093.4	0.0503533
17103.8	0.0505449
17114.1	0.0506947
17124.5	0.050805
17134.8	0.0508779
17145.2	0.0509154
17150.3	0.0509215
17160.7	0.0509098
17171.1	0.0508678
17181.4	0.0507975
17191.8	0.0507009
17202.1	0.0505797
17212.5	0.0504357
17222.8	0.0502708
17233.2	0.0500867
17243.5	0.0498848
17253.9	0.0496668
17264.2	0.0494342
17274.6	0.0491883
17284.9	0.0489306
17290.1	0.0487977
17300.5	0.0485245
17310.8	0.0482425
17321.2	0.0479527
17331.5	0.0476562
17341.9	0.047354
17352.2	0.0470468
17362.6	0.0467356
17372.9	0.046421
17383.3	0.0461039
17393.7	0.0457846
17404	0.045464
17414.4	0.0451423
17424.7	0.0448202
17435.1	0.0444979
17440.2	0.0443368
17450.6	0.0440149
17460.9	0.0436936
17471.3	0.0433732
17481.7	0.0430538
17492	0.0427354
17502.4	0.0424183
17512.7	0.0421024
17523.1	0.0417878
17533.4	0.0414743
17543.8	0.0411621
17554.1	0.0408509
17564.5	0.0405407
17574.8	0.0402314
17580	0.0400769
17590.4	0.0397685
17600.7	0.0394604
17611.1	0.0391526
17621.4	0.0388447
17631.8	0.0385365
17642.1	0.0382278
17652.5	0.0379184
17662.8	0.037608
17673.2	0.0372964
17683.5	0.0369834
17693.9	0.0366686
17704.3	0.036352
17714.6	0.0360333
17725	0.0357124
17730.1	0.035551
17740.5	0.0352263
17750.8	0.0348989
17761.2	0.0345688
17771.6	0.0342358
17781.9	0.0338999
17792.3	0.0335611
17802.6	0.0332193
17813	0.0328746
17823.3	0.0325271
17833.7	0.0321767
17844	0.0318237
17854.4	0.0314682
17864.7	0.0311104
17875.1	0.0307504
17880.3	0.0305697
17890.6	0.0302069
17901	0.0298427
17911.3	0.0294772
17921.7	0.0291108
17932	0.0287437
17942.4	0.0283764
17952.7	0.0280091
17963.1	0.0276421
17973.4	0.0272759
17983.8	0.0269108
17994.1	0.0265471
18004.5	0.0261852
18014.9	0.0258253
18020	0.0256463
18030.4	0.0252902
18040.7	0.024937
18051.1	0.024587
18061.4	0.0242404
18071.8	0.0238976
18082.2	0.0235587
18092.5	0.0232241
18102.9	0.022894
18113.2	0.0225686
18123.6	0.022248
18133.9	0.0219325
18144.3	0.0216223
18154.6	0.0213175
18165	0.0210183
18170.2	0.0208708
18180.5	0.0205802
18190.9	0.0202955
18201.2	0.0200168
18211.6	0.0197442
18221.9	0.0194777
18232.3	0.0192175
18242.6	0.0189634
18253	0.0187155
18263.3	0.0184738
18273.7	0.0182382
18284	0.0180086
18294.4	0.0177848
18304.8	0.0175667
18315.1	0.0173539
18320.3	0.0172495
18330.6	0.0170443
18341	0.0168437
18351.3	0.0166473
18361.7	0.0164547
18372	0.0162652
18382.4	0.0160784
18392.8	0.0158936
18403.1	0.0157102
18413.5	0.0155273
18423.8	0.0153443
18434.2	0.0151603
18444.5	0.0149745
18454.9	0.0147859
18460.1	0.0146903
18470.4	0.0144958
18480.8	0.0142961
18491.1	0.0140901
18501.5	0.013877
18511.8	0.0136555
18522.2	0.0134246
18532.5	0.0131832
18542.9	0.0129303
18553.2	0.0126647
18563.6	0.0123853
18573.9	0.0120911
18584.3	0.0117811
18594.6	0.0114542
18605	0.0111094
18610.2	0.01093
18620.5	0.0105567
18630.9	0.0101632
18641.2	0.00974869
18651.6	0.00931247
18661.9	0.00885381
18672.3	0.00837208
18682.7	0.00786674
18693	0.00733731
18703.4	0.00678342
18713.7	0.00620478
18724.1	0.0056012
18734.4	0.00497259
18744.8	0.00431894
18755.1	0.00364037
18760.3	0.0032918
18770.7	0.00257627
18781	0.00183654
18791.4	0.00107308
18801.7	0.00028645
18812.1	-0.000522669
18822.4	-0.00135351
18832.8	-0.00220523
18843.1	-0.00307686
18853.5	-0.00396738
18863.8	-0.00487568
18874.2	-0.00580057
18884.5	-0.00674079
18894.9	-0.00769503
18900.1	-0.00817699
18910.4	-0.00914967
18920.8	-0.0101329
18931.1	-0.0111251
18941.5	-0.0121248
18951.8	-0.0131305
18962.2	-0.0141406
18972.5	-0.0151536
18982.9	-0.0161678
18993.3	-0.0171817
19003.6	-0.0181937
19014	-0.0192023
19024.3	-0.0202059
19034.7	-0.021203
19045	-0.0221921
19050.2	-0.0226832
19060.5	-0.0236575
19070.9	-0.0246202
19081.3	-0.0255699
19091.6	-0.0265052
19102	-0.0274248
19112.3	-0.0283276
19122.7	-0.0292121
19133	-0.0300774
19143.4	-0.0309222
19153.7	-0.0317455
19164.1	-0.0325463
19174.4	-0.0333235
19184.8	-0.0340763
19195.1	-0.0348037
19200.3	-0.0351577
19210.7	-0.0358455
19221	-0.036506
19231.4	-0.0371384
19241.7	-0.0377419
19252.1	-0.0383161
19262.4	-0.0388602
19272.8	-0.0393736
19283.1	-0.039856
19293.5	-0.0403067
19303.9	-0.0407252
19314.2	-0.0411113
19324.6	-0.0414644
19334.9	-0.0417843
19340.1	-0.0419317
19350.4	-0.0422011
19360.8	-0.0424365
19371.2	-0.0426377
19381.5	-0.0428044
19391.9	-0.0429366
19402.2	-0.043034
19412.6	-0.0430967
19422.9	-0.0431246
19433.3	-0.0431176
19443.6	-0.0430759
19454	-0.0429995
19464.3	-0.0428885
19474.7	-0.0427431
19485	-0.0425635
19490.2	-0.0424611
19500.6	-0.0422308
19510.9	-0.0419672
19521.3	-0.0416706
19531.6	-0.0413415
19542	-0.0409803
19552.3	-0.0405877
19562.7	-0.0401642
19573	-0.0397105
19583.4	-0.0392273
19593.7	-0.0387153
19604.1	-0.0381754
19614.5	-0.0376084
19624.8	-0.0370153
19635.2	-0.036397
19640.3	-0.0360787
19650.7	-0.0354245
19661	-0.0347477
19671.4	-0.0340495
19681.8	-0.0333311
19692.1	-0.0325937
19702.5	-0.0318385
19712.8	-0.0310669
19723.2	-0.0302802
19733.5	-0.0294798
19743.9	-0.0286672
19754.2	-0.0278437
19764.6	-0.0270108
19774.9	-0.02617
19780.1	-0.0257471
19790.5	-0.0248973
19800.8	-0.0240433
19811.2	-0.0231866
19821.5	-0.0223288
19831.9	-0.0214713
19842.2	-0.0206156
19852.6	-0.0197631
19862.9	-0.0189153
19873.3	-0.0180735
19883.6	-0.0172391
19894	-0.0164134
19904.4	-0.0155978
19914.7	-0.0147934
19925.1	-0.0140014
19930.2	-0.0136105
19940.6	-0.0128394
19950.9	-0.0120836
19961.3	-0.0113441
19971.6	-0.010622
19982	-0.00991812
19992.4	-0.00923348
