0	0
11.5399	0
20.7718	0
30.0037	0
41.5436	0
50.7755	0
60.0074	0
71.5473	0
80.7792	0
90.0111	0
101.551	0
110.783	0
120.015	0
131.555	0
140.787	0
150.018	0
161.558	0
170.79	0
180.022	0
191.562	0
200.794	0
210.026	0
221.566	0
230.798	0
240.03	0
251.569	0
260.801	0
270.033	0
281.573	0
290.805	0
300.037	0
311.577	0
320.809	0
330.041	0
341.581	0
350.812	0
360.044	0
371.584	0
380.816	0
390.048	0
401.588	0
410.82	0
420.052	0
431.592	0
440.824	0
450.055	0
461.595	0
470.827	0
480.059	0
491.599	0
500.831	0
510.063	0
521.603	0
530.835	0
540.067	0
551.606	0
560.838	0
570.07	0
581.61	0
590.842	0
600.074	0
611.614	0
620.846	0
630.078	0
641.618	0
650.849	0
660.081	0
671.621	0
680.853	0
690.085	0
701.625	0
710.857	0
720.089	0
731.629	0
740.861	0
750.092	0
761.632	0
770.864	0
780.096	0
791.636	0
800.868	0
810.1	0
821.64	0
830.872	0
840.104	0
851.643	0
860.875	0
870.107	0
881.647	0
890.879	0
900.111	0
911.651	0
920.883	0
930.115	0
941.654	0
950.886	0
960.118	0
971.658	0
980.89	0
990.122	0
1001.66	0
1010.89	0
1020.13	0
1031.67	0
1040.9	0
1050.13	0
1061.67	0
1070.9	0
1080.13	0
1091.67	0
1100.9	0
1110.14	0
1121.68	0
1130.91	0
1140.14	0
1151.68	0
1160.91	0
1170.14	0
1181.68	0
1190.92	0
1200.15	0
1211.69	0
1220.92	0
1230.15	0
1241.69	0
1250.92	0
1260.16	0
1271.7	0
1280.93	0
1290.16	0
1301.7	0
1310.93	0
1320.16	0
1331.7	0
1340.93	0
1350.17	0
1361.71	0
1370.94	0
1380.17	0
1391.71	0
1400.94	0
1410.17	0
1421.71	0
1430.95	0
1440.18	0
1451.72	0
1460.95	0
1470.18	0
1481.72	0
1490.95	0
1500.18	0
1511.72	0
1520.96	0
1530.19	0
1541.73	0
1550.96	0
1560.19	0
1571.73	0
1580.96	0
1590.2	0
1601.74	0
1610.97	0
1620.2	0
1631.74	0
1640.97	0
1650.2	0
1661.74	0
1670.98	0
1680.21	0
1691.75	0
1700.98	0
1710.21	0
1721.75	0
1730.98	0
1740.21	0
1751.75	0
1760.99	0
1770.22	0
1781.76	0
1790.99	0
1800.22	0
1811.76	0
1820.99	0
1830.23	0
1841.77	0
1851	0
1860.23	0
1871.77	0
1881	0
1890.23	0
1901.77	0
1911	0
1920.24	0
1931.78	0
1941.01	0
1950.24	0
1961.78	0
1971.01	0
1980.24	0
1991.78	0
2001.02	0
2010.25	0
2021.79	0
2031.02	0
2040.25	0
2051.79	0
2061.02	0
2070.26	0
2081.79	0
2091.03	0
2100.26	0
2111.8	0
2121.03	0
2130.26	0
2141.8	0
2151.03	0
2160.27	0
2171.81	0
2181.04	0
2190.27	0
2201.81	0
2211.04	0
2220.27	0
2231.81	0
2241.05	0
2250.28	0
2261.82	0
2271.05	0
2280.28	0
2291.82	0
2301.05	0
2310.28	0
2321.82	0
2331.06	0
2340.29	0
2351.83	0
2361.06	0
2370.29	0
2381.83	0
2391.06	0
2400.3	0
2411.84	0
2421.07	0
2430.3	0
2441.84	0
2451.07	0
2460.3	0
2471.84	0
2481.07	0
2490.31	0
2501.85	0
2511.08	0
2520.31	0
2531.85	0
2541.08	0
2550.31	0
2561.85	0
2571.09	0
2580.32	0
2591.86	0
2601.09	0
2610.32	0
2621.86	0
2631.09	0
2640.33	0
2651.87	0
2661.1	0
2670.33	0
2681.87	0
2691.1	0
2700.33	0
2711.87	0
2721.1	0
2730.34	0
2741.88	0
2751.11	0
2760.34	0
2771.88	0
2781.11	0
2790.34	0
2801.88	0
2811.12	0
2820.35	0
2831.89	0
2841.12	0
2850.35	0
2861.89	0
2871.12	0
2880.35	9.09495e-13
2891.89	2.72848e-12
2901.13	6.36646e-12
2910.36	1.09139e-11
2921.9	2.27374e-11
2931.13	3.91083e-11
2940.36	6.73026e-11
2951.9	1.29148e-10
2961.13	2.13731e-10
2970.36	3.50155e-10
2981.9	6.38465e-10
2991.14	1.02045e-09
3000.37	1.61435e-09
3011.91	2.82216e-09
3021.14	4.36376e-09
3030.37	6.68297e-09
3041.91	1.12314e-08
3051.14	1.68311e-08
3060.37	2.49856e-08
3071.91	4.04088e-08
3081.15	5.87506e-08
3090.38	8.46449e-08
3101.92	1.31937e-07
3111.15	1.86321e-07
3120.38	2.60838e-07
3131.92	3.92425e-07
3141.15	5.38918e-07
3150.38	7.33941e-07
3161.92	1.06734e-06
3171.16	1.4271e-06
3180.39	1.89293e-06
3191.93	2.6649e-06
3201.16	3.47323e-06
3210.39	4.49238e-06
3221.93	6.13168e-06
3231.16	7.7994e-06
3240.39	9.84914e-06
3251.93	1.30534e-05
3261.16	1.62246e-05
3270.4	2.00284e-05
3281.94	2.58155e-05
3291.17	3.13941e-05
3300.4	3.79323e-05
3311.94	4.76266e-05
3321.17	5.6741e-05
3330.4	6.71915e-05
3341.94	8.23136e-05
3351.17	9.61994e-05
3360.4	0.000111795
3371.94	0.00013385
3381.18	0.000153657
3390.41	0.000175475
3401.95	0.000205674
3411.18	0.000232236
3420.41	0.000260967
3431.95	0.000299947
3441.18	0.000333573
3450.41	0.000369334
3461.95	0.000416957
3471.18	0.000457304
3480.41	0.000499548
3491.95	0.000554849
3501.19	0.00060093
3510.42	0.000648494
3521.96	0.000709802
3531.19	0.000760135
3540.42	0.000811435
3551.96	0.00087667
3561.19	0.000929553
3570.42	0.00098289
3581.96	0.00104999
3591.19	0.00110387
3600.42	0.0011578
3611.96	0.0012252
3621.19	0.00127902
3630.43	0.00133275
3641.96	0.00139976
3651.2	0.00145331
3660.43	0.00150687
3671.97	0.00157398
3681.2	0.00162795
3690.43	0.00168232
3701.97	0.00175112
3711.2	0.00180705
3720.43	0.00186398
3731.97	0.00193686
3741.2	0.0019968
3750.43	0.00205841
3761.97	0.00213809
3771.2	0.00220418
3780.44	0.00227256
3791.97	0.00236151
3801.21	0.00243562
3810.44	0.00251252
3821.98	0.00261274
3831.21	0.00269636
3840.44	0.0027832
3851.98	0.0028965
3861.21	0.00299117
3870.44	0.00308968
3881.98	0.0032187
3891.21	0.00332711
3900.44	0.00344069
3911.98	0.00359099
3921.21	0.00371892
3930.45	0.00385485
3941.99	0.0040381
3951.22	0.0041974
3960.45	0.00437019
3971.99	0.00460894
3981.22	0.00482179
3990.45	0.00505794
4001.99	0.0053924
4011.22	0.00569756
4020.45	0.00604256
4031.99	0.00654055
4041.22	0.00700232
4050.46	0.00753075
4062	0.00830193
4071.23	0.00902301
4080.46	0.00985258
4092	0.0110679
4101.23	0.0122062
4110.46	0.0135158
4122	0.015431
4131.23	0.0172194
4140.46	0.0192687
4152	0.0222486
4161.24	0.0250125
4170.47	0.0281579
4182.01	0.0326923
4191.24	0.0368587
4200.47	0.0415574
4212.01	0.0482577
4221.24	0.0543446
4230.47	0.0611363
4242.01	0.0707007
4251.25	0.0792784
4260.48	0.0887368
4272.02	0.101875
4281.25	0.113495
4290.48	0.126147
4302.02	0.143467
4311.25	0.158562
4320.49	0.174781
4332.03	0.196649
4341.26	0.215419
4350.49	0.23531
4362.03	0.261712
4371.26	0.284016
4380.49	0.307317
4390.53	0.333699
4402.07	0.365262
4411.3	0.39134
4420.53	0.418036
4432.07	0.452094
4441.3	0.47973
4450.53	0.507556
4462.07	0.542376
4471.3	0.570065
4480.54	0.597425
4492.08	0.630904
4501.31	0.656898
4510.54	0.682001
4522.08	0.711867
4531.31	0.734344
4540.54	0.755384
4552.08	0.779431
4561.31	0.79669
4570.55	0.812044
4582.09	0.828378
4591.32	0.83903
4600.55	0.847439
4612.09	0.854687
4621.32	0.857809
4630.55	0.858514
4642.09	0.85597
4651.33	0.851197
4660.56	0.844011
4672.1	0.831692
4681.33	0.819232
4690.56	0.804531
4702.1	0.783129
4711.33	0.763702
4720.56	0.742341
4732.1	0.713095
4741.34	0.687812
4750.57	0.66099
4762.11	0.625499
4771.34	0.595699
4780.57	0.564794
4792.11	0.524813
4801.34	0.491908
4810.57	0.458326
4822.11	0.415584
4831.35	0.380926
4840.58	0.345977
4852.12	0.30205
4861.35	0.26684
4870.58	0.231674
4882.12	0.187914
4891.35	0.153169
4900.59	0.118744
4912.13	0.0762738
4921.36	0.0428313
4930.59	0.0099335
4942.13	-0.03033
4951.36	-0.0617842
4960.59	-0.0925072
4972.13	-0.129805
4981.36	-0.1587
4990.6	-0.186706
5002.14	-0.220398
5011.37	-0.246249
5020.6	-0.271077
5032.14	-0.300619
5041.37	-0.323017
5050.6	-0.344283
5062.14	-0.369228
5071.38	-0.387844
5080.61	-0.405245
5092.15	-0.425258
5101.38	-0.43986
5110.61	-0.453197
5122.15	-0.468079
5131.38	-0.47855
5140.61	-0.487747
5152.15	-0.49746
5161.39	-0.503818
5170.62	-0.508934
5182.16	-0.513614
5191.39	-0.516014
5200.62	-0.517249
5212.16	-0.517204
5221.39	-0.51594
5230.63	-0.513626
5242.17	-0.509322
5251.4	-0.504806
5260.63	-0.499387
5272.17	-0.491422
5281.4	-0.484161
5290.63	-0.476168
5302.17	-0.465232
5311.4	-0.455796
5320.64	-0.445812
5332.18	-0.432647
5341.41	-0.421638
5350.64	-0.410265
5362.18	-0.395625
5371.41	-0.38364
5380.64	-0.37147
5392.18	-0.356078
5401.42	-0.343681
5410.65	-0.331263
5422.19	-0.315778
5431.42	-0.303475
5440.65	-0.291289
5452.19	-0.27628
5461.42	-0.264493
5470.65	-0.252937
5482.19	-0.238859
5491.43	-0.22792
5500.66	-0.217294
5512.2	-0.204479
5521.43	-0.19462
5530.66	-0.185126
5542.2	-0.173786
5551.43	-0.165145
5560.66	-0.156892
5572.2	-0.147128
5581.44	-0.139758
5590.67	-0.132779
5602.21	-0.124601
5611.44	-0.118489
5620.67	-0.112754
5632.21	-0.106105
5641.44	-0.101193
5650.68	-0.096632
5662.22	-0.0914134
5671.45	-0.087613
5680.68	-0.0841356
5692.22	-0.0802285
5701.45	-0.0774432
5710.68	-0.0749507
5722.22	-0.0722327
5731.45	-0.0703658
5740.69	-0.068763
5752.23	-0.0671183
5761.46	-0.0660797
5770.69	-0.0652792
5782.23	-0.0646018
5791.46	-0.0643096
5800.69	-0.0642314
5812.23	-0.064424
5821.46	-0.0648016
5830.7	-0.0653703
5842.24	-0.0663387
5851.47	-0.0673106
5860.7	-0.0684494
5872.24	-0.0700958
5881.47	-0.0715812
5890.7	-0.0732068
5902.24	-0.0754224
5911.48	-0.0773302
5920.71	-0.0793474
5932.25	-0.082007
5941.48	-0.0842316
5950.71	-0.08653
5962.25	-0.0894885
5971.48	-0.0919086
5980.71	-0.0943621
5992.25	-0.0974558
6001.49	-0.0999357
6010.72	-0.102405
6022.26	-0.105456
6031.49	-0.10785
6040.72	-0.110189
6052.26	-0.113012
6061.49	-0.115174
6070.73	-0.117235
6082.26	-0.119651
6091.5	-0.12144
6100.73	-0.123088
6112.27	-0.124933
6121.5	-0.126225
6130.73	-0.127344
6142.27	-0.128484
6151.5	-0.129182
6160.74	-0.129682
6172.28	-0.130021
6181.51	-0.130058
6190.74	-0.129885
6202.28	-0.129369
6211.51	-0.128718
6220.74	-0.127853
6232.28	-0.126478
6241.51	-0.125144
6250.75	-0.123608
6262.29	-0.121411
6271.52	-0.11944
6280.75	-0.117285
6292.29	-0.114346
6301.52	-0.111808
6310.75	-0.109115
6322.29	-0.105546
6331.53	-0.10254
6340.76	-0.0994114
6352.3	-0.095346
6361.53	-0.0919833
6370.76	-0.0885349
6382.3	-0.0841215
6391.53	-0.0805223
6400.76	-0.0768746
6412.3	-0.0722639
6421.54	-0.0685478
6430.77	-0.0648189
6440	-0.0610875
6451.54	-0.0564348
6460.77	-0.0527335
6470	-0.0490605
6481.54	-0.0445216
6490.78	-0.040942
6500.01	-0.0374159
6511.55	-0.0330938
6520.78	-0.0297115
6530.01	-0.0264021
6541.55	-0.0223747
6550.78	-0.0192453
6560.01	-0.0162017
6571.55	-0.0125222
6580.79	-0.00968131
6590.02	-0.00693358
6601.56	-0.0036318
6610.79	-0.00109769
6620.02	0.00134058
6631.56	0.00425347
6640.79	0.00647603
6650.03	0.00860322
6661.57	0.0111289
6670.8	0.0130437
6680.03	0.0148651
6691.57	0.0170116
6700.8	0.0186255
6710.03	0.0201481
6721.57	0.0219237
6730.8	0.0232424
6740.04	0.0244707
6751.58	0.025879
6760.81	0.0269035
6770.04	0.0278368
6781.58	0.0288742
6790.81	0.0295997
6800.04	0.0302313
6811.58	0.0308873
6820.81	0.0313037
6830.05	0.0316225
6841.59	0.0318819
6850.82	0.0319766
6860.05	0.03197
6871.59	0.0318178
6880.82	0.03158
6890.05	0.0312384
6901.59	0.0306652
6910.83	0.0300898
6920.06	0.0294111
6931.6	0.0284187
6940.83	0.0275111
6950.06	0.0265044
6961.6	0.0251098
6970.83	0.0238885
6980.06	0.0225765
6991.6	0.0208144
7000.84	0.0193117
7010.07	0.017731
7021.61	0.0156526
7030.84	0.0139139
7040.07	0.0121134
7051.61	0.00978408
7060.84	0.00786473
7070.08	0.00590198
7081.62	0.00339658
7090.85	0.00135799
7100.08	-0.000704545
7111.62	-0.00330727
7120.85	-0.0054019
7130.08	-0.00750126
7141.62	-0.0101235
7150.85	-0.0122129
7160.09	-0.0142891
7171.63	-0.0168577
7180.86	-0.0188853
7190.09	-0.0208833
7201.63	-0.0233323
7210.86	-0.0252473
7220.09	-0.0271183
7231.63	-0.0293891
7240.86	-0.0311466
7250.1	-0.0328474
7261.64	-0.0348884
7270.87	-0.0364487
7280.1	-0.0379411
7291.64	-0.0397061
7300.87	-0.0410338
7310.1	-0.0422832
7321.64	-0.0437305
7330.87	-0.044793
7340.11	-0.0457679
7351.65	-0.0468591
7360.88	-0.0476268
7370.11	-0.0482983
7381.65	-0.0489986
7390.88	-0.0494447
7400.11	-0.0497871
7411.65	-0.0500658
7420.88	-0.0501672
7430.12	-0.0501585
7441.66	-0.0499904
7450.89	-0.0497285
7460.12	-0.0493519
7471.66	-0.0487185
7480.89	-0.0480805
7490.12	-0.0473254
7501.66	-0.0462161
7510.89	-0.0451962
7520.13	-0.0440588
7531.67	-0.0424722
7540.9	-0.041072
7550.13	-0.0395561
7561.67	-0.0375006
7570.9	-0.0357294
7580.13	-0.033847
7591.67	-0.0313409
7600.9	-0.029216
7610.14	-0.0269871
7621.67	-0.0240588
7630.91	-0.0216059
7640.14	-0.0190584
7651.68	-0.0157463
7660.91	-0.012999
7670.14	-0.010169
7681.68	-0.00652184
7690.91	-0.00352172
7700.14	-0.000453462
7711.68	0.00347013
7720.92	0.00667329
7730.15	0.0099277
7741.69	0.0140592
7750.92	0.0174079
7760.15	0.0207888
7771.69	0.0250504
7780.92	0.0284803
7790.15	0.0319213
7801.69	0.0362278
7810.93	0.0396689
7820.16	0.0430988
7831.7	0.0473599
7840.93	0.0507391
7850.16	0.0540846
7861.7	0.0582084
7870.93	0.061453
7880.16	0.0646419
7891.7	0.0685404
7900.94	0.0715816
7910.17	0.0745477
7921.71	0.0781415
7930.94	0.0809194
7940.17	0.0836061
7951.71	0.0868302
7960.94	0.0892976
7970.17	0.0916624
7981.71	0.0944704
7990.95	0.096596
8000.18	0.0986129
8011.72	0.10098
8020.95	0.10275
8030.18	0.104411
8041.72	0.106334
8050.95	0.107752
8060.18	0.109065
8071.72	0.110561
8080.96	0.111646
8090.19	0.112633
8101.73	0.113735
8110.96	0.114514
8120.19	0.115207
8131.73	0.115956
8140.96	0.116466
8150.19	0.116899
8161.73	0.117338
8170.97	0.117612
8180.2	0.117819
8191.74	0.117989
8200.97	0.118056
8210.2	0.118064
8221.74	0.117994
8230.97	0.117875
8240.2	0.117702
8251.74	0.11741
8260.98	0.117117
8270.21	0.116771
8281.75	0.116264
8290.98	0.115798
8300.21	0.115279
8311.75	0.114554
8320.98	0.113912
8330.21	0.113214
8341.75	0.112263
8350.99	0.111437
8360.22	0.110555
8371.76	0.10937
8380.99	0.108357
8390.22	0.107286
8401.76	0.105867
8410.99	0.104668
8420.23	0.103414
8431.77	0.101769
8441	0.100395
8450.23	0.0989703
8461.77	0.0971223
8471	0.0955934
8480.23	0.0940227
8491.77	0.0920055
8501	0.0903528
8510.24	0.0886694
8521.78	0.0865277
8531.01	0.0847892
8540.24	0.0830327
8551.78	0.0808178
8561.01	0.0790354
8570.24	0.0772479
8581.78	0.0750121
8591.02	0.0732269
8600.25	0.0714484
8611.79	0.0692397
8621.02	0.0674877
8630.25	0.0657519
8641.79	0.0636082
8651.02	0.0619164
8660.25	0.0602468
8671.79	0.0581924
8681.03	0.0565758
8690.26	0.0549833
8701.8	0.0530263
8711.03	0.0514866
8720.26	0.0499688
8731.8	0.0481001
8741.03	0.0466258
8750.27	0.0451675
8761.81	0.0433633
8771.04	0.0419315
8780.27	0.0405068
8791.81	0.0387311
8801.04	0.0373106
8810.27	0.0358867
8821.81	0.0340968
8831.04	0.0326526
8840.28	0.0311941
8851.82	0.0293458
8861.05	0.0278435
8870.28	0.026317
8881.82	0.0243712
8891.05	0.0227817
8900.28	0.0211609
8911.82	0.0190885
8921.06	0.0173923
8930.29	0.0156611
8941.83	0.0134478
8951.06	0.0116377
8960.29	0.00979341
8971.83	0.00744145
8981.06	0.00552447
8990.29	0.0035781
9001.83	0.00110734
9011.07	-0.000896199
9020.3	-0.0029204
9031.84	-0.00547461
9041.07	-0.00753275
9050.3	-0.00959988
9061.84	-0.0121903
9071.07	-0.0142629
9080.31	-0.016331
9091.85	-0.0189035
9101.08	-0.0209463
9110.31	-0.0229708
9121.85	-0.0254699
9131.08	-0.0274389
9140.31	-0.029377
9151.85	-0.0317508
9161.08	-0.0336067
9170.32	-0.0354208
9181.86	-0.0376257
9191.09	-0.0393362
9200.32	-0.0409969
9211.86	-0.0429999
9221.09	-0.0445419
9230.32	-0.046029
9241.86	-0.0478087
9251.1	-0.0491684
9260.33	-0.0504706
9271.87	-0.0520168
9281.1	-0.0531884
9290.33	-0.0543022
9301.87	-0.0556132
9311.1	-0.0565975
9320.33	-0.057525
9331.87	-0.0586052
9341.11	-0.0594069
9350.34	-0.0601536
9361.88	-0.0610109
9371.11	-0.0616366
9380.34	-0.0622096
9391.88	-0.0628529
9401.11	-0.0633098
9410.35	-0.0637164
9421.88	-0.0641547
9431.12	-0.0644503
9440.35	-0.0646977
9451.89	-0.0649406
9461.12	-0.0650827
9470.35	-0.0651794
9481.89	-0.065238
9491.12	-0.0652363
9500.36	-0.0651929
9511.9	-0.0650821
9521.13	-0.06495
9530.36	-0.0647812
9541.9	-0.0645215
9551.13	-0.0642773
9560.36	-0.0640032
9571.9	-0.0636222
9581.13	-0.0632901
9590.37	-0.0629367
9601.91	-0.0624696
9611.14	-0.0620795
9620.37	-0.0616782
9631.91	-0.0611662
9641.14	-0.0607524
9650.37	-0.0603384
9661.91	-0.0598262
9671.15	-0.0594246
9680.38	-0.0590339
9691.92	-0.0585656
9701.15	-0.0582106
9710.38	-0.0578763
9721.92	-0.0574912
9731.15	-0.0572121
9740.39	-0.0569609
9751.92	-0.0566887
9761.16	-0.056506
9770.39	-0.0563553
9781.93	-0.0562129
9791.16	-0.0561359
9800.39	-0.0560915
9811.93	-0.0560806
9821.16	-0.0561064
9830.4	-0.0561615
9841.94	-0.0562686
9851.17	-0.0563824
9860.4	-0.0565187
9871.94	-0.0567165
9881.17	-0.0568934
9890.4	-0.0570833
9901.94	-0.0573344
9911.18	-0.0575421
9920.41	-0.0577521
9931.95	-0.0580129
9941.18	-0.058216
9950.41	-0.0584104
9961.95	-0.0586365
9971.18	-0.0588001
9980.41	-0.058945
9991.95	-0.0590959
10001.2	-0.0591893
10010.4	-0.0592559
10022	-0.0592987
10031.2	-0.0592985
10040.4	-0.059266
10052	-0.0591784
10061.2	-0.0590697
10070.4	-0.0589262
10082	-0.0586975
10091.2	-0.0584752
10100.4	-0.0582182
10112	-0.0578492
10121.2	-0.0575168
10130.4	-0.0571524
10142	-0.0566538
10151.2	-0.0562222
10160.4	-0.0557632
10172	-0.0551535
10181.2	-0.0546393
10190.4	-0.0541034
10202	-0.0534063
10211.2	-0.0528292
10220.4	-0.0522371
10232	-0.0514789
10241.2	-0.0508604
10250.4	-0.0502336
10262	-0.0494413
10271.2	-0.048803
10280.5	-0.0481628
10292	-0.0473628
10301.2	-0.0467254
10310.5	-0.0460923
10322	-0.0453097
10331.2	-0.0446929
10340.5	-0.0440861
10352	-0.0433445
10361.2	-0.0427668
10370.5	-0.0422046
10382	-0.0415264
10391.2	-0.0410055
10400.5	-0.0405054
10412	-0.039912
10421.2	-0.0394647
10430.5	-0.0390434
10442	-0.0385554
10451.2	-0.0381979
10460.5	-0.0378711
10472	-0.0375078
10481.2	-0.037255
10490.5	-0.0370371
10502	-0.0368156
10511.2	-0.0366804
10520.5	-0.0365836
10532	-0.0365179
10541.3	-0.0365104
10550.5	-0.0365437
10562	-0.0366433
10571.3	-0.0367696
10580.5	-0.0369377
10592	-0.0372065
10601.3	-0.0374681
10610.5	-0.0377708
10622	-0.0382062
10631.3	-0.0385993
10640.5	-0.0390312
10652	-0.0396241
10661.3	-0.0401395
10670.5	-0.0406899
10682	-0.0414249
10691.3	-0.0420487
10700.5	-0.0427023
10712	-0.0435587
10721.3	-0.044273
10730.5	-0.0450111
10742	-0.0459642
10751.3	-0.0467484
10760.5	-0.0475497
10772	-0.0485722
10781.3	-0.0494042
10790.5	-0.0502464
10802.1	-0.0513103
10811.3	-0.0521676
10820.5	-0.0530284
10832.1	-0.0541058
10841.3	-0.0549666
10850.5	-0.0558242
10862.1	-0.0568888
10871.3	-0.0577322
10880.5	-0.0585663
10892.1	-0.059593
10901.3	-0.0603996
10910.5	-0.061191
10922.1	-0.0621566
10931.3	-0.0629079
10940.5	-0.0636388
10952.1	-0.0645211
10961.3	-0.0652
10970.5	-0.0658532
10982.1	-0.0666313
10991.3	-0.067221
11000.5	-0.06778
11012.1	-0.0684333
11021.3	-0.0689176
11030.5	-0.0693663
11042.1	-0.0698747
11051.3	-0.0702378
11060.5	-0.0705605
11072.1	-0.0709048
11081.3	-0.0711314
11090.5	-0.0713131
11102.1	-0.0714752
11111.3	-0.0715512
11120.6	-0.0715782
11132.1	-0.0715415
11141.3	-0.0714545
11150.6	-0.0713151
11162.1	-0.071066
11171.3	-0.0708058
11180.6	-0.0704909
11192.1	-0.0700192
11201.3	-0.0695791
11210.6	-0.0690826
11222.1	-0.0683827
11231.3	-0.0677591
11240.6	-0.0670791
11252.1	-0.0661499
11261.3	-0.0653435
11270.6	-0.0644817
11282.1	-0.0633273
11291.3	-0.0623429
11300.6	-0.0613052
11312.1	-0.0599346
11321.3	-0.0587805
11330.6	-0.0575765
11342.1	-0.0560031
11351.3	-0.0546912
11360.6	-0.0533336
11372.1	-0.0515745
11381.4	-0.0501194
11390.6	-0.0486235
11402.1	-0.0466987
11411.4	-0.045117
11420.6	-0.0434998
11432.1	-0.0414311
11441.4	-0.0397404
11450.6	-0.0380199
11462.1	-0.0358298
11471.4	-0.0340484
11480.6	-0.0322427
11492.1	-0.0299539
11501.4	-0.0280996
11510.6	-0.0262264
11522.1	-0.0238606
11531.4	-0.0219505
11540.6	-0.0200265
11552.1	-0.0176042
11561.4	-0.0156542
11570.6	-0.0136949
11582.1	-0.0112347
11591.4	-0.00925924
11600.6	-0.00727865
11612.1	-0.00479748
11621.4	-0.0028096
11630.6	-0.000820291
11642.2	0.00166672
11651.4	0.00365537
11660.6	0.0056421
11672.2	0.00812132
11681.4	0.0101002
11690.6	0.0120741
11702.2	0.014533
11711.4	0.0164923
11720.6	0.0184436
11732.2	0.0208703
11741.4	0.0228006
11750.6	0.02472
11762.2	0.0271026
11771.4	0.0289943
11780.6	0.0308721
11792.2	0.0331985
11801.4	0.0350416
11810.6	0.0368676
11822.2	0.0391245
11831.4	0.0409081
11840.6	0.0426712
11852.2	0.0448442
11861.4	0.0465567
11870.6	0.0482446
11882.2	0.0503182
11891.4	0.0519465
11900.6	0.0535463
11912.2	0.0555037
11921.4	0.0570344
11930.6	0.0585321
11942.2	0.0603561
11951.4	0.0617751
11960.6	0.063157
11972.2	0.0648302
11981.4	0.0661241
11990.7	0.0673769
12002.2	0.0688836
12011.4	0.0700402
12020.7	0.0711524
12032.2	0.0724791
12041.4	0.0734887
12050.7	0.0744516
12062.2	0.0755889
12071.4	0.0764453
12080.7	0.077254
12092.2	0.0781979
12101.4	0.0788997
12110.7	0.0795543
12122.2	0.0803073
12131.4	0.0808584
12140.7	0.0813648
12152.2	0.0819368
12161.4	0.0823472
12170.7	0.0827173
12182.2	0.0831258
12191.4	0.0834117
12200.7	0.0836634
12212.2	0.0839334
12221.4	0.0841165
12230.7	0.0842732
12242.2	0.0844357
12251.4	0.0845424
12260.7	0.0846315
12272.2	0.0847223
12281.5	0.0847822
12290.7	0.0848337
12302.2	0.084891
12311.5	0.0849346
12320.7	0.0849792
12332.2	0.0850407
12341.5	0.0850976
12350.7	0.0851642
12362.2	0.0852647
12371.5	0.0853615
12380.7	0.0854751
12392.2	0.0856436
12401.5	0.0858015
12410.7	0.0859814
12422.2	0.0862389
12431.5	0.086472
12440.7	0.08673
12452.2	0.0870877
12461.5	0.0874022
12470.7	0.0877415
12482.2	0.0881999
12491.5	0.0885929
12500.7	0.0890081
12512.2	0.0895563
12521.5	0.0900163
12530.7	0.0904933
12542.3	0.0911102
12551.5	0.0916175
12560.7	0.0921342
12572.3	0.0927894
12581.5	0.0933174
12590.7	0.0938455
12602.3	0.0945011
12611.5	0.095018
12620.7	0.0955244
12632.3	0.0961376
12641.5	0.0966082
12650.7	0.0970571
12662.3	0.0975826
12671.5	0.0979703
12680.7	0.0983252
12692.3	0.0987177
12701.5	0.0989869
12710.7	0.0992127
12722.3	0.0994294
12731.5	0.0995469
12740.7	0.0996116
12752.3	0.0996143
12761.5	0.0995511
12770.7	0.0994273
12782.3	0.0991843
12791.5	0.098917
12800.7	0.0985831
12812.3	0.09807
12821.5	0.0975815
12830.7	0.0970224
12842.3	0.0962233
12851.5	0.0955032
12860.8	0.0947108
12872.3	0.0936184
12881.5	0.0926632
12890.8	0.091636
12902.3	0.0902516
12911.5	0.0890645
12920.8	0.0878077
12932.3	0.0861402
12941.5	0.0847305
12950.8	0.083255
12962.3	0.0813205
12971.5	0.0797028
12980.8	0.0780247
12992.3	0.0758452
13001.5	0.0740384
13010.8	0.0721779
13020	0.0702658
13031.5	0.0678066
13040.8	0.0657869
13050	0.0637233
13061.5	0.0610857
13070.8	0.0589324
13080	0.0567432
13091.6	0.0539602
13100.8	0.0516999
13110	0.0494121
13121.6	0.0465177
13130.8	0.0441776
13140	0.0418186
13151.6	0.0388469
13160.8	0.0364544
13170	0.0340511
13181.6	0.0310359
13190.8	0.0286177
13200	0.0261969
13211.6	0.0231709
13220.8	0.0207531
13230	0.0183406
13241.6	0.0153359
13250.8	0.0129437
13260	0.0105644
13271.6	0.00761174
13280.8	0.00526959
13290	0.00294758
13301.6	7.67649e-05
13310.8	-0.00219191
13320	-0.00443339
13331.6	-0.00719381
13340.8	-0.00936648
13350	-0.0115052
13361.6	-0.014128
13370.8	-0.0161833
13380	-0.0181983
13391.6	-0.0206577
13400.8	-0.0225756
13410.1	-0.0244474
13421.6	-0.02672
13430.8	-0.0284824
13440.1	-0.0301936
13451.6	-0.0322586
13460.8	-0.0338498
13470.1	-0.0353856
13481.6	-0.037226
13490.8	-0.0386335
13500.1	-0.0399825
13511.6	-0.0415856
13520.8	-0.0428008
13530.1	-0.0439558
13541.6	-0.0453146
13550.8	-0.0463334
13560.1	-0.0472919
13571.6	-0.0484053
13580.8	-0.0492289
13590.1	-0.0499934
13601.6	-0.0508672
13610.8	-0.051502
13620.1	-0.0520807
13631.6	-0.0527275
13640.8	-0.0531853
13650.1	-0.0535917
13661.6	-0.0540304
13670.9	-0.0543281
13680.1	-0.0545806
13691.6	-0.0548359
13700.9	-0.0549946
13710.1	-0.0551154
13721.6	-0.0552165
13730.9	-0.0552606
13740.1	-0.0552746
13751.6	-0.0552537
13760.9	-0.0552092
13770.1	-0.0551428
13781.6	-0.0550327
13790.9	-0.0549259
13800.1	-0.054805
13811.6	-0.0546376
13820.9	-0.0544934
13830.1	-0.0543421
13841.6	-0.0541462
13850.9	-0.0539863
13860.1	-0.0538253
13871.6	-0.0536249
13880.9	-0.0534668
13890.1	-0.0533121
13901.6	-0.0531249
13910.9	-0.0529811
13920.1	-0.0528433
13931.7	-0.0526801
13940.9	-0.0525572
13950.1	-0.0524412
13961.7	-0.0523057
13970.9	-0.0522047
13980.1	-0.0521098
13991.7	-0.051999
14000.9	-0.0519157
14010.1	-0.0518364
14021.7	-0.0517414
14030.9	-0.0516675
14040.1	-0.0515944
14051.7	-0.0515024
14060.9	-0.0514267
14070.1	-0.051348
14081.7	-0.0512435
14090.9	-0.0511535
14100.1	-0.0510564
14111.7	-0.0509236
14120.9	-0.0508067
14130.1	-0.0506792
14141.7	-0.0505035
14150.9	-0.0503488
14160.1	-0.0501806
14171.7	-0.0499506
14180.9	-0.0497499
14190.1	-0.0495339
14201.7	-0.049242
14210.9	-0.0489908
14220.1	-0.0487236
14231.7	-0.0483673
14240.9	-0.0480648
14250.2	-0.047747
14261.7	-0.0473289
14270.9	-0.0469785
14280.2	-0.0466146
14291.7	-0.0461419
14300.9	-0.0457506
14310.2	-0.0453485
14321.7	-0.0448324
14330.9	-0.04441
14340.2	-0.0439804
14351.7	-0.043435
14360.9	-0.0429934
14370.2	-0.0425485
14381.7	-0.0419896
14390.9	-0.0415417
14400.2	-0.0410944
14411.7	-0.0405381
14420.9	-0.0400967
14430.2	-0.0396597
14441.7	-0.0391214
14450.9	-0.0386983
14460.2	-0.0382831
14471.7	-0.0377763
14481	-0.0373819
14490.2	-0.036998
14501.7	-0.036534
14511	-0.0361762
14520.2	-0.0358311
14531.7	-0.0354181
14541	-0.0351029
14550.2	-0.0348016
14561.7	-0.0344448
14571	-0.0341756
14580.2	-0.033921
14591.7	-0.0336231
14601	-0.0334012
14610.2	-0.0331939
14621.7	-0.032955
14631	-0.0327799
14640.2	-0.0326189
14651.7	-0.032437
14661	-0.0323066
14670.2	-0.0321894
14681.7	-0.0320609
14691	-0.031972
14700.2	-0.031895
14711.7	-0.0318149
14721	-0.0317631
14730.2	-0.0317217
14741.8	-0.0316838
14751	-0.0316638
14760.2	-0.0316523
14771.8	-0.031649
14781	-0.0316544
14790.2	-0.0316661
14801.8	-0.0316885
14811	-0.0317116
14820.2	-0.0317383
14831.8	-0.0317755
14841	-0.031807
14850.2	-0.0318389
14861.8	-0.0318777
14871	-0.0319064
14880.2	-0.0319317
14891.8	-0.0319564
14901	-0.0319691
14910.2	-0.0319738
14921.8	-0.0319663
14931	-0.0319475
14940.2	-0.0319157
14951.8	-0.0318549
14961	-0.0317874
14970.2	-0.0317011
14981.8	-0.0315643
14991	-0.0314293
15000.2	-0.0312696
15011.8	-0.0310327
15021	-0.0308109
15030.2	-0.0305586
15041.8	-0.0301976
15051	-0.0298703
15060.3	-0.029507
15071.8	-0.0289999
15081	-0.0285501
15090.3	-0.0280597
15101.8	-0.0273877
15111	-0.0268018
15120.3	-0.0261718
15131.8	-0.0253216
15141	-0.0245905
15150.3	-0.0238139
15161.8	-0.0227788
15171	-0.0218995
15180.3	-0.0209751
15191.8	-0.0197568
15201	-0.0187332
15210.3	-0.0176669
15221.8	-0.0162763
15231	-0.0151194
15240.3	-0.0139249
15251.8	-0.012382
15261	-0.0111104
15270.3	-0.00980842
15281.8	-0.00814209
15291	-0.00678138
15300.3	-0.00539931
15311.8	-0.00364646
15321.1	-0.00222795
15330.3	-0.000798701
15341.8	0.000997643
15351.1	0.00243818
15360.3	0.00387784
15371.8	0.00567059
15381.1	0.00709481
15390.3	0.00850616
15401.8	0.0102467
15411.1	0.0116157
15420.3	0.0129601
15431.8	0.0146008
15441.1	0.0158773
15450.3	0.0171184
15461.8	0.0186153
15471.1	0.0197656
15480.3	0.0208711
15491.8	0.0221862
15501.1	0.023182
15510.3	0.0241256
15521.8	0.0252289
15531.1	0.0260486
15540.3	0.026811
15551.9	0.0276817
15561.1	0.0283114
15570.3	0.0288812
15581.9	0.0295088
15591.1	0.029943
15600.3	0.0303171
15611.9	0.0307012
15621.1	0.0309424
15630.3	0.0311258
15641.9	0.0312759
15651.1	0.0313342
15660.3	0.0313394
15671.9	0.0312738
15681.1	0.0311662
15690.3	0.0310118
15701.9	0.0307565
15711.1	0.0305052
15720.3	0.030215
15731.9	0.0298014
15741.1	0.029433
15750.3	0.0290343
15761.9	0.0284975
15771.1	0.0280408
15780.3	0.0275628
15791.9	0.0269398
15801.1	0.0264244
15810.3	0.0258968
15821.9	0.0252242
15831.1	0.024679
15840.3	0.0241301
15851.9	0.0234427
15861.1	0.0228945
15870.4	0.0223503
15881.9	0.021679
15891.1	0.0211514
15900.4	0.0206343
15911.9	0.0200052
15921.1	0.0195177
15930.4	0.0190457
15941.9	0.0184794
15951.1	0.0180465
15960.4	0.0176327
15971.9	0.0171432
15981.1	0.0167746
15990.4	0.0164268
16001.9	0.0160218
16011.1	0.0157217
16020.4	0.0154428
16031.9	0.0151237
16041.1	0.0148916
16050.4	0.0146796
16061.9	0.014442
16071.1	0.0142729
16080.4	0.0141216
16091.9	0.013956
