0	0
230.748	0
461.497	0
692.245	0
922.993	0
1153.74	0
1384.49	0
1615.24	0.00277235
1845.99	0.00734102
2076.74	0.0133348
2307.48	0.0202329
2538.23	0.028084
2768.98	0.0367103
2999.73	0.0455398
3230.48	0.0536229
3461.23	0.0600115
3691.97	0.0640374
3922.72	0.0654218
4153.47	0.0642126
4384.22	0.0606716
4614.97	0.055177
4845.71	0.0481634
5076.46	0.0400819
5307.21	0.0313695
5537.96	0.0224229
5768.7	0.0135826
5999.45	0.00512945
6230.2	-0.00271024
6460.94	-0.0097565
6691.69	-0.0158701
6922.44	-0.0209517
7153.18	-0.0249441
7383.93	-0.0278356
7614.68	-0.0296619
7845.43	-0.0305031
8076.17	-0.0304777
8306.92	-0.0297327
8537.67	-0.0284306
8768.42	-0.0267362
8999.17	-0.024804
9229.91	-0.0227678
9460.66	-0.0207342
9691.41	-0.0187804
9922.16	-0.0169551
10152.9	-0.0152832
10383.7	-0.013771
10614.4	-0.0124136
10845.2	-0.0111997
11075.9	-0.0101166
11306.6	-0.0091527
11537.4	-0.00829822
11768.1	-0.00754539
11998.9	-0.00688735
12229.6	-0.00631704
12460.4	-0.0058263
12691.1	-0.00540552
12921.9	-0.00504369
13152.6	-0.00472909
13383.4	-0.00445009
13614.1	-0.00419617
13844.9	-0.00395858
14075.6	-0.00373088
14306.4	-0.00350906
14537.1	-0.00329133
14767.9	-0.00307769
14998.6	-0.00286942
15229.4	-0.00266852
15460.1	-0.00247728
15690.9	-0.0022979
15921.6	-0.00213235
16152.4	-0.00198225
16383.1	-0.00184888
16613.9	-0.00173321
16844.6	-0.00163585
17075.4	-0.00155706
17306.1	-0.00149666
17536.9	-0.00145396
17767.6	-0.00142768
17998.4	-0.0014159
18229.1	-0.0014161
18459.8	-0.00142526
18690.6	-0.00143994
18921.3	-0.00145652
19152.1	-0.00147142
19382.8	-0.00148125
19613.6	-0.00148306
19844.3	-0.00147441
