0	0
11.7662	0
20.5908	0
32.357	0
41.1817	0
50.0063	0
61.7725	0
70.5972	0
82.3634	0
91.188	0
100.013	0
111.779	0
120.604	0
132.37	0
141.194	0
150.019	0
161.785	0
170.61	0
182.376	0
191.201	0
200.025	0
211.792	0
220.616	0
232.382	0
241.207	0
250.032	0
261.798	0
270.623	0
282.389	0
291.213	0
300.038	0
311.804	0
320.629	0
332.395	0
341.22	0
350.044	0
361.811	0
370.635	0
382.401	0
391.226	0
400.051	0
411.817	0
420.642	0
432.408	0
441.232	0
450.057	0
461.823	0
470.648	0
482.414	0
491.239	0
500.063	0
511.83	0
520.654	0
532.42	0
541.245	0
550.07	0
561.836	0
570.661	0
582.427	0
591.251	0
600.076	0
611.842	0
620.667	0
632.433	0
641.258	0
650.082	0
661.849	0
670.673	0
682.439	0
691.264	0
700.089	0
711.855	0
720.68	0
732.446	0
741.27	0
750.095	0
761.861	0
770.686	0
782.452	0
791.277	0
800.101	0
811.868	0
820.692	0
832.458	0
841.283	0
850.108	0
861.874	0
870.699	0
882.465	0
891.289	0
900.114	0
911.88	0
920.705	0
932.471	0
941.296	0
950.12	0
961.887	0
970.711	0
982.477	0
991.302	0
1000.13	0
1011.89	0
1020.72	0
1032.48	0
1041.31	0
1050.13	0
1061.9	0
1070.72	0
1082.49	0
1091.31	0
1100.14	0
1111.91	0
1120.73	0
1132.5	0
1141.32	0
1150.15	0
1161.91	0
1170.74	0
1182.5	0
1191.33	0
1200.15	0
1211.92	0
1220.74	0
1232.51	0
1241.33	0
1250.16	0
1261.92	0
1270.75	0
1282.52	0
1291.34	0
1300.16	0
1311.93	0
1320.76	0
1332.52	0
1341.35	0
1350.17	0
1361.94	0
1370.76	0
1382.53	0
1391.35	0
1400.18	0
1411.94	0
1420.77	0
1432.53	0
1441.36	0
1450.18	0
1461.95	0
1470.77	0
1482.54	0
1491.37	0
1500.19	0
1511.96	0
1520.78	0
1532.55	0
1541.37	0
1550.2	0
1561.96	0
1570.79	0
1582.55	0
1591.38	0
1600.2	0
1611.97	0
1620.79	0
1632.56	0
1641.38	0
1650.21	0
1661.98	0
1670.8	0
1682.57	0
1691.39	0
1700.22	0
1711.98	0
1720.81	0
1732.57	0
1741.4	0
1750.22	0
1761.99	0
1770.81	0
1782.58	0
1791.4	0
1800.23	0
1811.99	0
1820.82	0
1832.59	0
1841.41	0
1850.23	0
1862	0
1870.83	0
1882.59	0
1891.42	0
1900.24	0
1912.01	0
1920.83	0
1932.6	0
1941.42	0
1950.25	0
1962.01	0
1970.84	0
1982.6	0
1991.43	0
2000.25	0
2012.02	0
2020.84	0
2032.61	0
2041.44	0
2050.26	0
2062.03	0
2070.85	0
2082.62	0
2091.44	0
2100.27	0
2112.03	0
2120.86	0
2132.62	-9.09495e-13
2141.45	-3.63798e-12
2150.27	-6.36646e-12
2162.04	-1.18234e-11
2170.86	-2.09184e-11
2182.63	-4.09273e-11
2191.45	-7.09406e-11
2200.28	-1.20053e-10
2212.04	-2.35559e-10
2220.87	-3.87445e-10
2232.64	-7.43967e-10
2241.46	-1.1969e-09
2250.28	-1.90994e-09
2262.05	-3.51156e-09
2270.88	-5.48516e-09
2282.64	-9.80617e-09
2291.47	-1.50067e-08
2300.29	-2.27692e-08
2312.06	-3.91792e-08
2320.88	-5.82895e-08
2332.65	-9.77407e-08
2341.47	-1.42668e-07
2350.3	-2.0659e-07
2362.06	-3.34319e-07
2370.89	-4.75349e-07
2382.65	-7.51015e-07
2391.48	-1.04908e-06
2400.3	-1.45459e-06
2412.07	-2.2235e-06
2420.89	-3.03114e-06
2432.66	-4.53142e-06
2441.49	-6.07663e-06
2450.31	-8.09279e-06
2462.08	-1.17335e-05
2470.9	-1.53828e-05
2482.67	-2.18477e-05
2491.49	-2.82099e-05
2500.32	-3.61934e-05
2512.08	-4.99681e-05
2520.91	-6.31845e-05
2532.67	-8.55855e-05
2541.5	-0.000106713
2550.32	-0.000132277
2562.09	-0.000174556
2570.91	-0.0002135
2582.68	-0.000276854
2591.5	-0.000334284
2600.33	-0.000401465
2612.1	-0.000508303
2620.92	-0.000603051
2632.69	-0.000751454
2641.51	-0.000881136
2650.34	-0.00102817
2662.1	-0.00125373
2670.93	-0.0014469
2682.69	-0.00173912
2691.52	-0.00198602
2700.34	-0.0022581
2712.11	-0.00266199
2720.93	-0.00299704
2732.7	-0.00348821
2741.52	-0.00389074
2750.35	-0.00432304
2762.11	-0.00494612
2770.94	-0.00544845
2782.71	-0.00616443
2791.53	-0.00673544
2800.35	-0.00733481
2812.12	-0.00817644
2820.95	-0.008838
2832.71	-0.00975788
2841.54	-0.0104741
2850.36	-0.0112109
2862.13	-0.012222
2870.95	-0.0129991
2882.72	-0.0140563
2891.54	-0.014862
2900.37	-0.0156758
2912.13	-0.0167695
2920.96	-0.0175928
2932.72	-0.0186894
2941.55	-0.0195075
2950.37	-0.0203186
2962.14	-0.021384
2970.96	-0.0221668
2982.73	-0.0231825
2991.55	-0.0239185
3000.38	-0.024628
3012.14	-0.0255251
3020.97	-0.0261551
3032.74	-0.0269278
3041.56	-0.0274491
3050.38	-0.0279131
3062.15	-0.0284293
3070.97	-0.0287289
3082.74	-0.0289935
3091.57	-0.029077
3100.39	-0.0290489
3112.16	-0.0288155
3120.98	-0.0284749
3132.75	-0.0277703
3141.57	-0.027032
3150.4	-0.0260936
3162.16	-0.0244975
3170.99	-0.0230151
3182.75	-0.0206173
3191.58	-0.0184739
3200.4	-0.0160096
3212.17	-0.0121845
3220.99	-0.00888121
3232.76	-0.00385432
3241.58	0.000411254
3250.41	0.00512475
3262.17	0.0121398
3271	0.0179716
3282.76	0.0265374
3291.59	0.0335706
3300.41	0.0411363
3312.18	0.0520637
3321	0.0608928
3332.77	0.0735082
3341.59	0.0835958
3350.42	0.0942105
3362.18	0.109161
3371.01	0.120951
3382.77	0.1374
3391.6	0.150252
3400.42	0.163516
3412.19	0.181786
3421.01	0.195884
3432.78	0.215139
3441.6	0.229871
3450.43	0.244809
3462.19	0.264971
3471.02	0.280219
3482.78	0.300635
3491.61	0.315951
3500.43	0.33122
3512.2	0.351426
3521.02	0.366406
3532.79	0.386063
3541.61	0.400508
3550.44	0.414649
3562.2	0.432956
3571.03	0.44622
3582.79	0.463201
3591.62	0.475357
3600.44	0.48697
3612.21	0.501542
3621.03	0.511737
3632.8	0.524284
3641.62	0.532862
3650.44	0.54069
3662.21	0.549904
3671.03	0.555857
3682.8	0.562466
3691.62	0.566393
3700.45	0.56941
3712.21	0.571985
3721.04	0.572806
3732.8	0.572396
3741.63	0.570945
3750.45	0.568508
3762.22	0.563718
3771.04	0.558971
3782.81	0.551114
3791.63	0.544086
3800.46	0.536102
3812.22	0.523997
3821.05	0.513852
3832.81	0.498952
3841.64	0.486784
3850.46	0.473801
3862.23	0.455283
3871.05	0.440539
3882.82	0.419815
3891.64	0.403529
3900.47	0.386655
3912.23	0.363319
3921.06	0.345251
3932.82	0.320492
3941.65	0.301485
3950.47	0.282152
3962.24	0.255952
3971.06	0.236044
3982.83	0.20924
3991.65	0.189001
4000.47	0.168691
4012.24	0.141576
4021.06	0.121263
4032.83	0.0942862
4041.65	0.0741819
4050.48	0.0542277
4062.24	0.0279153
4071.07	0.00844463
4082.84	-0.0171032
4091.66	-0.0359138
4100.48	-0.0543902
4112.25	-0.0784548
4121.07	-0.096038
4132.84	-0.118809
4141.66	-0.135346
4150.49	-0.15139
4162.26	-0.17197
4171.08	-0.186764
4182.85	-0.205585
4191.67	-0.218993
4200.5	-0.231769
4212.26	-0.247781
4221.09	-0.258996
4232.85	-0.272856
4241.68	-0.282406
4250.5	-0.291214
4262.27	-0.30178
4271.09	-0.308805
4282.86	-0.316953
4291.68	-0.32214
4300.51	-0.326532
4312.27	-0.331145
4321.1	-0.333676
4332.86	-0.335818
4341.69	-0.336512
4350.51	-0.336435
4362.28	-0.335158
4371.1	-0.333342
4382.87	-0.329815
4391.7	-0.326372
4400.52	-0.322273
4412.29	-0.31584
4421.11	-0.310329
4432.88	-0.302132
4441.7	-0.295394
4450.53	-0.288191
4462.29	-0.277931
4471.12	-0.269795
4482.88	-0.258436
4491.71	-0.249587
4500.53	-0.240499
4512.3	-0.228081
4521.12	-0.218592
4532.89	-0.20578
4541.71	-0.196098
4550.54	-0.186393
4562.3	-0.173477
4571.13	-0.163848
4582.89	-0.151142
4591.72	-0.141749
4600.54	-0.1325
4612.31	-0.120431
4621.13	-0.111603
4632.9	-0.100164
4641.72	-0.0918533
4650.55	-0.083788
4662.32	-0.0734342
4671.14	-0.0659806
4682.91	-0.0564712
4691.73	-0.0496673
4700.55	-0.0431485
4712.32	-0.0349036
4721.15	-0.0290559
4732.91	-0.0217059
4741.74	-0.0165264
4750.56	-0.0116295
4762.33	-0.00553442
4771.15	-0.00128366
4782.92	0.00396492
4791.74	0.00759319
4800.57	0.0109629
4812.33	0.0150628
4821.16	0.01785
4832.92	0.0211928
4841.75	0.0234272
4850.57	0.0254339
4862.34	0.027765
4871.16	0.0292622
4882.93	0.0309341
4891.75	0.031952
4900.58	0.0327738
4912.34	0.0335743
4921.17	0.0339605
4932.94	0.034201
4941.76	0.0341832
4950.58	0.0340023
4962.35	0.0335181
4971.18	0.032981
4982.94	0.0320456
4991.77	0.0311885
5000.59	0.0302058
5012.36	0.0287129
5021.18	0.027466
5030.01	0.0261186
5041.77	0.0241791
5050.6	0.0226278
5062.36	0.0204459
5071.19	0.0187349
5080.01	0.016969
5091.78	0.0145435
5100.6	0.0126815
5112.37	0.0101567
5121.19	0.00824161
5130.02	0.00631631
5141.78	0.00374575
5150.61	0.00182397
5162.37	-0.000718146
5171.2	-0.00260198
5180.02	-0.00446035
5191.79	-0.00689031
5200.61	-0.00867139
5212.38	-0.0109841
5221.21	-0.0126681
5230.03	-0.0143061
5241.8	-0.0164156
5250.62	-0.0179401
5262.39	-0.0198947
5271.21	-0.0213018
5280.04	-0.022659
5291.8	-0.0243923
5300.63	-0.0256365
5312.39	-0.0272241
5321.22	-0.0283638
5330.04	-0.029462
5341.81	-0.0308659
5350.63	-0.0318767
5362.4	-0.033173
5371.22	-0.0341101
5380.05	-0.0350199
5391.81	-0.0361949
5400.64	-0.0370507
5412.41	-0.0381624
5421.23	-0.0389769
5430.05	-0.039777
5441.82	-0.0408248
5450.64	-0.0415984
5462.41	-0.0426162
5471.24	-0.0433708
5480.06	-0.0441191
5491.83	-0.0451084
5500.65	-0.0458448
5512.42	-0.04682
5521.24	-0.0475468
5530.07	-0.0482698
5541.83	-0.0492279
5550.66	-0.049942
5562.42	-0.0508878
5571.25	-0.0515922
5580.07	-0.0522919
5591.84	-0.0532171
5600.66	-0.0539049
5612.43	-0.0548133
5621.25	-0.0554876
5630.08	-0.0561558
5641.84	-0.0570368
5650.67	-0.0576899
5662.44	-0.0585504
5671.26	-0.0591879
5680.08	-0.0598188
5691.85	-0.0606497
5700.67	-0.0612654
5712.44	-0.0620766
5721.27	-0.0626779
5730.09	-0.0632734
5741.86	-0.0640589
5750.68	-0.0646418
5762.45	-0.0654114
5771.27	-0.065983
5780.1	-0.06655
5791.86	-0.0672993
5800.69	-0.0678562
5812.45	-0.068592
5821.28	-0.0691387
5830.1	-0.0696808
5841.87	-0.070396
5850.69	-0.0709262
5862.46	-0.0716238
5871.28	-0.0721392
5880.11	-0.0726472
5891.87	-0.0733112
5900.7	-0.0737979
5912.47	-0.0744298
5921.29	-0.0748891
5930.11	-0.0753343
5941.88	-0.0759034
5950.71	-0.0763096
5962.47	-0.0768206
5971.3	-0.0771783
5980.12	-0.0775121
5991.89	-0.0779164
6000.71	-0.0781864
6012.48	-0.0784981
6021.3	-0.0786928
6030.13	-0.0788518
6041.89	-0.0790043
6050.72	-0.0790713
6062.48	-0.0790937
6071.31	-0.0790576
6080.13	-0.0789741
6091.9	-0.0787855
6100.72	-0.0785839
6112.49	-0.0782319
6121.31	-0.0779034
6130.14	-0.0775182
6141.9	-0.0769141
6150.73	-0.0763919
6162.5	-0.0756018
6171.32	-0.0749378
6180.14	-0.0742122
6191.91	-0.0731482
6200.74	-0.0722776
6212.5	-0.0710203
6221.33	-0.0700052
6230.15	-0.068929
6241.92	-0.0673999
6250.74	-0.0661836
6262.51	-0.0644714
6271.33	-0.0631209
6280.16	-0.0617152
6291.92	-0.0597577
6300.75	-0.0582294
6312.51	-0.056115
6321.34	-0.0544744
6330.16	-0.0527892
6341.93	-0.0504767
6350.75	-0.0486962
6362.52	-0.0462654
6371.35	-0.044403
6380.17	-0.0425097
6391.94	-0.0399418
6400.76	-0.0379866
6412.53	-0.0353459
6421.35	-0.0333435
6430.18	-0.0313253
6441.94	-0.0286143
6450.77	-0.0265694
6462.53	-0.0238324
6471.36	-0.0217751
6480.18	-0.0197166
6491.95	-0.0169745
6500.77	-0.0149228
6512.54	-0.0121982
6521.36	-0.0101658
6530.19	-0.00814549
6541.95	-0.00547392
6550.78	-0.00348953
6562.55	-0.000873083
6571.37	0.00106478
6580.19	0.00297969
6591.96	0.00549425
6600.78	0.00734905
6612.55	0.00977766
6621.38	0.0115639
6630.2	0.0133182
6641.97	0.0156056
6650.79	0.0172805
6662.56	0.0194574
6671.38	0.0210463
6680.21	0.0225964
6691.97	0.0246011
6700.8	0.0260568
6712.56	0.0279322
6721.39	0.0292885
6730.21	0.0306008
6741.98	0.0322809
6750.8	0.0334878
6762.57	0.035025
6771.39	0.0361233
6780.22	0.0371742
6791.98	0.038501
6800.81	0.0394398
6812.58	0.0406162
6821.4	0.0414418
6830.22	0.0422185
6841.99	0.0431783
6850.82	0.0438412
6862.58	0.0446497
6871.41	0.0451996
6880.23	0.0457017
6892	0.0462971
6900.82	0.0466888
6912.59	0.0471389
6921.41	0.0474231
6930.24	0.0476624
6942	0.0479128
6950.83	0.0480502
6962.59	0.0481677
6971.42	0.0482077
6980.24	0.0482076
6992.01	0.0481469
7000.83	0.0480571
7012.6	0.0478807
7021.42	0.0477072
7030.25	0.0474997
7042.02	0.0471722
7050.84	0.0468899
7062.61	0.0464668
7071.43	0.0461161
7080.26	0.0457381
7092.02	0.0451937
7100.85	0.0447567
7112.61	0.0441378
7121.44	0.0436482
7130.26	0.0431379
7142.03	0.0424275
7150.85	0.0418735
7162.62	0.0411089
7171.44	0.0405173
7180.27	0.0399114
7192.03	0.0390828
7200.86	0.0384473
7212.62	0.0375829
7221.45	0.036923
7230.27	0.0362543
7242.04	0.0353505
7250.86	0.0346645
7262.63	0.0337407
7271.46	0.0330421
7280.28	0.0323394
7292.05	0.0313974
7300.87	0.0306881
7312.64	0.0297402
7321.46	0.0290285
7330.29	0.028317
7342.05	0.02737
7350.88	0.0266619
7362.64	0.0257221
7371.47	0.0250214
7380.29	0.0243252
7392.06	0.0234052
7400.88	0.0227226
7412.65	0.0218236
7421.47	0.0211589
7430.3	0.0205034
7442.06	0.0196452
7450.89	0.0190146
7462.65	0.018193
7471.48	0.0175924
7480.3	0.0170063
7492.07	0.0162491
7500.89	0.0157007
7512.66	0.0149975
7521.48	0.0144923
7530.31	0.0140073
7542.08	0.0133939
7550.9	0.0129598
7562.67	0.0124178
7571.49	0.0120399
7580.31	0.0116874
7592.08	0.0112585
7600.91	0.0109685
7612.67	0.0106254
7621.5	0.0104015
7630.32	0.0102068
7642.09	0.00999316
7650.91	0.00986786
7662.68	0.00974766
7671.5	0.00969272
7680.33	0.0096679
7692.09	0.00968131
7700.92	0.00972585
7712.68	0.00983033
7721.51	0.00994178
7730.33	0.0100808
7742.1	0.0103076
7750.92	0.0105075
7762.69	0.0108119
7771.51	0.0110669
7780.34	0.0113434
7792.1	0.0117431
7800.93	0.0120643
7812.69	0.0125179
7821.52	0.012875
7830.34	0.0132448
7842.11	0.0137543
7850.93	0.0141465
7862.7	0.0146792
7871.53	0.0150837
7880.35	0.0154902
7892.12	0.0160323
7900.94	0.0164363
7912.71	0.016968
7921.53	0.017359
7930.36	0.0177415
7942.12	0.0182348
7950.95	0.0185901
7962.71	0.0190408
7971.54	0.0193595
7980.36	0.0196598
7992.13	0.0200288
8000.95	0.0202802
8012.72	0.0205789
8021.54	0.0207737
8030.37	0.0209422
8042.13	0.0211238
8050.96	0.0212263
8062.72	0.0213161
8071.55	0.0213471
8080.37	0.0213459
8092.14	0.0212932
8100.96	0.0212143
8112.73	0.0210555
8121.55	0.0208956
8130.38	0.0207002
8142.15	0.0203839
8150.97	0.0201045
8162.74	0.0196755
8171.56	0.0193112
8180.39	0.0189105
8192.15	0.0183197
8200.98	0.0178344
8212.74	0.0171315
8221.57	0.0165629
8230.39	0.0159593
8242.16	0.0151008
8250.98	0.0144174
8262.75	0.0134548
8271.57	0.0126952
8280.4	0.0119041
8292.16	0.0108021
8300.99	0.00994128
8312.75	0.0087497
8321.58	0.00782452
8330.4	0.00687359
8342.17	0.00556766
8350.99	0.00456127
8362.76	0.00318592
8371.59	0.00213097
8380.41	0.00105742
8392.18	-0.000400527
8401	-0.00151209
8412.77	-0.00301564
8421.59	-0.00415754
8430.42	-0.00531005
8442.18	-0.00686075
8451.01	-0.00803244
8462.77	-0.00960353
8471.6	-0.0107867
8480.42	-0.0119724
8492.19	-0.0135549
8501.01	-0.0147413
8512.78	-0.0163201
8521.6	-0.0175001
8530.43	-0.0186753
8542.19	-0.0202326
8551.02	-0.0213919
8562.79	-0.022924
8571.61	-0.0240615
8580.43	-0.0251878
8592.2	-0.0266707
8601.03	-0.0277674
8612.79	-0.0292075
8621.62	-0.0302699
8630.44	-0.0313162
8642.21	-0.032685
8651.03	-0.033691
8662.8	-0.0350037
8671.62	-0.0359659
8680.45	-0.0369083
8692.21	-0.0381332
8701.04	-0.0390276
8712.8	-0.0401867
8721.63	-0.0410305
8730.45	-0.0418519
8742.22	-0.0429119
8751.04	-0.04368
8762.81	-0.0446678
8771.64	-0.045381
8780.46	-0.0460703
8792.23	-0.0469519
8801.05	-0.0475849
8812.82	-0.0483909
8821.64	-0.0489669
8830.47	-0.0495184
8842.23	-0.0502156
8851.06	-0.05071
8862.82	-0.0513314
8871.65	-0.0517691
8880.47	-0.0521828
8892.24	-0.0526972
8901.06	-0.0530555
8912.83	-0.0534971
8921.65	-0.0538014
8930.48	-0.0540832
8942.24	-0.0544244
8951.07	-0.054655
8962.84	-0.0549294
8971.66	-0.0551111
8980.48	-0.0552726
8992.25	-0.0554574
9001.08	-0.0555738
9012.84	-0.0557005
9021.67	-0.0557747
9030.49	-0.0558319
9042.26	-0.0558823
9051.08	-0.0559017
9062.85	-0.0559038
9071.67	-0.0558884
9080.5	-0.055859
9092.26	-0.055799
9101.09	-0.055739
9112.85	-0.0556401
9121.68	-0.0555524
9130.5	-0.0554535
9142.27	-0.055305
9151.09	-0.0551818
9162.86	-0.0550023
9171.68	-0.0548568
9180.51	-0.0547023
9192.28	-0.0544829
9201.1	-0.0543086
9212.87	-0.0540638
9221.69	-0.0538711
9230.52	-0.0536708
9242.28	-0.0533925
9251.11	-0.0531754
9262.87	-0.0528751
9271.7	-0.0526421
9280.52	-0.0524024
9292.29	-0.0520728
9301.11	-0.0518182
9312.88	-0.0514691
9321.7	-0.0512003
9330.53	-0.0509256
9342.29	-0.0505505
9351.12	-0.0502627
9362.88	-0.0498705
9371.71	-0.0495704
9380.53	-0.0492652
9392.3	-0.0488509
9401.12	-0.0485348
9412.89	-0.0481066
9421.72	-0.0477807
9430.54	-0.047451
9442.31	-0.0470057
9451.13	-0.0466679
9462.9	-0.0462128
9471.72	-0.0458682
9480.55	-0.0455212
9492.31	-0.0450551
9501.14	-0.0447032
9512.9	-0.0442315
9521.73	-0.0438761
9530.55	-0.0435195
9542.32	-0.0430427
9551.14	-0.0426843
9562.91	-0.0422056
9571.73	-0.0418463
9580.56	-0.0414868
9592.32	-0.0410075
9601.15	-0.0406481
9612.92	-0.0401692
9621.74	-0.0398104
9630.57	-0.0394519
9642.33	-0.0389744
9651.16	-0.0386167
9662.92	-0.0381401
9671.75	-0.037783
9680.57	-0.0374261
9692.34	-0.0369503
9701.16	-0.0365934
9712.93	-0.0361174
9721.75	-0.0357601
9730.58	-0.0354024
9742.34	-0.0349246
9751.17	-0.0345655
9762.93	-0.0340853
9771.76	-0.033724
9780.58	-0.0333616
9792.35	-0.0328764
9801.17	-0.0325109
9812.94	-0.0320213
9821.77	-0.0316522
9830.59	-0.0312814
9842.36	-0.0307844
9851.18	-0.0304096
9860.01	-0.0300331
9871.77	-0.0295283
9880.6	-0.0291478
9892.36	-0.0286378
9901.19	-0.0282536
9910.01	-0.0278679
9921.78	-0.0273518
9930.6	-0.0269634
9942.37	-0.0264443
9951.19	-0.0260542
9960.02	-0.0256638
9971.78	-0.0251431
9980.61	-0.0247529
9992.38	-0.0242336
10001.2	-0.0238452
10010	-0.0234581
10021.8	-0.0229446
10030.6	-0.0225619
10042.4	-0.0220555
10051.2	-0.0216791
10060	-0.021306
10071.8	-0.0208143
10080.6	-0.0204503
10092.4	-0.0199721
10101.2	-0.0196191
10110	-0.0192715
10121.8	-0.0188167
10130.6	-0.0184826
10142.4	-0.018047
10151.2	-0.017728
10160	-0.0174159
10171.8	-0.0170109
10180.6	-0.0167157
10192.4	-0.0163339
10201.2	-0.0160565
10210	-0.015787
10221.8	-0.01544
10230.6	-0.0151891
10242.4	-0.0148671
10251.2	-0.014635
10260.1	-0.014411
10271.8	-0.0141248
10280.6	-0.0139194
10292.4	-0.0136578
10301.2	-0.0134707
10310.1	-0.0132913
10321.8	-0.0130637
10330.7	-0.0129017
10342.4	-0.0126969
10351.2	-0.0125517
10360.1	-0.0124134
10371.8	-0.0122395
10380.7	-0.012117
10392.4	-0.0119637
10401.2	-0.0118563
10410.1	-0.0117552
10421.8	-0.0116301
10430.7	-0.0115435
10442.4	-0.0114375
10451.3	-0.0113651
10460.1	-0.0112988
10471.8	-0.0112198
10480.7	-0.0111677
10492.4	-0.0111077
10501.3	-0.0110699
10510.1	-0.0110384
10521.9	-0.0110062
10530.7	-0.0109896
10542.4	-0.0109776
10551.3	-0.0109763
10560.1	-0.0109817
10571.9	-0.0109996
10580.7	-0.011021
10592.4	-0.0110604
10601.3	-0.0110981
10610.1	-0.0111429
10621.9	-0.0112134
10630.7	-0.0112745
10642.5	-0.0113666
10651.3	-0.0114436
10660.1	-0.0115272
10671.9	-0.0116488
10680.7	-0.0117471
10692.5	-0.0118873
10701.3	-0.0119989
10710.1	-0.0121155
10721.9	-0.0122783
10730.7	-0.0124052
10742.5	-0.0125799
10751.3	-0.0127143
10760.1	-0.012851
10771.9	-0.0130358
10780.7	-0.0131754
10792.5	-0.0133616
10801.3	-0.0135004
10810.1	-0.0136376
10821.9	-0.0138169
10830.7	-0.0139477
10842.5	-0.0141156
10851.3	-0.0142357
10860.1	-0.0143501
10871.9	-0.0144924
10880.7	-0.0145906
10892.5	-0.0147088
10901.3	-0.0147872
10910.1	-0.014856
10921.9	-0.0149321
10930.7	-0.0149768
10942.5	-0.015019
10951.3	-0.0150371
10960.1	-0.0150434
10971.9	-0.015033
10980.7	-0.0150107
10992.5	-0.0149618
11001.3	-0.0149107
11010.1	-0.0148472
11021.9	-0.0147437
11030.7	-0.0146521
11042.5	-0.0145121
11051.3	-0.0143941
11060.2	-0.0142654
11071.9	-0.0140782
11080.7	-0.0139268
11092.5	-0.0137113
11101.3	-0.0135404
11110.2	-0.0133623
11121.9	-0.013115
11130.8	-0.0129231
11142.5	-0.0126602
11151.3	-0.0124589
11160.2	-0.012255
11171.9	-0.0119805
11180.8	-0.0117736
11192.5	-0.0114983
11201.3	-0.0112931
11210.2	-0.0110899
11221.9	-0.0108235
11230.8	-0.010628
11242.5	-0.0103744
11251.4	-0.0101903
11260.2	-0.0100121
11271.9	-0.00978473
11280.8	-0.0096224
11292.5	-0.00941775
11301.4	-0.00927356
11310.2	-0.00913767
11322	-0.00896978
11330.8	-0.00885405
11342.5	-0.00871347
11351.4	-0.00861836
11360.2	-0.00853205
11372	-0.00843042
11380.8	-0.00836406
11392.5	-0.00828823
11401.4	-0.00824043
11410.2	-0.00819999
11422	-0.00815674
11430.8	-0.00813167
11442.6	-0.00810701
11451.4	-0.00809431
11460.2	-0.00808586
11472	-0.00808002
11480.8	-0.00807877
11492.6	-0.00807982
11501.4	-0.00808162
11510.2	-0.00808339
11522	-0.00808426
11530.8	-0.00808269
11542.6	-0.008076
11551.4	-0.00806641
11560.2	-0.00805193
11572	-0.00802353
11580.8	-0.00799431
11592.6	-0.00794316
11601.4	-0.00789459
11610.2	-0.00783638
11622	-0.00774242
11630.8	-0.00765871
11642.6	-0.00752811
11651.4	-0.00741503
11660.2	-0.00728829
11672	-0.00709703
11680.8	-0.00693617
11692.6	-0.00669758
11701.4	-0.0065
11710.2	-0.00628601
11722	-0.00597467
11730.8	-0.00572131
11742.6	-0.00535669
11751.4	-0.00506298
11760.2	-0.00475185
11772	-0.00430997
11780.8	-0.00395839
11792.6	-0.003463
11801.4	-0.00307181
11810.2	-0.0026641
11822	-0.00209539
11830.8	-0.00165059
11842.6	-0.00103409
11851.4	-0.000554829
11860.3	-6.17723e-05
11872	0.000615978
11880.8	0.00113864
11892.6	0.00185323
11901.4	0.00240144
11910.3	0.00295925
11922	0.00371643
11930.8	0.00429327
11942.6	0.00507259
11951.4	0.00566355
11960.3	0.00625901
11972	0.00705836
11980.9	0.00766071
11992.6	0.00846587
12001.4	0.00907007
12010.3	0.00967355
12022	0.0104756
12030.9	0.011074
12042.6	0.0118663
12051.4	0.0124553
12060.3	0.0130389
12072	0.0138077
12080.9	0.0143763
12092.6	0.0151227
12101.5	0.015673
12110.3	0.0162147
12122	0.0169226
12130.9	0.0174424
12142.6	0.01812
12151.5	0.0186162
12160.3	0.0191019
12172.1	0.0197331
12180.9	0.0201939
12192.6	0.0207916
12201.5	0.0212274
12210.3	0.0216525
12222.1	0.0222028
12230.9	0.0226034
12242.6	0.0231218
12251.5	0.0234991
12260.3	0.0238666
12272.1	0.0243422
12280.9	0.0246884
12292.7	0.0251366
12301.5	0.025463
12310.3	0.0257816
12322.1	0.0261945
12330.9	0.0264958
12342.7	0.0268869
12351.5	0.0271727
12360.3	0.0274523
12372.1	0.0278159
12380.9	0.0280821
12392.7	0.0284287
12401.5	0.0286827
12410.3	0.0289317
12422.1	0.0292562
12430.9	0.0294941
12442.7	0.029804
12451.5	0.0300312
12460.3	0.0302538
12472.1	0.0305433
12480.9	0.0307551
12492.7	0.0310299
12501.5	0.0312303
12510.3	0.0314257
12522.1	0.031678
12530.9	0.031861
12542.7	0.0320961
12551.5	0.0322656
12560.3	0.0324291
12572.1	0.0326372
12580.9	0.0327857
12592.7	0.0329732
12601.5	0.0331057
12610.3	0.0332311
12622.1	0.0333869
12630.9	0.033495
12642.7	0.0336274
12651.5	0.0337178
12660.3	0.0338004
12672.1	0.0338987
12680.9	0.0339634
12692.7	0.0340378
12701.5	0.0340849
12710.4	0.0341247
12722.1	0.0341667
12730.9	0.0341903
12742.7	0.0342116
12751.5	0.0342204
12760.4	0.0342235
12772.1	0.0342194
12781	0.0342107
12792.7	0.0341926
12801.5	0.0341749
12810.4	0.0341541
12822.1	0.0341226
12831	0.0340971
12842.7	0.0340616
12851.5	0.0340347
12860.4	0.0340084
12872.1	0.0339752
12881	0.0339528
12892.7	0.0339272
12901.6	0.0339123
12910.4	0.0339017
12922.1	0.0338955
12931	0.0338977
12942.7	0.0339108
12951.6	0.0339291
12960.4	0.0339552
12972.2	0.0340032
12981	0.0340497
12992.7	0.0341266
13001.6	0.034196
13010.4	0.0342757
13022.2	0.0343988
13031	0.0345039
13042.7	0.0346617
13051.6	0.0347932
13060.4	0.0349363
13072.2	0.0351448
13081	0.0353144
13092.8	0.0355581
13101.6	0.0357536
13110.4	0.0359597
13122.2	0.0362505
13131	0.0364801
13142.8	0.0368003
13151.6	0.0370505
13160.4	0.0373085
13172.2	0.0376633
13181	0.0379367
13192.8	0.0383092
13201.6	0.0385934
13210.4	0.0388806
13222.2	0.0392665
13231	0.0395568
13242.8	0.0399428
13251.6	0.04023
13260.4	0.0405139
13272.2	0.0408849
13281	0.041156
13292.8	0.0415052
13301.6	0.0417562
13310.4	0.0419963
13322.2	0.0422971
13331	0.0425062
13342.8	0.0427606
13351.6	0.0429312
13360.4	0.0430828
13372.2	0.043253
13381	0.0433548
13392.8	0.0434537
13401.6	0.0434983
13410.4	0.0435161
13422.2	0.0434959
13431	0.0434463
13442.8	0.0433316
13451.6	0.0432077
13460.4	0.0430502
13472.2	0.042786
13481	0.0425459
13492.8	0.0421681
13501.6	0.0418403
13510.5	0.0414736
13522.2	0.0409229
13531	0.0404627
13542.8	0.0397852
13551.6	0.0392286
13560.5	0.03863
13572.2	0.037766
13581.1	0.0370684
13592.8	0.036072
13601.6	0.0352749
13610.5	0.0344354
13622.2	0.0332502
13631.1	0.0323123
13642.8	0.0309973
13651.6	0.0299634
13660.5	0.0288891
13672.2	0.0273953
13681.1	0.0262299
13692.8	0.0246176
13701.7	0.0233658
13710.5	0.0220788
13722.2	0.0203097
13731.1	0.0189449
13742.8	0.0170768
13751.7	0.0156414
13760.5	0.0141781
13772.3	0.0121865
13781.1	0.0106645
13792.8	0.00860053
13801.7	0.00702894
13810.5	0.00543912
13822.3	0.00329423
13831.1	0.00166922
13842.8	-0.000515522
13851.7	-0.00216501
13860.5	-0.00382158
13872.3	-0.00603777
13881.1	-0.00770275
13892.9	-0.00992246
13901.7	-0.0115843
13910.5	-0.0132411
13922.3	-0.0154388
13931.1	-0.0170757
13942.9	-0.019239
13951.7	-0.0208442
13960.5	-0.0224323
13972.3	-0.0245195
13981.1	-0.0260596
13992.9	-0.0280752
14001.7	-0.0295561
14010.5	-0.0310083
14022.3	-0.0328968
14031.1	-0.0342749
14042.9	-0.0360581
14051.7	-0.0373524
14060.5	-0.0386081
14072.3	-0.0402195
14081.1	-0.0413789
14092.9	-0.0428569
14101.7	-0.0439126
14110.5	-0.0449218
14122.3	-0.0461931
14131.1	-0.0470895
14142.9	-0.0482071
14151.7	-0.0489859
14160.5	-0.0497131
14172.3	-0.0506014
14181.1	-0.0512061
14192.9	-0.0519297
14201.7	-0.05241
14210.5	-0.0528368
14222.3	-0.0533226
14231.1	-0.0536246
14242.9	-0.0539447
14251.7	-0.0541233
14260.5	-0.0542496
14272.3	-0.0543378
14281.1	-0.0543447
14292.9	-0.0542763
14301.7	-0.054168
14310.6	-0.0540119
14322.3	-0.0537313
14331.1	-0.0534681
14342.9	-0.053049
14351.7	-0.0526853
14360.6	-0.0522809
14372.3	-0.051681
14381.2	-0.0511874
14392.9	-0.0504742
14401.7	-0.0499001
14410.6	-0.0492943
14422.3	-0.0484402
14431.2	-0.0477671
14442.9	-0.0468298
14451.7	-0.0460992
14460.6	-0.045347
14472.3	-0.0443135
14481.2	-0.0435178
14492.9	-0.042433
14501.8	-0.0416037
14510.6	-0.040763
14522.3	-0.0396273
14531.2	-0.0387667
14542.9	-0.0376106
14551.8	-0.0367392
14560.6	-0.0358658
14572.4	-0.0347008
14581.2	-0.0338287
14590	-0.0329595
14601.8	-0.0318074
14610.6	-0.0309502
14622.4	-0.0298186
14631.2	-0.0289799
14640	-0.0281509
14651.8	-0.0270624
14660.6	-0.0262597
14672.4	-0.0252094
14681.2	-0.0244376
14690	-0.02368
14701.8	-0.0226931
14710.6	-0.0219709
14722.4	-0.0210328
14731.2	-0.0203482
14740	-0.0196801
14751.8	-0.0188153
14760.6	-0.0181863
14772.4	-0.0173738
14781.2	-0.0167839
14790	-0.0162107
14801.8	-0.0154718
14810.6	-0.0149365
14822.4	-0.0142472
14831.2	-0.0137481
14840	-0.013264
14851.8	-0.012641
14860.6	-0.0121899
14872.4	-0.011609
14881.2	-0.0111882
14890	-0.0107794
14901.8	-0.010252
14910.6	-0.009869
14922.4	-0.00937382
14931.2	-0.00901327
14940	-0.00866132
14951.8	-0.00820439
14960.6	-0.00787014
14972.4	-0.00743464
14981.2	-0.00711488
14990.1	-0.00680038
15001.8	-0.00638833
15010.6	-0.00608409
15022.4	-0.00568393
15031.2	-0.00538736
15040.1	-0.00509339
15051.8	-0.00470484
15060.6	-0.00441556
15072.4	-0.00403218
15081.2	-0.00374609
15090.1	-0.00346103
15101.8	-0.00308233
15110.7	-0.00279923
15122.4	-0.00242293
15131.2	-0.00214162
15140.1	-0.00186118
15151.8	-0.00148883
15160.7	-0.00121099
15172.4	-0.000842873
15181.3	-0.000568925
15190.1	-0.000297192
15201.8	6.09823e-05
15210.7	0.00032593
15222.4	0.000673331
15231.3	0.000928769
15240.1	0.00117916
15251.8	0.00150406
15260.7	0.00174011
15272.4	0.00204331
15281.3	0.00226105
15290.1	0.0024696
15301.9	0.00273191
15310.7	0.00291569
15322.4	0.00314172
15331.3	0.00329574
15340.1	0.00343542
15351.9	0.00359762
15360.7	0.00369991
15372.5	0.00380855
15381.3	0.00386785
15390.1	0.00390696
15401.9	0.00392586
15410.7	0.00391371
15422.5	0.00386036
15431.3	0.00379109
15440.1	0.00369555
15451.9	0.00352548
15460.7	0.00336454
15472.5	0.00310348
15481.3	0.0028715
15490.1	0.00260741
15501.9	0.00220366
15510.7	0.0018609
15522.5	0.00134891
15531.3	0.000922553
15540.1	0.000458962
15551.9	-0.000218435
15560.7	-0.000771897
15572.5	-0.0015717
15581.3	-0.00221876
15590.1	-0.00290692
15601.9	-0.00388928
15610.7	-0.00467523
15622.5	-0.00578946
15631.3	-0.00667524
15640.1	-0.00760421
15651.9	-0.00891029
15660.7	-0.00994051
15672.5	-0.0113817
15681.3	-0.012513
15690.1	-0.0136874
15701.9	-0.0153197
15710.7	-0.0165932
15722.5	-0.0183562
15731.3	-0.0197262
15740.1	-0.0211365
15751.9	-0.0230781
15760.7	-0.0245791
15772.5	-0.0266382
15781.3	-0.0282243
15790.2	-0.0298451
15801.9	-0.0320574
15810.7	-0.0337535
15822.5	-0.0360608
15831.3	-0.0378237
15840.2	-0.0396125
15851.9	-0.0420344
15860.7	-0.043876
15872.5	-0.0463612
15881.3	-0.0482446
15890.2	-0.0501422
15901.9	-0.0526904
15910.8	-0.054612
15922.5	-0.0571834
15931.3	-0.0591155
15940.2	-0.0610477
15951.9	-0.0636195
15960.8	-0.0655414
15972.5	-0.0680893
15981.4	-0.0699856
15990.2	-0.071866
16001.9	-0.0743436
16010.8	-0.0761756
16022.5	-0.0785778
16031.4	-0.0803452
16040.2	-0.0820798
16051.9	-0.0843366
16060.8	-0.0859831
16072.5	-0.0881115
16081.4	-0.0896538
16090.2	-0.0911465
16102	-0.0930546
16110.8	-0.0944205
16122.5	-0.0961495
16131.4	-0.0973735
16140.2	-0.0985324
16152	-0.0999718
16160.8	-0.100969
16172.6	-0.102184
16181.4	-0.103006
16190.2	-0.103751
16202	-0.104617
16210.8	-0.105171
16222.6	-0.105778
16231.4	-0.106132
16240.2	-0.106398
16252	-0.106613
16260.8	-0.106669
16272.6	-0.1066
16281.4	-0.106441
16290.2	-0.106188
16302	-0.105705
16310.8	-0.105232
16322.6	-0.104456
16331.4	-0.103765
16340.2	-0.102979
16352	-0.101787
16360.8	-0.100786
16372.6	-0.0993079
16381.4	-0.0980945
16390.2	-0.0967923
16402	-0.0949203
16410.8	-0.0934167
16422.6	-0.0912823
16431.4	-0.0895869
16440.2	-0.0878126
16452	-0.0853282
16460.8	-0.083379
16472.6	-0.0806704
16481.4	-0.0785601
16490.2	-0.0763855
16502	-0.0733909
16510.8	-0.0710776
16522.6	-0.0679096
16531.4	-0.065475
16540.2	-0.062994
16552	-0.0596196
16560.8	-0.0570438
16572.6	-0.0535559
16581.4	-0.0509046
16590.3	-0.0482271
16602	-0.0446228
16610.8	-0.0418986
16622.6	-0.0382455
16631.4	-0.0354948
16640.3	-0.032739
16652	-0.0290629
16660.8	-0.0263095
16672.6	-0.0226497
16681.4	-0.0199182
16690.3	-0.0172019
16702	-0.0136099
16710.9	-0.0109425
16722.6	-0.00742759
16731.4	-0.00482669
16740.3	-0.00225941
16752	0.00110627
16760.9	0.0035839
16772.6	0.00682013
16781.5	0.00919359
16790.3	0.0115183
16802	0.0145384
16810.9	0.016741
16822.6	0.019591
16831.5	0.021661
16840.3	0.0236714
16852	0.0262568
16860.9	0.0281227
16872.6	0.0305112
16881.5	0.0322267
16890.3	0.0338763
16902.1	0.0359724
16910.9	0.0374663
16922.6	0.0393535
16931.5	0.0406902
16940.3	0.0419595
16952.1	0.0435475
16960.9	0.0446607
16972.7	0.046042
16981.5	0.0470018
16990.3	0.047897
17002.1	0.0489918
17010.9	0.0497402
17022.7	0.0506432
17031.5	0.051251
17040.3	0.0518007
17052.1	0.052446
17060.9	0.0528662
17072.7	0.0533445
17081.5	0.0536439
17090.3	0.0538944
17102.1	0.0541556
17110.9	0.0542992
17122.7	0.0544247
17131.5	0.0544717
17140.3	0.0544806
17152.1	0.0544364
17160.9	0.0543638
17172.7	0.0542181
17181.5	0.0540748
17190.3	0.0539043
17202.1	0.0536381
17210.9	0.0534117
17222.7	0.0530777
17231.5	0.0528055
17240.3	0.0525165
17252.1	0.0521081
17260.9	0.0517866
17272.7	0.0513406
17281.5	0.0509951
17290.3	0.0506417
17302.1	0.0501606
17310.9	0.0497941
17322.7	0.0492999
17331.5	0.0489267
17340.3	0.0485524
17352.1	0.0480534
17360.9	0.0476802
17372.7	0.0471856
17381.5	0.0468179
17390.4	0.0464535
17402.1	0.045974
17410.9	0.0456197
17422.7	0.0451551
17431.5	0.0448129
17440.4	0.0444764
17452.1	0.0440369
17460.9	0.0437143
17472.7	0.0432936
17481.5	0.0429853
17490.4	0.042683
17502.1	0.0422892
17511	0.0420006
17522.7	0.0416245
17531.5	0.0413486
17540.4	0.0410779
17552.1	0.0407243
17561	0.0404643
17572.7	0.0401239
17581.6	0.039873
17590.4	0.0396254
17602.1	0.0392999
17611	0.0390588
17622.7	0.0387407
17631.6	0.0385042
17640.4	0.0382691
17652.1	0.0379574
17661	0.0377245
17672.7	0.0374146
17681.6	0.0371823
17690.4	0.0369499
17702.2	0.0366394
17711	0.0364059
17722.7	0.0360933
17731.6	0.0358577
17740.4	0.0356211
17752.2	0.0353039
17761	0.0350646
17772.8	0.0347436
17781.6	0.0345016
17790.4	0.0342584
17802.2	0.0339325
17811	0.033687
17822.8	0.0333584
17831.6	0.0331113
17840.4	0.0328638
17852.2	0.0325336
17861	0.0322861
17872.8	0.0319566
17881.6	0.0317103
17890.4	0.0314651
17902.2	0.0311402
17911	0.0308984
17922.8	0.0305794
17931.6	0.0303429
17940.4	0.0301093
17952.2	0.0298028
17961	0.029577
17972.8	0.0292822
17981.6	0.0290662
17990.4	0.0288548
18002.2	0.0285809
18011	0.0283818
18022.8	0.0281253
18031.6	0.0279399
18040.4	0.027761
18052.2	0.0275327
18061	0.0273696
18072.8	0.0271631
18081.6	0.0270169
18090.4	0.0268781
18102.2	0.0267051
18111	0.0265844
18122.8	0.0264357
18131.6	0.0263335
18140.4	0.0262393
18152.2	0.026126
18161	0.0260503
18172.8	0.0259615
18181.6	0.025904
18190.5	0.0258541
18202.2	0.0257992
18211	0.0257664
18222.8	0.0257336
18231.6	0.0257168
18240.5	0.0257064
18252.2	0.0257021
18261	0.0257056
18272.8	0.0257186
18281.6	0.0257341
18290.5	0.025754
18302.2	0.025787
18311.1	0.0258158
18322.8	0.025859
18331.6	0.0258943
18340.5	0.0259316
18352.2	0.0259834
18361.1	0.0260233
18372.8	0.0260767
18381.7	0.0261163
18390.5	0.0261548
18402.2	0.0262036
18411.1	0.0262375
18422.8	0.0262781
18431.7	0.0263042
18440.5	0.0263259
18452.2	0.0263472
18461.1	0.0263565
18472.8	0.026359
18481.7	0.0263526
18490.5	0.0263385
18502.3	0.0263065
18511.1	0.0262719
18522.8	0.0262105
18531.7	0.0261522
18540.5	0.0260827
18552.3	0.0259717
18561.1	0.0258739
18572.9	0.0257231
18581.7	0.0255939
18590.5	0.0254504
18602.3	0.0252357
18611.1	0.0250566
18622.9	0.0247925
18631.7	0.024575
18640.5	0.0243403
18652.3	0.0239997
18661.1	0.023723
18672.9	0.023325
18681.7	0.0230041
18690.5	0.0226638
18702.3	0.0221789
18711.1	0.0217917
18722.9	0.0212433
18731.7	0.0208077
18740.5	0.020351
18752.3	0.019709
18761.1	0.0192024
18772.9	0.0184935
18781.7	0.0179365
18790.5	0.0173579
18802.3	0.0165527
18811.1	0.0159236
18822.9	0.0150513
18831.7	0.0143722
18840.5	0.013672
18852.3	0.0127059
18861.1	0.0119573
18872.9	0.0109278
18881.7	0.0101325
18890.5	0.00931786
18902.3	0.00820234
18911.1	0.00734432
18922.9	0.00617282
18931.7	0.00527432
18940.5	0.00435949
18952.3	0.00311542
18961.1	0.00216506
18972.9	0.000876238
18981.7	-0.000105636
18990.6	-0.00109969
19002.3	-0.00244258
19011.1	-0.00346173
19022.9	-0.00483486
19031.7	-0.0058742
19040.6	-0.0069206
19052.3	-0.00832511
19061.1	-0.00938418
19072.9	-0.0108019
19081.7	-0.0118681
19090.6	-0.0129355
19102.3	-0.014359
19111.2	-0.0154254
19122.9	-0.0168436
19131.7	-0.017903
19140.6	-0.0189577
19152.3	-0.0203547
19161.2	-0.0213941
19172.9	-0.0227668
19181.8	-0.0237851
19190.6	-0.0247925
19202.3	-0.0261173
19211.2	-0.0270956
19222.9	-0.0283778
19231.8	-0.0293216
19240.6	-0.0302489
19252.3	-0.0314581
19261.2	-0.0323435
19272.9	-0.0334936
19281.8	-0.0343324
19290.6	-0.0351497
19302.4	-0.0362048
19311.2	-0.0369692
19320	-0.0377097
19331.8	-0.0386587
19340.6	-0.0393409
19352.4	-0.0402097
19361.2	-0.0408301
19370	-0.0414232
19381.8	-0.0421705
19390.6	-0.0426978
19402.4	-0.0433558
19411.2	-0.0438151
19420	-0.0442447
19431.8	-0.0447707
19440.6	-0.0451297
19452.4	-0.0455609
19461.2	-0.0458484
19470	-0.046105
19481.8	-0.0463988
19490.6	-0.0465829
19502.4	-0.04678
19511.2	-0.0468916
19520	-0.0469723
19531.8	-0.0470321
19540.6	-0.0470412
19552.4	-0.0470061
19561.2	-0.0469447
19570	-0.0468535
19581.8	-0.0466863
19590.6	-0.0465272
19602.4	-0.0462707
19611.2	-0.0460458
19620	-0.0457935
19631.8	-0.0454155
19640.6	-0.0451015
19652.4	-0.0446434
19661.2	-0.0442711
19670	-0.0438749
19681.8	-0.0433107
19690.6	-0.0428617
19702.4	-0.0422301
19711.2	-0.0417327
19720.1	-0.041216
19731.8	-0.0404985
19740.6	-0.0399402
19752.4	-0.0391708
19761.2	-0.0385763
19770.1	-0.0379679
19781.8	-0.0371369
19790.7	-0.0365002
19802.4	-0.0356354
19811.2	-0.0349764
19820.1	-0.0343096
19831.8	-0.0334105
19840.7	-0.0327301
19852.4	-0.031817
19861.2	-0.0311293
19870.1	-0.0304404
19881.8	-0.0295221
19890.7	-0.028835
19902.4	-0.0279232
19911.3	-0.0272443
19920.1	-0.0265707
19931.8	-0.025683
19940.7	-0.0250264
19952.4	-0.0241654
19961.3	-0.0235318
19970.1	-0.0229098
19981.9	-0.0221003
19990.7	-0.0215094
