STARTING WORLD SCHEDULER SERVER
CLIENT SETUP: adding client 42491
 + TIMESTAMP: 0.397525
START TIMESTAMP: 0.397575
+++++++++++++++++++++++++++++++++++++++++++++++++++++++++++
+ Client Mapping:
  > Client 42491 (0):	

+ Core Mapping:	0 0 0 0 0 0 0 0 0 0 0 0 0 0 0 0 0 0 0 0 0 0 0 0 0 0 0 0 0 0 0 0 0 0 0 0 0 0 0 0 
+ Optimal point: 
+++++++++++++++++++++++++++++++++++++++++++++++++++++++++++
INVADE: client 42491
 + TIMESTAMP: 0.397786
RESSOURCE DISTRIBUTION CHANGED
++++++++++++++++++++++++++++++++++++++++++++++++
INVADE (42491)
  + pid: 42491
  + min_cores: 1
  + max_cores: 512
  + scalability graph: 
1, 1.39494, 1.5699, 1.6742, 1.74538, 1.79792, 1.83875, 1.87167, 1.89893, 1.922, 1.94184, 1.95915, 1.97442, 1.98802, 2.00024, 2.0113, 2.02136, 2.03058, 2.03906, 2.04689, 2.05415, 2.06092, 2.06724, 2.07316, 2.07872, 2.08396, 2.0889, 2.09358, 2.09801, 2.10222, 2.10622, 2.11003, 2.11367, 2.11715, 2.12048, 2.12367, 2.12672, 2.12966, 2.13248, 2.1352, 
Number of clients: 1

+++++++++++++++++++++++++++++++++++++++++++++++++++++++++++
+ Client Mapping:
  > Client 42491 (40):	0 1 2 3 4 5 6 7 8 9 10 11 12 13 14 15 16 17 18 19 20 21 22 23 24 25 26 27 28 29 30 31 32 33 34 35 36 37 38 39 

+ Core Mapping:	42491 42491 42491 42491 42491 42491 42491 42491 42491 42491 42491 42491 42491 42491 42491 42491 42491 42491 42491 42491 42491 42491 42491 42491 42491 42491 42491 42491 42491 42491 42491 42491 42491 42491 42491 42491 42491 42491 42491 42491 
+ Optimal point: 40 
+++++++++++++++++++++++++++++++++++++++++++++++++++++++++++
CLIENT SETUP: adding client 42488
 + TIMESTAMP: 0.402916
+++++++++++++++++++++++++++++++++++++++++++++++++++++++++++
+ Client Mapping:
  > Client 42491 (40):	0 1 2 3 4 5 6 7 8 9 10 11 12 13 14 15 16 17 18 19 20 21 22 23 24 25 26 27 28 29 30 31 32 33 34 35 36 37 38 39 
  > Client 42488 (0):	

+ Core Mapping:	42491 42491 42491 42491 42491 42491 42491 42491 42491 42491 42491 42491 42491 42491 42491 42491 42491 42491 42491 42491 42491 42491 42491 42491 42491 42491 42491 42491 42491 42491 42491 42491 42491 42491 42491 42491 42491 42491 42491 42491 
+ Optimal point: 40 
+++++++++++++++++++++++++++++++++++++++++++++++++++++++++++
INVADE: client 42488
 + TIMESTAMP: 0.40307
CLIENT SETUP: adding client 42487
 + TIMESTAMP: 0.403599
+++++++++++++++++++++++++++++++++++++++++++++++++++++++++++
+ Client Mapping:
  > Client 42491 (40):	0 1 2 3 4 5 6 7 8 9 10 11 12 13 14 15 16 17 18 19 20 21 22 23 24 25 26 27 28 29 30 31 32 33 34 35 36 37 38 39 
  > Client 42488 (0):	
  > Client 42487 (0):	

+ Core Mapping:	42491 42491 42491 42491 42491 42491 42491 42491 42491 42491 42491 42491 42491 42491 42491 42491 42491 42491 42491 42491 42491 42491 42491 42491 42491 42491 42491 42491 42491 42491 42491 42491 42491 42491 42491 42491 42491 42491 42491 42491 
+ Optimal point: 20 20 
+++++++++++++++++++++++++++++++++++++++++++++++++++++++++++
CLIENT SETUP: adding client 42492
 + TIMESTAMP: 0.403759
+++++++++++++++++++++++++++++++++++++++++++++++++++++++++++
+ Client Mapping:
  > Client 42491 (40):	0 1 2 3 4 5 6 7 8 9 10 11 12 13 14 15 16 17 18 19 20 21 22 23 24 25 26 27 28 29 30 31 32 33 34 35 36 37 38 39 
  > Client 42488 (0):	
  > Client 42487 (0):	
  > Client 42492 (0):	

+ Core Mapping:	42491 42491 42491 42491 42491 42491 42491 42491 42491 42491 42491 42491 42491 42491 42491 42491 42491 42491 42491 42491 42491 42491 42491 42491 42491 42491 42491 42491 42491 42491 42491 42491 42491 42491 42491 42491 42491 42491 42491 42491 
+ Optimal point: 20 20 
+++++++++++++++++++++++++++++++++++++++++++++++++++++++++++
INVADE: client 42492
 + TIMESTAMP: 0.403831
INVADE: client 42487
 + TIMESTAMP: 0.40392
CLIENT SETUP: adding client 42484
 + TIMESTAMP: 0.406756
+++++++++++++++++++++++++++++++++++++++++++++++++++++++++++
+ Client Mapping:
  > Client 42491 (40):	0 1 2 3 4 5 6 7 8 9 10 11 12 13 14 15 16 17 18 19 20 21 22 23 24 25 26 27 28 29 30 31 32 33 34 35 36 37 38 39 
  > Client 42488 (0):	
  > Client 42487 (0):	
  > Client 42492 (0):	
  > Client 42484 (0):	

+ Core Mapping:	42491 42491 42491 42491 42491 42491 42491 42491 42491 42491 42491 42491 42491 42491 42491 42491 42491 42491 42491 42491 42491 42491 42491 42491 42491 42491 42491 42491 42491 42491 42491 42491 42491 42491 42491 42491 42491 42491 42491 42491 
+ Optimal point: 10 10 10 10 
+++++++++++++++++++++++++++++++++++++++++++++++++++++++++++
INVADE: client 42484
 + TIMESTAMP: 0.406889
CLIENT SETUP: adding client 42489
 + TIMESTAMP: 0.414431
+++++++++++++++++++++++++++++++++++++++++++++++++++++++++++
+ Client Mapping:
  > Client 42491 (40):	0 1 2 3 4 5 6 7 8 9 10 11 12 13 14 15 16 17 18 19 20 21 22 23 24 25 26 27 28 29 30 31 32 33 34 35 36 37 38 39 
  > Client 42488 (0):	
  > Client 42487 (0):	
  > Client 42492 (0):	
  > Client 42484 (0):	
  > Client 42489 (0):	

+ Core Mapping:	42491 42491 42491 42491 42491 42491 42491 42491 42491 42491 42491 42491 42491 42491 42491 42491 42491 42491 42491 42491 42491 42491 42491 42491 42491 42491 42491 42491 42491 42491 42491 42491 42491 42491 42491 42491 42491 42491 42491 42491 
+ Optimal point: 8 8 8 8 8 
+++++++++++++++++++++++++++++++++++++++++++++++++++++++++++
INVADE: client 42489
 + TIMESTAMP: 0.414537
CLIENT SETUP: adding client 42494
 + TIMESTAMP: 0.423355
+++++++++++++++++++++++++++++++++++++++++++++++++++++++++++
+ Client Mapping:
  > Client 42491 (40):	0 1 2 3 4 5 6 7 8 9 10 11 12 13 14 15 16 17 18 19 20 21 22 23 24 25 26 27 28 29 30 31 32 33 34 35 36 37 38 39 
  > Client 42488 (0):	
  > Client 42487 (0):	
  > Client 42492 (0):	
  > Client 42484 (0):	
  > Client 42489 (0):	
  > Client 42494 (0):	

+ Core Mapping:	42491 42491 42491 42491 42491 42491 42491 42491 42491 42491 42491 42491 42491 42491 42491 42491 42491 42491 42491 42491 42491 42491 42491 42491 42491 42491 42491 42491 42491 42491 42491 42491 42491 42491 42491 42491 42491 42491 42491 42491 
+ Optimal point: 7 7 7 6 6 7 
+++++++++++++++++++++++++++++++++++++++++++++++++++++++++++
INVADE: client 42494
 + TIMESTAMP: 0.423463
CLIENT SETUP: adding client 42493
 + TIMESTAMP: 0.439199
+++++++++++++++++++++++++++++++++++++++++++++++++++++++++++
+ Client Mapping:
  > Client 42491 (40):	0 1 2 3 4 5 6 7 8 9 10 11 12 13 14 15 16 17 18 19 20 21 22 23 24 25 26 27 28 29 30 31 32 33 34 35 36 37 38 39 
  > Client 42488 (0):	
  > Client 42487 (0):	
  > Client 42492 (0):	
  > Client 42484 (0):	
  > Client 42489 (0):	
  > Client 42494 (0):	
  > Client 42493 (0):	

+ Core Mapping:	42491 42491 42491 42491 42491 42491 42491 42491 42491 42491 42491 42491 42491 42491 42491 42491 42491 42491 42491 42491 42491 42491 42491 42491 42491 42491 42491 42491 42491 42491 42491 42491 42491 42491 42491 42491 42491 42491 42491 42491 
+ Optimal point: 6 6 6 6 6 5 5 
+++++++++++++++++++++++++++++++++++++++++++++++++++++++++++
INVADE: client 42493
 + TIMESTAMP: 0.439313
CLIENT SETUP: adding client 42485
 + TIMESTAMP: 0.451138
+++++++++++++++++++++++++++++++++++++++++++++++++++++++++++
+ Client Mapping:
  > Client 42491 (40):	0 1 2 3 4 5 6 7 8 9 10 11 12 13 14 15 16 17 18 19 20 21 22 23 24 25 26 27 28 29 30 31 32 33 34 35 36 37 38 39 
  > Client 42488 (0):	
  > Client 42487 (0):	
  > Client 42492 (0):	
  > Client 42484 (0):	
  > Client 42489 (0):	
  > Client 42494 (0):	
  > Client 42493 (0):	
  > Client 42485 (0):	

+ Core Mapping:	42491 42491 42491 42491 42491 42491 42491 42491 42491 42491 42491 42491 42491 42491 42491 42491 42491 42491 42491 42491 42491 42491 42491 42491 42491 42491 42491 42491 42491 42491 42491 42491 42491 42491 42491 42491 42491 42491 42491 42491 
+ Optimal point: 5 5 5 5 5 5 5 5 
+++++++++++++++++++++++++++++++++++++++++++++++++++++++++++
INVADE: client 42485
 + TIMESTAMP: 0.451835
++++++++++++++++++++++++++++++++++++++++++++++++
 + TIMESTAMP: 0.486479
REINVADE (42491)
  + pid: 42491
  + min_cores: 1
  + max_cores: 512
  + scalability graph: 
1, 1.39494, 1.5699, 1.6742, 1.74538, 1.79792, 1.83875, 1.87167, 1.89893, 1.922, 1.94184, 1.95915, 1.97442, 1.98802, 2.00024, 2.0113, 2.02136, 2.03058, 2.03906, 2.04689, 2.05415, 2.06092, 2.06724, 2.07316, 2.07872, 2.08396, 2.0889, 2.09358, 2.09801, 2.10222, 2.10622, 2.11003, 2.11367, 2.11715, 2.12048, 2.12367, 2.12672, 2.12966, 2.13248, 2.1352, 
Number of clients: 9

+++++++++++++++++++++++++++++++++++++++++++++++++++++++++++
+ Client Mapping:
  > Client 42491 (5):	35 36 37 38 39 
  > Client 42488 (0):	
  > Client 42487 (0):	
  > Client 42492 (0):	
  > Client 42484 (0):	
  > Client 42489 (0):	
  > Client 42494 (0):	
  > Client 42493 (0):	
  > Client 42485 (0):	

+ Core Mapping:	0 0 0 0 0 0 0 0 0 0 0 0 0 0 0 0 0 0 0 0 0 0 0 0 0 0 0 0 0 0 0 0 0 0 0 42491 42491 42491 42491 42491 
+ Optimal point: 5 5 5 5 4 4 4 4 4 
+++++++++++++++++++++++++++++++++++++++++++++++++++++++++++
CLIENT SETUP: adding client 42490
 + TIMESTAMP: 0.497487
+++++++++++++++++++++++++++++++++++++++++++++++++++++++++++
+ Client Mapping:
  > Client 42491 (5):	35 36 37 38 39 
  > Client 42488 (0):	
  > Client 42487 (0):	
  > Client 42492 (0):	
  > Client 42484 (0):	
  > Client 42489 (0):	
  > Client 42494 (0):	
  > Client 42493 (0):	
  > Client 42485 (0):	
  > Client 42490 (0):	

+ Core Mapping:	0 0 0 0 0 0 0 0 0 0 0 0 0 0 0 0 0 0 0 0 0 0 0 0 0 0 0 0 0 0 0 0 0 0 0 42491 42491 42491 42491 42491 
+ Optimal point: 5 5 5 5 4 4 4 4 4 
+++++++++++++++++++++++++++++++++++++++++++++++++++++++++++
INVADE: client 42490
 + TIMESTAMP: 0.497698
RESSOURCE DISTRIBUTION CHANGED
++++++++++++++++++++++++++++++++++++++++++++++++
INVADE (42490)
  + pid: 42490
  + min_cores: 1
  + max_cores: 512
  + scalability graph: 
1, 1.39494, 1.5699, 1.6742, 1.74538, 1.79792, 1.83875, 1.87167, 1.89893, 1.922, 1.94184, 1.95915, 1.97442, 1.98802, 2.00024, 2.0113, 2.02136, 2.03058, 2.03906, 2.04689, 2.05415, 2.06092, 2.06724, 2.07316, 2.07872, 2.08396, 2.0889, 2.09358, 2.09801, 2.10222, 2.10622, 2.11003, 2.11367, 2.11715, 2.12048, 2.12367, 2.12672, 2.12966, 2.13248, 2.1352, 
Number of clients: 10

+++++++++++++++++++++++++++++++++++++++++++++++++++++++++++
+ Client Mapping:
  > Client 42491 (5):	35 36 37 38 39 
  > Client 42488 (0):	
  > Client 42487 (0):	
  > Client 42492 (0):	
  > Client 42484 (0):	
  > Client 42489 (0):	
  > Client 42494 (0):	
  > Client 42493 (0):	
  > Client 42485 (0):	
  > Client 42490 (4):	0 1 2 3 

+ Core Mapping:	42490 42490 42490 42490 0 0 0 0 0 0 0 0 0 0 0 0 0 0 0 0 0 0 0 0 0 0 0 0 0 0 0 0 0 0 0 42491 42491 42491 42491 42491 
+ Optimal point: 4 4 4 4 4 4 4 4 4 4 
+++++++++++++++++++++++++++++++++++++++++++++++++++++++++++
CLIENT SETUP: adding client 42486
 + TIMESTAMP: 0.579949
+++++++++++++++++++++++++++++++++++++++++++++++++++++++++++
+ Client Mapping:
  > Client 42491 (5):	35 36 37 38 39 
  > Client 42488 (0):	
  > Client 42487 (0):	
  > Client 42492 (0):	
  > Client 42484 (0):	
  > Client 42489 (0):	
  > Client 42494 (0):	
  > Client 42493 (0):	
  > Client 42485 (0):	
  > Client 42490 (4):	0 1 2 3 
  > Client 42486 (0):	

+ Core Mapping:	42490 42490 42490 42490 0 0 0 0 0 0 0 0 0 0 0 0 0 0 0 0 0 0 0 0 0 0 0 0 0 0 0 0 0 0 0 42491 42491 42491 42491 42491 
+ Optimal point: 4 4 4 4 4 4 4 4 4 4 
+++++++++++++++++++++++++++++++++++++++++++++++++++++++++++
INVADE: client 42486
 + TIMESTAMP: 0.580084
RESSOURCE DISTRIBUTION CHANGED
++++++++++++++++++++++++++++++++++++++++++++++++
INVADE (42486)
  + pid: 42486
  + min_cores: 1
  + max_cores: 512
  + scalability graph: 
1, 1.39494, 1.5699, 1.6742, 1.74538, 1.79792, 1.83875, 1.87167, 1.89893, 1.922, 1.94184, 1.95915, 1.97442, 1.98802, 2.00024, 2.0113, 2.02136, 2.03058, 2.03906, 2.04689, 2.05415, 2.06092, 2.06724, 2.07316, 2.07872, 2.08396, 2.0889, 2.09358, 2.09801, 2.10222, 2.10622, 2.11003, 2.11367, 2.11715, 2.12048, 2.12367, 2.12672, 2.12966, 2.13248, 2.1352, 
Number of clients: 11

+++++++++++++++++++++++++++++++++++++++++++++++++++++++++++
+ Client Mapping:
  > Client 42491 (5):	35 36 37 38 39 
  > Client 42488 (0):	
  > Client 42487 (0):	
  > Client 42492 (0):	
  > Client 42484 (0):	
  > Client 42489 (0):	
  > Client 42494 (0):	
  > Client 42493 (0):	
  > Client 42485 (0):	
  > Client 42490 (4):	0 1 2 3 
  > Client 42486 (4):	4 5 6 7 

+ Core Mapping:	42490 42490 42490 42490 42486 42486 42486 42486 0 0 0 0 0 0 0 0 0 0 0 0 0 0 0 0 0 0 0 0 0 0 0 0 0 0 0 42491 42491 42491 42491 42491 
+ Optimal point: 3 3 3 4 4 4 4 4 4 3 4 
+++++++++++++++++++++++++++++++++++++++++++++++++++++++++++
++++++++++++++++++++++++++++++++++++++++++++++++
 + TIMESTAMP: 0.729328
REINVADE (42491)
  + pid: 42491
  + min_cores: 1
  + max_cores: 512
  + scalability graph: 
1, 1.39494, 1.5699, 1.6742, 1.74538, 1.79792, 1.83875, 1.87167, 1.89893, 1.922, 1.94184, 1.95915, 1.97442, 1.98802, 2.00024, 2.0113, 2.02136, 2.03058, 2.03906, 2.04689, 2.05415, 2.06092, 2.06724, 2.07316, 2.07872, 2.08396, 2.0889, 2.09358, 2.09801, 2.10222, 2.10622, 2.11003, 2.11367, 2.11715, 2.12048, 2.12367, 2.12672, 2.12966, 2.13248, 2.1352, 
Number of clients: 11

+++++++++++++++++++++++++++++++++++++++++++++++++++++++++++
+ Client Mapping:
  > Client 42491 (3):	37 38 39 
  > Client 42488 (0):	
  > Client 42487 (0):	
  > Client 42492 (0):	
  > Client 42484 (0):	
  > Client 42489 (0):	
  > Client 42494 (0):	
  > Client 42493 (0):	
  > Client 42485 (0):	
  > Client 42490 (4):	0 1 2 3 
  > Client 42486 (4):	4 5 6 7 

+ Core Mapping:	42490 42490 42490 42490 42486 42486 42486 42486 0 0 0 0 0 0 0 0 0 0 0 0 0 0 0 0 0 0 0 0 0 0 0 0 0 0 0 0 0 42491 42491 42491 
+ Optimal point: 3 3 3 4 4 4 4 4 4 3 4 
+++++++++++++++++++++++++++++++++++++++++++++++++++++++++++
++++++++++++++++++++++++++++++++++++++++++++++++
 + TIMESTAMP: 0.791715
REINVADE (42490)
  + pid: 42490
  + min_cores: 1
  + max_cores: 512
  + scalability graph: 
1, 1.39494, 1.5699, 1.6742, 1.74538, 1.79792, 1.83875, 1.87167, 1.89893, 1.922, 1.94184, 1.95915, 1.97442, 1.98802, 2.00024, 2.0113, 2.02136, 2.03058, 2.03906, 2.04689, 2.05415, 2.06092, 2.06724, 2.07316, 2.07872, 2.08396, 2.0889, 2.09358, 2.09801, 2.10222, 2.10622, 2.11003, 2.11367, 2.11715, 2.12048, 2.12367, 2.12672, 2.12966, 2.13248, 2.1352, 
Number of clients: 11

+++++++++++++++++++++++++++++++++++++++++++++++++++++++++++
+ Client Mapping:
  > Client 42491 (3):	37 38 39 
  > Client 42488 (0):	
  > Client 42487 (0):	
  > Client 42492 (0):	
  > Client 42484 (0):	
  > Client 42489 (0):	
  > Client 42494 (0):	
  > Client 42493 (0):	
  > Client 42485 (0):	
  > Client 42490 (3):	1 2 3 
  > Client 42486 (4):	4 5 6 7 

+ Core Mapping:	0 42490 42490 42490 42486 42486 42486 42486 0 0 0 0 0 0 0 0 0 0 0 0 0 0 0 0 0 0 0 0 0 0 0 0 0 0 0 0 0 42491 42491 42491 
+ Optimal point: 3 3 3 4 4 4 4 4 4 3 4 
+++++++++++++++++++++++++++++++++++++++++++++++++++++++++++
++++++++++++++++++++++++++++++++++++++++++++++++
 + TIMESTAMP: 1.55169
REINVADE (42494)
  + pid: 42494
  + min_cores: 1
  + max_cores: 512
  + scalability graph: 
1, 1.39494, 1.5699, 1.6742, 1.74538, 1.79792, 1.83875, 1.87167, 1.89893, 1.922, 1.94184, 1.95915, 1.97442, 1.98802, 2.00024, 2.0113, 2.02136, 2.03058, 2.03906, 2.04689, 2.05415, 2.06092, 2.06724, 2.07316, 2.07872, 2.08396, 2.0889, 2.09358, 2.09801, 2.10222, 2.10622, 2.11003, 2.11367, 2.11715, 2.12048, 2.12367, 2.12672, 2.12966, 2.13248, 2.1352, 
Number of clients: 11

+++++++++++++++++++++++++++++++++++++++++++++++++++++++++++
+ Client Mapping:
  > Client 42491 (3):	37 38 39 
  > Client 42488 (0):	
  > Client 42487 (0):	
  > Client 42492 (0):	
  > Client 42484 (0):	
  > Client 42489 (0):	
  > Client 42494 (4):	0 8 9 10 
  > Client 42493 (0):	
  > Client 42485 (0):	
  > Client 42490 (3):	1 2 3 
  > Client 42486 (4):	4 5 6 7 

+ Core Mapping:	42494 42490 42490 42490 42486 42486 42486 42486 42494 42494 42494 0 0 0 0 0 0 0 0 0 0 0 0 0 0 0 0 0 0 0 0 0 0 0 0 0 0 42491 42491 42491 
+ Optimal point: 3 3 3 4 4 4 4 4 4 3 4 
+++++++++++++++++++++++++++++++++++++++++++++++++++++++++++
++++++++++++++++++++++++++++++++++++++++++++++++
 + TIMESTAMP: 1.7541
REINVADE (42489)
  + pid: 42489
  + min_cores: 1
  + max_cores: 512
  + scalability graph: 
1, 1.39494, 1.5699, 1.6742, 1.74538, 1.79792, 1.83875, 1.87167, 1.89893, 1.922, 1.94184, 1.95915, 1.97442, 1.98802, 2.00024, 2.0113, 2.02136, 2.03058, 2.03906, 2.04689, 2.05415, 2.06092, 2.06724, 2.07316, 2.07872, 2.08396, 2.0889, 2.09358, 2.09801, 2.10222, 2.10622, 2.11003, 2.11367, 2.11715, 2.12048, 2.12367, 2.12672, 2.12966, 2.13248, 2.1352, 
Number of clients: 11

+++++++++++++++++++++++++++++++++++++++++++++++++++++++++++
+ Client Mapping:
  > Client 42491 (3):	37 38 39 
  > Client 42488 (0):	
  > Client 42487 (0):	
  > Client 42492 (0):	
  > Client 42484 (0):	
  > Client 42489 (4):	11 12 13 14 
  > Client 42494 (4):	0 8 9 10 
  > Client 42493 (0):	
  > Client 42485 (0):	
  > Client 42490 (3):	1 2 3 
  > Client 42486 (4):	4 5 6 7 

+ Core Mapping:	42494 42490 42490 42490 42486 42486 42486 42486 42494 42494 42494 42489 42489 42489 42489 0 0 0 0 0 0 0 0 0 0 0 0 0 0 0 0 0 0 0 0 0 0 42491 42491 42491 
+ Optimal point: 3 3 3 4 4 4 4 4 4 3 4 
+++++++++++++++++++++++++++++++++++++++++++++++++++++++++++
++++++++++++++++++++++++++++++++++++++++++++++++
 + TIMESTAMP: 1.7946
REINVADE (42492)
  + pid: 42492
  + min_cores: 1
  + max_cores: 512
  + scalability graph: 
1, 1.39494, 1.5699, 1.6742, 1.74538, 1.79792, 1.83875, 1.87167, 1.89893, 1.922, 1.94184, 1.95915, 1.97442, 1.98802, 2.00024, 2.0113, 2.02136, 2.03058, 2.03906, 2.04689, 2.05415, 2.06092, 2.06724, 2.07316, 2.07872, 2.08396, 2.0889, 2.09358, 2.09801, 2.10222, 2.10622, 2.11003, 2.11367, 2.11715, 2.12048, 2.12367, 2.12672, 2.12966, 2.13248, 2.1352, 
Number of clients: 11

+++++++++++++++++++++++++++++++++++++++++++++++++++++++++++
+ Client Mapping:
  > Client 42491 (3):	37 38 39 
  > Client 42488 (0):	
  > Client 42487 (0):	
  > Client 42492 (4):	15 16 17 18 
  > Client 42484 (0):	
  > Client 42489 (4):	11 12 13 14 
  > Client 42494 (4):	0 8 9 10 
  > Client 42493 (0):	
  > Client 42485 (0):	
  > Client 42490 (3):	1 2 3 
  > Client 42486 (4):	4 5 6 7 

+ Core Mapping:	42494 42490 42490 42490 42486 42486 42486 42486 42494 42494 42494 42489 42489 42489 42489 42492 42492 42492 42492 0 0 0 0 0 0 0 0 0 0 0 0 0 0 0 0 0 0 42491 42491 42491 
+ Optimal point: 3 3 3 4 4 4 4 4 4 3 4 
+++++++++++++++++++++++++++++++++++++++++++++++++++++++++++
++++++++++++++++++++++++++++++++++++++++++++++++
 + TIMESTAMP: 1.79577
REINVADE (42487)
  + pid: 42487
  + min_cores: 1
  + max_cores: 512
  + scalability graph: 
1, 1.39494, 1.5699, 1.6742, 1.74538, 1.79792, 1.83875, 1.87167, 1.89893, 1.922, 1.94184, 1.95915, 1.97442, 1.98802, 2.00024, 2.0113, 2.02136, 2.03058, 2.03906, 2.04689, 2.05415, 2.06092, 2.06724, 2.07316, 2.07872, 2.08396, 2.0889, 2.09358, 2.09801, 2.10222, 2.10622, 2.11003, 2.11367, 2.11715, 2.12048, 2.12367, 2.12672, 2.12966, 2.13248, 2.1352, 
Number of clients: 11

+++++++++++++++++++++++++++++++++++++++++++++++++++++++++++
+ Client Mapping:
  > Client 42491 (3):	37 38 39 
  > Client 42488 (0):	
  > Client 42487 (3):	19 20 21 
  > Client 42492 (4):	15 16 17 18 
  > Client 42484 (0):	
  > Client 42489 (4):	11 12 13 14 
  > Client 42494 (4):	0 8 9 10 
  > Client 42493 (0):	
  > Client 42485 (0):	
  > Client 42490 (3):	1 2 3 
  > Client 42486 (4):	4 5 6 7 

+ Core Mapping:	42494 42490 42490 42490 42486 42486 42486 42486 42494 42494 42494 42489 42489 42489 42489 42492 42492 42492 42492 42487 42487 42487 0 0 0 0 0 0 0 0 0 0 0 0 0 0 0 42491 42491 42491 
+ Optimal point: 3 3 3 4 4 4 4 4 4 3 4 
+++++++++++++++++++++++++++++++++++++++++++++++++++++++++++
++++++++++++++++++++++++++++++++++++++++++++++++
 + TIMESTAMP: 1.82245
REINVADE (42488)
  + pid: 42488
  + min_cores: 1
  + max_cores: 512
  + scalability graph: 
1, 1.39494, 1.5699, 1.6742, 1.74538, 1.79792, 1.83875, 1.87167, 1.89893, 1.922, 1.94184, 1.95915, 1.97442, 1.98802, 2.00024, 2.0113, 2.02136, 2.03058, 2.03906, 2.04689, 2.05415, 2.06092, 2.06724, 2.07316, 2.07872, 2.08396, 2.0889, 2.09358, 2.09801, 2.10222, 2.10622, 2.11003, 2.11367, 2.11715, 2.12048, 2.12367, 2.12672, 2.12966, 2.13248, 2.1352, 
Number of clients: 11

+++++++++++++++++++++++++++++++++++++++++++++++++++++++++++
+ Client Mapping:
  > Client 42491 (3):	37 38 39 
  > Client 42488 (3):	22 23 24 
  > Client 42487 (3):	19 20 21 
  > Client 42492 (4):	15 16 17 18 
  > Client 42484 (0):	
  > Client 42489 (4):	11 12 13 14 
  > Client 42494 (4):	0 8 9 10 
  > Client 42493 (0):	
  > Client 42485 (0):	
  > Client 42490 (3):	1 2 3 
  > Client 42486 (4):	4 5 6 7 

+ Core Mapping:	42494 42490 42490 42490 42486 42486 42486 42486 42494 42494 42494 42489 42489 42489 42489 42492 42492 42492 42492 42487 42487 42487 42488 42488 42488 0 0 0 0 0 0 0 0 0 0 0 0 42491 42491 42491 
+ Optimal point: 3 3 3 4 4 4 4 4 4 3 4 
+++++++++++++++++++++++++++++++++++++++++++++++++++++++++++
++++++++++++++++++++++++++++++++++++++++++++++++
 + TIMESTAMP: 1.84274
REINVADE (42493)
  + pid: 42493
  + min_cores: 1
  + max_cores: 512
  + scalability graph: 
1, 1.39494, 1.5699, 1.6742, 1.74538, 1.79792, 1.83875, 1.87167, 1.89893, 1.922, 1.94184, 1.95915, 1.97442, 1.98802, 2.00024, 2.0113, 2.02136, 2.03058, 2.03906, 2.04689, 2.05415, 2.06092, 2.06724, 2.07316, 2.07872, 2.08396, 2.0889, 2.09358, 2.09801, 2.10222, 2.10622, 2.11003, 2.11367, 2.11715, 2.12048, 2.12367, 2.12672, 2.12966, 2.13248, 2.1352, 
Number of clients: 11

+++++++++++++++++++++++++++++++++++++++++++++++++++++++++++
+ Client Mapping:
  > Client 42491 (3):	37 38 39 
  > Client 42488 (3):	22 23 24 
  > Client 42487 (3):	19 20 21 
  > Client 42492 (4):	15 16 17 18 
  > Client 42484 (0):	
  > Client 42489 (4):	11 12 13 14 
  > Client 42494 (4):	0 8 9 10 
  > Client 42493 (4):	25 26 27 28 
  > Client 42485 (0):	
  > Client 42490 (3):	1 2 3 
  > Client 42486 (4):	4 5 6 7 

+ Core Mapping:	42494 42490 42490 42490 42486 42486 42486 42486 42494 42494 42494 42489 42489 42489 42489 42492 42492 42492 42492 42487 42487 42487 42488 42488 42488 42493 42493 42493 42493 0 0 0 0 0 0 0 0 42491 42491 42491 
+ Optimal point: 3 3 3 4 4 4 4 4 4 3 4 
+++++++++++++++++++++++++++++++++++++++++++++++++++++++++++
++++++++++++++++++++++++++++++++++++++++++++++++
 + TIMESTAMP: 1.85628
REINVADE (42485)
  + pid: 42485
  + min_cores: 1
  + max_cores: 512
  + scalability graph: 
1, 1.39494, 1.5699, 1.6742, 1.74538, 1.79792, 1.83875, 1.87167, 1.89893, 1.922, 1.94184, 1.95915, 1.97442, 1.98802, 2.00024, 2.0113, 2.02136, 2.03058, 2.03906, 2.04689, 2.05415, 2.06092, 2.06724, 2.07316, 2.07872, 2.08396, 2.0889, 2.09358, 2.09801, 2.10222, 2.10622, 2.11003, 2.11367, 2.11715, 2.12048, 2.12367, 2.12672, 2.12966, 2.13248, 2.1352, 
Number of clients: 11

+++++++++++++++++++++++++++++++++++++++++++++++++++++++++++
+ Client Mapping:
  > Client 42491 (3):	37 38 39 
  > Client 42488 (3):	22 23 24 
  > Client 42487 (3):	19 20 21 
  > Client 42492 (4):	15 16 17 18 
  > Client 42484 (0):	
  > Client 42489 (4):	11 12 13 14 
  > Client 42494 (4):	0 8 9 10 
  > Client 42493 (4):	25 26 27 28 
  > Client 42485 (4):	29 30 31 32 
  > Client 42490 (3):	1 2 3 
  > Client 42486 (4):	4 5 6 7 

+ Core Mapping:	42494 42490 42490 42490 42486 42486 42486 42486 42494 42494 42494 42489 42489 42489 42489 42492 42492 42492 42492 42487 42487 42487 42488 42488 42488 42493 42493 42493 42493 42485 42485 42485 42485 0 0 0 0 42491 42491 42491 
+ Optimal point: 3 3 3 4 4 4 4 4 4 3 4 
+++++++++++++++++++++++++++++++++++++++++++++++++++++++++++
++++++++++++++++++++++++++++++++++++++++++++++++
 + TIMESTAMP: 1.86488
REINVADE (42484)
  + pid: 42484
  + min_cores: 1
  + max_cores: 512
  + scalability graph: 
1, 1.39494, 1.5699, 1.6742, 1.74538, 1.79792, 1.83875, 1.87167, 1.89893, 1.922, 1.94184, 1.95915, 1.97442, 1.98802, 2.00024, 2.0113, 2.02136, 2.03058, 2.03906, 2.04689, 2.05415, 2.06092, 2.06724, 2.07316, 2.07872, 2.08396, 2.0889, 2.09358, 2.09801, 2.10222, 2.10622, 2.11003, 2.11367, 2.11715, 2.12048, 2.12367, 2.12672, 2.12966, 2.13248, 2.1352, 
Number of clients: 11

+++++++++++++++++++++++++++++++++++++++++++++++++++++++++++
+ Client Mapping:
  > Client 42491 (3):	37 38 39 
  > Client 42488 (3):	22 23 24 
  > Client 42487 (3):	19 20 21 
  > Client 42492 (4):	15 16 17 18 
  > Client 42484 (4):	33 34 35 36 
  > Client 42489 (4):	11 12 13 14 
  > Client 42494 (4):	0 8 9 10 
  > Client 42493 (4):	25 26 27 28 
  > Client 42485 (4):	29 30 31 32 
  > Client 42490 (3):	1 2 3 
  > Client 42486 (4):	4 5 6 7 

+ Core Mapping:	42494 42490 42490 42490 42486 42486 42486 42486 42494 42494 42494 42489 42489 42489 42489 42492 42492 42492 42492 42487 42487 42487 42488 42488 42488 42493 42493 42493 42493 42485 42485 42485 42485 42484 42484 42484 42484 42491 42491 42491 
+ Optimal point: 3 3 3 4 4 4 4 4 4 3 4 
+++++++++++++++++++++++++++++++++++++++++++++++++++++++++++
CLIENT SHUTDOWN: client 42484
 + TIMESTAMP: 1773.97
+++++++++++++++++++++++++++++++++++++++++++++++++++++++++++
+ Client Mapping:
  > Client 42491 (3):	37 38 39 
  > Client 42488 (3):	22 23 24 
  > Client 42487 (3):	19 20 21 
  > Client 42492 (4):	15 16 17 18 
  > Client 42484 (0):	
  > Client 42489 (4):	11 12 13 14 
  > Client 42494 (4):	0 8 9 10 
  > Client 42493 (4):	25 26 27 28 
  > Client 42485 (4):	29 30 31 32 
  > Client 42490 (3):	1 2 3 
  > Client 42486 (4):	4 5 6 7 

+ Core Mapping:	42494 42490 42490 42490 42486 42486 42486 42486 42494 42494 42494 42489 42489 42489 42489 42492 42492 42492 42492 42487 42487 42487 42488 42488 42488 42493 42493 42493 42493 42485 42485 42485 42485 0 0 0 0 42491 42491 42491 
+ Optimal point: 3 3 3 4 4 4 4 4 4 3 4 
+++++++++++++++++++++++++++++++++++++++++++++++++++++++++++
client (42484) shutdown hint: 20954.2
sum_client_shutdown_hint: 20954.2
sum_client_shutdown_hint_div_time: 0
++++++++++++++++++++++++++++++++++++++++++++++++
 + TIMESTAMP: 1773.99
REINVADE (42487)
  + pid: 42487
  + min_cores: 1
  + max_cores: 512
  + scalability graph: 
1, 1.39494, 1.5699, 1.6742, 1.74538, 1.79792, 1.83875, 1.87167, 1.89893, 1.922, 1.94184, 1.95915, 1.97442, 1.98802, 2.00024, 2.0113, 2.02136, 2.03058, 2.03906, 2.04689, 2.05415, 2.06092, 2.06724, 2.07316, 2.07872, 2.08396, 2.0889, 2.09358, 2.09801, 2.10222, 2.10622, 2.11003, 2.11367, 2.11715, 2.12048, 2.12367, 2.12672, 2.12966, 2.13248, 2.1352, 
Number of clients: 10

+++++++++++++++++++++++++++++++++++++++++++++++++++++++++++
+ Client Mapping:
  > Client 42491 (3):	37 38 39 
  > Client 42488 (3):	22 23 24 
  > Client 42487 (4):	19 20 21 33 
  > Client 42492 (4):	15 16 17 18 
  > Client 42489 (4):	11 12 13 14 
  > Client 42494 (4):	0 8 9 10 
  > Client 42493 (4):	25 26 27 28 
  > Client 42485 (4):	29 30 31 32 
  > Client 42490 (3):	1 2 3 
  > Client 42486 (4):	4 5 6 7 

+ Core Mapping:	42494 42490 42490 42490 42486 42486 42486 42486 42494 42494 42494 42489 42489 42489 42489 42492 42492 42492 42492 42487 42487 42487 42488 42488 42488 42493 42493 42493 42493 42485 42485 42485 42485 42487 0 0 0 42491 42491 42491 
+ Optimal point: 4 4 4 4 4 4 4 4 4 4 
+++++++++++++++++++++++++++++++++++++++++++++++++++++++++++
++++++++++++++++++++++++++++++++++++++++++++++++
 + TIMESTAMP: 1773.99
REINVADE (42488)
  + pid: 42488
  + min_cores: 1
  + max_cores: 512
  + scalability graph: 
1, 1.39494, 1.5699, 1.6742, 1.74538, 1.79792, 1.83875, 1.87167, 1.89893, 1.922, 1.94184, 1.95915, 1.97442, 1.98802, 2.00024, 2.0113, 2.02136, 2.03058, 2.03906, 2.04689, 2.05415, 2.06092, 2.06724, 2.07316, 2.07872, 2.08396, 2.0889, 2.09358, 2.09801, 2.10222, 2.10622, 2.11003, 2.11367, 2.11715, 2.12048, 2.12367, 2.12672, 2.12966, 2.13248, 2.1352, 
Number of clients: 10

+++++++++++++++++++++++++++++++++++++++++++++++++++++++++++
+ Client Mapping:
  > Client 42491 (3):	37 38 39 
  > Client 42488 (4):	22 23 24 34 
  > Client 42487 (4):	19 20 21 33 
  > Client 42492 (4):	15 16 17 18 
  > Client 42489 (4):	11 12 13 14 
  > Client 42494 (4):	0 8 9 10 
  > Client 42493 (4):	25 26 27 28 
  > Client 42485 (4):	29 30 31 32 
  > Client 42490 (3):	1 2 3 
  > Client 42486 (4):	4 5 6 7 

+ Core Mapping:	42494 42490 42490 42490 42486 42486 42486 42486 42494 42494 42494 42489 42489 42489 42489 42492 42492 42492 42492 42487 42487 42487 42488 42488 42488 42493 42493 42493 42493 42485 42485 42485 42485 42487 42488 0 0 42491 42491 42491 
+ Optimal point: 4 4 4 4 4 4 4 4 4 4 
+++++++++++++++++++++++++++++++++++++++++++++++++++++++++++
++++++++++++++++++++++++++++++++++++++++++++++++
 + TIMESTAMP: 1774
REINVADE (42490)
  + pid: 42490
  + min_cores: 1
  + max_cores: 512
  + scalability graph: 
1, 1.39494, 1.5699, 1.6742, 1.74538, 1.79792, 1.83875, 1.87167, 1.89893, 1.922, 1.94184, 1.95915, 1.97442, 1.98802, 2.00024, 2.0113, 2.02136, 2.03058, 2.03906, 2.04689, 2.05415, 2.06092, 2.06724, 2.07316, 2.07872, 2.08396, 2.0889, 2.09358, 2.09801, 2.10222, 2.10622, 2.11003, 2.11367, 2.11715, 2.12048, 2.12367, 2.12672, 2.12966, 2.13248, 2.1352, 
Number of clients: 10

+++++++++++++++++++++++++++++++++++++++++++++++++++++++++++
+ Client Mapping:
  > Client 42491 (3):	37 38 39 
  > Client 42488 (4):	22 23 24 34 
  > Client 42487 (4):	19 20 21 33 
  > Client 42492 (4):	15 16 17 18 
  > Client 42489 (4):	11 12 13 14 
  > Client 42494 (4):	0 8 9 10 
  > Client 42493 (4):	25 26 27 28 
  > Client 42485 (4):	29 30 31 32 
  > Client 42490 (4):	1 2 3 35 
  > Client 42486 (4):	4 5 6 7 

+ Core Mapping:	42494 42490 42490 42490 42486 42486 42486 42486 42494 42494 42494 42489 42489 42489 42489 42492 42492 42492 42492 42487 42487 42487 42488 42488 42488 42493 42493 42493 42493 42485 42485 42485 42485 42487 42488 42490 0 42491 42491 42491 
+ Optimal point: 4 4 4 4 4 4 4 4 4 4 
+++++++++++++++++++++++++++++++++++++++++++++++++++++++++++
++++++++++++++++++++++++++++++++++++++++++++++++
 + TIMESTAMP: 1774.01
REINVADE (42491)
  + pid: 42491
  + min_cores: 1
  + max_cores: 512
  + scalability graph: 
1, 1.39494, 1.5699, 1.6742, 1.74538, 1.79792, 1.83875, 1.87167, 1.89893, 1.922, 1.94184, 1.95915, 1.97442, 1.98802, 2.00024, 2.0113, 2.02136, 2.03058, 2.03906, 2.04689, 2.05415, 2.06092, 2.06724, 2.07316, 2.07872, 2.08396, 2.0889, 2.09358, 2.09801, 2.10222, 2.10622, 2.11003, 2.11367, 2.11715, 2.12048, 2.12367, 2.12672, 2.12966, 2.13248, 2.1352, 
Number of clients: 10

+++++++++++++++++++++++++++++++++++++++++++++++++++++++++++
+ Client Mapping:
  > Client 42491 (4):	37 38 39 36 
  > Client 42488 (4):	22 23 24 34 
  > Client 42487 (4):	19 20 21 33 
  > Client 42492 (4):	15 16 17 18 
  > Client 42489 (4):	11 12 13 14 
  > Client 42494 (4):	0 8 9 10 
  > Client 42493 (4):	25 26 27 28 
  > Client 42485 (4):	29 30 31 32 
  > Client 42490 (4):	1 2 3 35 
  > Client 42486 (4):	4 5 6 7 

+ Core Mapping:	42494 42490 42490 42490 42486 42486 42486 42486 42494 42494 42494 42489 42489 42489 42489 42492 42492 42492 42492 42487 42487 42487 42488 42488 42488 42493 42493 42493 42493 42485 42485 42485 42485 42487 42488 42490 42491 42491 42491 42491 
+ Optimal point: 4 4 4 4 4 4 4 4 4 4 
+++++++++++++++++++++++++++++++++++++++++++++++++++++++++++
CLIENT SHUTDOWN: client 42492
 + TIMESTAMP: 1774.7
+++++++++++++++++++++++++++++++++++++++++++++++++++++++++++
+ Client Mapping:
  > Client 42491 (4):	37 38 39 36 
  > Client 42488 (4):	22 23 24 34 
  > Client 42487 (4):	19 20 21 33 
  > Client 42492 (0):	
  > Client 42489 (4):	11 12 13 14 
  > Client 42494 (4):	0 8 9 10 
  > Client 42493 (4):	25 26 27 28 
  > Client 42485 (4):	29 30 31 32 
  > Client 42490 (4):	1 2 3 35 
  > Client 42486 (4):	4 5 6 7 

+ Core Mapping:	42494 42490 42490 42490 42486 42486 42486 42486 42494 42494 42494 42489 42489 42489 42489 0 0 0 0 42487 42487 42487 42488 42488 42488 42493 42493 42493 42493 42485 42485 42485 42485 42487 42488 42490 42491 42491 42491 42491 
+ Optimal point: 4 4 4 4 4 4 4 4 4 4 
+++++++++++++++++++++++++++++++++++++++++++++++++++++++++++
client (42492) shutdown hint: 20954.2
sum_client_shutdown_hint: 41908.4
sum_client_shutdown_hint_div_time: 0
++++++++++++++++++++++++++++++++++++++++++++++++
 + TIMESTAMP: 1774.71
REINVADE (42488)
  + pid: 42488
  + min_cores: 1
  + max_cores: 512
  + scalability graph: 
1, 1.39494, 1.5699, 1.6742, 1.74538, 1.79792, 1.83875, 1.87167, 1.89893, 1.922, 1.94184, 1.95915, 1.97442, 1.98802, 2.00024, 2.0113, 2.02136, 2.03058, 2.03906, 2.04689, 2.05415, 2.06092, 2.06724, 2.07316, 2.07872, 2.08396, 2.0889, 2.09358, 2.09801, 2.10222, 2.10622, 2.11003, 2.11367, 2.11715, 2.12048, 2.12367, 2.12672, 2.12966, 2.13248, 2.1352, 
Number of clients: 9

+++++++++++++++++++++++++++++++++++++++++++++++++++++++++++
+ Client Mapping:
  > Client 42491 (4):	37 38 39 36 
  > Client 42488 (5):	22 23 24 34 15 
  > Client 42487 (4):	19 20 21 33 
  > Client 42489 (4):	11 12 13 14 
  > Client 42494 (4):	0 8 9 10 
  > Client 42493 (4):	25 26 27 28 
  > Client 42485 (4):	29 30 31 32 
  > Client 42490 (4):	1 2 3 35 
  > Client 42486 (4):	4 5 6 7 

+ Core Mapping:	42494 42490 42490 42490 42486 42486 42486 42486 42494 42494 42494 42489 42489 42489 42489 42488 0 0 0 42487 42487 42487 42488 42488 42488 42493 42493 42493 42493 42485 42485 42485 42485 42487 42488 42490 42491 42491 42491 42491 
+ Optimal point: 5 5 5 5 4 4 4 4 4 
+++++++++++++++++++++++++++++++++++++++++++++++++++++++++++
++++++++++++++++++++++++++++++++++++++++++++++++
 + TIMESTAMP: 1774.71
REINVADE (42487)
  + pid: 42487
  + min_cores: 1
  + max_cores: 512
  + scalability graph: 
1, 1.39494, 1.5699, 1.6742, 1.74538, 1.79792, 1.83875, 1.87167, 1.89893, 1.922, 1.94184, 1.95915, 1.97442, 1.98802, 2.00024, 2.0113, 2.02136, 2.03058, 2.03906, 2.04689, 2.05415, 2.06092, 2.06724, 2.07316, 2.07872, 2.08396, 2.0889, 2.09358, 2.09801, 2.10222, 2.10622, 2.11003, 2.11367, 2.11715, 2.12048, 2.12367, 2.12672, 2.12966, 2.13248, 2.1352, 
Number of clients: 9

+++++++++++++++++++++++++++++++++++++++++++++++++++++++++++
+ Client Mapping:
  > Client 42491 (4):	37 38 39 36 
  > Client 42488 (5):	22 23 24 34 15 
  > Client 42487 (5):	19 20 21 33 16 
  > Client 42489 (4):	11 12 13 14 
  > Client 42494 (4):	0 8 9 10 
  > Client 42493 (4):	25 26 27 28 
  > Client 42485 (4):	29 30 31 32 
  > Client 42490 (4):	1 2 3 35 
  > Client 42486 (4):	4 5 6 7 

+ Core Mapping:	42494 42490 42490 42490 42486 42486 42486 42486 42494 42494 42494 42489 42489 42489 42489 42488 42487 0 0 42487 42487 42487 42488 42488 42488 42493 42493 42493 42493 42485 42485 42485 42485 42487 42488 42490 42491 42491 42491 42491 
+ Optimal point: 5 5 5 5 4 4 4 4 4 
+++++++++++++++++++++++++++++++++++++++++++++++++++++++++++
++++++++++++++++++++++++++++++++++++++++++++++++
 + TIMESTAMP: 1774.73
REINVADE (42489)
  + pid: 42489
  + min_cores: 1
  + max_cores: 512
  + scalability graph: 
1, 1.39494, 1.5699, 1.6742, 1.74538, 1.79792, 1.83875, 1.87167, 1.89893, 1.922, 1.94184, 1.95915, 1.97442, 1.98802, 2.00024, 2.0113, 2.02136, 2.03058, 2.03906, 2.04689, 2.05415, 2.06092, 2.06724, 2.07316, 2.07872, 2.08396, 2.0889, 2.09358, 2.09801, 2.10222, 2.10622, 2.11003, 2.11367, 2.11715, 2.12048, 2.12367, 2.12672, 2.12966, 2.13248, 2.1352, 
Number of clients: 9

+++++++++++++++++++++++++++++++++++++++++++++++++++++++++++
+ Client Mapping:
  > Client 42491 (4):	37 38 39 36 
  > Client 42488 (5):	22 23 24 34 15 
  > Client 42487 (5):	19 20 21 33 16 
  > Client 42489 (5):	11 12 13 14 17 
  > Client 42494 (4):	0 8 9 10 
  > Client 42493 (4):	25 26 27 28 
  > Client 42485 (4):	29 30 31 32 
  > Client 42490 (4):	1 2 3 35 
  > Client 42486 (4):	4 5 6 7 

+ Core Mapping:	42494 42490 42490 42490 42486 42486 42486 42486 42494 42494 42494 42489 42489 42489 42489 42488 42487 42489 0 42487 42487 42487 42488 42488 42488 42493 42493 42493 42493 42485 42485 42485 42485 42487 42488 42490 42491 42491 42491 42491 
+ Optimal point: 5 5 5 5 4 4 4 4 4 
+++++++++++++++++++++++++++++++++++++++++++++++++++++++++++
++++++++++++++++++++++++++++++++++++++++++++++++
 + TIMESTAMP: 1774.73
REINVADE (42491)
  + pid: 42491
  + min_cores: 1
  + max_cores: 512
  + scalability graph: 
1, 1.39494, 1.5699, 1.6742, 1.74538, 1.79792, 1.83875, 1.87167, 1.89893, 1.922, 1.94184, 1.95915, 1.97442, 1.98802, 2.00024, 2.0113, 2.02136, 2.03058, 2.03906, 2.04689, 2.05415, 2.06092, 2.06724, 2.07316, 2.07872, 2.08396, 2.0889, 2.09358, 2.09801, 2.10222, 2.10622, 2.11003, 2.11367, 2.11715, 2.12048, 2.12367, 2.12672, 2.12966, 2.13248, 2.1352, 
Number of clients: 9

+++++++++++++++++++++++++++++++++++++++++++++++++++++++++++
+ Client Mapping:
  > Client 42491 (5):	37 38 39 36 18 
  > Client 42488 (5):	22 23 24 34 15 
  > Client 42487 (5):	19 20 21 33 16 
  > Client 42489 (5):	11 12 13 14 17 
  > Client 42494 (4):	0 8 9 10 
  > Client 42493 (4):	25 26 27 28 
  > Client 42485 (4):	29 30 31 32 
  > Client 42490 (4):	1 2 3 35 
  > Client 42486 (4):	4 5 6 7 

+ Core Mapping:	42494 42490 42490 42490 42486 42486 42486 42486 42494 42494 42494 42489 42489 42489 42489 42488 42487 42489 42491 42487 42487 42487 42488 42488 42488 42493 42493 42493 42493 42485 42485 42485 42485 42487 42488 42490 42491 42491 42491 42491 
+ Optimal point: 5 5 5 5 4 4 4 4 4 
+++++++++++++++++++++++++++++++++++++++++++++++++++++++++++
CLIENT SHUTDOWN: client 42489
 + TIMESTAMP: 1790.92
+++++++++++++++++++++++++++++++++++++++++++++++++++++++++++
+ Client Mapping:
  > Client 42491 (5):	37 38 39 36 18 
  > Client 42488 (5):	22 23 24 34 15 
  > Client 42487 (5):	19 20 21 33 16 
  > Client 42489 (0):	
  > Client 42494 (4):	0 8 9 10 
  > Client 42493 (4):	25 26 27 28 
  > Client 42485 (4):	29 30 31 32 
  > Client 42490 (4):	1 2 3 35 
  > Client 42486 (4):	4 5 6 7 

+ Core Mapping:	42494 42490 42490 42490 42486 42486 42486 42486 42494 42494 42494 0 0 0 0 42488 42487 0 42491 42487 42487 42487 42488 42488 42488 42493 42493 42493 42493 42485 42485 42485 42485 42487 42488 42490 42491 42491 42491 42491 
+ Optimal point: 5 5 5 5 4 4 4 4 4 
+++++++++++++++++++++++++++++++++++++++++++++++++++++++++++
client (42489) shutdown hint: 20954.2
sum_client_shutdown_hint: 62862.6
sum_client_shutdown_hint_div_time: 0
++++++++++++++++++++++++++++++++++++++++++++++++
 + TIMESTAMP: 1790.93
REINVADE (42490)
  + pid: 42490
  + min_cores: 1
  + max_cores: 512
  + scalability graph: 
1, 1.39494, 1.5699, 1.6742, 1.74538, 1.79792, 1.83875, 1.87167, 1.89893, 1.922, 1.94184, 1.95915, 1.97442, 1.98802, 2.00024, 2.0113, 2.02136, 2.03058, 2.03906, 2.04689, 2.05415, 2.06092, 2.06724, 2.07316, 2.07872, 2.08396, 2.0889, 2.09358, 2.09801, 2.10222, 2.10622, 2.11003, 2.11367, 2.11715, 2.12048, 2.12367, 2.12672, 2.12966, 2.13248, 2.1352, 
Number of clients: 8

+++++++++++++++++++++++++++++++++++++++++++++++++++++++++++
+ Client Mapping:
  > Client 42491 (5):	37 38 39 36 18 
  > Client 42488 (5):	22 23 24 34 15 
  > Client 42487 (5):	19 20 21 33 16 
  > Client 42494 (4):	0 8 9 10 
  > Client 42493 (4):	25 26 27 28 
  > Client 42485 (4):	29 30 31 32 
  > Client 42490 (5):	1 2 3 35 11 
  > Client 42486 (4):	4 5 6 7 

+ Core Mapping:	42494 42490 42490 42490 42486 42486 42486 42486 42494 42494 42494 42490 0 0 0 42488 42487 0 42491 42487 42487 42487 42488 42488 42488 42493 42493 42493 42493 42485 42485 42485 42485 42487 42488 42490 42491 42491 42491 42491 
+ Optimal point: 5 5 5 5 5 5 5 5 
+++++++++++++++++++++++++++++++++++++++++++++++++++++++++++
++++++++++++++++++++++++++++++++++++++++++++++++
 + TIMESTAMP: 1790.93
REINVADE (42485)
  + pid: 42485
  + min_cores: 1
  + max_cores: 512
  + scalability graph: 
1, 1.39494, 1.5699, 1.6742, 1.74538, 1.79792, 1.83875, 1.87167, 1.89893, 1.922, 1.94184, 1.95915, 1.97442, 1.98802, 2.00024, 2.0113, 2.02136, 2.03058, 2.03906, 2.04689, 2.05415, 2.06092, 2.06724, 2.07316, 2.07872, 2.08396, 2.0889, 2.09358, 2.09801, 2.10222, 2.10622, 2.11003, 2.11367, 2.11715, 2.12048, 2.12367, 2.12672, 2.12966, 2.13248, 2.1352, 
Number of clients: 8

+++++++++++++++++++++++++++++++++++++++++++++++++++++++++++
+ Client Mapping:
  > Client 42491 (5):	37 38 39 36 18 
  > Client 42488 (5):	22 23 24 34 15 
  > Client 42487 (5):	19 20 21 33 16 
  > Client 42494 (4):	0 8 9 10 
  > Client 42493 (4):	25 26 27 28 
  > Client 42485 (5):	29 30 31 32 12 
  > Client 42490 (5):	1 2 3 35 11 
  > Client 42486 (4):	4 5 6 7 

+ Core Mapping:	42494 42490 42490 42490 42486 42486 42486 42486 42494 42494 42494 42490 42485 0 0 42488 42487 0 42491 42487 42487 42487 42488 42488 42488 42493 42493 42493 42493 42485 42485 42485 42485 42487 42488 42490 42491 42491 42491 42491 
+ Optimal point: 5 5 5 5 5 5 5 5 
+++++++++++++++++++++++++++++++++++++++++++++++++++++++++++
++++++++++++++++++++++++++++++++++++++++++++++++
 + TIMESTAMP: 1790.95
REINVADE (42486)
  + pid: 42486
  + min_cores: 1
  + max_cores: 512
  + scalability graph: 
1, 1.39494, 1.5699, 1.6742, 1.74538, 1.79792, 1.83875, 1.87167, 1.89893, 1.922, 1.94184, 1.95915, 1.97442, 1.98802, 2.00024, 2.0113, 2.02136, 2.03058, 2.03906, 2.04689, 2.05415, 2.06092, 2.06724, 2.07316, 2.07872, 2.08396, 2.0889, 2.09358, 2.09801, 2.10222, 2.10622, 2.11003, 2.11367, 2.11715, 2.12048, 2.12367, 2.12672, 2.12966, 2.13248, 2.1352, 
Number of clients: 8

+++++++++++++++++++++++++++++++++++++++++++++++++++++++++++
+ Client Mapping:
  > Client 42491 (5):	37 38 39 36 18 
  > Client 42488 (5):	22 23 24 34 15 
  > Client 42487 (5):	19 20 21 33 16 
  > Client 42494 (4):	0 8 9 10 
  > Client 42493 (4):	25 26 27 28 
  > Client 42485 (5):	29 30 31 32 12 
  > Client 42490 (5):	1 2 3 35 11 
  > Client 42486 (5):	4 5 6 7 13 

+ Core Mapping:	42494 42490 42490 42490 42486 42486 42486 42486 42494 42494 42494 42490 42485 42486 0 42488 42487 0 42491 42487 42487 42487 42488 42488 42488 42493 42493 42493 42493 42485 42485 42485 42485 42487 42488 42490 42491 42491 42491 42491 
+ Optimal point: 5 5 5 5 5 5 5 5 
+++++++++++++++++++++++++++++++++++++++++++++++++++++++++++
++++++++++++++++++++++++++++++++++++++++++++++++
 + TIMESTAMP: 1790.95
REINVADE (42493)
  + pid: 42493
  + min_cores: 1
  + max_cores: 512
  + scalability graph: 
1, 1.39494, 1.5699, 1.6742, 1.74538, 1.79792, 1.83875, 1.87167, 1.89893, 1.922, 1.94184, 1.95915, 1.97442, 1.98802, 2.00024, 2.0113, 2.02136, 2.03058, 2.03906, 2.04689, 2.05415, 2.06092, 2.06724, 2.07316, 2.07872, 2.08396, 2.0889, 2.09358, 2.09801, 2.10222, 2.10622, 2.11003, 2.11367, 2.11715, 2.12048, 2.12367, 2.12672, 2.12966, 2.13248, 2.1352, 
Number of clients: 8

+++++++++++++++++++++++++++++++++++++++++++++++++++++++++++
+ Client Mapping:
  > Client 42491 (5):	37 38 39 36 18 
  > Client 42488 (5):	22 23 24 34 15 
  > Client 42487 (5):	19 20 21 33 16 
  > Client 42494 (4):	0 8 9 10 
  > Client 42493 (5):	25 26 27 28 14 
  > Client 42485 (5):	29 30 31 32 12 
  > Client 42490 (5):	1 2 3 35 11 
  > Client 42486 (5):	4 5 6 7 13 

+ Core Mapping:	42494 42490 42490 42490 42486 42486 42486 42486 42494 42494 42494 42490 42485 42486 42493 42488 42487 0 42491 42487 42487 42487 42488 42488 42488 42493 42493 42493 42493 42485 42485 42485 42485 42487 42488 42490 42491 42491 42491 42491 
+ Optimal point: 5 5 5 5 5 5 5 5 
+++++++++++++++++++++++++++++++++++++++++++++++++++++++++++
++++++++++++++++++++++++++++++++++++++++++++++++
 + TIMESTAMP: 1790.95
REINVADE (42494)
  + pid: 42494
  + min_cores: 1
  + max_cores: 512
  + scalability graph: 
1, 1.39494, 1.5699, 1.6742, 1.74538, 1.79792, 1.83875, 1.87167, 1.89893, 1.922, 1.94184, 1.95915, 1.97442, 1.98802, 2.00024, 2.0113, 2.02136, 2.03058, 2.03906, 2.04689, 2.05415, 2.06092, 2.06724, 2.07316, 2.07872, 2.08396, 2.0889, 2.09358, 2.09801, 2.10222, 2.10622, 2.11003, 2.11367, 2.11715, 2.12048, 2.12367, 2.12672, 2.12966, 2.13248, 2.1352, 
Number of clients: 8

+++++++++++++++++++++++++++++++++++++++++++++++++++++++++++
+ Client Mapping:
  > Client 42491 (5):	37 38 39 36 18 
  > Client 42488 (5):	22 23 24 34 15 
  > Client 42487 (5):	19 20 21 33 16 
  > Client 42494 (5):	0 8 9 10 17 
  > Client 42493 (5):	25 26 27 28 14 
  > Client 42485 (5):	29 30 31 32 12 
  > Client 42490 (5):	1 2 3 35 11 
  > Client 42486 (5):	4 5 6 7 13 

+ Core Mapping:	42494 42490 42490 42490 42486 42486 42486 42486 42494 42494 42494 42490 42485 42486 42493 42488 42487 42494 42491 42487 42487 42487 42488 42488 42488 42493 42493 42493 42493 42485 42485 42485 42485 42487 42488 42490 42491 42491 42491 42491 
+ Optimal point: 5 5 5 5 5 5 5 5 
+++++++++++++++++++++++++++++++++++++++++++++++++++++++++++
CLIENT SHUTDOWN: client 42494
 + TIMESTAMP: 1794.89
+++++++++++++++++++++++++++++++++++++++++++++++++++++++++++
+ Client Mapping:
  > Client 42491 (5):	37 38 39 36 18 
  > Client 42488 (5):	22 23 24 34 15 
  > Client 42487 (5):	19 20 21 33 16 
  > Client 42494 (0):	
  > Client 42493 (5):	25 26 27 28 14 
  > Client 42485 (5):	29 30 31 32 12 
  > Client 42490 (5):	1 2 3 35 11 
  > Client 42486 (5):	4 5 6 7 13 

+ Core Mapping:	0 42490 42490 42490 42486 42486 42486 42486 0 0 0 42490 42485 42486 42493 42488 42487 0 42491 42487 42487 42487 42488 42488 42488 42493 42493 42493 42493 42485 42485 42485 42485 42487 42488 42490 42491 42491 42491 42491 
+ Optimal point: 5 5 5 5 5 5 5 5 
+++++++++++++++++++++++++++++++++++++++++++++++++++++++++++
client (42494) shutdown hint: 20954.2
sum_client_shutdown_hint: 83816.8
sum_client_shutdown_hint_div_time: 0
++++++++++++++++++++++++++++++++++++++++++++++++
 + TIMESTAMP: 1794.9
REINVADE (42487)
  + pid: 42487
  + min_cores: 1
  + max_cores: 512
  + scalability graph: 
1, 1.39494, 1.5699, 1.6742, 1.74538, 1.79792, 1.83875, 1.87167, 1.89893, 1.922, 1.94184, 1.95915, 1.97442, 1.98802, 2.00024, 2.0113, 2.02136, 2.03058, 2.03906, 2.04689, 2.05415, 2.06092, 2.06724, 2.07316, 2.07872, 2.08396, 2.0889, 2.09358, 2.09801, 2.10222, 2.10622, 2.11003, 2.11367, 2.11715, 2.12048, 2.12367, 2.12672, 2.12966, 2.13248, 2.1352, 
Number of clients: 7

+++++++++++++++++++++++++++++++++++++++++++++++++++++++++++
+ Client Mapping:
  > Client 42491 (5):	37 38 39 36 18 
  > Client 42488 (5):	22 23 24 34 15 
  > Client 42487 (6):	19 20 21 33 16 0 
  > Client 42493 (5):	25 26 27 28 14 
  > Client 42485 (5):	29 30 31 32 12 
  > Client 42490 (5):	1 2 3 35 11 
  > Client 42486 (5):	4 5 6 7 13 

+ Core Mapping:	42487 42490 42490 42490 42486 42486 42486 42486 0 0 0 42490 42485 42486 42493 42488 42487 0 42491 42487 42487 42487 42488 42488 42488 42493 42493 42493 42493 42485 42485 42485 42485 42487 42488 42490 42491 42491 42491 42491 
+ Optimal point: 6 6 6 6 6 5 5 
+++++++++++++++++++++++++++++++++++++++++++++++++++++++++++
++++++++++++++++++++++++++++++++++++++++++++++++
 + TIMESTAMP: 1794.9
REINVADE (42485)
  + pid: 42485
  + min_cores: 1
  + max_cores: 512
  + scalability graph: 
1, 1.39494, 1.5699, 1.6742, 1.74538, 1.79792, 1.83875, 1.87167, 1.89893, 1.922, 1.94184, 1.95915, 1.97442, 1.98802, 2.00024, 2.0113, 2.02136, 2.03058, 2.03906, 2.04689, 2.05415, 2.06092, 2.06724, 2.07316, 2.07872, 2.08396, 2.0889, 2.09358, 2.09801, 2.10222, 2.10622, 2.11003, 2.11367, 2.11715, 2.12048, 2.12367, 2.12672, 2.12966, 2.13248, 2.1352, 
Number of clients: 7

+++++++++++++++++++++++++++++++++++++++++++++++++++++++++++
+ Client Mapping:
  > Client 42491 (5):	37 38 39 36 18 
  > Client 42488 (5):	22 23 24 34 15 
  > Client 42487 (6):	19 20 21 33 16 0 
  > Client 42493 (5):	25 26 27 28 14 
  > Client 42485 (6):	29 30 31 32 12 8 
  > Client 42490 (5):	1 2 3 35 11 
  > Client 42486 (5):	4 5 6 7 13 

+ Core Mapping:	42487 42490 42490 42490 42486 42486 42486 42486 42485 0 0 42490 42485 42486 42493 42488 42487 0 42491 42487 42487 42487 42488 42488 42488 42493 42493 42493 42493 42485 42485 42485 42485 42487 42488 42490 42491 42491 42491 42491 
+ Optimal point: 6 6 6 6 6 5 5 
+++++++++++++++++++++++++++++++++++++++++++++++++++++++++++
++++++++++++++++++++++++++++++++++++++++++++++++
 + TIMESTAMP: 1794.9
REINVADE (42488)
  + pid: 42488
  + min_cores: 1
  + max_cores: 512
  + scalability graph: 
1, 1.39494, 1.5699, 1.6742, 1.74538, 1.79792, 1.83875, 1.87167, 1.89893, 1.922, 1.94184, 1.95915, 1.97442, 1.98802, 2.00024, 2.0113, 2.02136, 2.03058, 2.03906, 2.04689, 2.05415, 2.06092, 2.06724, 2.07316, 2.07872, 2.08396, 2.0889, 2.09358, 2.09801, 2.10222, 2.10622, 2.11003, 2.11367, 2.11715, 2.12048, 2.12367, 2.12672, 2.12966, 2.13248, 2.1352, 
Number of clients: 7

+++++++++++++++++++++++++++++++++++++++++++++++++++++++++++
+ Client Mapping:
  > Client 42491 (5):	37 38 39 36 18 
  > Client 42488 (6):	22 23 24 34 15 9 
  > Client 42487 (6):	19 20 21 33 16 0 
  > Client 42493 (5):	25 26 27 28 14 
  > Client 42485 (6):	29 30 31 32 12 8 
  > Client 42490 (5):	1 2 3 35 11 
  > Client 42486 (5):	4 5 6 7 13 

+ Core Mapping:	42487 42490 42490 42490 42486 42486 42486 42486 42485 42488 0 42490 42485 42486 42493 42488 42487 0 42491 42487 42487 42487 42488 42488 42488 42493 42493 42493 42493 42485 42485 42485 42485 42487 42488 42490 42491 42491 42491 42491 
+ Optimal point: 6 6 6 6 6 5 5 
+++++++++++++++++++++++++++++++++++++++++++++++++++++++++++
++++++++++++++++++++++++++++++++++++++++++++++++
 + TIMESTAMP: 1794.91
REINVADE (42491)
  + pid: 42491
  + min_cores: 1
  + max_cores: 512
  + scalability graph: 
1, 1.39494, 1.5699, 1.6742, 1.74538, 1.79792, 1.83875, 1.87167, 1.89893, 1.922, 1.94184, 1.95915, 1.97442, 1.98802, 2.00024, 2.0113, 2.02136, 2.03058, 2.03906, 2.04689, 2.05415, 2.06092, 2.06724, 2.07316, 2.07872, 2.08396, 2.0889, 2.09358, 2.09801, 2.10222, 2.10622, 2.11003, 2.11367, 2.11715, 2.12048, 2.12367, 2.12672, 2.12966, 2.13248, 2.1352, 
Number of clients: 7

+++++++++++++++++++++++++++++++++++++++++++++++++++++++++++
+ Client Mapping:
  > Client 42491 (6):	37 38 39 36 18 10 
  > Client 42488 (6):	22 23 24 34 15 9 
  > Client 42487 (6):	19 20 21 33 16 0 
  > Client 42493 (5):	25 26 27 28 14 
  > Client 42485 (6):	29 30 31 32 12 8 
  > Client 42490 (5):	1 2 3 35 11 
  > Client 42486 (5):	4 5 6 7 13 

+ Core Mapping:	42487 42490 42490 42490 42486 42486 42486 42486 42485 42488 42491 42490 42485 42486 42493 42488 42487 0 42491 42487 42487 42487 42488 42488 42488 42493 42493 42493 42493 42485 42485 42485 42485 42487 42488 42490 42491 42491 42491 42491 
+ Optimal point: 6 6 6 6 6 5 5 
+++++++++++++++++++++++++++++++++++++++++++++++++++++++++++
++++++++++++++++++++++++++++++++++++++++++++++++
 + TIMESTAMP: 1794.95
REINVADE (42493)
  + pid: 42493
  + min_cores: 1
  + max_cores: 512
  + scalability graph: 
1, 1.39494, 1.5699, 1.6742, 1.74538, 1.79792, 1.83875, 1.87167, 1.89893, 1.922, 1.94184, 1.95915, 1.97442, 1.98802, 2.00024, 2.0113, 2.02136, 2.03058, 2.03906, 2.04689, 2.05415, 2.06092, 2.06724, 2.07316, 2.07872, 2.08396, 2.0889, 2.09358, 2.09801, 2.10222, 2.10622, 2.11003, 2.11367, 2.11715, 2.12048, 2.12367, 2.12672, 2.12966, 2.13248, 2.1352, 
Number of clients: 7

+++++++++++++++++++++++++++++++++++++++++++++++++++++++++++
+ Client Mapping:
  > Client 42491 (6):	37 38 39 36 18 10 
  > Client 42488 (6):	22 23 24 34 15 9 
  > Client 42487 (6):	19 20 21 33 16 0 
  > Client 42493 (6):	25 26 27 28 14 17 
  > Client 42485 (6):	29 30 31 32 12 8 
  > Client 42490 (5):	1 2 3 35 11 
  > Client 42486 (5):	4 5 6 7 13 

+ Core Mapping:	42487 42490 42490 42490 42486 42486 42486 42486 42485 42488 42491 42490 42485 42486 42493 42488 42487 42493 42491 42487 42487 42487 42488 42488 42488 42493 42493 42493 42493 42485 42485 42485 42485 42487 42488 42490 42491 42491 42491 42491 
+ Optimal point: 6 6 6 6 6 5 5 
+++++++++++++++++++++++++++++++++++++++++++++++++++++++++++
CLIENT SHUTDOWN: client 42485
 + TIMESTAMP: 1847.95
+++++++++++++++++++++++++++++++++++++++++++++++++++++++++++
+ Client Mapping:
  > Client 42491 (6):	37 38 39 36 18 10 
  > Client 42488 (6):	22 23 24 34 15 9 
  > Client 42487 (6):	19 20 21 33 16 0 
  > Client 42493 (6):	25 26 27 28 14 17 
  > Client 42485 (0):	
  > Client 42490 (5):	1 2 3 35 11 
  > Client 42486 (5):	4 5 6 7 13 

+ Core Mapping:	42487 42490 42490 42490 42486 42486 42486 42486 0 42488 42491 42490 0 42486 42493 42488 42487 42493 42491 42487 42487 42487 42488 42488 42488 42493 42493 42493 42493 0 0 0 0 42487 42488 42490 42491 42491 42491 42491 
+ Optimal point: 6 6 6 6 6 5 5 
+++++++++++++++++++++++++++++++++++++++++++++++++++++++++++
client (42485) shutdown hint: 20954.2
sum_client_shutdown_hint: 104771
sum_client_shutdown_hint_div_time: 0
++++++++++++++++++++++++++++++++++++++++++++++++
 + TIMESTAMP: 1847.95
REINVADE (42491)
  + pid: 42491
  + min_cores: 1
  + max_cores: 512
  + scalability graph: 
1, 1.39494, 1.5699, 1.6742, 1.74538, 1.79792, 1.83875, 1.87167, 1.89893, 1.922, 1.94184, 1.95915, 1.97442, 1.98802, 2.00024, 2.0113, 2.02136, 2.03058, 2.03906, 2.04689, 2.05415, 2.06092, 2.06724, 2.07316, 2.07872, 2.08396, 2.0889, 2.09358, 2.09801, 2.10222, 2.10622, 2.11003, 2.11367, 2.11715, 2.12048, 2.12367, 2.12672, 2.12966, 2.13248, 2.1352, 
Number of clients: 6

+++++++++++++++++++++++++++++++++++++++++++++++++++++++++++
+ Client Mapping:
  > Client 42491 (7):	37 38 39 36 18 10 8 
  > Client 42488 (6):	22 23 24 34 15 9 
  > Client 42487 (6):	19 20 21 33 16 0 
  > Client 42493 (6):	25 26 27 28 14 17 
  > Client 42490 (5):	1 2 3 35 11 
  > Client 42486 (5):	4 5 6 7 13 

+ Core Mapping:	42487 42490 42490 42490 42486 42486 42486 42486 42491 42488 42491 42490 0 42486 42493 42488 42487 42493 42491 42487 42487 42487 42488 42488 42488 42493 42493 42493 42493 0 0 0 0 42487 42488 42490 42491 42491 42491 42491 
+ Optimal point: 7 7 7 6 6 7 
+++++++++++++++++++++++++++++++++++++++++++++++++++++++++++
++++++++++++++++++++++++++++++++++++++++++++++++
 + TIMESTAMP: 1847.96
REINVADE (42488)
  + pid: 42488
  + min_cores: 1
  + max_cores: 512
  + scalability graph: 
1, 1.39494, 1.5699, 1.6742, 1.74538, 1.79792, 1.83875, 1.87167, 1.89893, 1.922, 1.94184, 1.95915, 1.97442, 1.98802, 2.00024, 2.0113, 2.02136, 2.03058, 2.03906, 2.04689, 2.05415, 2.06092, 2.06724, 2.07316, 2.07872, 2.08396, 2.0889, 2.09358, 2.09801, 2.10222, 2.10622, 2.11003, 2.11367, 2.11715, 2.12048, 2.12367, 2.12672, 2.12966, 2.13248, 2.1352, 
Number of clients: 6

+++++++++++++++++++++++++++++++++++++++++++++++++++++++++++
+ Client Mapping:
  > Client 42491 (7):	37 38 39 36 18 10 8 
  > Client 42488 (7):	22 23 24 34 15 9 12 
  > Client 42487 (6):	19 20 21 33 16 0 
  > Client 42493 (6):	25 26 27 28 14 17 
  > Client 42490 (5):	1 2 3 35 11 
  > Client 42486 (5):	4 5 6 7 13 

+ Core Mapping:	42487 42490 42490 42490 42486 42486 42486 42486 42491 42488 42491 42490 42488 42486 42493 42488 42487 42493 42491 42487 42487 42487 42488 42488 42488 42493 42493 42493 42493 0 0 0 0 42487 42488 42490 42491 42491 42491 42491 
+ Optimal point: 7 7 7 6 6 7 
+++++++++++++++++++++++++++++++++++++++++++++++++++++++++++
++++++++++++++++++++++++++++++++++++++++++++++++
 + TIMESTAMP: 1847.96
REINVADE (42487)
  + pid: 42487
  + min_cores: 1
  + max_cores: 512
  + scalability graph: 
1, 1.39494, 1.5699, 1.6742, 1.74538, 1.79792, 1.83875, 1.87167, 1.89893, 1.922, 1.94184, 1.95915, 1.97442, 1.98802, 2.00024, 2.0113, 2.02136, 2.03058, 2.03906, 2.04689, 2.05415, 2.06092, 2.06724, 2.07316, 2.07872, 2.08396, 2.0889, 2.09358, 2.09801, 2.10222, 2.10622, 2.11003, 2.11367, 2.11715, 2.12048, 2.12367, 2.12672, 2.12966, 2.13248, 2.1352, 
Number of clients: 6

+++++++++++++++++++++++++++++++++++++++++++++++++++++++++++
+ Client Mapping:
  > Client 42491 (7):	37 38 39 36 18 10 8 
  > Client 42488 (7):	22 23 24 34 15 9 12 
  > Client 42487 (7):	19 20 21 33 16 0 29 
  > Client 42493 (6):	25 26 27 28 14 17 
  > Client 42490 (5):	1 2 3 35 11 
  > Client 42486 (5):	4 5 6 7 13 

+ Core Mapping:	42487 42490 42490 42490 42486 42486 42486 42486 42491 42488 42491 42490 42488 42486 42493 42488 42487 42493 42491 42487 42487 42487 42488 42488 42488 42493 42493 42493 42493 42487 0 0 0 42487 42488 42490 42491 42491 42491 42491 
+ Optimal point: 7 7 7 6 6 7 
+++++++++++++++++++++++++++++++++++++++++++++++++++++++++++
++++++++++++++++++++++++++++++++++++++++++++++++
 + TIMESTAMP: 1847.97
REINVADE (42490)
  + pid: 42490
  + min_cores: 1
  + max_cores: 512
  + scalability graph: 
1, 1.39494, 1.5699, 1.6742, 1.74538, 1.79792, 1.83875, 1.87167, 1.89893, 1.922, 1.94184, 1.95915, 1.97442, 1.98802, 2.00024, 2.0113, 2.02136, 2.03058, 2.03906, 2.04689, 2.05415, 2.06092, 2.06724, 2.07316, 2.07872, 2.08396, 2.0889, 2.09358, 2.09801, 2.10222, 2.10622, 2.11003, 2.11367, 2.11715, 2.12048, 2.12367, 2.12672, 2.12966, 2.13248, 2.1352, 
Number of clients: 6

+++++++++++++++++++++++++++++++++++++++++++++++++++++++++++
+ Client Mapping:
  > Client 42491 (7):	37 38 39 36 18 10 8 
  > Client 42488 (7):	22 23 24 34 15 9 12 
  > Client 42487 (7):	19 20 21 33 16 0 29 
  > Client 42493 (6):	25 26 27 28 14 17 
  > Client 42490 (6):	1 2 3 35 11 30 
  > Client 42486 (5):	4 5 6 7 13 

+ Core Mapping:	42487 42490 42490 42490 42486 42486 42486 42486 42491 42488 42491 42490 42488 42486 42493 42488 42487 42493 42491 42487 42487 42487 42488 42488 42488 42493 42493 42493 42493 42487 42490 0 0 42487 42488 42490 42491 42491 42491 42491 
+ Optimal point: 7 7 7 6 6 7 
+++++++++++++++++++++++++++++++++++++++++++++++++++++++++++
++++++++++++++++++++++++++++++++++++++++++++++++
 + TIMESTAMP: 1847.99
REINVADE (42486)
  + pid: 42486
  + min_cores: 1
  + max_cores: 512
  + scalability graph: 
1, 1.39494, 1.5699, 1.6742, 1.74538, 1.79792, 1.83875, 1.87167, 1.89893, 1.922, 1.94184, 1.95915, 1.97442, 1.98802, 2.00024, 2.0113, 2.02136, 2.03058, 2.03906, 2.04689, 2.05415, 2.06092, 2.06724, 2.07316, 2.07872, 2.08396, 2.0889, 2.09358, 2.09801, 2.10222, 2.10622, 2.11003, 2.11367, 2.11715, 2.12048, 2.12367, 2.12672, 2.12966, 2.13248, 2.1352, 
Number of clients: 6

+++++++++++++++++++++++++++++++++++++++++++++++++++++++++++
+ Client Mapping:
  > Client 42491 (7):	37 38 39 36 18 10 8 
  > Client 42488 (7):	22 23 24 34 15 9 12 
  > Client 42487 (7):	19 20 21 33 16 0 29 
  > Client 42493 (6):	25 26 27 28 14 17 
  > Client 42490 (6):	1 2 3 35 11 30 
  > Client 42486 (7):	4 5 6 7 13 31 32 

+ Core Mapping:	42487 42490 42490 42490 42486 42486 42486 42486 42491 42488 42491 42490 42488 42486 42493 42488 42487 42493 42491 42487 42487 42487 42488 42488 42488 42493 42493 42493 42493 42487 42490 42486 42486 42487 42488 42490 42491 42491 42491 42491 
+ Optimal point: 7 7 7 6 6 7 
+++++++++++++++++++++++++++++++++++++++++++++++++++++++++++
CLIENT SHUTDOWN: client 42493
 + TIMESTAMP: 1851.87
+++++++++++++++++++++++++++++++++++++++++++++++++++++++++++
+ Client Mapping:
  > Client 42491 (7):	37 38 39 36 18 10 8 
  > Client 42488 (7):	22 23 24 34 15 9 12 
  > Client 42487 (7):	19 20 21 33 16 0 29 
  > Client 42493 (0):	
  > Client 42490 (6):	1 2 3 35 11 30 
  > Client 42486 (7):	4 5 6 7 13 31 32 

+ Core Mapping:	42487 42490 42490 42490 42486 42486 42486 42486 42491 42488 42491 42490 42488 42486 0 42488 42487 0 42491 42487 42487 42487 42488 42488 42488 0 0 0 0 42487 42490 42486 42486 42487 42488 42490 42491 42491 42491 42491 
+ Optimal point: 7 7 7 6 6 7 
+++++++++++++++++++++++++++++++++++++++++++++++++++++++++++
client (42493) shutdown hint: 20954.2
sum_client_shutdown_hint: 125725
sum_client_shutdown_hint_div_time: 0
++++++++++++++++++++++++++++++++++++++++++++++++
 + TIMESTAMP: 1851.87
REINVADE (42491)
  + pid: 42491
  + min_cores: 1
  + max_cores: 512
  + scalability graph: 
1, 1.39494, 1.5699, 1.6742, 1.74538, 1.79792, 1.83875, 1.87167, 1.89893, 1.922, 1.94184, 1.95915, 1.97442, 1.98802, 2.00024, 2.0113, 2.02136, 2.03058, 2.03906, 2.04689, 2.05415, 2.06092, 2.06724, 2.07316, 2.07872, 2.08396, 2.0889, 2.09358, 2.09801, 2.10222, 2.10622, 2.11003, 2.11367, 2.11715, 2.12048, 2.12367, 2.12672, 2.12966, 2.13248, 2.1352, 
Number of clients: 5

+++++++++++++++++++++++++++++++++++++++++++++++++++++++++++
+ Client Mapping:
  > Client 42491 (8):	37 38 39 36 18 10 8 14 
  > Client 42488 (7):	22 23 24 34 15 9 12 
  > Client 42487 (7):	19 20 21 33 16 0 29 
  > Client 42490 (6):	1 2 3 35 11 30 
  > Client 42486 (7):	4 5 6 7 13 31 32 

+ Core Mapping:	42487 42490 42490 42490 42486 42486 42486 42486 42491 42488 42491 42490 42488 42486 42491 42488 42487 0 42491 42487 42487 42487 42488 42488 42488 0 0 0 0 42487 42490 42486 42486 42487 42488 42490 42491 42491 42491 42491 
+ Optimal point: 8 8 8 8 8 
+++++++++++++++++++++++++++++++++++++++++++++++++++++++++++
++++++++++++++++++++++++++++++++++++++++++++++++
 + TIMESTAMP: 1851.88
REINVADE (42488)
  + pid: 42488
  + min_cores: 1
  + max_cores: 512
  + scalability graph: 
1, 1.39494, 1.5699, 1.6742, 1.74538, 1.79792, 1.83875, 1.87167, 1.89893, 1.922, 1.94184, 1.95915, 1.97442, 1.98802, 2.00024, 2.0113, 2.02136, 2.03058, 2.03906, 2.04689, 2.05415, 2.06092, 2.06724, 2.07316, 2.07872, 2.08396, 2.0889, 2.09358, 2.09801, 2.10222, 2.10622, 2.11003, 2.11367, 2.11715, 2.12048, 2.12367, 2.12672, 2.12966, 2.13248, 2.1352, 
Number of clients: 5

+++++++++++++++++++++++++++++++++++++++++++++++++++++++++++
+ Client Mapping:
  > Client 42491 (8):	37 38 39 36 18 10 8 14 
  > Client 42488 (8):	22 23 24 34 15 9 12 17 
  > Client 42487 (7):	19 20 21 33 16 0 29 
  > Client 42490 (6):	1 2 3 35 11 30 
  > Client 42486 (7):	4 5 6 7 13 31 32 

+ Core Mapping:	42487 42490 42490 42490 42486 42486 42486 42486 42491 42488 42491 42490 42488 42486 42491 42488 42487 42488 42491 42487 42487 42487 42488 42488 42488 0 0 0 0 42487 42490 42486 42486 42487 42488 42490 42491 42491 42491 42491 
+ Optimal point: 8 8 8 8 8 
+++++++++++++++++++++++++++++++++++++++++++++++++++++++++++
++++++++++++++++++++++++++++++++++++++++++++++++
 + TIMESTAMP: 1851.88
REINVADE (42487)
  + pid: 42487
  + min_cores: 1
  + max_cores: 512
  + scalability graph: 
1, 1.39494, 1.5699, 1.6742, 1.74538, 1.79792, 1.83875, 1.87167, 1.89893, 1.922, 1.94184, 1.95915, 1.97442, 1.98802, 2.00024, 2.0113, 2.02136, 2.03058, 2.03906, 2.04689, 2.05415, 2.06092, 2.06724, 2.07316, 2.07872, 2.08396, 2.0889, 2.09358, 2.09801, 2.10222, 2.10622, 2.11003, 2.11367, 2.11715, 2.12048, 2.12367, 2.12672, 2.12966, 2.13248, 2.1352, 
Number of clients: 5

+++++++++++++++++++++++++++++++++++++++++++++++++++++++++++
+ Client Mapping:
  > Client 42491 (8):	37 38 39 36 18 10 8 14 
  > Client 42488 (8):	22 23 24 34 15 9 12 17 
  > Client 42487 (8):	19 20 21 33 16 0 29 25 
  > Client 42490 (6):	1 2 3 35 11 30 
  > Client 42486 (7):	4 5 6 7 13 31 32 

+ Core Mapping:	42487 42490 42490 42490 42486 42486 42486 42486 42491 42488 42491 42490 42488 42486 42491 42488 42487 42488 42491 42487 42487 42487 42488 42488 42488 42487 0 0 0 42487 42490 42486 42486 42487 42488 42490 42491 42491 42491 42491 
+ Optimal point: 8 8 8 8 8 
+++++++++++++++++++++++++++++++++++++++++++++++++++++++++++
++++++++++++++++++++++++++++++++++++++++++++++++
 + TIMESTAMP: 1851.88
REINVADE (42490)
  + pid: 42490
  + min_cores: 1
  + max_cores: 512
  + scalability graph: 
1, 1.39494, 1.5699, 1.6742, 1.74538, 1.79792, 1.83875, 1.87167, 1.89893, 1.922, 1.94184, 1.95915, 1.97442, 1.98802, 2.00024, 2.0113, 2.02136, 2.03058, 2.03906, 2.04689, 2.05415, 2.06092, 2.06724, 2.07316, 2.07872, 2.08396, 2.0889, 2.09358, 2.09801, 2.10222, 2.10622, 2.11003, 2.11367, 2.11715, 2.12048, 2.12367, 2.12672, 2.12966, 2.13248, 2.1352, 
Number of clients: 5

+++++++++++++++++++++++++++++++++++++++++++++++++++++++++++
+ Client Mapping:
  > Client 42491 (8):	37 38 39 36 18 10 8 14 
  > Client 42488 (8):	22 23 24 34 15 9 12 17 
  > Client 42487 (8):	19 20 21 33 16 0 29 25 
  > Client 42490 (8):	1 2 3 35 11 30 26 27 
  > Client 42486 (7):	4 5 6 7 13 31 32 

+ Core Mapping:	42487 42490 42490 42490 42486 42486 42486 42486 42491 42488 42491 42490 42488 42486 42491 42488 42487 42488 42491 42487 42487 42487 42488 42488 42488 42487 42490 42490 0 42487 42490 42486 42486 42487 42488 42490 42491 42491 42491 42491 
+ Optimal point: 8 8 8 8 8 
+++++++++++++++++++++++++++++++++++++++++++++++++++++++++++
++++++++++++++++++++++++++++++++++++++++++++++++
 + TIMESTAMP: 1851.89
REINVADE (42486)
  + pid: 42486
  + min_cores: 1
  + max_cores: 512
  + scalability graph: 
1, 1.39494, 1.5699, 1.6742, 1.74538, 1.79792, 1.83875, 1.87167, 1.89893, 1.922, 1.94184, 1.95915, 1.97442, 1.98802, 2.00024, 2.0113, 2.02136, 2.03058, 2.03906, 2.04689, 2.05415, 2.06092, 2.06724, 2.07316, 2.07872, 2.08396, 2.0889, 2.09358, 2.09801, 2.10222, 2.10622, 2.11003, 2.11367, 2.11715, 2.12048, 2.12367, 2.12672, 2.12966, 2.13248, 2.1352, 
Number of clients: 5

+++++++++++++++++++++++++++++++++++++++++++++++++++++++++++
+ Client Mapping:
  > Client 42491 (8):	37 38 39 36 18 10 8 14 
  > Client 42488 (8):	22 23 24 34 15 9 12 17 
  > Client 42487 (8):	19 20 21 33 16 0 29 25 
  > Client 42490 (8):	1 2 3 35 11 30 26 27 
  > Client 42486 (8):	4 5 6 7 13 31 32 28 

+ Core Mapping:	42487 42490 42490 42490 42486 42486 42486 42486 42491 42488 42491 42490 42488 42486 42491 42488 42487 42488 42491 42487 42487 42487 42488 42488 42488 42487 42490 42490 42486 42487 42490 42486 42486 42487 42488 42490 42491 42491 42491 42491 
+ Optimal point: 8 8 8 8 8 
+++++++++++++++++++++++++++++++++++++++++++++++++++++++++++
CLIENT SHUTDOWN: client 42486
 + TIMESTAMP: 1856.34
+++++++++++++++++++++++++++++++++++++++++++++++++++++++++++
+ Client Mapping:
  > Client 42491 (8):	37 38 39 36 18 10 8 14 
  > Client 42488 (8):	22 23 24 34 15 9 12 17 
  > Client 42487 (8):	19 20 21 33 16 0 29 25 
  > Client 42490 (8):	1 2 3 35 11 30 26 27 
  > Client 42486 (0):	

+ Core Mapping:	42487 42490 42490 42490 0 0 0 0 42491 42488 42491 42490 42488 0 42491 42488 42487 42488 42491 42487 42487 42487 42488 42488 42488 42487 42490 42490 0 42487 42490 0 0 42487 42488 42490 42491 42491 42491 42491 
+ Optimal point: 8 8 8 8 8 
+++++++++++++++++++++++++++++++++++++++++++++++++++++++++++
client (42486) shutdown hint: 20954.2
sum_client_shutdown_hint: 146679
sum_client_shutdown_hint_div_time: 0
++++++++++++++++++++++++++++++++++++++++++++++++
 + TIMESTAMP: 1856.34
REINVADE (42491)
  + pid: 42491
  + min_cores: 1
  + max_cores: 512
  + scalability graph: 
1, 1.39494, 1.5699, 1.6742, 1.74538, 1.79792, 1.83875, 1.87167, 1.89893, 1.922, 1.94184, 1.95915, 1.97442, 1.98802, 2.00024, 2.0113, 2.02136, 2.03058, 2.03906, 2.04689, 2.05415, 2.06092, 2.06724, 2.07316, 2.07872, 2.08396, 2.0889, 2.09358, 2.09801, 2.10222, 2.10622, 2.11003, 2.11367, 2.11715, 2.12048, 2.12367, 2.12672, 2.12966, 2.13248, 2.1352, 
Number of clients: 4

+++++++++++++++++++++++++++++++++++++++++++++++++++++++++++
+ Client Mapping:
  > Client 42491 (10):	37 38 39 36 18 10 8 14 4 5 
  > Client 42488 (8):	22 23 24 34 15 9 12 17 
  > Client 42487 (8):	19 20 21 33 16 0 29 25 
  > Client 42490 (8):	1 2 3 35 11 30 26 27 

+ Core Mapping:	42487 42490 42490 42490 42491 42491 0 0 42491 42488 42491 42490 42488 0 42491 42488 42487 42488 42491 42487 42487 42487 42488 42488 42488 42487 42490 42490 0 42487 42490 0 0 42487 42488 42490 42491 42491 42491 42491 
+ Optimal point: 10 10 10 10 
+++++++++++++++++++++++++++++++++++++++++++++++++++++++++++
++++++++++++++++++++++++++++++++++++++++++++++++
 + TIMESTAMP: 1856.34
REINVADE (42490)
  + pid: 42490
  + min_cores: 1
  + max_cores: 512
  + scalability graph: 
1, 1.39494, 1.5699, 1.6742, 1.74538, 1.79792, 1.83875, 1.87167, 1.89893, 1.922, 1.94184, 1.95915, 1.97442, 1.98802, 2.00024, 2.0113, 2.02136, 2.03058, 2.03906, 2.04689, 2.05415, 2.06092, 2.06724, 2.07316, 2.07872, 2.08396, 2.0889, 2.09358, 2.09801, 2.10222, 2.10622, 2.11003, 2.11367, 2.11715, 2.12048, 2.12367, 2.12672, 2.12966, 2.13248, 2.1352, 
Number of clients: 4

+++++++++++++++++++++++++++++++++++++++++++++++++++++++++++
+ Client Mapping:
  > Client 42491 (10):	37 38 39 36 18 10 8 14 4 5 
  > Client 42488 (8):	22 23 24 34 15 9 12 17 
  > Client 42487 (8):	19 20 21 33 16 0 29 25 
  > Client 42490 (10):	1 2 3 35 11 30 26 27 6 7 

+ Core Mapping:	42487 42490 42490 42490 42491 42491 42490 42490 42491 42488 42491 42490 42488 0 42491 42488 42487 42488 42491 42487 42487 42487 42488 42488 42488 42487 42490 42490 0 42487 42490 0 0 42487 42488 42490 42491 42491 42491 42491 
+ Optimal point: 10 10 10 10 
+++++++++++++++++++++++++++++++++++++++++++++++++++++++++++
++++++++++++++++++++++++++++++++++++++++++++++++
 + TIMESTAMP: 1856.34
REINVADE (42488)
  + pid: 42488
  + min_cores: 1
  + max_cores: 512
  + scalability graph: 
1, 1.39494, 1.5699, 1.6742, 1.74538, 1.79792, 1.83875, 1.87167, 1.89893, 1.922, 1.94184, 1.95915, 1.97442, 1.98802, 2.00024, 2.0113, 2.02136, 2.03058, 2.03906, 2.04689, 2.05415, 2.06092, 2.06724, 2.07316, 2.07872, 2.08396, 2.0889, 2.09358, 2.09801, 2.10222, 2.10622, 2.11003, 2.11367, 2.11715, 2.12048, 2.12367, 2.12672, 2.12966, 2.13248, 2.1352, 
Number of clients: 4

+++++++++++++++++++++++++++++++++++++++++++++++++++++++++++
+ Client Mapping:
  > Client 42491 (10):	37 38 39 36 18 10 8 14 4 5 
  > Client 42488 (10):	22 23 24 34 15 9 12 17 13 28 
  > Client 42487 (8):	19 20 21 33 16 0 29 25 
  > Client 42490 (10):	1 2 3 35 11 30 26 27 6 7 

+ Core Mapping:	42487 42490 42490 42490 42491 42491 42490 42490 42491 42488 42491 42490 42488 42488 42491 42488 42487 42488 42491 42487 42487 42487 42488 42488 42488 42487 42490 42490 42488 42487 42490 0 0 42487 42488 42490 42491 42491 42491 42491 
+ Optimal point: 10 10 10 10 
+++++++++++++++++++++++++++++++++++++++++++++++++++++++++++
++++++++++++++++++++++++++++++++++++++++++++++++
 + TIMESTAMP: 1856.35
REINVADE (42487)
  + pid: 42487
  + min_cores: 1
  + max_cores: 512
  + scalability graph: 
1, 1.39494, 1.5699, 1.6742, 1.74538, 1.79792, 1.83875, 1.87167, 1.89893, 1.922, 1.94184, 1.95915, 1.97442, 1.98802, 2.00024, 2.0113, 2.02136, 2.03058, 2.03906, 2.04689, 2.05415, 2.06092, 2.06724, 2.07316, 2.07872, 2.08396, 2.0889, 2.09358, 2.09801, 2.10222, 2.10622, 2.11003, 2.11367, 2.11715, 2.12048, 2.12367, 2.12672, 2.12966, 2.13248, 2.1352, 
Number of clients: 4

+++++++++++++++++++++++++++++++++++++++++++++++++++++++++++
+ Client Mapping:
  > Client 42491 (10):	37 38 39 36 18 10 8 14 4 5 
  > Client 42488 (10):	22 23 24 34 15 9 12 17 13 28 
  > Client 42487 (10):	19 20 21 33 16 0 29 25 31 32 
  > Client 42490 (10):	1 2 3 35 11 30 26 27 6 7 

+ Core Mapping:	42487 42490 42490 42490 42491 42491 42490 42490 42491 42488 42491 42490 42488 42488 42491 42488 42487 42488 42491 42487 42487 42487 42488 42488 42488 42487 42490 42490 42488 42487 42490 42487 42487 42487 42488 42490 42491 42491 42491 42491 
+ Optimal point: 10 10 10 10 
+++++++++++++++++++++++++++++++++++++++++++++++++++++++++++
CLIENT SHUTDOWN: client 42487
 + TIMESTAMP: 1949.4
+++++++++++++++++++++++++++++++++++++++++++++++++++++++++++
+ Client Mapping:
  > Client 42491 (10):	37 38 39 36 18 10 8 14 4 5 
  > Client 42488 (10):	22 23 24 34 15 9 12 17 13 28 
  > Client 42487 (0):	
  > Client 42490 (10):	1 2 3 35 11 30 26 27 6 7 

+ Core Mapping:	0 42490 42490 42490 42491 42491 42490 42490 42491 42488 42491 42490 42488 42488 42491 42488 0 42488 42491 0 0 0 42488 42488 42488 0 42490 42490 42488 0 42490 0 0 0 42488 42490 42491 42491 42491 42491 
+ Optimal point: 10 10 10 10 
+++++++++++++++++++++++++++++++++++++++++++++++++++++++++++
client (42487) shutdown hint: 20954.2
sum_client_shutdown_hint: 167634
sum_client_shutdown_hint_div_time: 0
++++++++++++++++++++++++++++++++++++++++++++++++
 + TIMESTAMP: 1949.42
REINVADE (42490)
  + pid: 42490
  + min_cores: 1
  + max_cores: 512
  + scalability graph: 
1, 1.39494, 1.5699, 1.6742, 1.74538, 1.79792, 1.83875, 1.87167, 1.89893, 1.922, 1.94184, 1.95915, 1.97442, 1.98802, 2.00024, 2.0113, 2.02136, 2.03058, 2.03906, 2.04689, 2.05415, 2.06092, 2.06724, 2.07316, 2.07872, 2.08396, 2.0889, 2.09358, 2.09801, 2.10222, 2.10622, 2.11003, 2.11367, 2.11715, 2.12048, 2.12367, 2.12672, 2.12966, 2.13248, 2.1352, 
Number of clients: 3

+++++++++++++++++++++++++++++++++++++++++++++++++++++++++++
+ Client Mapping:
  > Client 42491 (10):	37 38 39 36 18 10 8 14 4 5 
  > Client 42488 (10):	22 23 24 34 15 9 12 17 13 28 
  > Client 42490 (13):	1 2 3 35 11 30 26 27 6 7 0 16 19 

+ Core Mapping:	42490 42490 42490 42490 42491 42491 42490 42490 42491 42488 42491 42490 42488 42488 42491 42488 42490 42488 42491 42490 0 0 42488 42488 42488 0 42490 42490 42488 0 42490 0 0 0 42488 42490 42491 42491 42491 42491 
+ Optimal point: 14 13 13 
+++++++++++++++++++++++++++++++++++++++++++++++++++++++++++
++++++++++++++++++++++++++++++++++++++++++++++++
 + TIMESTAMP: 1949.42
REINVADE (42491)
  + pid: 42491
  + min_cores: 1
  + max_cores: 512
  + scalability graph: 
1, 1.39494, 1.5699, 1.6742, 1.74538, 1.79792, 1.83875, 1.87167, 1.89893, 1.922, 1.94184, 1.95915, 1.97442, 1.98802, 2.00024, 2.0113, 2.02136, 2.03058, 2.03906, 2.04689, 2.05415, 2.06092, 2.06724, 2.07316, 2.07872, 2.08396, 2.0889, 2.09358, 2.09801, 2.10222, 2.10622, 2.11003, 2.11367, 2.11715, 2.12048, 2.12367, 2.12672, 2.12966, 2.13248, 2.1352, 
Number of clients: 3

+++++++++++++++++++++++++++++++++++++++++++++++++++++++++++
+ Client Mapping:
  > Client 42491 (14):	37 38 39 36 18 10 8 14 4 5 20 21 25 29 
  > Client 42488 (10):	22 23 24 34 15 9 12 17 13 28 
  > Client 42490 (13):	1 2 3 35 11 30 26 27 6 7 0 16 19 

+ Core Mapping:	42490 42490 42490 42490 42491 42491 42490 42490 42491 42488 42491 42490 42488 42488 42491 42488 42490 42488 42491 42490 42491 42491 42488 42488 42488 42491 42490 42490 42488 42491 42490 0 0 0 42488 42490 42491 42491 42491 42491 
+ Optimal point: 14 13 13 
+++++++++++++++++++++++++++++++++++++++++++++++++++++++++++
++++++++++++++++++++++++++++++++++++++++++++++++
 + TIMESTAMP: 1949.42
REINVADE (42488)
  + pid: 42488
  + min_cores: 1
  + max_cores: 512
  + scalability graph: 
1, 1.39494, 1.5699, 1.6742, 1.74538, 1.79792, 1.83875, 1.87167, 1.89893, 1.922, 1.94184, 1.95915, 1.97442, 1.98802, 2.00024, 2.0113, 2.02136, 2.03058, 2.03906, 2.04689, 2.05415, 2.06092, 2.06724, 2.07316, 2.07872, 2.08396, 2.0889, 2.09358, 2.09801, 2.10222, 2.10622, 2.11003, 2.11367, 2.11715, 2.12048, 2.12367, 2.12672, 2.12966, 2.13248, 2.1352, 
Number of clients: 3

+++++++++++++++++++++++++++++++++++++++++++++++++++++++++++
+ Client Mapping:
  > Client 42491 (14):	37 38 39 36 18 10 8 14 4 5 20 21 25 29 
  > Client 42488 (13):	22 23 24 34 15 9 12 17 13 28 31 32 33 
  > Client 42490 (13):	1 2 3 35 11 30 26 27 6 7 0 16 19 

+ Core Mapping:	42490 42490 42490 42490 42491 42491 42490 42490 42491 42488 42491 42490 42488 42488 42491 42488 42490 42488 42491 42490 42491 42491 42488 42488 42488 42491 42490 42490 42488 42491 42490 42488 42488 42488 42488 42490 42491 42491 42491 42491 
+ Optimal point: 14 13 13 
+++++++++++++++++++++++++++++++++++++++++++++++++++++++++++
CLIENT SHUTDOWN: client 42491
 + TIMESTAMP: 1977.45
+++++++++++++++++++++++++++++++++++++++++++++++++++++++++++
+ Client Mapping:
  > Client 42491 (0):	
  > Client 42488 (13):	22 23 24 34 15 9 12 17 13 28 31 32 33 
  > Client 42490 (13):	1 2 3 35 11 30 26 27 6 7 0 16 19 

+ Core Mapping:	42490 42490 42490 42490 0 0 42490 42490 0 42488 0 42490 42488 42488 0 42488 42490 42488 0 42490 0 0 42488 42488 42488 0 42490 42490 42488 0 42490 42488 42488 42488 42488 42490 0 0 0 0 
+ Optimal point: 14 13 13 
+++++++++++++++++++++++++++++++++++++++++++++++++++++++++++
client (42491) shutdown hint: 20954.2
sum_client_shutdown_hint: 188588
sum_client_shutdown_hint_div_time: 0
++++++++++++++++++++++++++++++++++++++++++++++++
 + TIMESTAMP: 1977.45
REINVADE (42490)
  + pid: 42490
  + min_cores: 1
  + max_cores: 512
  + scalability graph: 
1, 1.39494, 1.5699, 1.6742, 1.74538, 1.79792, 1.83875, 1.87167, 1.89893, 1.922, 1.94184, 1.95915, 1.97442, 1.98802, 2.00024, 2.0113, 2.02136, 2.03058, 2.03906, 2.04689, 2.05415, 2.06092, 2.06724, 2.07316, 2.07872, 2.08396, 2.0889, 2.09358, 2.09801, 2.10222, 2.10622, 2.11003, 2.11367, 2.11715, 2.12048, 2.12367, 2.12672, 2.12966, 2.13248, 2.1352, 
Number of clients: 2

+++++++++++++++++++++++++++++++++++++++++++++++++++++++++++
+ Client Mapping:
  > Client 42488 (13):	22 23 24 34 15 9 12 17 13 28 31 32 33 
  > Client 42490 (20):	1 2 3 35 11 30 26 27 6 7 0 16 19 4 5 8 10 14 18 20 

+ Core Mapping:	42490 42490 42490 42490 42490 42490 42490 42490 42490 42488 42490 42490 42488 42488 42490 42488 42490 42488 42490 42490 42490 0 42488 42488 42488 0 42490 42490 42488 0 42490 42488 42488 42488 42488 42490 0 0 0 0 
+ Optimal point: 20 20 
+++++++++++++++++++++++++++++++++++++++++++++++++++++++++++
++++++++++++++++++++++++++++++++++++++++++++++++
 + TIMESTAMP: 1977.46
REINVADE (42488)
  + pid: 42488
  + min_cores: 1
  + max_cores: 512
  + scalability graph: 
1, 1.39494, 1.5699, 1.6742, 1.74538, 1.79792, 1.83875, 1.87167, 1.89893, 1.922, 1.94184, 1.95915, 1.97442, 1.98802, 2.00024, 2.0113, 2.02136, 2.03058, 2.03906, 2.04689, 2.05415, 2.06092, 2.06724, 2.07316, 2.07872, 2.08396, 2.0889, 2.09358, 2.09801, 2.10222, 2.10622, 2.11003, 2.11367, 2.11715, 2.12048, 2.12367, 2.12672, 2.12966, 2.13248, 2.1352, 
Number of clients: 2

+++++++++++++++++++++++++++++++++++++++++++++++++++++++++++
+ Client Mapping:
  > Client 42488 (20):	22 23 24 34 15 9 12 17 13 28 31 32 33 21 25 29 36 37 38 39 
  > Client 42490 (20):	1 2 3 35 11 30 26 27 6 7 0 16 19 4 5 8 10 14 18 20 

+ Core Mapping:	42490 42490 42490 42490 42490 42490 42490 42490 42490 42488 42490 42490 42488 42488 42490 42488 42490 42488 42490 42490 42490 42488 42488 42488 42488 42488 42490 42490 42488 42488 42490 42488 42488 42488 42488 42490 42488 42488 42488 42488 
+ Optimal point: 20 20 
+++++++++++++++++++++++++++++++++++++++++++++++++++++++++++
CLIENT SHUTDOWN: client 42488
 + TIMESTAMP: 1988.34
+++++++++++++++++++++++++++++++++++++++++++++++++++++++++++
+ Client Mapping:
  > Client 42488 (0):	
  > Client 42490 (20):	1 2 3 35 11 30 26 27 6 7 0 16 19 4 5 8 10 14 18 20 

+ Core Mapping:	42490 42490 42490 42490 42490 42490 42490 42490 42490 0 42490 42490 0 0 42490 0 42490 0 42490 42490 42490 0 0 0 0 0 42490 42490 0 0 42490 0 0 0 0 42490 0 0 0 0 
+ Optimal point: 20 20 
+++++++++++++++++++++++++++++++++++++++++++++++++++++++++++
client (42488) shutdown hint: 20954.2
sum_client_shutdown_hint: 209542
sum_client_shutdown_hint_div_time: 0
++++++++++++++++++++++++++++++++++++++++++++++++
 + TIMESTAMP: 1988.35
REINVADE (42490)
  + pid: 42490
  + min_cores: 1
  + max_cores: 512
  + scalability graph: 
1, 1.39494, 1.5699, 1.6742, 1.74538, 1.79792, 1.83875, 1.87167, 1.89893, 1.922, 1.94184, 1.95915, 1.97442, 1.98802, 2.00024, 2.0113, 2.02136, 2.03058, 2.03906, 2.04689, 2.05415, 2.06092, 2.06724, 2.07316, 2.07872, 2.08396, 2.0889, 2.09358, 2.09801, 2.10222, 2.10622, 2.11003, 2.11367, 2.11715, 2.12048, 2.12367, 2.12672, 2.12966, 2.13248, 2.1352, 
Number of clients: 1

+++++++++++++++++++++++++++++++++++++++++++++++++++++++++++
+ Client Mapping:
  > Client 42490 (40):	1 2 3 35 11 30 26 27 6 7 0 16 19 4 5 8 10 14 18 20 9 12 13 15 17 21 22 23 24 25 28 29 31 32 33 34 36 37 38 39 

+ Core Mapping:	42490 42490 42490 42490 42490 42490 42490 42490 42490 42490 42490 42490 42490 42490 42490 42490 42490 42490 42490 42490 42490 42490 42490 42490 42490 42490 42490 42490 42490 42490 42490 42490 42490 42490 42490 42490 42490 42490 42490 42490 
+ Optimal point: 40 
+++++++++++++++++++++++++++++++++++++++++++++++++++++++++++
CLIENT SHUTDOWN: client 42490
 + TIMESTAMP: 2000.44
+++++++++++++++++++++++++++++++++++++++++++++++++++++++++++
+ Client Mapping:
  > Client 42490 (0):	

+ Core Mapping:	0 0 0 0 0 0 0 0 0 0 0 0 0 0 0 0 0 0 0 0 0 0 0 0 0 0 0 0 0 0 0 0 0 0 0 0 0 0 0 0 
+ Optimal point: 40 
+++++++++++++++++++++++++++++++++++++++++++++++++++++++++++
client (42490) shutdown hint: 20954.2
sum_client_shutdown_hint: 230496
sum_client_shutdown_hint_div_time: 0
END TIMESTAMP: 2000.44
OVERALL TIME: 2000.04
 + sum_client_shutdown_hint: 230496
 + sum_client_shutdown_hint/time: 115.246
sum_client_shutdown_hint: 230496
sum_client_shutdown_hint_div_time: 115.246
