%%MatrixMarket matrix array real general
10 10
1.
0.
0.
0.
0.
0.
0.
0.
0.
0.
-.7071067810
-.2500000000
0.
0.
-.4330127020
0.
0.
0.
0.
0.
.1443375673
.4082482906
.8333333333e-1
0.
.7071067810
.1443375673
0.
.1863389981
0.
0.
.1250000000
-.2651650429
-.2165063510
-.3125000000e-1
-.4592793268
-.3750000000
-.5412658775e-1
-.4841229182
-.6987712428e-1
-.8267972847e-1
.4082482906
.7216878367
0.
0.
-.7500000000
0.
0.
0.
0.
0.
.1250000000
-.7071067810
-.2165063510
0.
0.
-.1250000000
0.
.4841229182
0.
0.
-.2453738645
.3163924252
.4250000000
.7577722285e-1
.1237436867
.3897114318
.8125000000e-1
-.3913118960
-.2420614591e-1
-.2577698829
-.1613743061
.3651483717
.5776508940
0.
-.3162277660
-.7423218081
0.
.5416666667
0.
0.
.5590169942e-1
.3952847075e-1
-.6132223630
-.1816805231
-.1141088661
.2795084971
.8068715303e-2
.3608439183
.3437500000
-.4806814823
.6614378278e-1
-.1403121520
.3218713882
.4937160930
.1890216038
-.3496171374
-.6942056633
.1341862601
.5968901920
-.3937500000
