%%MatrixMarket matrix array real general
10 4
-.1666666667
.2357022604
-.2886751347
0.
-.4082482906
.5000000000
-.2309401077
-.6454972245
.5962847939
-.8567194721
-.8333333333
.2013137632
.6454972238
0.
-1.477056191
-.6909830067
.7136441777
-1.689933672
-1.490711985
-1.727071357
-.8333333333
-1.379825065
-.6454972245
0.
-.5641852611
-1.809016994
-1.868344718
-.2465579999
-1.490711985
-.3676284881e-1
-.1666666667
-.4714045206
-.8660254040
-1.
0.
0.
-.3464101616
0.
.1490711985
-.2519763153e-1
