0	0
59.5073	0
119.015	0
178.522	0
238.029	0
297.537	0
357.044	0
416.551	0
476.058	0
535.566	0
595.073	0
654.58	0
714.088	0
773.595	0
833.102	0
892.61	0
952.117	0
1011.62	0
1071.13	0
1130.64	0
1190.15	0
1249.65	-1.85537e-10
1309.16	-3.02498e-09
1368.67	-2.93148e-08
1428.18	-1.82846e-07
1487.68	-8.1963e-07
1547.19	-2.87812e-06
1606.7	-8.39043e-06
1666.2	-2.11144e-05
1725.71	-4.70972e-05
1785.22	-9.48029e-05
1844.72	-0.000174232
1904.23	-0.000294295
1963.73	-0.000457697
2023.24	-0.000652867
2082.74	-0.000843124
2142.25	-0.000954142
2201.75	-0.000861765
2261.26	-0.000382919
2320.76	0.00072742
2380.27	0.00277066
2439.77	0.00608891
2499.28	0.0110391
2558.78	0.0179585
2618.29	0.0271244
2677.79	0.0387125
2737.3	0.052758
2796.8	0.0691258
2856.31	0.0874909
2915.81	0.107336
2975.32	0.127964
3034.82	0.148529
3094.33	0.168082
3153.84	0.185627
3213.34	0.200186
3272.85	0.21087
3332.36	0.216941
3391.87	0.217869
3451.37	0.213374
3510.88	0.203451
3570.39	0.188377
3629.89	0.168694
3689.4	0.145174
3748.91	0.118771
3808.42	0.0905535
3867.92	0.0616385
3927.43	0.0331205
3986.94	0.00600632
4046.44	-0.0188388
4105.95	-0.0407321
4165.46	-0.0591972
4224.97	-0.073971
4284.47	-0.0849955
4343.98	-0.0923955
4403.49	-0.0964465
4462.99	-0.0975369
4522.5	-0.0961281
4582.01	-0.0927159
4641.51	-0.0877968
4701.02	-0.0818404
4760.53	-0.075269
4820.04	-0.0684451
4879.54	-0.0616654
4939.05	-0.05516
4998.56	-0.0490966
5058.07	-0.0435868
5117.57	-0.0386946
5177.08	-0.0344443
5236.59	-0.0308295
5296.09	-0.0278203
5355.6	-0.02537
5415.11	-0.0234208
5474.62	-0.0219086
5534.12	-0.0207669
5593.63	-0.0199297
5653.14	-0.0193343
5712.65	-0.018923
5772.15	-0.018644
5831.66	-0.0184526
5891.17	-0.0183109
5950.67	-0.0181881
6010.18	-0.0180594
6069.69	-0.0179056
6129.2	-0.0177123
6188.7	-0.0174695
6248.21	-0.0171704
6307.72	-0.0168114
6367.22	-0.0163918
6426.73	-0.015913
6486.24	-0.0153793
6545.75	-0.0147967
6605.25	-0.0141735
6664.76	-0.0135195
6724.27	-0.0128461
6783.77	-0.0121652
6843.28	-0.0114895
6902.79	-0.0108314
6962.3	-0.0102028
7021.8	-0.00961466
7081.31	-0.00907665
7140.82	-0.00859685
7200.32	-0.00818163
7259.83	-0.00783558
7319.34	-0.00756146
7378.84	-0.00736029
7438.35	-0.00723138
7497.86	-0.00717245
7557.36	-0.00717976
7616.87	-0.00724821
7676.38	-0.00737154
7735.88	-0.00754246
7795.39	-0.00775284
7854.9	-0.0079939
7914.4	-0.00825637
7973.91	-0.00853073
8033.42	-0.00880738
8092.93	-0.0090768
8152.43	-0.00932974
8211.94	-0.00955735
8271.45	-0.0097513
8330.95	-0.00990393
8390.46	-0.0100083
8449.97	-0.0100584
8509.47	-0.0100491
8568.98	-0.00997611
8628.49	-0.0098365
8688	-0.00962832
8747.5	-0.00935085
8807.01	-0.00900462
8866.52	-0.00859144
8926.02	-0.00811438
8985.53	-0.00757781
9045.04	-0.00698731
9104.55	-0.00634965
9164.05	-0.00567269
9223.56	-0.00496527
9283.07	-0.00423712
9342.57	-0.00349868
9402.08	-0.00276093
9461.59	-0.00203526
9521.1	-0.00133325
9580.6	-0.000666458
9640.11	-4.62413e-05
9699.62	0.000516468
9759.13	0.00101137
9818.63	0.001429
9878.14	0.00176091
9937.65	0.00199988
9997.16	0.00214002
10056.7	0.00217695
10116.2	0.00210787
10175.7	0.00193166
10235.2	0.00164889
10294.7	0.0012618
10354.2	0.000774336
10413.7	0.000191999
10473.2	-0.000478213
10532.7	-0.00122796
10592.2	-0.00204772
10651.7	-0.00292696
10711.2	-0.00385438
10770.8	-0.00481809
10830.3	-0.00580586
10889.8	-0.00680536
10949.3	-0.00780435
11008.8	-0.00879095
11068.3	-0.00975378
11127.8	-0.0106822
11187.3	-0.0115666
11246.8	-0.0123981
11306.3	-0.0131693
11365.8	-0.0138739
11425.3	-0.0145068
11484.8	-0.0150645
11544.3	-0.0155446
11603.9	-0.0159461
11663.4	-0.0162692
11722.9	-0.0165155
11782.4	-0.0166875
11841.9	-0.0167887
11901.4	-0.0168234
11960.9	-0.0167968
12020.4	-0.0167146
12079.9	-0.016583
12139.4	-0.0164082
12198.9	-0.0161969
12258.4	-0.0159556
12317.9	-0.0156907
12377.4	-0.0154084
12437	-0.0151144
12496.5	-0.014814
12556	-0.0145119
12615.5	-0.0142123
12675	-0.0139186
12734.5	-0.0136336
12794	-0.0133593
12853.5	-0.0130969
12913	-0.0128471
12972.5	-0.01261
13032	-0.0123847
13091.5	-0.0121703
13151	-0.0119649
13210.5	-0.0117666
13270.1	-0.011573
13329.6	-0.0113816
13389.1	-0.0111897
13448.6	-0.0109946
13508.1	-0.0107937
13567.6	-0.0105845
13627.1	-0.0103647
13686.6	-0.0101324
13746.1	-0.00988583
13805.6	-0.00962371
13865.1	-0.00934512
13924.6	-0.00904956
13984.1	-0.00873692
14043.7	-0.00840745
14103.2	-0.0080618
14162.7	-0.0077009
14222.2	-0.00732598
14281.7	-0.00693846
14341.2	-0.00653995
14400.7	-0.00613213
14460.2	-0.00571673
14519.7	-0.00529546
14579.2	-0.00486993
14638.7	-0.00444162
14698.2	-0.00401184
14757.7	-0.00358169
14817.2	-0.00315201
14876.8	-0.00272341
14936.3	-0.00229621
14995.8	-0.0018705
15055.3	-0.00144612
15114.8	-0.00102272
15174.3	-0.000599736
15233.8	-0.000176503
15293.3	0.000247749
15352.8	0.000673823
15412.3	0.0011025
15471.8	0.00153451
15531.3	0.00197043
15590.8	0.00241069
15650.3	0.00285548
15709.9	0.00330476
15769.4	0.00375818
15828.9	0.00421508
15888.4	0.00467449
15947.9	0.0051351
16007.4	0.00559527
16066.9	0.00605305
16126.4	0.0065062
16185.9	0.00695221
16245.4	0.00738836
16304.9	0.00781174
16364.4	0.00821931
16423.9	0.00860797
16483.4	0.00897456
16543	0.00931598
16602.5	0.00962922
16662	0.0099114
16721.5	0.0101598
16781	0.0103721
16840.5	0.0105461
16900	0.0106799
16959.5	0.0107721
17019	0.0108216
17078.5	0.0108277
17138	0.0107901
17197.5	0.010709
17257	0.0105848
17316.6	0.0104186
17376.1	0.0102117
17435.6	0.00996563
17495.1	0.00968249
17554.6	0.00936455
17614.1	0.00901439
17673.6	0.00863478
17733.1	0.0082287
17792.6	0.00779926
17852.1	0.00734966
17911.6	0.00688317
17971.1	0.00640309
18030.6	0.00591268
18090.1	0.00541514
18149.7	0.00491359
18209.2	0.00441102
18268.7	0.00391028
18328.2	0.00341402
18387.7	0.00292471
18447.2	0.00244461
18506.7	0.00197575
18566.2	0.00151994
18625.7	0.00107873
18685.2	0.000653447
18744.7	0.000245176
18804.2	-0.00014523
18863.7	-0.00051714
18923.2	-0.000870141
18982.8	-0.00120402
19042.3	-0.00151874
19101.8	-0.00181446
19161.3	-0.00209148
19220.8	-0.00235022
19280.3	-0.00259126
19339.8	-0.00281524
19399.3	-0.00302291
19458.8	-0.00321509
19518.3	-0.00339262
19577.8	-0.0035564
19637.3	-0.00370733
19696.8	-0.00384633
19756.3	-0.0039743
19815.9	-0.00409211
19875.4	-0.0042006
19934.9	-0.00430059
19994.4	-0.00439282
