0	0
10.2954	0
20.5908	0
30.8863	0
41.1817	0
51.4771	0
61.7725	0
72.068	0
82.3634	0
90.0849	0
100.38	0
110.676	0
120.971	0
131.267	0
141.562	0
151.857	0
162.153	0
172.448	0
180.17	0
190.465	0
200.761	0
211.056	0
221.352	0
231.647	0
241.942	0
252.238	0
262.533	0
270.255	0
280.55	0
290.846	0
301.141	0
311.437	0
321.732	0
332.027	0
342.323	0
350.044	0
360.34	0
370.635	0
380.931	0
391.226	0
401.521	0
411.817	0
422.112	0
432.408	0
440.129	0
450.425	0
460.72	0
471.016	0
481.311	0
491.606	0
501.902	0
512.197	0
522.493	0
530.214	0
540.51	0
550.805	0
561.1	0
571.396	0
581.691	0
591.987	0
602.282	0
610.004	0
620.299	0
630.595	0
640.89	0
651.185	0
661.481	0
671.776	0
682.072	0
692.367	0
700.089	0
710.384	0
720.68	0
730.975	0
741.27	0
751.566	0
761.861	0
772.157	0
782.452	0
790.174	0
800.469	0
810.764	0
821.06	0
831.355	0
841.651	0
851.946	0
862.242	0
872.537	0
880.259	0
890.554	0
900.849	0
911.145	0
921.44	0
931.736	0
942.031	0
952.327	0
960.048	0
970.343	0
980.639	0
990.934	0
1001.23	0
1011.53	0
1021.82	0
1032.12	0
1042.41	0
1050.13	0
1060.43	0
1070.72	0
1081.02	0
1091.31	0
1101.61	0
1111.91	0
1122.2	0
1132.5	0
1140.22	0
1150.51	0
1160.81	0
1171.1	0
1181.4	0
1191.7	0
1201.99	0
1212.29	0
1220.01	0
1230.3	0
1240.6	0
1250.89	0
1261.19	0
1271.48	0
1281.78	0
1292.08	0
1302.37	0
1310.09	0
1320.39	0
1330.68	0
1340.98	0
1351.27	0
1361.57	0
1371.86	0
1382.16	0
1392.46	0
1400.18	0
1410.47	0
1420.77	0
1431.06	0
1441.36	0
1451.65	0
1461.95	0
1472.25	0
1482.54	0
1490.26	0
1500.56	0
1510.85	0
1521.15	0
1531.44	0
1541.74	0
1552.03	0
1562.33	0
1570.05	0
1580.35	0
1590.64	0
1600.94	0
1611.23	0
1621.53	0
1631.82	0
1642.12	0
1652.42	0
1660.14	0
1670.43	0
1680.73	0
1691.02	0
1701.32	0
1711.61	0
1721.91	0
1732.2	0
1742.5	0
1750.22	0
1760.52	0
1770.81	0
1781.11	0
1791.4	0
1801.7	0
1811.99	0
1822.29	0
1830.01	0
1840.31	0
1850.6	0
1860.9	0
1871.19	0
1881.49	0
1891.78	0
1902.08	0
1912.37	0
1920.1	0
1930.39	0
1940.69	0
1950.98	0
1961.28	0
1971.57	0
1981.87	0
1992.16	0
2002.46	0
2010.18	0
2020.48	0
2030.77	0
2041.07	0
2051.36	0
2061.66	0
2071.95	0
2082.25	0
2092.54	0
2100.27	-9.09495e-13
2110.56	-2.72848e-12
2120.86	-5.45697e-12
2131.15	-9.09495e-12
2141.45	-1.45519e-11
2151.74	-2.45564e-11
2162.04	-4.27463e-11
2172.33	-7.63976e-11
2180.06	-1.16415e-10
2190.35	-2.04636e-10
2200.65	-3.57431e-10
2210.94	-6.18456e-10
2221.24	-1.05956e-09
2231.53	-1.79443e-09
2241.83	-3.00588e-09
2252.12	-4.97857e-09
2262.42	-8.15362e-09
2270.14	-1.17207e-08
2280.44	-1.88329e-08
2290.73	-2.99369e-08
2301.03	-4.70827e-08
2311.32	-7.3278e-08
2321.62	-1.12874e-07
2331.91	-1.72105e-07
2342.21	-2.59796e-07
2352.5	-3.88308e-07
2360.23	-5.21555e-07
2370.52	-7.66426e-07
2380.82	-1.1156e-06
2391.11	-1.60872e-06
2401.41	-2.29847e-06
2411.7	-3.25422e-06
2422	-4.56625e-06
2432.29	-6.3509e-06
2440.01	-8.0874e-06
2450.31	-1.10792e-05
2460.61	-1.50496e-05
2470.9	-2.0273e-05
2481.2	-2.70858e-05
2491.49	-3.58964e-05
2501.79	-4.71955e-05
2512.08	-6.15666e-05
2522.38	-7.96968e-05
2530.1	-9.6238e-05
2540.4	-0.000122945
2550.69	-0.00015591
2560.99	-0.000196287
2571.28	-0.000245367
2581.58	-0.000304581
2591.87	-0.000375496
2602.17	-0.00045981
2612.46	-0.000559342
2620.18	-0.00064513
2630.48	-0.000775971
2640.78	-0.000927511
2651.07	-0.00110185
2661.37	-0.0013011
2671.66	-0.00152735
2681.96	-0.00178264
2692.25	-0.0020689
2702.55	-0.00238794
2710.27	-0.00264971
2720.56	-0.0030299
2730.86	-0.00344682
2741.16	-0.00390145
2751.45	-0.00439446
2761.75	-0.00492623
2772.04	-0.00549676
2782.34	-0.00610576
2790.06	-0.00658735
2800.35	-0.0072618
2810.65	-0.00797202
2820.95	-0.00871638
2831.24	-0.00949292
2841.54	-0.0102994
2851.83	-0.0111332
2862.13	-0.0119916
2872.42	-0.0128716
2880.14	-0.0135436
2890.44	-0.0144531
2900.73	-0.0153746
2911.03	-0.0163041
2921.32	-0.0172377
2931.62	-0.0181712
2941.92	-0.0191
2952.21	-0.0200194
2962.51	-0.0209245
2970.23	-0.0215907
2980.52	-0.0224575
2990.82	-0.0232943
3001.11	-0.0240943
3011.41	-0.0248502
3021.7	-0.0255538
3032	-0.0261963
3042.3	-0.0267674
3050.02	-0.0271423
3060.31	-0.027561
3070.61	-0.0278743
3080.9	-0.0280672
3091.2	-0.0281228
3101.49	-0.0280225
3111.79	-0.0277461
3122.08	-0.0272712
3132.38	-0.0265737
3140.1	-0.025889
3150.4	-0.0247383
3160.69	-0.0232893
3170.99	-0.0215114
3181.28	-0.0193729
3191.58	-0.0168409
3201.87	-0.013882
3212.17	-0.0104625
3222.46	-0.00654904
3230.18	-0.00327001
3240.48	0.00158603
3250.77	0.0070228
3261.07	0.0130683
3271.36	0.0197478
3281.66	0.0270831
3291.96	0.0350923
3302.25	0.043789
3312.55	0.0531822
3320.27	0.0606866
3330.56	0.0713042
3340.86	0.0826152
3351.15	0.0946078
3361.45	0.107264
3371.74	0.120561
3382.04	0.134468
3392.33	0.148952
3400.05	0.160169
3410.35	0.17556
3420.64	0.191406
3430.94	0.207652
3441.23	0.224243
3451.53	0.241117
3461.82	0.258213
3472.12	0.275464
3482.42	0.292805
3490.14	0.305827
3500.43	0.323158
3510.73	0.340388
3521.02	0.357446
3531.32	0.374262
3541.61	0.390767
3551.91	0.406891
3562.2	0.422566
3572.5	0.437725
3580.22	0.448715
3590.51	0.462812
3600.81	0.476214
3611.1	0.488859
3621.4	0.500688
3631.69	0.511642
3641.99	0.521667
3652.28	0.530709
3660	0.536817
3670.3	0.544022
3680.59	0.550116
3690.89	0.555058
3701.18	0.558813
3711.48	0.561349
3721.77	0.562638
3732.07	0.56266
3742.36	0.561399
3750.09	0.559603
3760.38	0.556073
3770.68	0.551243
3780.97	0.545121
3791.27	0.537719
3801.56	0.529054
3811.86	0.519151
3822.15	0.508041
3832.45	0.495759
3840.17	0.485803
3850.46	0.471574
3860.76	0.456299
3871.05	0.440034
3881.35	0.422835
3891.64	0.404766
3901.94	0.385891
3912.23	0.366276
3922.53	0.345991
3930.25	0.330378
3940.54	0.309087
3950.84	0.287318
3961.13	0.265142
3971.43	0.24263
3981.72	0.219851
3992.02	0.196872
4002.31	0.173762
4010.03	0.156381
4020.33	0.133195
4030.62	0.110052
4040.92	0.0870125
4051.21	0.0641341
4061.51	0.0414737
4071.8	0.0190859
4082.1	-0.00297633
4092.4	-0.0246619
4100.12	-0.040649
4110.41	-0.0615569
4120.71	-0.0819554
4131	-0.101799
4141.3	-0.121043
4151.59	-0.139645
4161.89	-0.157563
4172.18	-0.174757
4182.48	-0.191188
4190.2	-0.202988
4200.5	-0.217996
4210.79	-0.232143
4221.09	-0.245397
4231.38	-0.25773
4241.68	-0.269112
4251.97	-0.279521
4262.27	-0.288935
4272.56	-0.297336
4280.28	-0.302963
4290.58	-0.30956
4300.88	-0.315114
4311.17	-0.319623
4321.47	-0.323088
4331.76	-0.325515
4342.06	-0.326916
4352.35	-0.327307
4360.07	-0.326948
4370.37	-0.325622
4380.66	-0.323353
4390.96	-0.320175
4401.26	-0.316125
4411.55	-0.311244
4421.85	-0.305579
4432.14	-0.299178
4442.44	-0.292094
4450.16	-0.286363
4460.45	-0.278213
4470.75	-0.269532
4481.04	-0.26038
4491.34	-0.250816
4501.63	-0.240899
4511.93	-0.230689
4522.23	-0.220243
4532.52	-0.209621
4540.24	-0.20157
4550.54	-0.190769
4560.83	-0.179937
4571.13	-0.169125
4581.42	-0.158377
4591.72	-0.147738
4602.01	-0.137247
4612.31	-0.12694
4620.03	-0.119351
4630.33	-0.109444
4640.62	-0.0998041
4650.92	-0.0904545
4661.21	-0.0814154
4671.51	-0.0727039
4681.8	-0.0643339
4692.1	-0.0563166
4702.39	-0.0486605
4710.11	-0.0431592
4720.41	-0.0361483
4730.71	-0.02951
4741	-0.0232448
4751.3	-0.0173513
4761.59	-0.0118271
4771.89	-0.00666829
4782.18	-0.00187004
4792.48	0.00257337
4800.2	0.0056769
4810.49	0.00951515
4820.79	0.0130175
4831.09	0.0161918
4841.38	0.019046
4851.68	0.0215884
4861.97	0.0238274
4872.27	0.0257717
4882.56	0.0274299
4890.28	0.0284911
4900.58	0.0296701
4910.87	0.0305877
4921.17	0.0312531
4931.46	0.0316758
4941.76	0.0318651
4952.06	0.0318311
4962.35	0.0315837
4970.07	0.0312643
4980.37	0.0306683
4990.66	0.0298878
5000.96	0.028934
5011.25	0.027818
5021.55	0.0265514
5031.84	0.025146
5042.14	0.0236139
5052.44	0.021967
5060.16	0.020664
5070.45	0.0188461
5080.75	0.0169471
5091.04	0.0149794
5101.34	0.0129551
5111.63	0.0108858
5121.93	0.00878313
5132.22	0.00665818
5142.52	0.00452158
5150.24	0.00291758
5160.54	0.000784522
5170.83	-0.00133395
5181.13	-0.00342957
5191.42	-0.00549487
5201.72	-0.00752315
5212.01	-0.00950858
5222.31	-0.0114462
5230.03	-0.0128654
5240.33	-0.0147098
5250.62	-0.0164971
5260.92	-0.0182253
5271.21	-0.0198934
5281.51	-0.0215012
5291.8	-0.0230488
5302.1	-0.0245374
5312.39	-0.0259684
5320.11	-0.027005
5330.41	-0.0283404
5340.71	-0.0296245
5351	-0.0308606
5361.3	-0.0320516
5371.59	-0.0332008
5381.89	-0.0343118
5392.18	-0.0353877
5402.48	-0.0364319
5410.2	-0.0371962
5420.49	-0.0381925
5430.79	-0.0391656
5441.09	-0.0401181
5451.38	-0.0410526
5461.68	-0.0419712
5471.97	-0.0428758
5482.27	-0.0437684
5492.56	-0.0446501
5500.28	-0.0453051
5510.58	-0.0461708
5520.87	-0.0470285
5531.17	-0.0478787
5541.46	-0.0487218
5551.76	-0.049558
5562.06	-0.0503875
5572.35	-0.0512102
5580.07	-0.0518228
5590.37	-0.0526333
5600.66	-0.0534366
5610.96	-0.0542325
5621.25	-0.0550207
5631.55	-0.0558011
5641.84	-0.0565733
5652.14	-0.0573374
5662.44	-0.0580932
5670.16	-0.0586545
5680.45	-0.0593956
5690.75	-0.0601284
5701.04	-0.060853
5711.34	-0.0615694
5721.63	-0.0622779
5731.93	-0.0629787
5742.22	-0.0636719
5752.52	-0.0643578
5760.24	-0.0648675
5770.54	-0.0655409
5780.83	-0.0662073
5791.13	-0.0668667
5801.42	-0.0675192
5811.72	-0.0681645
5822.01	-0.0688023
5832.31	-0.0694323
5840.03	-0.0698994
5850.33	-0.0705143
5860.62	-0.0711194
5870.92	-0.0717138
5881.21	-0.0722963
5891.51	-0.0728654
5901.8	-0.0734197
5912.1	-0.0739574
5922.39	-0.0744765
5930.11	-0.0748524
5940.41	-0.0753338
5950.71	-0.0757905
5961	-0.0762199
5971.3	-0.0766193
5981.59	-0.0769858
5991.89	-0.0773166
6002.18	-0.0776087
6012.48	-0.0778591
6020.2	-0.0780175
6030.49	-0.0781873
6040.79	-0.0783068
6051.09	-0.0783729
6061.38	-0.0783825
6071.68	-0.0783329
6081.97	-0.078221
6092.27	-0.0780442
6102.56	-0.0777999
6110.28	-0.077571
6120.58	-0.077203
6130.87	-0.0767613
6141.17	-0.0762442
6151.47	-0.0756501
6161.76	-0.0749776
6172.06	-0.0742257
6182.35	-0.0733935
6190.07	-0.0727164
6200.37	-0.0717429
6210.66	-0.0706884
6220.96	-0.0695534
6231.25	-0.0683384
6241.55	-0.0670443
6251.85	-0.0656724
6262.14	-0.0642241
6272.44	-0.0627012
6280.16	-0.0615113
6290.45	-0.0598629
6300.75	-0.058146
6311.04	-0.0563634
6321.34	-0.054518
6331.63	-0.0526128
6341.93	-0.0506512
6352.23	-0.0486366
6362.52	-0.0465726
6370.24	-0.0449943
6380.54	-0.0428528
6390.83	-0.0406723
6401.13	-0.0384567
6411.42	-0.03621
6421.72	-0.0339362
6432.01	-0.0316394
6442.31	-0.0293236
6450.03	-0.0275766
6460.33	-0.025237
6470.62	-0.0228893
6480.92	-0.0205373
6491.21	-0.0181848
6501.51	-0.0158355
6511.8	-0.013493
6522.1	-0.0111609
6532.39	-0.00884258
6540.12	-0.00711488
6550.41	-0.00482857
6560.71	-0.00256488
6571	-0.000326813
6581.3	0.00188274
6591.59	0.00406101
6601.89	0.00620534
6612.18	0.00831319
6622.48	0.0103821
6630.2	0.0119069
6640.5	0.0139023
6650.79	0.0158526
6661.09	0.017756
6671.38	0.0196104
6681.68	0.021414
6691.97	0.0231653
6702.27	0.0248625
6712.56	0.0265042
6720.29	0.0276982
6730.58	0.0292396
6740.88	0.0307218
6751.17	0.032144
6761.47	0.033505
6771.76	0.034804
6782.06	0.0360403
6792.35	0.0372132
6800.07	0.038051
6810.37	0.0391118
6820.66	0.0401082
6830.96	0.0410398
6841.26	0.0419066
6851.55	0.0427087
6861.85	0.0434463
6872.14	0.0441197
6882.44	0.0447292
6890.16	0.0451447
6900.45	0.0456439
6910.75	0.046081
6921.04	0.0464569
6931.34	0.0467726
6941.64	0.0470291
6951.93	0.0472275
6962.23	0.0473691
6972.52	0.0474553
6980.24	0.0474845
6990.54	0.0474771
7000.83	0.0474183
7011.13	0.0473097
7021.43	0.047153
7031.72	0.0469498
7042.02	0.0467019
7052.31	0.046411
7060.03	0.0461657
7070.33	0.045804
7080.62	0.0454043
7090.92	0.0449684
7101.21	0.0444981
7111.51	0.0439953
7121.81	0.0434617
7132.1	0.0428991
7142.4	0.0423094
7150.12	0.0418502
7160.41	0.0412171
7170.71	0.0405614
7181	0.0398849
7191.3	0.0391892
7201.59	0.0384759
7211.89	0.0377464
7222.19	0.0370025
7232.48	0.0362454
7240.2	0.0356698
7250.5	0.0348933
7260.79	0.0341074
7271.09	0.0333138
7281.38	0.0325135
7291.68	0.031708
7301.97	0.0308984
7312.27	0.0300862
7322.56	0.0292724
7330.29	0.0286618
7340.58	0.0278485
7350.88	0.027037
7361.17	0.0262287
7371.47	0.0254248
7381.76	0.0246266
7392.06	0.0238355
7402.35	0.0230526
7410.07	0.0224717
7420.37	0.0217065
7430.67	0.0209535
7440.96	0.0202138
7451.26	0.0194891
7461.55	0.0187807
7471.85	0.0180901
7482.14	0.0174188
7492.44	0.0167683
7500.16	0.016295
7510.45	0.0156846
7520.75	0.0150991
7531.04	0.01454
7541.34	0.0140087
7551.64	0.0135068
7561.93	0.0130354
7572.23	0.012596
7582.52	0.0121896
7590.24	0.0119073
7600.54	0.0115615
7610.83	0.0112518
7621.13	0.0109788
7631.42	0.0107432
7641.72	0.0105457
7652.01	0.0103865
7662.31	0.0102659
7670.03	0.0102008
7680.33	0.0101478
7690.62	0.0101331
7700.92	0.0101562
7711.21	0.0102166
7721.51	0.0103134
7731.8	0.0104455
7742.1	0.0106118
7752.39	0.010811
7760.12	0.010981
7770.41	0.0112337
7780.71	0.0115145
7791	0.0118216
7801.3	0.0121526
7811.59	0.0125053
7821.89	0.0128774
7832.18	0.0132663
7842.48	0.0136695
7850.2	0.0139797
7860.49	0.0144014
7870.79	0.0148299
7881.09	0.0152623
7891.38	0.015696
7901.68	0.0161279
7911.97	0.0165553
7922.27	0.0169753
7932.56	0.0173852
7940.28	0.0176843
7950.58	0.0180699
7960.87	0.018438
7971.17	0.0187859
7981.46	0.0191112
7991.76	0.0194115
8002.06	0.0196845
8012.35	0.0199279
8020.07	0.0200898
8030.37	0.0202765
8040.66	0.0204283
8050.96	0.0205432
8061.25	0.0206197
8071.55	0.0206562
8081.84	0.0206514
8092.14	0.020604
8102.43	0.0205128
8110.16	0.0204151
8120.45	0.0202452
8130.75	0.0200291
8141.04	0.0197662
8151.34	0.0194562
8161.63	0.0190987
8171.93	0.0186934
8182.22	0.0182403
8192.52	0.0177395
8200.24	0.0173327
8210.54	0.016749
8220.83	0.0161184
8231.13	0.0154417
8241.42	0.0147193
8251.72	0.0139523
8262.01	0.0131415
8272.31	0.0122881
8280.03	0.0116207
8290.33	0.0106955
8300.62	0.00973117
8310.92	0.00872921
8321.21	0.00769121
8331.51	0.00661883
8341.8	0.00551387
8352.1	0.00437815
8362.39	0.00321361
8370.11	0.00232247
8380.41	0.00111228
8390.71	-0.000121158
8401	-0.00137572
8411.3	-0.00264926
8421.59	-0.00393961
8431.89	-0.00524457
8442.18	-0.00656194
8452.48	-0.00788954
8460.2	-0.00889063
8470.49	-0.0102309
8480.79	-0.0115754
8491.09	-0.012922
8501.38	-0.0142687
8511.68	-0.0156134
8521.97	-0.0169542
8532.27	-0.0182892
8542.56	-0.0196163
8550.28	-0.0206056
8560.58	-0.0219149
8570.87	-0.0232118
8581.17	-0.0244945
8591.47	-0.0257617
8601.76	-0.0270117
8612.06	-0.0282433
8622.35	-0.0294551
8630.07	-0.0303503
8640.37	-0.0315247
8650.66	-0.0326763
8660.96	-0.0338039
8671.26	-0.0349067
8681.55	-0.0359839
8691.85	-0.0370345
8702.14	-0.038058
8712.44	-0.0390536
8720.16	-0.0397816
8730.45	-0.0407271
8740.75	-0.0416433
8751.04	-0.0425296
8761.34	-0.0433859
8771.64	-0.0442117
8781.93	-0.0450068
8792.23	-0.045771
8802.52	-0.046504
8810.24	-0.0470334
8820.54	-0.0477119
8830.83	-0.0483591
8841.13	-0.0489751
8851.42	-0.04956
8861.72	-0.0501138
8872.02	-0.0506368
8882.31	-0.0511292
8890.03	-0.0514786
8900.33	-0.0519181
8910.62	-0.0523278
8920.92	-0.0527082
8931.21	-0.0530596
8941.51	-0.0533826
8951.8	-0.0536776
8962.1	-0.0539452
8972.4	-0.0541861
8980.12	-0.0543495
8990.41	-0.0545449
9000.71	-0.0547153
9011	-0.0548613
9021.3	-0.0549837
9031.59	-0.0550832
9041.89	-0.0551604
9052.18	-0.0552162
9062.48	-0.0552513
9070.2	-0.0552645
9080.5	-0.055265
9090.79	-0.0552469
9101.09	-0.0552107
9111.38	-0.0551573
9121.68	-0.0550872
9131.97	-0.0550011
9142.27	-0.0548997
9152.56	-0.0547836
9160.29	-0.0546871
9170.58	-0.0545466
9180.88	-0.0543928
9191.17	-0.0542263
9201.47	-0.0540475
9211.76	-0.053857
9222.06	-0.0536551
9232.35	-0.0534422
9240.08	-0.0532756
9250.37	-0.0530443
9260.67	-0.0528031
9270.96	-0.0525521
9281.26	-0.0522918
9291.55	-0.0520223
9301.85	-0.051744
9312.14	-0.0514571
9322.44	-0.0511619
9330.16	-0.0509353
9340.46	-0.0506262
9350.75	-0.0503096
9361.05	-0.0499857
9371.34	-0.0496548
9381.64	-0.0493171
9391.93	-0.048973
9402.23	-0.0486227
9412.52	-0.0482666
9420.24	-0.0479958
9430.54	-0.0476301
9440.84	-0.0472594
9451.13	-0.0468839
9461.43	-0.0465041
9471.72	-0.0461202
9482.02	-0.0457326
9492.31	-0.0453415
9500.03	-0.0450461
9510.33	-0.0446497
9520.63	-0.0442507
9530.92	-0.0438493
9541.22	-0.0434459
9551.51	-0.0430405
9561.81	-0.0426336
9572.1	-0.0422252
9582.4	-0.0418155
9590.12	-0.0415076
9600.41	-0.0410961
9610.71	-0.0406838
9621.01	-0.0402706
9631.3	-0.0398568
9641.6	-0.0394422
9651.89	-0.039027
9662.19	-0.038611
9672.48	-0.0381944
9680.2	-0.0378814
9690.5	-0.0374633
9700.79	-0.0370444
9711.09	-0.0366244
9721.39	-0.0362033
9731.68	-0.035781
9741.98	-0.0353574
9752.27	-0.0349323
9762.57	-0.0345056
9770.29	-0.0341844
9780.58	-0.0337547
9790.88	-0.033323
9801.18	-0.0328894
9811.47	-0.0324537
9821.77	-0.0320159
9832.06	-0.031576
9842.36	-0.0311339
9850.08	-0.0308009
9860.37	-0.0303552
9870.67	-0.0299074
9880.96	-0.0294577
9891.26	-0.0290063
9901.56	-0.0285532
9911.85	-0.0280987
9922.15	-0.027643
9932.44	-0.0271865
9940.16	-0.0268436
9950.46	-0.0263862
9960.75	-0.0259288
9971.05	-0.0254718
9981.34	-0.0250155
9991.64	-0.0245604
10001.9	-0.024107
10012.2	-0.0236558
10022.5	-0.0232071
10030.2	-0.0228726
10040.5	-0.0224297
10050.8	-0.0219909
10061.1	-0.0215565
10071.4	-0.0211271
10081.7	-0.0207033
10092	-0.0202855
10102.3	-0.0198741
10110	-0.0195702
10120.3	-0.0191713
10130.6	-0.0187802
10140.9	-0.0183972
10151.2	-0.0180228
10161.5	-0.0176571
10171.8	-0.0173007
10182.1	-0.0169537
10192.4	-0.0166165
10200.1	-0.0163701
10210.4	-0.0160504
10220.7	-0.0157409
10231	-0.0154418
10241.3	-0.0151531
10251.6	-0.0148749
10261.9	-0.0146073
10272.2	-0.0143502
10282.5	-0.0141037
10290.2	-0.0139256
10300.5	-0.0136973
10310.8	-0.0134793
10321.1	-0.0132715
10331.4	-0.0130739
10341.7	-0.0128862
10352	-0.0127083
10362.3	-0.0125402
10372.6	-0.0123817
10380.3	-0.012269
10390.6	-0.012127
10400.9	-0.0119942
10411.2	-0.0118705
10421.5	-0.011756
10431.8	-0.0116505
10442.1	-0.0115538
10452.4	-0.0114661
10460.1	-0.0114062
10470.4	-0.011334
10480.7	-0.0112706
10491	-0.0112162
10501.3	-0.0111706
10511.6	-0.011134
10521.9	-0.0111064
10532.1	-0.0110878
10542.4	-0.0110783
10550.2	-0.0110772
10560.5	-0.0110837
10570.8	-0.0110993
10581.1	-0.0111241
10591.3	-0.0111582
10601.6	-0.0112013
10611.9	-0.0112535
10622.2	-0.0113146
10632.5	-0.0113846
10640.2	-0.0114427
10650.5	-0.0115276
10660.8	-0.0116206
10671.1	-0.0117215
10681.4	-0.0118298
10691.7	-0.0119451
10702	-0.0120669
10712.3	-0.0121946
10720	-0.0122939
10730.3	-0.0124305
10740.6	-0.0125711
10750.9	-0.0127151
10761.2	-0.0128615
10771.5	-0.0130096
10781.8	-0.0131584
10792.1	-0.0133069
10802.4	-0.0134542
10810.1	-0.0135633
10820.4	-0.0137061
10830.7	-0.0138449
10841	-0.0139787
10851.3	-0.0141064
10861.6	-0.0142272
10871.9	-0.01434
10882.2	-0.0144439
10892.5	-0.014538
10900.2	-0.0146016
10910.5	-0.0146766
10920.8	-0.0147396
10931.1	-0.01479
10941.4	-0.0148272
10951.7	-0.0148507
10962	-0.0148601
10972.3	-0.0148551
10982.6	-0.0148354
10990.3	-0.014811
11000.6	-0.0147656
11010.9	-0.0147055
11021.2	-0.0146308
11031.5	-0.014542
11041.8	-0.0144392
11052.1	-0.0143231
11062.4	-0.0141941
11070.1	-0.0140893
11080.4	-0.0139394
11090.7	-0.0137787
11101	-0.013608
11111.3	-0.0134283
11121.6	-0.0132405
11131.9	-0.0130456
11142.1	-0.0128447
11152.4	-0.0126389
11160.2	-0.012482
11170.5	-0.0122704
11180.8	-0.0120569
11191.1	-0.0118427
11201.3	-0.0116289
11211.6	-0.0114166
11221.9	-0.0112068
11232.2	-0.0110005
11242.5	-0.0107986
11250.3	-0.0106506
11260.5	-0.0104585
11270.8	-0.010273
11281.1	-0.0100949
11291.4	-0.00992479
11301.7	-0.00976307
11312	-0.0096102
11322.3	-0.0094665
11330	-0.00936486
11340.3	-0.00923765
11350.6	-0.00911996
11360.9	-0.00901174
11371.2	-0.00891282
11381.5	-0.00882295
11391.8	-0.00874179
11402.1	-0.00866888
11412.4	-0.0086037
11420.1	-0.00855951
11430.4	-0.00850629
11440.7	-0.00845889
11451	-0.00841647
11461.3	-0.00837813
11471.6	-0.00834291
11481.9	-0.00830977
11492.2	-0.00827765
11502.5	-0.00824545
11510.2	-0.00822055
11520.5	-0.00818543
11530.8	-0.008147
11541.1	-0.00810407
11551.4	-0.00805543
11561.7	-0.00799987
11572	-0.00793619
11582.3	-0.0078632
11592.6	-0.00777975
11600.3	-0.00770961
11610.6	-0.00760513
11620.9	-0.00748717
11631.2	-0.0073547
11641.5	-0.00720676
11651.8	-0.00704246
11662.1	-0.00686095
11672.4	-0.00666146
11680.1	-0.00649964
11690.4	-0.00626709
11700.7	-0.00601487
11711	-0.00574252
11721.3	-0.00544966
11731.6	-0.00513601
11741.9	-0.00480138
11752.1	-0.00444569
11762.4	-0.00406894
11770.2	-0.00377262
11780.5	-0.00335931
11790.8	-0.00292545
11801.1	-0.00247141
11811.3	-0.00199763
11821.6	-0.00150466
11831.9	-0.000993133
11842.2	-0.000463769
11852.5	8.26404e-05
11860.3	0.000503112
11870.5	0.00107721
11880.8	0.00166581
11891.1	0.00226784
11901.4	0.00288221
11911.7	0.00350777
11922	0.00414333
11932.3	0.00478766
11940	0.00527593
11950.3	0.00593262
11960.6	0.00659462
11970.9	0.00726064
11981.2	0.00792942
11991.5	0.00859967
12001.8	0.00927016
12012.1	0.00993965
12022.4	0.010607
12030.1	0.0111053
12040.4	0.011766
12050.7	0.0124215
12061	0.0130706
12071.3	0.0137126
12081.6	0.0143464
12091.9	0.0149712
12102.2	0.0155862
12112.5	0.0161909
12120.2	0.0166372
12130.5	0.0172221
12140.8	0.0177952
12151.1	0.0183559
12161.4	0.018904
12171.7	0.0194392
12182	0.0199614
12192.3	0.0204703
12202.6	0.0209661
12210.3	0.0213292
12220.6	0.021802
12230.9	0.0222617
12241.2	0.0227087
12251.5	0.0231431
12261.8	0.0235652
12272.1	0.0239753
12282.4	0.0243738
12290.1	0.0246652
12300.4	0.0250442
12310.7	0.0254125
12321	0.0257707
12331.3	0.026119
12341.6	0.0264579
12351.9	0.0267877
12362.1	0.0271089
12372.4	0.0274217
12380.2	0.027651
12390.5	0.02795
12400.8	0.0282414
12411.1	0.0285256
12421.3	0.0288027
12431.6	0.0290729
12441.9	0.0293364
12452.2	0.0295931
12462.5	0.0298432
12470.3	0.0300265
12480.5	0.030265
12490.8	0.0304969
12501.1	0.0307221
12511.4	0.0309404
12521.7	0.0311517
12532	0.031356
12542.3	0.031553
12550	0.0316959
12560.3	0.0318797
12570.6	0.0320558
12580.9	0.032224
12591.2	0.032384
12601.5	0.0325357
12611.8	0.032679
12622.1	0.0328137
12632.4	0.0329398
12640.1	0.0330286
12650.4	0.0331393
12660.7	0.0332412
12671	0.0333345
12681.3	0.033419
12691.6	0.033495
12701.9	0.0335627
12712.2	0.0336223
12722.5	0.033674
12730.2	0.0337078
12740.5	0.0337467
12750.8	0.0337788
12761.1	0.0338047
12771.4	0.0338248
12781.7	0.0338398
12792	0.0338504
12802.3	0.0338571
12812.6	0.0338607
12820.3	0.0338619
12830.6	0.0338621
12840.9	0.0338614
12851.2	0.0338607
12861.5	0.0338609
12871.8	0.0338628
12882.1	0.0338673
12892.4	0.0338753
12900.1	0.0338842
12910.4	0.0339006
12920.7	0.033923
12931	0.0339521
12941.3	0.0339889
12951.6	0.0340341
12961.9	0.0340884
12972.2	0.0341526
12982.4	0.0342272
12990.2	0.0342904
13000.5	0.0343848
13010.8	0.034491
13021.1	0.0346096
13031.4	0.0347408
13041.6	0.0348848
13051.9	0.0350417
13062.2	0.0352117
13072.5	0.0353946
13080.3	0.0355402
13090.5	0.0357453
13100.8	0.0359628
13111.1	0.0361921
13121.4	0.0364327
13131.7	0.036684
13142	0.0369453
13152.3	0.0372157
13160	0.0374239
13170.3	0.0377078
13180.6	0.037998
13190.9	0.0382933
13201.2	0.0385923
13211.5	0.0388936
13221.8	0.0391958
13232.1	0.0394972
13242.4	0.0397963
13250.1	0.040018
13260.4	0.0403087
13270.7	0.0405923
13281	0.0408667
13291.3	0.0411301
13301.6	0.0413804
13311.9	0.0416158
13322.2	0.0418341
13332.5	0.0420333
13340.2	0.042169
13350.5	0.0423298
13360.8	0.042466
13371.1	0.0425753
13381.4	0.0426557
13391.7	0.0427053
13402	0.0427221
13412.3	0.0427042
13420	0.0426668
13430.3	0.0425835
13440.6	0.0424605
13450.9	0.042296
13461.2	0.0420884
13471.5	0.0418362
13481.8	0.0415378
13492.1	0.041192
13502.4	0.0407975
13510.1	0.040469
13520.4	0.0399867
13530.7	0.0394528
13541	0.0388665
13551.3	0.0382273
13561.6	0.0375344
13571.9	0.0367876
13582.2	0.0359866
13592.4	0.0351312
13600.2	0.0344539
13610.5	0.0335034
13620.8	0.032499
13631.1	0.031441
13641.4	0.0303299
13651.6	0.0291666
13661.9	0.0279519
13672.2	0.0266867
13682.5	0.0253723
13690.3	0.0243549
13700.6	0.0229574
13710.8	0.0215146
13721.1	0.0200281
13731.4	0.0184997
13741.7	0.0169313
13752	0.0153251
13762.3	0.0136831
13770	0.0124296
13780.3	0.0107307
13790.6	0.00900274
13800.9	0.0072482
13811.2	0.00546977
13821.5	0.00367021
13831.8	0.00185237
13842.1	1.91531e-05
13852.4	-0.00182647
13860.1	-0.00321701
13870.4	-0.00507702
13880.7	-0.00694098
13891	-0.00880576
13901.3	-0.0106682
13911.6	-0.0125251
13921.9	-0.0143732
13932.2	-0.0162094
13942.5	-0.0180305
13950.2	-0.0193845
13960.5	-0.0211714
13970.8	-0.0229347
13981.1	-0.024671
13991.4	-0.0263775
14001.7	-0.0280512
14012	-0.0296891
14022.3	-0.0312885
14030	-0.032461
14040.3	-0.0339864
14050.6	-0.0354659
14060.9	-0.0368971
14071.2	-0.0382777
14081.5	-0.0396054
14091.8	-0.0408781
14102.1	-0.0420939
14112.4	-0.043251
14120.1	-0.0440792
14130.4	-0.0451295
14140.7	-0.0461168
14151	-0.0470399
14161.3	-0.0478977
14171.6	-0.0486893
14181.9	-0.0494138
14192.2	-0.0500708
14202.5	-0.0506599
14210.2	-0.0510569
14220.5	-0.0515265
14230.8	-0.0519279
14241.1	-0.0522614
14251.4	-0.0525272
14261.7	-0.0527261
14271.9	-0.0528587
14282.2	-0.0529259
14292.5	-0.0529288
14300.3	-0.0528895
14310.6	-0.0527828
14320.9	-0.0526154
14331.1	-0.052389
14341.4	-0.0521052
14351.7	-0.0517659
14362	-0.051373
14372.3	-0.0509286
14380	-0.0505627
14390.3	-0.0500334
14400.6	-0.0494588
14410.9	-0.0488411
14421.2	-0.0481828
14431.5	-0.0474865
14441.8	-0.0467547
14452.1	-0.0459899
14462.4	-0.0451947
14470.1	-0.0445799
14480.4	-0.0437379
14490.7	-0.0428726
14501	-0.0419867
14511.3	-0.0410828
14521.6	-0.0401634
14531.9	-0.0392309
14542.2	-0.0382879
14552.5	-0.0373367
14560.2	-0.0366194
14570.5	-0.0356595
14580.8	-0.0346976
14591.1	-0.0337359
14601.4	-0.0327764
14611.7	-0.0318209
14622	-0.0308714
14632.3	-0.0299295
14640	-0.0292291
14650.3	-0.0283044
14660.6	-0.0273916
14670.9	-0.0264918
14681.2	-0.0256063
14691.5	-0.0247361
14701.8	-0.0238822
14712.1	-0.0230454
14722.4	-0.0222264
14730.1	-0.0216242
14740.4	-0.0208378
14750.7	-0.0200704
14761	-0.0193226
14771.3	-0.0185943
14781.6	-0.0178858
14791.9	-0.0171969
14802.2	-0.0165276
14812.5	-0.0158776
14820.2	-0.0154026
14830.5	-0.0147858
14840.8	-0.0141873
14851.1	-0.0136067
14861.4	-0.0130435
14871.7	-0.0124971
14882	-0.0119667
14892.2	-0.0114519
14902.5	-0.0109517
14910.3	-0.0105858
14920.6	-0.0101096
14930.9	-0.00964603
14941.1	-0.00919434
14951.4	-0.00875374
14961.7	-0.00832346
14972	-0.00790274
14982.3	-0.00749084
14990.1	-0.00718727
15000.3	-0.0067891
15010.6	-0.00639785
15020.9	-0.00601291
15031.2	-0.00563371
15041.5	-0.00525971
15051.8	-0.00489044
15062.1	-0.0045255
15072.4	-0.00416453
15080.1	-0.00389623
15090.4	-0.00354156
15100.7	-0.00319023
15111	-0.00284216
15121.3	-0.00249732
15131.6	-0.00215577
15141.9	-0.00181763
15152.2	-0.00148313
15162.5	-0.00115255
15170.2	-0.000907406
15180.5	-0.000584616
15190.8	-0.000266945
15201.1	4.50259e-05
15211.4	0.000350639
15221.7	0.000649161
15232	0.000939788
15242.3	0.00122164
15250	0.00142671
15260.3	0.0016909
15270.6	0.00194355
15280.9	0.00218356
15291.2	0.00240973
15301.5	0.00262084
15311.8	0.00281561
15322.1	0.00299268
15332.4	0.00315071
15340.1	0.00325587
15350.4	0.00337711
15360.7	0.00347533
15371	0.00354901
15381.3	0.00359665
15391.6	0.0036167
15401.9	0.0036076
15412.2	0.00356781
15422.5	0.00349576
15430.2	0.00341961
15440.5	0.00328737
15450.8	0.00311861
15461.1	0.00291182
15471.4	0.0026655
15481.7	0.00237818
15492	0.00204845
15502.2	0.00167491
15512.5	0.00125622
15520.3	0.000911804
15530.6	0.000411046
15540.9	-0.000138254
15551.2	-0.000737206
15561.4	-0.00138685
15571.7	-0.00208813
15582	-0.00284193
15592.3	-0.00364901
15600.1	-0.0042897
15610.3	-0.00519161
15620.6	-0.00614843
15630.9	-0.00716052
15641.2	-0.00822817
15651.5	-0.00935151
15661.8	-0.0105306
15672.1	-0.0117652
15682.4	-0.0130552
15690.1	-0.0140587
15700.4	-0.0154445
15710.7	-0.0168842
15721	-0.018377
15731.3	-0.019922
15741.6	-0.021518
15751.9	-0.0231638
15762.2	-0.0248581
15772.5	-0.0265991
15780.2	-0.0279345
15790.5	-0.0297532
15800.8	-0.0316135
15811.1	-0.0335132
15821.4	-0.0354501
15831.7	-0.0374216
15842	-0.0394251
15852.3	-0.0414577
15860	-0.0429996
15870.3	-0.0450761
15880.6	-0.0471733
15890.9	-0.0492879
15901.2	-0.0514164
15911.5	-0.0535551
15921.8	-0.0557005
15932.1	-0.0578486
15942.4	-0.0599955
15950.1	-0.0616026
15960.4	-0.0637377
15970.7	-0.0658604
15981	-0.0679663
15991.3	-0.0700513
16001.6	-0.0721109
16011.9	-0.0741408
16022.2	-0.0761365
16032.5	-0.0780937
16040.2	-0.0795335
16050.5	-0.0814124
16060.8	-0.0832405
16071.1	-0.0850135
16081.4	-0.0867269
16091.7	-0.0883765
16102	-0.0899582
16112.3	-0.0914677
16122.5	-0.0929009
16130.3	-0.0939235
16140.6	-0.0952141
16150.9	-0.0964179
16161.2	-0.0975314
16171.4	-0.0985512
16181.7	-0.0994739
16192	-0.100297
16202.3	-0.101016
16210.1	-0.101487
16220.4	-0.10202
16230.6	-0.102444
16240.9	-0.102755
16251.2	-0.102952
16261.5	-0.103034
16271.8	-0.102999
16282.1	-0.102847
16292.4	-0.102575
16300.1	-0.102293
16310.4	-0.101812
16320.7	-0.101211
16331	-0.10049
16341.3	-0.09965
16351.6	-0.0986914
16361.9	-0.097615
16372.2	-0.0964222
16382.5	-0.0951145
16390.2	-0.0940593
16400.5	-0.0925549
16410.8	-0.0909411
16421.1	-0.0892204
16431.4	-0.0873956
16441.7	-0.0854696
16452	-0.0834457
16462.3	-0.0813274
16470	-0.0796789
16480.3	-0.0774042
16490.6	-0.0750457
16500.9	-0.0726076
16511.2	-0.0700943
16521.5	-0.0675103
16531.8	-0.0648604
16542.1	-0.0621494
16552.4	-0.0593823
16560.1	-0.0572732
16570.4	-0.0544201
16580.7	-0.0515251
16591	-0.0485935
16601.3	-0.0456306
16611.6	-0.0426417
16621.9	-0.0396323
16632.2	-0.0366078
16642.5	-0.0335736
16650.2	-0.0312947
16660.5	-0.0282563
16670.8	-0.0252227
16681.1	-0.0221991
16691.4	-0.0191907
16701.7	-0.0162025
16712	-0.0132393
16722.3	-0.0103059
16732.5	-0.0074069
16740.3	-0.00525793
16750.6	-0.00242978
16760.9	0.000352094
16771.2	0.00308372
16781.5	0.00576133
16791.7	0.00838132
16802	0.0109403
16812.3	0.0134352
16820.1	0.0152626
16830.4	0.0176383
16840.7	0.0199425
16850.9	0.0221728
16861.2	0.0243271
16871.5	0.0264038
16881.8	0.0284011
16892.1	0.0303179
16902.4	0.032153
16910.1	0.0334753
16920.4	0.0351656
16930.7	0.0367726
16941	0.0382961
16951.3	0.0397361
16961.6	0.0410929
16971.9	0.042367
16982.2	0.043559
16992.5	0.0446699
17000.2	0.0454505
17010.5	0.0464221
17020.8	0.047316
17031.1	0.0481337
17041.4	0.0488769
17051.7	0.0495476
17062	0.0501477
17072.3	0.0506793
17080	0.0510345
17090.3	0.0514517
17100.6	0.0518068
17110.9	0.0521023
17121.2	0.0523406
17131.5	0.0525245
17141.8	0.0526565
17152.1	0.0527392
17162.4	0.0527754
17170.1	0.0527737
17180.4	0.052735
17190.7	0.0526571
17201	0.0525427
17211.3	0.0523945
17221.6	0.0522151
17231.9	0.0520068
17242.2	0.0517724
17252.5	0.0515141
17260.2	0.0513061
17270.5	0.0510117
17280.8	0.0506997
17291.1	0.0503722
17301.4	0.0500312
17311.7	0.0496787
17322	0.0493165
17332.3	0.0489463
17342.6	0.0485696
17350.3	0.0482838
17360.6	0.0478995
17370.9	0.0475126
17381.2	0.0471243
17391.5	0.0467358
17401.7	0.0463479
17412	0.0459616
17422.3	0.0455777
17430.1	0.0452916
17440.4	0.0449133
17450.7	0.0445389
17460.9	0.0441688
17471.2	0.0438034
17481.5	0.0434428
17491.8	0.0430874
17502.1	0.042737
17512.4	0.0423919
17520.1	0.0421364
17530.4	0.0418002
17540.7	0.041469
17551	0.0411425
17561.3	0.0408206
17571.6	0.0405031
17581.9	0.0401896
17592.2	0.0398799
17602.5	0.0395737
17610.2	0.0393461
17620.5	0.0390452
17630.8	0.0387469
17641.1	0.0384508
17651.4	0.0381568
17661.7	0.0378643
17672	0.0375733
17682.3	0.0372834
17690	0.0370665
17700.3	0.036778
17710.6	0.03649
17720.9	0.0362023
17731.2	0.0359148
17741.5	0.0356273
17751.8	0.0353399
17762.1	0.0350525
17772.4	0.0347651
17780.1	0.0345495
17790.4	0.0342621
17800.7	0.0339749
17811	0.0336879
17821.3	0.0334013
17831.6	0.0331154
17841.9	0.0328304
17852.2	0.0325464
17862.5	0.0322638
17870.2	0.0320529
17880.5	0.0317735
17890.8	0.0314963
17901.1	0.0312217
17911.4	0.0309502
17921.7	0.030682
17932	0.0304175
17942.3	0.0301573
17952.6	0.0299016
17960.3	0.0297132
17970.6	0.0294665
17980.9	0.0292256
17991.2	0.0289908
18001.5	0.0287625
18011.8	0.0285411
18022	0.0283269
18032.3	0.0281203
18040.1	0.0279706
18050.4	0.0277781
18060.7	0.027594
18071	0.0274186
18081.2	0.0272521
18091.5	0.0270948
18101.8	0.0269468
18112.1	0.0268082
18122.4	0.0266792
18130.2	0.0265886
18140.4	0.0264764
18150.7	0.0263737
18161	0.0262807
18171.3	0.026197
18181.6	0.0261228
18191.9	0.0260577
18202.2	0.0260016
18212.5	0.0259542
18220.2	0.0259242
18230.5	0.0258914
18240.8	0.0258663
18251.1	0.0258487
18261.4	0.025838
18271.7	0.0258338
18282	0.0258356
18292.3	0.0258428
18300	0.0258514
18310.3	0.0258666
18320.6	0.0258855
18330.9	0.0259074
18341.2	0.0259315
18351.5	0.0259573
18361.8	0.0259838
18372.1	0.0260104
18382.4	0.0260361
18390.1	0.0260544
18400.4	0.0260767
18410.7	0.0260958
18421	0.0261109
18431.3	0.0261211
18441.6	0.0261255
18451.9	0.0261231
18462.2	0.0261131
18472.5	0.0260945
18480.2	0.0260743
18490.5	0.0260385
18500.8	0.0259915
18511.1	0.0259325
18521.4	0.0258605
18531.7	0.0257746
18542	0.025674
18552.3	0.0255577
18562.6	0.0254249
18570.3	0.025314
18580.6	0.0251502
18590.9	0.0249677
18601.2	0.0247655
18611.5	0.024543
18621.8	0.0242993
18632.1	0.0240338
18642.3	0.0237457
18650.1	0.0235145
18660.4	0.0231855
18670.7	0.0228323
18681	0.0224544
18691.3	0.0220512
18701.5	0.0216222
18711.8	0.0211672
18722.1	0.0206857
18732.4	0.0201773
18740.2	0.0197783
18750.4	0.0192225
18760.7	0.0186393
18771	0.0180286
18781.3	0.0173903
18791.6	0.0167245
18801.9	0.0160312
18812.2	0.0153106
18822.5	0.0145629
18830.2	0.0139844
18840.5	0.0131897
18850.8	0.0123688
18861.1	0.0115219
18871.4	0.0106497
18881.7	0.00975273
18892	0.00883151
18902.3	0.00788678
18910	0.00716326
18920.3	0.00617922
18930.6	0.00517388
18940.9	0.00414815
18951.2	0.003103
18961.5	0.00203946
18971.8	0.000958616
18982.1	-0.000138396
18992.4	-0.00125039
19000.1	-0.00209348
19010.4	-0.00322869
19020.7	-0.00437539
19031	-0.00553222
19041.3	-0.00669779
19051.6	-0.00787069
19061.9	-0.00904946
19072.2	-0.0102326
19082.5	-0.0114187
19090.2	-0.0123092
19100.5	-0.0134966
19110.8	-0.0146827
19121.1	-0.0158659
19131.4	-0.0170446
19141.7	-0.0182174
19152	-0.0193825
19162.3	-0.0205385
19172.6	-0.0216837
19180.3	-0.0225347
19190.6	-0.0236576
19200.9	-0.0247655
19211.2	-0.0258571
19221.5	-0.0269308
19231.8	-0.0279851
19242.1	-0.0290188
19252.4	-0.0300305
19260.1	-0.0307739
19270.4	-0.0317437
19280.7	-0.0326879
19291	-0.0336052
19301.3	-0.0344944
19311.5	-0.0353545
19321.8	-0.0361843
19332.1	-0.0369829
19342.4	-0.0377493
19350.2	-0.0383023
19360.5	-0.03901
19370.7	-0.0396832
19381	-0.0403209
19391.3	-0.0409226
19401.6	-0.0414876
19411.9	-0.0420154
19422.2	-0.0425053
19432.5	-0.0429571
19440.2	-0.0432705
19450.5	-0.0436545
19460.8	-0.0439994
19471.1	-0.0443049
19481.4	-0.0445711
19491.7	-0.0447976
19502	-0.0449847
19512.3	-0.0451323
19520	-0.0452172
19530.3	-0.0452962
19540.6	-0.0453362
19550.9	-0.0453375
19561.2	-0.0453006
19571.5	-0.0452259
19581.8	-0.0451138
19592.1	-0.044965
19602.4	-0.0447801
19610.1	-0.0446181
19620.4	-0.0443717
19630.7	-0.0440911
19641	-0.0437774
19651.3	-0.0434314
19661.6	-0.0430541
19671.9	-0.0426465
19682.2	-0.0422097
19692.5	-0.0417448
19700.2	-0.0413785
19710.5	-0.0408674
19720.8	-0.0403317
19731.1	-0.0397727
19741.4	-0.0391917
19751.7	-0.0385902
19762	-0.0379695
19772.3	-0.0373313
19782.6	-0.036677
19790.3	-0.0361766
19800.6	-0.0354979
19810.9	-0.0348075
19821.2	-0.0341069
19831.5	-0.0333978
19841.8	-0.0326819
19852.1	-0.0319609
19862.4	-0.0312364
19870.1	-0.0306917
19880.4	-0.0299651
19890.7	-0.0292396
19901	-0.0285169
19911.3	-0.0277986
19921.5	-0.0270864
19931.8	-0.0263818
19942.1	-0.0256865
19952.4	-0.025002
19960.2	-0.0244966
19970.5	-0.0238347
19980.7	-0.0231875
19991	-0.0225567
