0	0
11.8196	0
23.6393	0
35.4589	0
47.2785	0
59.0981	0
70.9178	0
82.7374	0
94.557	0
106.377	0
118.196	0
130.016	0
141.836	0
153.655	0
165.475	0
177.294	0
189.114	0
200.934	0
212.753	0
224.573	0
236.393	0
248.212	0
260.032	0
271.851	0
283.671	0
295.491	0
307.31	0
319.13	0
330.95	0
342.769	0
354.589	0
366.408	0
378.228	0
390.048	0
401.867	0
413.687	0
425.507	0
437.326	0
449.146	0
460.966	0
472.785	0
484.605	0
496.424	0
508.244	0
520.064	0
531.883	0
543.703	1.81899e-12
555.523	5.45697e-12
567.342	1.54614e-11
579.162	4.27463e-11
590.981	1.10049e-10
602.801	2.71029e-10
614.621	6.39375e-10
626.44	1.45064e-09
638.26	3.1705e-09
650.08	6.69297e-09
661.899	1.3667e-08
673.719	2.70456e-08
685.538	5.19585e-08
697.358	9.70558e-08
709.178	1.76537e-07
720.997	3.13113e-07
732.817	5.42215e-07
744.637	9.17868e-07
756.456	1.52063e-06
768.276	2.46816e-06
780.095	3.9289e-06
791.915	6.13962e-06
803.735	9.42723e-06
815.554	1.42357e-05
827.374	2.11588e-05
839.194	3.0979e-05
851.013	4.47133e-05
862.833	6.36678e-05
874.652	8.94995e-05
886.472	0.000124289
898.292	0.000170623
910.111	0.000231691
921.931	0.000311389
933.751	0.000414452
945.57	0.000546589
957.39	0.00071465
969.21	0.000926813
981.029	0.00119279
992.849	0.00152408
1004.67	0.00193422
1016.49	0.00243911
1028.31	0.00305734
1040.13	0.00381055
1051.95	0.00472381
1063.77	0.00582607
1075.59	0.00715057
1087.41	0.00873525
1099.23	0.0106232
1111.05	0.012863
1122.86	0.0155091
1134.68	0.018622
1146.5	0.0222686
1158.32	0.0265222
1170.14	0.031462
1181.96	0.0371734
1193.78	0.0437473
1205.6	0.0512793
1217.42	0.0598689
1229.24	0.0696184
1241.06	0.0806314
1252.88	0.0930112
1264.7	0.106859
1276.52	0.122273
1288.34	0.139342
1300.16	0.158149
1311.98	0.178765
1323.8	0.201247
1335.62	0.225635
1347.44	0.251953
1359.26	0.280202
1371.08	0.31036
1382.9	0.342382
1394.72	0.376196
1406.54	0.411702
1418.36	0.448771
1430.18	0.487247
1441.99	0.526945
1453.81	0.567654
1465.63	0.609133
1477.45	0.651119
1489.27	0.693324
1501.09	0.735442
1512.91	0.777148
1524.73	0.818103
1536.55	0.857958
1548.37	0.896358
1560.19	0.932943
1572.01	0.967359
1583.83	0.999256
1595.65	1.02829
1607.47	1.05415
1619.29	1.07651
1631.11	1.09511
1642.93	1.10967
1654.75	1.11998
1666.57	1.12585
1678.39	1.1271
1690.21	1.12363
1702.03	1.11536
1713.85	1.10223
1725.67	1.08425
1737.49	1.06146
1749.3	1.03395
1761.12	1.00183
1772.94	0.965263
1784.76	0.92445
1796.58	0.879621
1808.4	0.831039
1820.22	0.778999
1832.04	0.72382
1843.86	0.665843
1855.68	0.605431
1867.5	0.542958
1879.32	0.478814
1891.14	0.413393
1902.96	0.347092
1914.78	0.280311
1926.6	0.213443
1938.42	0.146874
1950.24	0.0809786
1962.06	0.0161188
1973.88	-0.0473626
1985.7	-0.109142
1997.52	-0.168919
2009.34	-0.226415
2021.16	-0.281379
2032.98	-0.333587
2044.8	-0.382843
2056.62	-0.428979
2068.43	-0.471856
2080.25	-0.511364
2092.07	-0.547422
2103.89	-0.579976
2115.71	-0.609001
2127.53	-0.634496
2139.35	-0.656485
2151.17	-0.675016
2162.99	-0.690157
2174.81	-0.701998
2186.63	-0.710645
2198.45	-0.71622
2210.27	-0.718861
2222.09	-0.718716
2233.91	-0.715945
2245.73	-0.710714
2257.55	-0.703198
2269.37	-0.693574
2281.19	-0.682024
2293.01	-0.66873
2304.83	-0.653874
2316.65	-0.637637
2328.47	-0.620197
2340.29	-0.601726
2352.11	-0.582394
2363.93	-0.562363
2375.75	-0.541788
2387.56	-0.520819
2399.38	-0.499595
2411.2	-0.478249
2423.02	-0.456903
2434.84	-0.435672
2446.66	-0.414662
2458.48	-0.393967
2470.3	-0.373676
2482.12	-0.353867
2493.94	-0.334607
2505.76	-0.315959
2517.58	-0.297974
2529.4	-0.280696
2541.22	-0.264162
2553.04	-0.2484
2564.86	-0.233434
2576.68	-0.219278
2588.5	-0.205943
2600.32	-0.193432
2612.14	-0.181744
2623.96	-0.170873
2635.78	-0.160809
2647.6	-0.151537
2659.42	-0.143039
2671.24	-0.135294
2683.06	-0.128279
2694.88	-0.121968
2706.69	-0.116332
2718.51	-0.111343
2730.33	-0.106968
2742.15	-0.103177
2753.97	-0.0999354
2765.79	-0.0972113
2777.61	-0.094971
2789.43	-0.0931808
2801.25	-0.0918076
2813.07	-0.0908185
2824.89	-0.0901812
2836.71	-0.0898638
2848.53	-0.0898357
2860.35	-0.0900669
2872.17	-0.0905283
2883.99	-0.0911922
2895.81	-0.0920319
2907.63	-0.0930219
2919.45	-0.0941379
2931.27	-0.0953571
2943.09	-0.0966577
2954.91	-0.0980194
2966.73	-0.0994231
2978.55	-0.100851
2990.37	-0.102287
3002.19	-0.103715
3014	-0.105121
3025.82	-0.106493
3037.64	-0.107818
3049.46	-0.109087
3061.28	-0.110289
3073.1	-0.111417
3084.92	-0.112462
3096.74	-0.113417
3108.56	-0.114279
3120.38	-0.11504
3132.2	-0.115698
3144.02	-0.116249
3155.84	-0.116691
3167.66	-0.117021
3179.48	-0.117238
3191.3	-0.117343
3203.12	-0.117333
3214.94	-0.117211
3226.76	-0.116976
3238.58	-0.11663
3250.4	-0.116176
3262.21	-0.115613
3274.03	-0.114947
3285.85	-0.114178
3297.67	-0.11331
3309.49	-0.112346
3321.31	-0.11129
3333.13	-0.110146
3344.95	-0.108916
3356.77	-0.107606
3368.59	-0.106219
3380.41	-0.10476
3392.23	-0.103232
3404.05	-0.101641
3415.87	-0.0999899
3427.69	-0.0982836
3439.51	-0.0965263
3451.32	-0.0947224
3463.14	-0.092876
3474.96	-0.0909914
3486.78	-0.0890726
3498.6	-0.0871235
3510.42	-0.085148
3522.24	-0.0831497
3534.06	-0.0811323
3545.88	-0.0790992
3557.7	-0.0770534
3569.52	-0.0749982
3581.34	-0.0729363
3593.16	-0.0708704
3604.98	-0.0688031
3616.79	-0.0667365
3628.61	-0.0646727
3640.43	-0.0626137
3652.25	-0.0605611
3664.07	-0.0585164
3675.89	-0.0564808
3687.71	-0.0544555
3699.53	-0.0524413
3711.35	-0.0504391
3723.17	-0.0484493
3734.99	-0.0464723
3746.81	-0.0445084
3758.62	-0.0425576
3770.44	-0.0406201
3782.26	-0.0386955
3794.08	-0.0367836
3805.9	-0.0348841
3817.72	-0.0329965
3829.54	-0.0311202
3841.36	-0.0292547
3853.18	-0.0273993
3865	-0.0255534
3876.82	-0.0237162
3888.63	-0.0218871
3900.45	-0.0200652
3912.27	-0.0182498
3924.09	-0.0164402
3935.91	-0.0146358
3947.73	-0.0128359
3959.55	-0.0110397
3971.37	-0.00924687
3983.19	-0.00745673
3995.01	-0.00566885
4006.83	-0.0038828
4018.64	-0.00209826
4030.46	-0.000314933
4042.28	0.00146738
4054.1	0.00324882
4065.92	0.00502944
4077.74	0.00680924
4089.56	0.00858813
4101.38	0.010366
4113.2	0.0121425
4125.02	0.0139175
4136.84	0.0156905
4148.66	0.0174612
4160.47	0.0192291
4172.29	0.0209936
4184.11	0.0227541
4195.93	0.02451
4207.75	0.0262606
4219.57	0.0280053
4231.39	0.0297431
4243.21	0.0314733
4255.03	0.0331951
4266.85	0.0349075
4278.67	0.0366098
4290.49	0.0383009
4302.31	0.0399799
4314.13	0.0416459
4325.94	0.0432978
4337.76	0.0449348
4349.58	0.0465556
4361.4	0.0481594
4373.22	0.049745
4385.04	0.0513114
4396.86	0.0528575
4408.68	0.0543823
4420.5	0.0558847
4432.32	0.0573635
4444.14	0.0588176
4455.96	0.0602459
4467.78	0.0616472
4479.6	0.0630205
4491.42	0.0643645
4503.24	0.0656781
4515.06	0.0669601
4526.88	0.0682094
4538.7	0.0694247
4550.52	0.0706048
4562.34	0.0717487
4574.15	0.072855
4585.97	0.0739226
4597.79	0.0749503
4609.61	0.075937
4621.43	0.0768815
4633.25	0.0777826
4645.07	0.0786392
4656.89	0.0794503
4668.71	0.0802146
4680.53	0.0809313
4692.35	0.0815993
4704.17	0.0822176
4715.99	0.0827852
4727.81	0.0833014
4739.63	0.0837654
4751.45	0.0841762
4763.27	0.0845333
4775.09	0.0848361
4786.91	0.0850839
4798.73	0.0852763
4810.55	0.0854129
4822.37	0.0854934
4834.19	0.0855176
4846.01	0.0854853
4857.82	0.0853965
4869.64	0.0852512
4881.46	0.0850496
4893.28	0.084792
4905.1	0.0844787
4916.92	0.0841102
4928.74	0.0836869
4940.56	0.0832096
4952.38	0.0826791
4964.2	0.0820961
4976.02	0.0814616
4987.84	0.0807767
4999.66	0.0800425
5011.48	0.0792603
5023.3	0.0784313
5035.12	0.0775569
5046.94	0.0766387
5058.76	0.0756782
5070.58	0.074677
5082.4	0.0736368
5094.22	0.0725593
5106.04	0.0714465
5117.86	0.0703001
5129.68	0.0691221
5141.49	0.0679144
5153.31	0.0666791
5165.13	0.0654181
5176.95	0.0641335
5188.77	0.0628274
5200.59	0.0615018
5212.41	0.0601589
5224.23	0.0588008
5236.05	0.0574296
5247.87	0.0560473
5259.69	0.0546561
5271.51	0.053258
5283.33	0.0518552
5295.15	0.0504495
5306.97	0.0490431
5318.79	0.0476379
5330.61	0.0462359
5342.43	0.0448388
5354.25	0.0434487
5366.07	0.0420673
5377.89	0.0406964
5389.71	0.0393376
5401.53	0.0379927
5413.35	0.0366632
5425.16	0.0353507
5436.98	0.0340566
5448.8	0.0327823
5460.62	0.0315293
5472.44	0.0302986
5484.26	0.0290917
5496.08	0.0279095
5507.9	0.0267531
5519.72	0.0256236
5531.54	0.0245218
5543.36	0.0234485
5555.18	0.0224045
5567	0.0213905
5578.82	0.020407
5590.64	0.0194545
5602.46	0.0185335
5614.28	0.0176444
5626.1	0.0167873
5637.92	0.0159625
5649.74	0.0151701
5661.56	0.01441
5673.38	0.0136822
5685.2	0.0129866
5697.02	0.012323
5708.84	0.0116909
5720.65	0.0110902
5732.47	0.0105202
5744.29	0.00998052
5756.11	0.00947049
5767.93	0.00898945
5779.75	0.00853664
5791.57	0.00811127
5803.39	0.00771244
5815.21	0.00733922
5827.03	0.0069906
5838.85	0.00666554
5850.67	0.00636292
5862.49	0.00608158
5874.31	0.00582032
5886.13	0.00557788
5897.95	0.00535299
5909.77	0.00514431
5921.59	0.00495049
5933.41	0.00477015
5945.23	0.00460188
5957.05	0.00444427
5968.87	0.00429588
5980.69	0.00415525
5992.51	0.00402095
6004.33	0.00389151
6016.15	0.00376549
6027.96	0.00364145
6039.78	0.00351797
6051.6	0.00339362
6063.42	0.00326702
6075.24	0.0031368
6087.06	0.00300164
6098.88	0.00286022
6110.7	0.00271128
6122.52	0.00255359
6134.34	0.00238597
6146.16	0.00220729
6157.98	0.00201646
6169.8	0.00181244
6181.62	0.00159426
6193.44	0.00136099
6205.26	0.00111178
6217.08	0.000845806
6228.9	0.000562346
6240.72	0.000260717
6252.54	-5.96914e-05
6264.36	-0.000399427
6276.18	-0.00075897
6288	-0.00113874
6299.82	-0.00153907
6311.64	-0.00196027
6323.46	-0.00240254
6335.27	-0.00286605
6347.09	-0.00335088
6358.91	-0.00385706
6370.73	-0.00438457
6382.55	-0.00493331
6394.37	-0.00550315
6406.19	-0.00609388
6418.01	-0.00670525
6429.83	-0.00733695
6441.65	-0.00798863
6453.47	-0.0086599
6465.29	-0.00935032
6477.11	-0.0100594
6488.93	-0.0107866
6500.75	-0.0115314
6512.57	-0.0122933
6524.39	-0.0130715
6536.21	-0.0138654
6548.03	-0.0146745
6559.85	-0.0154979
6571.67	-0.016335
6583.49	-0.0171851
6595.31	-0.0180474
6607.13	-0.0189212
6618.95	-0.0198057
6630.77	-0.0207001
6642.59	-0.0216038
6654.4	-0.0225159
6666.22	-0.0234356
6678.04	-0.0243622
6689.86	-0.025295
6701.68	-0.0262331
6713.5	-0.0271758
6725.32	-0.0281224
6737.14	-0.0290721
6748.96	-0.0300241
6760.78	-0.0309779
6772.6	-0.0319326
6784.42	-0.0328876
6796.24	-0.0338422
6808.06	-0.0347957
6819.88	-0.0357475
6831.7	-0.0366969
6843.52	-0.0376432
6855.34	-0.0385859
6867.16	-0.0395244
6878.98	-0.0404581
6890.8	-0.0413863
6902.62	-0.0423085
6914.44	-0.0432243
6926.26	-0.0441329
6938.08	-0.0450339
6949.9	-0.0459267
6961.72	-0.0468109
6973.54	-0.047686
6985.36	-0.0485514
6997.17	-0.0494066
7008.99	-0.0502512
7020.81	-0.0510847
7032.63	-0.0519067
7044.45	-0.0527166
7056.27	-0.0535141
7068.09	-0.0542986
7079.91	-0.0550697
7091.73	-0.0558271
7103.55	-0.0565702
7115.37	-0.0572986
7127.19	-0.0580119
7139.01	-0.0587097
7150.83	-0.0593916
7162.65	-0.0600571
7174.47	-0.0607058
7186.29	-0.0613374
7198.11	-0.0619514
7209.93	-0.0625474
7221.75	-0.0631251
7233.57	-0.063684
7245.39	-0.0642238
7257.21	-0.0647441
7269.03	-0.0652445
7280.85	-0.0657247
7292.67	-0.0661843
7304.49	-0.066623
7316.3	-0.0670404
7328.12	-0.0674363
7339.94	-0.0678102
7351.76	-0.0681619
7363.58	-0.0684911
7375.4	-0.0687976
7387.22	-0.069081
7399.04	-0.0693411
7410.86	-0.0695776
7422.68	-0.0697905
7434.5	-0.0699793
7446.32	-0.070144
7458.14	-0.0702844
7469.96	-0.0704003
7481.78	-0.0704916
7493.6	-0.0705582
7505.42	-0.0705999
7517.24	-0.0706168
7529.06	-0.0706087
7540.88	-0.0705757
7552.7	-0.0705176
7564.52	-0.0704346
7576.34	-0.0703267
7588.16	-0.0701939
7599.97	-0.0700362
7611.79	-0.0698538
7623.61	-0.0696469
7635.43	-0.0694155
7647.25	-0.0691598
7659.07	-0.06888
7670.89	-0.0685764
7682.71	-0.068249
7694.53	-0.0678983
7706.35	-0.0675245
7718.17	-0.0671277
7729.99	-0.0667085
7741.81	-0.066267
7753.63	-0.0658037
7765.45	-0.0653189
7777.27	-0.064813
7789.09	-0.0642863
7800.91	-0.0637393
7812.73	-0.0631725
7824.55	-0.0625862
7836.37	-0.0619809
7848.19	-0.0613571
7860	-0.0607152
7871.82	-0.0600558
7883.64	-0.0593793
7895.46	-0.0586862
7907.28	-0.057977
7919.1	-0.0572523
7930.92	-0.0565125
7942.74	-0.0557583
7954.56	-0.05499
7966.38	-0.0542083
7978.2	-0.0534136
7990.02	-0.0526066
8001.84	-0.0517877
8013.66	-0.0509574
8025.48	-0.0501163
8037.3	-0.049265
8049.12	-0.0484038
8060.94	-0.0475334
8072.76	-0.0466543
8084.58	-0.0457669
8096.4	-0.0448718
8108.22	-0.0439694
8120.03	-0.0430603
8131.85	-0.0421448
8143.67	-0.0412236
8155.49	-0.040297
8167.31	-0.0393655
8179.13	-0.0384296
8190.95	-0.0374896
8202.77	-0.0365461
8214.59	-0.0355993
8226.41	-0.0346498
8238.23	-0.033698
8250.05	-0.0327441
8261.87	-0.0317886
8273.69	-0.0308319
8285.51	-0.0298743
8297.33	-0.0289162
8309.15	-0.0279579
8320.97	-0.0269997
8332.79	-0.026042
8344.61	-0.0250851
8356.43	-0.0241294
8368.25	-0.023175
8380.07	-0.0222223
8391.88	-0.0212717
8403.7	-0.0203233
8415.52	-0.0193775
8427.34	-0.0184346
8439.16	-0.0174947
8450.98	-0.0165583
8462.8	-0.0156255
8474.62	-0.0146966
8486.44	-0.0137718
8498.26	-0.0128515
8510.08	-0.0119359
8521.9	-0.0110252
8533.72	-0.0101197
8545.54	-0.00921967
8557.36	-0.00832532
8569.18	-0.00743692
8581	-0.00655473
8592.82	-0.00567901
8604.64	-0.00481001
8616.46	-0.003948
8628.28	-0.00309323
8640.1	-0.00224597
8651.92	-0.00140648
8663.73	-0.000575035
8675.55	0.000248098
8687.37	0.00106264
8699.19	0.00186833
8711.01	0.00266488
8722.83	0.00345202
8734.65	0.00422945
8746.47	0.00499691
8758.29	0.0057541
8770.11	0.00650074
8781.93	0.00723655
8793.75	0.00796123
8805.57	0.0086745
8817.39	0.00937606
8829.21	0.0100656
8841.03	0.0107429
8852.85	0.0114077
8864.67	0.0120596
8876.49	0.0126984
8888.31	0.0133238
8900.13	0.0139355
8911.95	0.0145332
8923.77	0.0151168
8935.59	0.0156858
8947.4	0.0162402
8959.22	0.0167796
8971.04	0.0173037
8982.86	0.0178125
8994.68	0.0183055
9006.5	0.0187827
9018.32	0.0192437
9030.14	0.0196885
9041.96	0.0201168
9053.78	0.0205285
9065.6	0.0209233
9077.42	0.0213012
9089.24	0.021662
9101.06	0.0220055
9112.88	0.0223318
9124.7	0.0226406
9136.52	0.0229319
9148.34	0.0232056
9160.16	0.0234617
9171.98	0.0237002
9183.8	0.0239209
9195.62	0.024124
9207.44	0.0243095
9219.26	0.0244773
9231.07	0.0246276
9242.89	0.0247603
9254.71	0.0248756
9266.53	0.0249736
9278.35	0.0250544
9290.17	0.0251181
9301.99	0.025165
9313.81	0.0251951
9325.63	0.0252086
9337.45	0.0252059
9349.27	0.025187
9361.09	0.0251523
9372.91	0.0251019
9384.73	0.0250362
9396.55	0.0249555
9408.37	0.0248601
9420.19	0.0247503
9432.01	0.0246264
9443.83	0.0244888
9455.65	0.0243379
9467.47	0.024174
9479.29	0.0239975
9491.11	0.0238089
9502.93	0.0236086
9514.75	0.023397
9526.56	0.0231745
9538.38	0.0229417
9550.2	0.0226989
9562.02	0.0224466
9573.84	0.0221854
9585.66	0.0219156
9597.48	0.0216379
9609.3	0.0213527
9621.12	0.0210604
9632.94	0.0207617
9644.76	0.020457
9656.58	0.0201468
9668.4	0.0198317
9680.22	0.0195121
9692.04	0.0191886
9703.86	0.0188617
9715.68	0.0185318
9727.5	0.0181996
9739.32	0.0178655
9751.14	0.0175299
9762.96	0.0171935
9774.78	0.0168565
9786.6	0.0165197
9798.42	0.0161833
9810.24	0.0158479
9822.06	0.0155139
9833.87	0.0151816
9845.69	0.0148517
9857.51	0.0145244
9869.33	0.0142001
9881.15	0.0138792
9892.97	0.0135622
9904.79	0.0132492
9916.61	0.0129407
9928.43	0.0126369
9940.25	0.0123382
9952.07	0.0120448
9963.89	0.0117569
9975.71	0.0114749
9987.53	0.0111989
9999.35	0.0109291
10011.2	0.0106656
10023	0.0104088
10034.8	0.0101585
10046.6	0.00991508
10058.4	0.00967849
10070.3	0.00944884
10082.1	0.00922616
10093.9	0.00901048
10105.7	0.00880182
10117.5	0.00860014
10129.4	0.00840542
10141.2	0.00821759
10153	0.00803659
10164.8	0.00786231
10176.6	0.00769465
10188.5	0.00753346
10200.3	0.00737859
10212.1	0.00722989
10223.9	0.00708715
10235.7	0.00695019
10247.6	0.00681878
10259.4	0.0066927
10271.2	0.0065717
10283	0.00645552
10294.8	0.00634389
10306.7	0.00623653
10318.5	0.00613316
10330.3	0.00603346
10342.1	0.00593714
10353.9	0.00584386
10365.8	0.00575332
10377.6	0.00566518
10389.4	0.0055791
10401.2	0.00549474
10413	0.00541178
10424.9	0.00532985
10436.7	0.00524862
10448.5	0.00516774
10460.3	0.00508688
10472.1	0.00500568
10484	0.0049238
10495.8	0.00484092
10507.6	0.00475669
10519.4	0.00467079
10531.2	0.0045829
10543.1	0.00449271
10554.9	0.0043999
10566.7	0.00430418
10578.5	0.00420526
10590.3	0.00410285
10602.1	0.00399668
10614	0.00388649
10625.8	0.00377203
10637.6	0.00365307
10649.4	0.00352937
10661.2	0.00340071
10673.1	0.00326691
10684.9	0.00312776
10696.7	0.00298309
10708.5	0.00283274
10720.3	0.00267656
10732.2	0.00251442
10744	0.00234619
10755.8	0.00217177
10767.6	0.00199106
10779.4	0.00180399
10791.3	0.00161049
10803.1	0.00141052
10814.9	0.00120403
10826.7	0.000991008
10838.5	0.000771441
10850.4	0.000545336
10862.2	0.000312711
10874	7.35993e-05
10885.8	-0.000171955
10897.6	-0.000423893
10909.5	-0.000682145
10921.3	-0.000946629
10933.1	-0.00121725
10944.9	-0.0014939
10956.7	-0.00177647
10968.6	-0.00206483
10980.4	-0.00235884
10992.2	-0.00265835
11004	-0.00296322
11015.8	-0.00327326
11027.7	-0.00358831
11039.5	-0.00390818
11051.3	-0.00423269
11063.1	-0.00456164
11074.9	-0.00489482
11086.8	-0.00523202
11098.6	-0.00557303
11110.4	-0.00591762
11122.2	-0.00626556
11134	-0.00661663
11145.9	-0.00697059
11157.7	-0.0073272
11169.5	-0.0076862
11181.3	-0.00804737
11193.1	-0.00841045
11205	-0.00877518
11216.8	-0.00914131
11228.6	-0.0095086
11240.4	-0.00987677
11252.2	-0.0102456
11264	-0.0106148
11275.9	-0.0109841
11287.7	-0.0113533
11299.5	-0.0117221
11311.3	-0.0120902
11323.1	-0.0124574
11335	-0.0128235
11346.8	-0.0131882
11358.6	-0.0135512
11370.4	-0.0139124
11382.2	-0.0142714
11394.1	-0.0146279
11405.9	-0.0149819
11417.7	-0.015333
11429.5	-0.015681
11441.3	-0.0160257
11453.2	-0.0163668
11465	-0.0167042
11476.8	-0.0170376
11488.6	-0.0173668
11500.4	-0.0176915
11512.3	-0.0180117
11524.1	-0.0183271
11535.9	-0.0186374
11547.7	-0.0189426
11559.5	-0.0192424
11571.4	-0.0195367
11583.2	-0.0198253
11595	-0.020108
11606.8	-0.0203847
11618.6	-0.0206552
11630.5	-0.0209194
11642.3	-0.0211771
11654.1	-0.0214282
11665.9	-0.0216727
11677.7	-0.0219103
11689.6	-0.022141
11701.4	-0.0223646
11713.2	-0.0225811
11725	-0.0227904
11736.8	-0.0229925
11748.7	-0.0231872
11760.5	-0.0233745
11772.3	-0.0235543
11784.1	-0.0237266
11795.9	-0.0238914
11807.8	-0.0240486
11819.6	-0.0241983
11831.4	-0.0243404
11843.2	-0.0244749
11855	-0.0246018
11866.8	-0.0247212
11878.7	-0.0248331
11890.5	-0.0249375
11902.3	-0.0250344
11914.1	-0.025124
11925.9	-0.0252062
11937.8	-0.0252813
11949.6	-0.0253491
11961.4	-0.0254099
11973.2	-0.0254638
11985	-0.0255107
11996.9	-0.025551
12008.7	-0.0255846
12020.5	-0.0256117
12032.3	-0.0256325
12044.1	-0.0256471
12056	-0.0256557
12067.8	-0.0256583
12079.6	-0.0256553
12091.4	-0.0256467
12103.2	-0.0256327
12115.1	-0.0256136
12126.9	-0.0255895
12138.7	-0.0255606
12150.5	-0.0255271
12162.3	-0.0254892
12174.2	-0.0254472
12186	-0.0254012
12197.8	-0.0253514
12209.6	-0.0252981
12221.4	-0.0252415
12233.3	-0.0251817
12245.1	-0.0251191
12256.9	-0.0250539
12268.7	-0.0249862
12280.5	-0.0249162
12292.4	-0.0248443
12304.2	-0.0247706
12316	-0.0246954
12327.8	-0.0246188
12339.6	-0.024541
12351.5	-0.0244623
12363.3	-0.0243829
12375.1	-0.024303
12386.9	-0.0242227
12398.7	-0.0241423
12410.6	-0.024062
12422.4	-0.0239819
12434.2	-0.0239022
12446	-0.023823
12457.8	-0.0237446
12469.7	-0.0236671
12481.5	-0.0235906
12493.3	-0.0235153
12505.1	-0.0234413
12516.9	-0.0233687
12528.7	-0.0232977
12540.6	-0.0232284
12552.4	-0.0231608
12564.2	-0.0230951
12576	-0.0230312
12587.8	-0.0229695
12599.7	-0.0229097
12611.5	-0.0228521
12623.3	-0.0227967
12635.1	-0.0227436
12646.9	-0.0226926
12658.8	-0.022644
12670.6	-0.0225976
12682.4	-0.0225535
12694.2	-0.0225118
12706	-0.0224723
12717.9	-0.022435
12729.7	-0.0224
12741.5	-0.0223673
12753.3	-0.0223366
12765.1	-0.0223081
12777	-0.0222817
12788.8	-0.0222572
12800.6	-0.0222346
12812.4	-0.022214
12824.2	-0.022195
12836.1	-0.0221778
12847.9	-0.0221622
12859.7	-0.022148
12871.5	-0.0221353
12883.3	-0.0221238
12895.2	-0.0221135
12907	-0.0221042
12918.8	-0.022096
12930.6	-0.0220885
12942.4	-0.0220817
12954.3	-0.0220755
12966.1	-0.0220698
12977.9	-0.0220643
12989.7	-0.022059
13001.5	-0.0220538
13013.4	-0.0220485
13025.2	-0.0220429
13037	-0.022037
13048.8	-0.0220306
13060.6	-0.0220236
13072.5	-0.0220157
13084.3	-0.022007
13096.1	-0.0219971
13107.9	-0.0219861
13119.7	-0.0219738
13131.5	-0.02196
13143.4	-0.0219446
13155.2	-0.0219275
13167	-0.0219086
13178.8	-0.0218876
13190.6	-0.0218645
13202.5	-0.0218392
13214.3	-0.0218116
13226.1	-0.0217815
13237.9	-0.0217487
13249.7	-0.0217133
13261.6	-0.0216751
13273.4	-0.0216339
13285.2	-0.0215897
13297	-0.0215424
13308.8	-0.0214919
13320.7	-0.021438
13332.5	-0.0213807
13344.3	-0.0213199
13356.1	-0.0212555
13367.9	-0.0211874
13379.8	-0.0211156
13391.6	-0.0210399
13403.4	-0.0209604
13415.2	-0.0208768
13427	-0.0207893
13438.9	-0.0206977
13450.7	-0.0206019
13462.5	-0.0205019
13474.3	-0.0203977
13486.1	-0.0202892
13498	-0.0201763
13509.8	-0.0200592
13521.6	-0.0199376
13533.4	-0.0198116
13545.2	-0.0196812
13557.1	-0.0195463
13568.9	-0.0194069
13580.7	-0.0192631
13592.5	-0.0191148
13604.3	-0.018962
13616.2	-0.0188047
13628	-0.018643
13639.8	-0.0184768
13651.6	-0.0183062
13663.4	-0.0181311
13675.3	-0.0179517
13687.1	-0.0177679
13698.9	-0.0175798
13710.7	-0.0173874
13722.5	-0.0171908
13734.3	-0.0169899
13746.2	-0.016785
13758	-0.016576
13769.8	-0.016363
13781.6	-0.016146
13793.4	-0.0159252
13805.3	-0.0157005
13817.1	-0.0154722
13828.9	-0.0152402
13840.7	-0.0150047
13852.5	-0.0147658
13864.4	-0.0145235
13876.2	-0.0142779
13888	-0.0140292
13899.8	-0.0137775
13911.6	-0.0135228
13923.5	-0.0132653
13935.3	-0.0130052
13947.1	-0.0127424
13958.9	-0.0124772
13970.7	-0.0122097
13982.6	-0.0119401
13994.4	-0.0116683
14006.2	-0.0113947
14018	-0.0111192
14029.8	-0.0108421
14041.7	-0.0105635
14053.5	-0.0102836
14065.3	-0.0100025
14077.1	-0.00972026
14088.9	-0.00943714
14100.8	-0.00915325
14112.6	-0.00886875
14124.4	-0.00858378
14136.2	-0.0082985
14148	-0.00801305
14159.9	-0.00772759
14171.7	-0.00744228
14183.5	-0.00715725
14195.3	-0.00687267
14207.1	-0.00658867
14219	-0.00630541
14230.8	-0.00602304
14242.6	-0.0057417
14254.4	-0.00546153
14266.2	-0.00518268
14278.1	-0.00490529
14289.9	-0.00462949
14301.7	-0.00435543
14313.5	-0.00408323
14325.3	-0.00381303
14337.2	-0.00354495
14349	-0.00327913
14360.8	-0.00301567
14372.6	-0.00275471
14384.4	-0.00249635
14396.2	-0.0022407
14408.1	-0.00198789
14419.9	-0.001738
14431.7	-0.00149114
14443.5	-0.00124741
14455.3	-0.0010069
14467.2	-0.000769701
14479	-0.000535892
14490.8	-0.000305554
14502.6	-7.87643e-05
14514.4	0.000144406
14526.3	0.00036389
14538.1	0.000579625
14549.9	0.000791553
14561.7	0.00099962
14573.5	0.00120378
14585.4	0.00140398
14597.2	0.00160018
14609	0.00179236
14620.8	0.00198047
14632.6	0.00216449
14644.5	0.0023444
14656.3	0.00252017
14668.1	0.0026918
14679.9	0.00285927
14691.7	0.00302258
14703.6	0.00318172
14715.4	0.00333669
14727.2	0.0034875
14739	0.00363416
14750.8	0.00377669
14762.7	0.00391509
14774.5	0.00404938
14786.3	0.0041796
14798.1	0.00430575
14809.9	0.00442789
14821.8	0.00454603
14833.6	0.0046602
14845.4	0.00477046
14857.2	0.00487684
14869	0.00497937
14880.9	0.00507812
14892.7	0.00517311
14904.5	0.00526441
14916.3	0.00535206
14928.1	0.00543613
14940	0.00551665
14951.8	0.0055937
14963.6	0.00566732
14975.4	0.00573758
14987.2	0.00580455
14999	0.00586828
15010.9	0.00592883
15022.7	0.00598628
15034.5	0.00604068
15046.3	0.00609211
15058.1	0.00614063
15070	0.00618631
15081.8	0.00622922
15093.6	0.00626943
15105.4	0.00630701
15117.2	0.00634202
15129.1	0.00637455
15140.9	0.00640465
15152.7	0.00643241
15164.5	0.00645789
15176.3	0.00648116
15188.2	0.0065023
15200	0.00652137
15211.8	0.00653845
15223.6	0.0065536
15235.4	0.00656691
15247.3	0.00657843
15259.1	0.00658824
15270.9	0.00659642
15282.7	0.00660302
15294.5	0.00660812
15306.4	0.0066118
15318.2	0.00661411
15330	0.00661513
15341.8	0.00661492
15353.6	0.00661356
15365.5	0.00661111
15377.3	0.00660764
15389.1	0.00660322
15400.9	0.00659791
15412.7	0.00659179
15424.6	0.0065849
15436.4	0.00657733
15448.2	0.00656914
15460	0.00656039
15471.8	0.00655115
15483.7	0.00654148
15495.5	0.00653144
15507.3	0.0065211
15519.1	0.00651052
15530.9	0.00649977
15542.8	0.00648891
15554.6	0.00647799
15566.4	0.00646709
15578.2	0.00645625
15590	0.00644555
15601.9	0.00643505
15613.7	0.00642479
15625.5	0.00641485
15637.3	0.00640528
15649.1	0.00639614
15660.9	0.00638749
15672.8	0.00637938
15684.6	0.00637188
15696.4	0.00636503
15708.2	0.0063589
15720	0.00635353
15731.9	0.00634899
15743.7	0.00634533
15755.5	0.0063426
15767.3	0.00634084
15779.1	0.00634012
15791	0.00634049
15802.8	0.00634198
15814.6	0.00634465
15826.4	0.00634854
15838.2	0.00635371
15850.1	0.00636019
15861.9	0.00636803
15873.7	0.00637727
15885.5	0.00638795
15897.3	0.00640011
15909.2	0.00641378
15921	0.006429
15932.8	0.00644581
15944.6	0.00646423
15956.4	0.00648429
15968.3	0.00650602
15980.1	0.00652945
15991.9	0.0065546
16003.7	0.00658149
16015.5	0.00661014
16027.4	0.00664055
16039.2	0.00667276
16051	0.00670676
16062.8	0.00674256
16074.6	0.00678017
16086.5	0.00681959
16098.3	0.00686081
16110.1	0.00690383
16121.9	0.00694865
16133.7	0.00699524
16145.6	0.0070436
16157.4	0.0070937
16169.2	0.00714552
16181	0.00719903
16192.8	0.00725421
16204.7	0.00731101
16216.5	0.0073694
16228.3	0.00742933
16240.1	0.00749076
16251.9	0.00755363
16263.7	0.00761788
16275.6	0.00768346
16287.4	0.00775029
16299.2	0.00781831
16311	0.00788743
16322.8	0.00795759
16334.7	0.00802868
16346.5	0.00810063
16358.3	0.00817333
16370.1	0.00824669
16381.9	0.00832059
16393.8	0.00839494
16405.6	0.0084696
16417.4	0.00854446
16429.2	0.0086194
16441	0.00869427
16452.9	0.00876896
16464.7	0.0088433
16476.5	0.00891717
16488.3	0.0089904
16500.1	0.00906283
16512	0.00913432
16523.8	0.00920469
16535.6	0.00927377
16547.4	0.00934139
16559.2	0.00940737
16571.1	0.00947152
16582.9	0.00953366
16594.7	0.0095936
16606.5	0.00965114
16618.3	0.00970608
16630.2	0.00975823
16642	0.00980737
16653.8	0.00985331
16665.6	0.00989583
16677.4	0.00993472
16689.3	0.00996976
16701.1	0.0100008
16712.9	0.0100275
16724.7	0.0100497
16736.5	0.0100672
16748.4	0.0100798
16760.2	0.0100872
16772	0.0100892
16783.8	0.0100857
16795.6	0.0100764
16807.5	0.010061
16819.3	0.0100394
16831.1	0.0100114
16842.9	0.00997676
16854.7	0.00993525
16866.5	0.00988669
16878.4	0.00983088
16890.2	0.00976764
16902	0.00969678
16913.8	0.00961812
16925.6	0.00953149
16937.5	0.00943671
16949.3	0.00933364
16961.1	0.00922211
16972.9	0.00910199
16984.7	0.00897314
16996.6	0.00883544
17008.4	0.00868876
17020.2	0.00853301
17032	0.00836809
17043.8	0.0081939
17055.7	0.00801039
17067.5	0.00781749
17079.3	0.00761515
17091.1	0.00740333
17102.9	0.00718201
17114.8	0.00695118
17126.6	0.00671085
17138.4	0.00646103
17150.2	0.00620175
17162	0.00593307
17173.9	0.00565504
17185.7	0.00536774
17197.5	0.00507127
17209.3	0.00476572
17221.1	0.00445123
17233	0.00412794
17244.8	0.00379599
17256.6	0.00345557
17268.4	0.00310685
17280.2	0.00275004
17292.1	0.00238536
17303.9	0.00201305
17315.7	0.00163335
17327.5	0.00124653
17339.3	0.000852867
17351.2	0.000452668
17363	4.62394e-05
17374.8	-0.000366093
17386.6	-0.000783988
17398.4	-0.00120709
17410.3	-0.00163503
17422.1	-0.00206743
17433.9	-0.0025039
17445.7	-0.00294402
17457.5	-0.00338738
17469.4	-0.00383355
17481.2	-0.00428209
17493	-0.00473254
17504.8	-0.00518446
17516.6	-0.00563737
17528.4	-0.00609079
17540.3	-0.00654424
17552.1	-0.00699723
17563.9	-0.00744927
17575.7	-0.00789985
17587.5	-0.00834847
17599.4	-0.00879461
17611.2	-0.00923778
17623	-0.00967744
17634.8	-0.0101131
17646.6	-0.0105442
17658.5	-0.0109703
17670.3	-0.0113909
17682.1	-0.0118054
17693.9	-0.0122133
17705.7	-0.0126142
17717.6	-0.0130075
17729.4	-0.0133927
17741.2	-0.0137694
17753	-0.0141372
17764.8	-0.0144954
17776.7	-0.0148437
17788.5	-0.0151816
17800.3	-0.0155088
17812.1	-0.0158247
17823.9	-0.0161289
17835.8	-0.0164211
17847.6	-0.0167009
17859.4	-0.0169679
17871.2	-0.0172217
17883	-0.0174621
17894.9	-0.0176887
17906.7	-0.0179012
17918.5	-0.0180992
17930.3	-0.0182827
17942.1	-0.0184512
17954	-0.0186047
17965.8	-0.0187428
17977.6	-0.0188654
17989.4	-0.0189723
18001.2	-0.0190634
18013.1	-0.0191385
18024.9	-0.0191976
18036.7	-0.0192406
18048.5	-0.0192674
18060.3	-0.0192779
18072.2	-0.0192722
18084	-0.0192502
18095.8	-0.019212
18107.6	-0.0191577
18119.4	-0.0190872
18131.2	-0.0190007
18143.1	-0.0188983
18154.9	-0.0187802
18166.7	-0.0186464
18178.5	-0.0184972
18190.3	-0.0183327
18202.2	-0.0181532
18214	-0.0179589
18225.8	-0.01775
18237.6	-0.0175268
18249.4	-0.0172895
18261.3	-0.0170386
18273.1	-0.0167742
18284.9	-0.0164968
18296.7	-0.0162067
18308.5	-0.0159042
18320.4	-0.0155897
18332.2	-0.0152637
18344	-0.0149264
18355.8	-0.0145784
18367.6	-0.01422
18379.5	-0.0138516
18391.3	-0.0134738
18403.1	-0.013087
18414.9	-0.0126916
18426.7	-0.012288
18438.6	-0.0118769
18450.4	-0.0114585
18462.2	-0.0110335
18474	-0.0106023
18485.8	-0.0101654
18497.7	-0.00972331
18509.5	-0.00927648
18521.3	-0.00882541
18533.1	-0.00837061
18544.9	-0.00791257
18556.8	-0.00745177
18568.6	-0.0069887
18580.4	-0.00652386
18592.2	-0.00605771
18604	-0.00559075
18615.9	-0.00512343
18627.7	-0.00465623
18639.5	-0.00418961
18651.3	-0.00372402
18663.1	-0.00325991
18675	-0.00279771
18686.8	-0.00233786
18698.6	-0.00188077
18710.4	-0.00142686
18722.2	-0.000976534
18734.1	-0.000530177
18745.9	-8.81717e-05
18757.7	0.000349112
18769.5	0.000781314
18781.3	0.00120809
18793.1	0.0016291
18805	0.00204403
18816.8	0.00245256
18828.6	0.0028544
18840.4	0.00324926
18852.2	0.00363687
18864.1	0.00401696
18875.9	0.00438931
18887.7	0.00475366
18899.5	0.00510981
18911.3	0.00545754
18923.2	0.00579667
18935	0.00612701
18946.8	0.0064484
18958.6	0.00676069
18970.4	0.00706373
18982.3	0.0073574
18994.1	0.00764158
19005.9	0.00791618
19017.7	0.00818111
19029.5	0.00843628
19041.4	0.00868164
19053.2	0.00891713
19065	0.00914272
19076.8	0.00935837
19088.6	0.00956408
19100.5	0.00975982
19112.3	0.00994561
19124.1	0.0101215
19135.9	0.0102874
19147.7	0.0104435
19159.6	0.0105897
19171.4	0.0107262
19183.2	0.0108529
19195	0.01097
19206.8	0.0110776
19218.7	0.0111757
19230.5	0.0112644
19242.3	0.0113438
19254.1	0.0114141
19265.9	0.0114753
19277.8	0.0115277
19289.6	0.0115712
19301.4	0.0116061
19313.2	0.0116325
19325	0.0116505
19336.9	0.0116603
19348.7	0.0116621
19360.5	0.0116559
19372.3	0.0116421
19384.1	0.0116206
19395.9	0.0115918
19407.8	0.0115558
19419.6	0.0115128
19431.4	0.0114628
19443.2	0.0114062
19455	0.0113432
19466.9	0.0112738
19478.7	0.0111982
19490.5	0.0111168
19502.3	0.0110296
19514.1	0.0109369
19526	0.0108387
19537.8	0.0107354
19549.6	0.0106272
19561.4	0.0105141
19573.2	0.0103964
19585.1	0.0102743
19596.9	0.010148
19608.7	0.0100176
19620.5	0.00988343
19632.3	0.00974554
19644.2	0.00960418
19656	0.00945951
19667.8	0.00931173
19679.6	0.009161
19691.4	0.00900752
19703.3	0.00885145
19715.1	0.00869297
19726.9	0.00853226
19738.7	0.00836947
19750.5	0.00820479
19762.4	0.00803838
19774.2	0.00787039
19786	0.007701
19797.8	0.00753035
19809.6	0.00735861
19821.5	0.00718593
19833.3	0.00701246
19845.1	0.00683835
19856.9	0.00666374
19868.7	0.00648878
19880.6	0.0063136
19892.4	0.00613835
19904.2	0.00596316
19916	0.00578816
19927.8	0.00561348
19939.7	0.00543925
19951.5	0.00526559
19963.3	0.00509262
19975.1	0.00492046
19986.9	0.00474923
19998.8	0.00457904
