0	0
17.7294	0
26.5942	0
35.4589	0
44.3236	0
53.1883	0
62.053	0
70.9178	0
88.6472	0
97.5119	0
106.377	0
115.241	0
124.106	0
132.971	0
141.836	0
150.7	0
168.43	0
177.294	0
186.159	0
195.024	0
203.889	0
212.753	0
221.618	0
230.483	0
248.212	0
257.077	0
265.942	0
274.806	0
283.671	0
292.536	0
301.401	0
310.265	0
327.995	0
336.859	0
345.724	0
354.589	0
363.454	0
372.318	0
381.183	0
390.048	0
407.777	0
416.642	0
425.507	0
434.371	0
443.236	0
452.101	0
460.966	0
478.695	0
487.56	0
496.424	0
505.289	0
514.154	0
523.019	0
531.883	0
540.748	0
558.477	0
567.342	0
576.207	0
585.072	0
593.936	0
602.801	0
611.666	0
620.53	0
638.26	0
647.125	0
655.989	0
664.854	0
673.719	0
682.584	0
691.448	0
700.313	0
718.042	0
726.907	0
735.772	0
744.637	0
753.501	0
762.366	0
771.231	0
780.095	0
797.825	0
806.69	0
815.554	0
824.419	0
833.284	0
842.149	0
851.013	0
868.743	0
877.607	0
886.472	0
895.337	0
904.202	0
913.066	0
921.931	0
930.796	0
948.525	0
957.39	0
966.255	0
975.119	0
983.984	0
992.849	0
1001.71	0
1010.58	0
1028.31	0
1037.17	0
1046.04	0
1054.9	0
1063.77	0
1072.63	0
1081.5	0
1090.36	0
1108.09	0
1116.95	0
1125.82	0
1134.68	0
1143.55	0
1152.41	0
1161.28	0
1170.14	0
1187.87	0
1196.74	0
1205.6	0
1214.47	0
1223.33	0
1232.2	0
1241.06	0
1258.79	0
1267.66	0
1276.52	0
1285.38	0
1294.25	0
1303.11	0
1311.98	0
1320.84	0
1338.57	0
1347.44	0
1356.3	0
1365.17	0
1374.03	0
1382.9	0
1391.76	0
1400.63	0
1418.36	0
1427.22	0
1436.08	0
1444.95	0
1453.81	0
1462.68	0
1471.54	0
1480.41	0
1498.14	-9.09495e-13
1507	-1.81899e-12
1515.87	-2.72848e-12
1524.73	-3.63798e-12
1533.6	-5.45697e-12
1542.46	-7.27596e-12
1551.33	-1.00044e-11
1560.19	-1.45519e-11
1577.92	-2.91038e-11
1586.79	-4.09273e-11
1595.65	-5.72982e-11
1604.51	-8.00355e-11
1613.38	-1.11868e-10
1622.24	-1.54614e-10
1631.11	-2.11912e-10
1648.84	-3.93811e-10
1657.7	-5.32964e-10
1666.57	-7.1941e-10
1675.43	-9.65883e-10
1684.3	-1.29057e-09
1693.16	-1.71804e-09
1702.03	-2.27737e-09
1710.89	-3.00679e-09
1728.62	-5.17866e-09
1737.49	-6.75755e-09
1746.35	-8.7839e-09
1755.21	-1.1376e-08
1764.08	-1.46774e-08
1772.94	-1.88684e-08
1781.81	-2.41698e-08
1790.67	-3.08519e-08
1808.4	-4.97466e-08
1817.27	-6.2847e-08
1826.13	-7.91315e-08
1835	-9.93086e-08
1843.86	-1.24227e-07
1852.73	-1.549e-07
1861.59	-1.92537e-07
1870.46	-2.38575e-07
1888.19	-3.6296e-07
1897.05	-4.45676e-07
1905.92	-5.45629e-07
1914.78	-6.66056e-07
1923.64	-8.10729e-07
1932.51	-9.84032e-07
1941.37	-1.19104e-06
1950.24	-1.43763e-06
1967.97	-2.07754e-06
1976.83	-2.48749e-06
1985.7	-2.97054e-06
1994.56	-3.53823e-06
2003.43	-4.20365e-06
2012.29	-4.98162e-06
2021.16	-5.88889e-06
2030.02	-6.94428e-06
2047.75	-9.58655e-06
2056.62	-1.12235e-05
2065.48	-1.31093e-05
2074.34	-1.52766e-05
2083.21	-1.77616e-05
2092.07	-2.06043e-05
2100.94	-2.38487e-05
2118.67	-3.1741e-05
2127.53	-3.65e-05
2136.4	-4.18835e-05
2145.26	-4.79601e-05
2154.13	-5.48044e-05
2162.99	-6.24972e-05
2171.86	-7.11254e-05
2180.72	-8.07828e-05
2198.45	-0.000103594
2207.32	-0.00011697
2216.18	-0.00013182
2225.05	-0.000148274
2233.91	-0.000166469
2242.77	-0.00018655
2251.64	-0.000208671
2260.5	-0.00023299
2278.23	-0.000288903
2287.1	-0.000320854
2295.96	-0.000355716
2304.83	-0.000393684
2313.69	-0.000434957
2322.56	-0.000479741
2331.42	-0.000528246
2340.29	-0.000580682
2358.02	-0.000698214
2366.88	-0.000763743
2375.75	-0.000834066
2384.61	-0.000909398
2393.47	-0.000989947
2402.34	-0.00107591
2411.2	-0.00116749
2420.07	-0.00126487
2437.8	-0.0014777
2446.66	-0.00159344
2455.53	-0.00171558
2464.39	-0.0018442
2473.26	-0.00197939
2482.12	-0.00212118
2490.99	-0.0022696
2508.72	-0.00258615
2517.58	-0.00275413
2526.45	-0.00292839
2535.31	-0.00310872
2544.17	-0.00329489
2553.04	-0.00348656
2561.9	-0.00368336
2570.77	-0.00388486
2588.5	-0.00429977
2597.36	-0.00451192
2606.23	-0.00472621
2615.09	-0.00494181
2623.96	-0.00515776
2632.82	-0.00537302
2641.69	-0.00558645
2650.55	-0.0057968
2668.28	-0.00620268
2677.15	-0.00639513
2686.01	-0.00657836
2694.88	-0.0067505
2703.74	-0.00690959
2712.6	-0.00705352
2721.47	-0.00718008
2730.33	-0.00728689
2748.06	-0.00743112
2756.93	-0.00746315
2765.79	-0.00746462
2774.66	-0.00743249
2783.52	-0.00736362
2792.39	-0.00725469
2801.25	-0.00710229
2810.12	-0.00690289
2827.85	-0.00634835
2836.71	-0.00598559
2845.58	-0.00556058
2854.44	-0.00506929
2863.3	-0.00450758
2872.17	-0.00387129
2881.03	-0.00315615
2898.76	-0.00147218
2907.63	-0.000494706
2916.49	0.000578883
2925.36	0.00175291
2934.22	0.00303166
2943.09	0.00441938
2951.95	0.00592027
2960.82	0.00753842
2978.55	0.0111424
2987.41	0.0131359
2996.28	0.0152619
3005.14	0.0175237
3014	0.0199247
3022.87	0.0224678
3031.73	0.0251558
3040.6	0.0279911
3058.33	0.0341124
3067.19	0.037402
3076.06	0.0408459
3084.92	0.0444451
3093.79	0.0482002
3102.65	0.0521113
3111.52	0.0561781
3120.38	0.0604001
3138.11	0.0693044
3146.97	0.0739833
3155.84	0.0788101
3164.7	0.0837821
3173.57	0.0888958
3182.43	0.0941472
3191.3	0.0995321
3200.16	0.105045
3217.89	0.116436
3226.76	0.122301
3235.62	0.12827
3244.49	0.134337
3253.35	0.140492
3262.21	0.146728
3271.08	0.153037
3288.81	0.165836
3297.67	0.172306
3306.54	0.17881
3315.4	0.185338
3324.27	0.191878
3333.13	0.198419
3342	0.20495
3350.86	0.21146
3368.59	0.224365
3377.45	0.230736
3386.32	0.237037
3395.18	0.243255
3404.05	0.249378
3412.91	0.255392
3421.78	0.261286
3430.64	0.267046
3448.37	0.278118
3457.23	0.283405
3466.1	0.28851
3474.96	0.29342
3483.83	0.298126
3492.69	0.302614
3501.56	0.306875
3510.42	0.310898
3528.15	0.318188
3537.01	0.321437
3545.88	0.324409
3554.74	0.327096
3563.61	0.32949
3572.47	0.331584
3581.34	0.333372
3590.2	0.334846
3607.93	0.336832
3616.79	0.337336
3625.66	0.337508
3634.52	0.337345
3643.39	0.336844
3652.25	0.336005
3661.12	0.334826
3678.85	0.331448
3687.71	0.329251
3696.57	0.326716
3705.44	0.323847
3714.3	0.320646
3723.17	0.317118
3732.03	0.313266
3740.9	0.309097
3758.63	0.299827
3767.49	0.29474
3776.35	0.289361
3785.22	0.283699
3794.08	0.277762
3802.95	0.27156
3811.81	0.265102
3820.68	0.258398
3838.4	0.244296
3847.27	0.236921
3856.13	0.229345
3865	0.22158
3873.86	0.213639
3882.73	0.205534
3891.59	0.197279
3900.45	0.188887
3918.18	0.171744
3927.05	0.163021
3935.91	0.154214
3944.78	0.145338
3953.64	0.136407
3962.51	0.127434
3971.37	0.118433
3980.23	0.109417
3997.96	0.0913972
4006.83	0.0824193
4015.69	0.0734803
4024.56	0.064593
4033.42	0.0557699
4042.28	0.0470235
4051.15	0.0383657
4060.01	0.0298082
4077.74	0.0130391
4086.61	0.00484913
4095.47	-0.00319746
4104.33	-0.0110909
4113.2	-0.0188218
4122.06	-0.0263812
4130.93	-0.0337609
4148.66	-0.0479495
4157.52	-0.054744
4166.39	-0.0613299
4175.25	-0.0677012
4184.11	-0.0738525
4192.98	-0.0797789
4201.84	-0.0854759
4210.71	-0.0909397
4228.44	-0.101155
4237.3	-0.105901
4246.17	-0.110403
4255.03	-0.11466
4263.89	-0.118672
4272.76	-0.122438
4281.62	-0.125957
4290.49	-0.129231
4308.22	-0.135047
4317.08	-0.137592
4325.95	-0.139899
4334.81	-0.14197
4343.67	-0.143808
4352.54	-0.145416
4361.4	-0.146798
4370.27	-0.147959
4388	-0.149634
4396.86	-0.150159
4405.73	-0.150481
4414.59	-0.150606
4423.46	-0.150541
4432.32	-0.150291
4441.19	-0.149862
4450.05	-0.14926
4467.78	-0.147567
4476.64	-0.146487
4485.51	-0.145262
4494.37	-0.143898
4503.24	-0.142402
4512.1	-0.14078
4520.97	-0.139041
4538.7	-0.135235
4547.56	-0.133183
4556.43	-0.13104
4565.29	-0.128815
4574.16	-0.126512
4583.02	-0.12414
4591.88	-0.121704
4600.75	-0.119212
4618.48	-0.114084
4627.34	-0.11146
4636.21	-0.108805
4645.07	-0.106124
4653.94	-0.103423
4662.8	-0.100707
4671.67	-0.0979831
4680.53	-0.0952551
4698.26	-0.0898082
4707.13	-0.087099
4715.99	-0.0844052
4724.86	-0.0817313
4733.72	-0.0790813
4742.58	-0.0764593
4751.45	-0.0738689
4760.31	-0.0713137
4778.04	-0.0663221
4786.91	-0.0638918
4795.77	-0.0615089
4804.64	-0.0591759
4813.5	-0.0568954
4822.37	-0.0546693
4831.23	-0.0524999
4840.1	-0.0503888
4857.83	-0.0463482
4866.69	-0.0444215
4875.56	-0.0425587
4884.42	-0.0407608
4893.28	-0.0390286
4902.15	-0.0373628
4911.01	-0.035764
4928.74	-0.0327682
4937.61	-0.0313717
4946.47	-0.0300428
4955.34	-0.0287813
4964.2	-0.027587
4973.07	-0.0264594
4981.93	-0.0253981
4990.8	-0.0244024
5008.53	-0.0226054
5017.39	-0.0218024
5026.26	-0.0210617
5035.12	-0.0203825
5043.98	-0.0197635
5052.85	-0.0192036
5061.71	-0.0187017
5070.58	-0.0182564
5088.31	-0.0175303
5097.17	-0.0172467
5106.04	-0.0170142
5114.9	-0.0168312
5123.77	-0.0166962
5132.63	-0.0166077
5141.5	-0.0165641
5150.36	-0.0165638
5168.09	-0.0166866
5176.95	-0.0168065
5185.82	-0.0169631
5194.68	-0.0171549
5203.55	-0.0173802
5212.41	-0.0176374
5221.28	-0.0179247
5230.14	-0.0182407
5247.87	-0.018952
5256.74	-0.0193441
5265.6	-0.0197584
5274.47	-0.0201933
5283.33	-0.0206474
5292.2	-0.021119
5301.06	-0.0216067
5318.79	-0.0226244
5327.65	-0.0231515
5336.52	-0.023689
5345.38	-0.0242355
5354.25	-0.0247896
5363.11	-0.02535
5371.98	-0.0259154
5380.84	-0.0264847
5398.57	-0.0276298
5407.44	-0.0282034
5416.3	-0.0287761
5425.17	-0.0293469
5434.03	-0.0299147
5442.9	-0.0304785
5451.76	-0.0310374
5460.62	-0.0315905
5478.35	-0.0326753
5487.22	-0.0332055
5496.08	-0.0337263
5504.95	-0.0342371
5513.81	-0.0347372
5522.68	-0.0352258
5531.54	-0.0357023
5540.41	-0.0361661
5558.14	-0.0370532
5567	-0.0374754
5575.87	-0.0378828
5584.73	-0.0382748
5593.6	-0.0386511
5602.46	-0.0390112
5611.32	-0.0393549
5620.19	-0.0396818
5637.92	-0.0402839
5646.78	-0.0405587
5655.65	-0.0408156
5664.51	-0.0410546
5673.38	-0.0412755
5682.24	-0.0414781
5691.11	-0.0416624
5708.84	-0.0419756
5717.7	-0.0421045
5726.57	-0.042215
5735.43	-0.0423071
5744.3	-0.0423807
5753.16	-0.0424361
5762.02	-0.0424733
5770.89	-0.0424924
5788.62	-0.042477
5797.48	-0.0424428
5806.35	-0.0423912
5815.21	-0.0423224
5824.08	-0.0422367
5832.94	-0.0421342
5841.81	-0.0420153
5850.67	-0.0418802
5868.4	-0.0415627
5877.27	-0.0413809
5886.13	-0.0411841
5895	-0.0409727
5903.86	-0.040747
5912.72	-0.0405073
5921.59	-0.0402542
5930.45	-0.0399878
5948.18	-0.0394169
5957.05	-0.0391132
5965.91	-0.0387978
5974.78	-0.0384711
5983.64	-0.0381335
5992.51	-0.0377855
6001.37	-0.0374273
6010.24	-0.0370595
6027.97	-0.0362963
6036.83	-0.0359018
6045.7	-0.0354991
6054.56	-0.0350888
6063.42	-0.0346711
6072.29	-0.0342465
6081.15	-0.0338154
6090.02	-0.0333781
6107.75	-0.0324865
6116.61	-0.032033
6125.48	-0.0315747
6134.34	-0.0311121
6143.21	-0.0306455
6152.07	-0.0301753
6160.94	-0.0297017
6178.67	-0.0287458
6187.53	-0.028264
6196.4	-0.0277802
6205.26	-0.0272946
6214.12	-0.0268075
6222.99	-0.0263191
6231.85	-0.0258296
6240.72	-0.0253395
6258.45	-0.0243578
6267.31	-0.0238668
6276.18	-0.0233759
6285.04	-0.0228854
6293.91	-0.0223954
6302.77	-0.0219062
6311.64	-0.0214178
6320.5	-0.0209305
6338.23	-0.0199598
6347.1	-0.0194765
6355.96	-0.018995
6364.83	-0.0185151
6373.69	-0.0180371
6382.55	-0.0175611
6391.42	-0.0170871
6400.28	-0.0166152
6418.01	-0.0156782
6426.88	-0.0152132
6435.74	-0.0147505
6444.61	-0.0142903
6453.47	-0.0138326
6462.34	-0.0133774
6471.2	-0.0129248
6480.07	-0.0124747
6497.8	-0.0115824
6506.66	-0.0111402
6515.53	-0.0107006
6524.39	-0.0102636
6533.25	-0.0098293
6542.12	-0.00939762
6550.98	-0.00896857
6568.71	-0.00811834
6577.58	-0.00769714
6586.44	-0.00727853
6595.31	-0.0068625
6604.17	-0.00644904
6613.04	-0.00603813
6621.9	-0.00562976
6630.77	-0.00522392
6648.5	-0.00441976
6657.36	-0.00402143
6666.23	-0.00362558
6675.09	-0.0032322
6683.96	-0.0028413
6692.82	-0.00245286
6701.68	-0.0020669
6710.55	-0.0016834
6728.28	-0.000923834
6737.14	-0.000547787
6746.01	-0.000174248
6754.87	0.000196765
6763.74	0.00056523
6772.6	0.000931122
6781.47	0.00129441
6790.33	0.00165507
6808.06	0.00236833
6816.93	0.00272084
6825.79	0.00307055
6834.66	0.00341741
6843.52	0.00376134
6852.39	0.00410231
6861.25	0.00444023
6870.11	0.00477504
6887.84	0.00543505
6896.71	0.00576009
6905.57	0.00608171
6914.44	0.00639983
6923.3	0.00671434
6932.17	0.00702517
6941.03	0.00733221
6958.76	0.00793454
6967.63	0.00822962
6976.49	0.0085205
6985.36	0.00880708
6994.22	0.00908924
7003.09	0.00936687
7011.95	0.00963986
7020.82	0.0099081
7038.54	0.0104298
7047.41	0.0106831
7056.27	0.0109311
7065.14	0.0111738
7074	0.0114111
7082.87	0.0116427
7091.73	0.0118687
7100.6	0.0120888
7118.33	0.0125112
7127.19	0.0127132
7136.06	0.0129089
7144.92	0.0130983
7153.79	0.0132812
7162.65	0.0134575
7171.52	0.0136271
7180.38	0.0137899
7198.11	0.0140947
7206.97	0.0142366
7215.84	0.0143713
7224.7	0.0144987
7233.57	0.0146188
7242.43	0.0147315
7251.3	0.0148368
7260.16	0.0149344
7277.89	0.0151068
7286.76	0.0151815
7295.62	0.0152483
7304.49	0.0153073
7313.35	0.0153584
7322.22	0.0154017
7331.08	0.0154369
7348.81	0.0154834
7357.67	0.0154946
7366.54	0.0154977
7375.4	0.0154928
7384.27	0.0154798
7393.13	0.0154587
7402	0.0154296
7410.86	0.0153924
7428.59	0.0152937
7437.46	0.0152323
7446.32	0.0151629
7455.19	0.0150855
7464.05	0.0150002
7472.92	0.0149069
7481.78	0.0148057
7490.64	0.0146967
7508.37	0.0144553
7517.24	0.014323
7526.1	0.014183
7534.97	0.0140354
7543.83	0.0138803
7552.7	0.0137178
7561.56	0.0135478
7570.43	0.0133704
7588.16	0.012994
7597.02	0.012795
7605.89	0.012589
7614.75	0.0123761
7623.62	0.0121562
7632.48	0.0119295
7641.34	0.0116961
7650.21	0.011456
7667.94	0.0109562
7676.8	0.0106967
7685.67	0.0104309
7694.53	0.0101589
7703.4	0.0098808
7712.26	0.00959665
7721.13	0.00930656
7738.86	0.00870895
7747.72	0.00840162
7756.59	0.00808872
7765.45	0.00777036
7774.31	0.00744663
7783.18	0.00711762
7792.04	0.00678342
7800.91	0.00644414
7818.64	0.0057507
7827.5	0.00539673
7836.37	0.00503806
7845.23	0.00467478
7854.1	0.00430698
7862.96	0.00393477
7871.83	0.00355823
7880.69	0.00317747
7898.42	0.00240366
7907.28	0.0020108
7916.15	0.0016141
7925.01	0.00121366
7933.88	0.000809573
7942.74	0.000401936
7951.61	-9.15298e-06
7960.47	-0.000423595
7978.2	-0.00126215
7987.07	-0.00168606
7995.93	-0.00211293
8004.8	-0.00254266
8013.66	-0.00297514
8022.53	-0.00341028
8031.39	-0.00384798
8040.25	-0.00428812
8057.98	-0.00517536
8066.85	-0.00562224
8075.71	-0.00607115
8084.58	-0.00652198
8093.44	-0.00697464
8102.31	-0.007429
8111.17	-0.00788497
8120.04	-0.00834242
8137.77	-0.00926136
8146.63	-0.00972261
8155.5	-0.0101849
8164.36	-0.0106481
8173.22	-0.0111121
8182.09	-0.0115768
8190.95	-0.0120421
8208.68	-0.0129738
8217.55	-0.01344
8226.41	-0.0139064
8235.28	-0.0143726
8244.14	-0.0148387
8253.01	-0.0153045
8261.87	-0.0157699
8270.74	-0.0162347
8288.47	-0.0171621
8297.33	-0.0176244
8306.19	-0.0180857
8315.06	-0.0185458
8323.92	-0.0190045
8332.79	-0.0194617
8341.65	-0.0199173
8350.52	-0.0203712
8368.25	-0.0212732
8377.11	-0.021721
8385.98	-0.0221665
8394.84	-0.0226096
8403.71	-0.0230501
8412.57	-0.0234879
8421.44	-0.0239229
8430.3	-0.0243549
8448.03	-0.0252095
8456.89	-0.0256317
8465.76	-0.0260505
8474.62	-0.0264656
8483.49	-0.026877
8492.35	-0.0272844
8501.22	-0.0276878
8510.08	-0.028087
8527.81	-0.0288725
8536.68	-0.0292585
8545.54	-0.0296397
8554.41	-0.0300162
8563.27	-0.0303878
8572.13	-0.0307543
8581	-0.0311157
8598.73	-0.0318226
8607.59	-0.0321678
8616.46	-0.0325074
8625.32	-0.0328413
8634.19	-0.0331694
8643.05	-0.0334916
8651.92	-0.0338077
8660.78	-0.0341177
8678.51	-0.034719
8687.38	-0.0350101
8696.24	-0.0352946
8705.1	-0.0355726
8713.97	-0.035844
8722.83	-0.0361085
8731.7	-0.0363663
8740.56	-0.0366172
8758.29	-0.0370979
8767.16	-0.0373276
8776.02	-0.0375502
8784.89	-0.0377655
8793.75	-0.0379736
8802.62	-0.0381743
8811.48	-0.0383676
8820.35	-0.0385534
8838.08	-0.0389026
8846.94	-0.0390658
8855.8	-0.0392214
8864.67	-0.0393694
8873.53	-0.0395097
8882.4	-0.0396423
8891.26	-0.0397671
8900.13	-0.0398842
8917.86	-0.0400949
8926.72	-0.0401886
8935.59	-0.0402744
8944.45	-0.0403524
8953.32	-0.0404226
8962.18	-0.0404849
8971.05	-0.0405394
8988.77	-0.0406247
8997.64	-0.0406557
9006.5	-0.0406788
9015.37	-0.0406941
9024.23	-0.0407015
9033.1	-0.0407012
9041.96	-0.0406932
9050.83	-0.0406774
9068.56	-0.0406226
9077.42	-0.0405837
9086.29	-0.0405371
9095.15	-0.040483
9104.02	-0.0404213
9112.88	-0.040352
9121.75	-0.0402753
9130.61	-0.0401911
9148.34	-0.0400005
9157.2	-0.0398942
9166.07	-0.0397807
9174.93	-0.0396599
9183.8	-0.039532
9192.66	-0.0393969
9201.53	-0.0392549
9210.39	-0.0391058
9228.12	-0.0387869
9236.99	-0.0386172
9245.85	-0.0384407
9254.72	-0.0382576
9263.58	-0.0380679
9272.44	-0.0378717
9281.31	-0.037669
9290.17	-0.0374599
9307.9	-0.0370229
9316.77	-0.0367951
9325.63	-0.0365612
9334.5	-0.0363214
9343.36	-0.0360756
9352.23	-0.035824
9361.09	-0.0355667
9378.82	-0.0350351
9387.69	-0.0347611
9396.55	-0.0344817
9405.42	-0.034197
9414.28	-0.0339072
9423.14	-0.0336122
9432.01	-0.0333122
9440.87	-0.0330073
9458.6	-0.0323833
9467.47	-0.0320643
9476.33	-0.0317408
9485.2	-0.031413
9494.06	-0.0310809
9502.93	-0.0307446
9511.79	-0.0304042
9520.66	-0.0300598
9538.39	-0.0293598
9547.25	-0.0290042
9556.12	-0.0286452
9564.98	-0.0282828
9573.84	-0.0279171
9582.71	-0.0275482
9591.57	-0.0271763
9600.44	-0.0268015
9618.17	-0.0260436
9627.03	-0.0256607
9635.9	-0.0252754
9644.76	-0.0248878
9653.63	-0.024498
9662.49	-0.0241061
9671.36	-0.0237124
9680.22	-0.0233167
9697.95	-0.0225206
9706.82	-0.0221203
9715.68	-0.0217188
9724.54	-0.021316
9733.41	-0.0209122
9742.27	-0.0205075
9751.14	-0.0201021
9760	-0.0196959
9777.73	-0.0188823
9786.6	-0.018475
9795.46	-0.0180676
9804.33	-0.0176601
9813.19	-0.0172529
9822.06	-0.0168459
9830.92	-0.0164393
9848.65	-0.0156278
9857.52	-0.0152232
9866.38	-0.0148195
9875.24	-0.0144168
9884.11	-0.0140154
9892.97	-0.0136152
9901.84	-0.0132165
9910.7	-0.0128194
9928.43	-0.0120303
9937.3	-0.0116387
9946.16	-0.0112491
9955.03	-0.0108617
9963.89	-0.0104767
9972.76	-0.0100941
9981.62	-0.00971403
9990.49	-0.00933668
10008.2	-0.00859053
10017.1	-0.00822197
10025.9	-0.00785656
10034.8	-0.00749443
10043.7	-0.00713568
10052.5	-0.00678044
10061.4	-0.00642881
10070.3	-0.00608089
10088	-0.00539663
10096.9	-0.0050605
10105.7	-0.0047285
10114.6	-0.00440073
10123.5	-0.0040773
10132.3	-0.00375829
10141.2	-0.0034438
10150.1	-0.00313392
10167.8	-0.00252836
10176.6	-0.00223285
10185.5	-0.00194229
10194.4	-0.00165678
10203.2	-0.00137637
10212.1	-0.00110116
10221	-0.00083122
10238.7	-0.00030741
10247.6	-5.36792e-05
10256.4	0.000194516
10265.3	0.000437114
10274.2	0.000674057
10283	0.000905289
10291.9	0.00113076
10300.8	0.00135041
10318.5	0.00177208
10327.3	0.00197401
10336.2	0.00216994
10345.1	0.00235986
10353.9	0.0025437
10362.8	0.00272146
10371.7	0.00289309
10380.5	0.00305857
10398.3	0.00337101
10407.1	0.00351792
10416	0.00365861
10424.9	0.00379306
10433.7	0.00392127
10442.6	0.00404322
10451.5	0.00415892
10460.3	0.00426837
10478	0.00446851
10486.9	0.00455922
10495.8	0.0046437
10504.6	0.00472196
10513.5	0.00479403
10522.4	0.00485991
10531.2	0.00491964
10540.1	0.00497323
10557.8	0.00506211
10566.7	0.00509747
10575.6	0.00512682
10584.4	0.0051502
10593.3	0.00516764
10602.2	0.00517919
10611	0.0051849
10628.7	0.00517898
10637.6	0.00516745
10646.5	0.00515028
10655.3	0.00512753
10664.2	0.00509926
10673.1	0.00506553
10681.9	0.00502641
10690.8	0.00498196
10708.5	0.00487736
10717.4	0.00481736
10726.3	0.00475231
10735.1	0.00468231
10744	0.00460743
10752.9	0.00452775
10761.7	0.00444336
10770.6	0.00435434
10788.3	0.00416278
10797.2	0.00406042
10806	0.00395379
10814.9	0.003843
10823.8	0.00372814
10832.6	0.0036093
10841.5	0.0034866
10850.4	0.00336012
10868.1	0.00309629
10877	0.00295914
10885.8	0.00281865
10894.7	0.00267493
10903.6	0.00252808
10912.4	0.00237823
10921.3	0.00222548
10930.1	0.00206996
10947.9	0.00175104
10956.7	0.00158788
10965.6	0.00142241
10974.5	0.00125477
10983.3	0.00108506
10992.2	0.000913407
11001.1	0.000739944
11018.8	0.000388073
11027.7	0.000209917
11036.5	3.045e-05
11045.4	-0.0001502
11054.3	-0.000331905
11063.1	-0.000514537
11072	-0.000697965
11080.8	-0.000882061
11098.6	-0.00125174
11107.4	-0.00143705
11116.3	-0.00162252
11125.2	-0.001808
11134	-0.00199336
11142.9	-0.00217848
11151.8	-0.00236322
11160.6	-0.00254746
11178.4	-0.00291389
11187.2	-0.00309583
11196.1	-0.00327674
11205	-0.00345651
11213.8	-0.00363499
11222.7	-0.00381206
11231.5	-0.0039876
11240.4	-0.00416148
11258.1	-0.00450376
11267	-0.00467192
11275.9	-0.00483792
11284.7	-0.00500166
11293.6	-0.00516301
11302.5	-0.00532184
11311.3	-0.00547806
11320.2	-0.00563154
11337.9	-0.00592983
11346.8	-0.00607442
11355.7	-0.00621584
11364.5	-0.00635397
11373.4	-0.00648871
11382.2	-0.00661996
11391.1	-0.00674763
11408.8	-0.0069918
11417.7	-0.00710813
11426.6	-0.00722049
11435.4	-0.00732879
11444.3	-0.00743296
11453.2	-0.00753291
11462	-0.00762857
11470.9	-0.00771984
11488.6	-0.00788897
11497.5	-0.00796668
11506.4	-0.00803973
11515.2	-0.00810807
11524.1	-0.00817162
11532.9	-0.00823035
11541.8	-0.00828418
11550.7	-0.00833307
11568.4	-0.00841586
11577.3	-0.00844967
11586.1	-0.00847838
11595	-0.00850194
11603.9	-0.00852033
11612.7	-0.00853353
11621.6	-0.00854151
11630.5	-0.00854424
11648.2	-0.00853393
11657.1	-0.00852085
11665.9	-0.00850249
11674.8	-0.00847884
11683.6	-0.00844991
11692.5	-0.00841568
11701.4	-0.00837618
11710.2	-0.00833142
11728	-0.00822615
11736.8	-0.00816568
11745.7	-0.00810003
11754.6	-0.00802921
11763.4	-0.00795326
11772.3	-0.00787222
11781.2	-0.00778612
11790	-0.007695
11807.8	-0.00749788
11816.6	-0.00739197
11825.5	-0.00728124
11834.3	-0.00716574
11843.2	-0.00704552
11852.1	-0.00692065
11860.9	-0.0067912
11878.7	-0.00651878
11887.5	-0.00637596
11896.4	-0.00622884
11905.3	-0.00607748
11914.1	-0.00592196
11923	-0.00576238
11931.9	-0.0055988
11940.7	-0.00543131
11958.5	-0.00508496
11967.3	-0.00490628
11976.2	-0.00472405
11985	-0.00453836
11993.9	-0.00434931
12002.8	-0.00415699
12011.6	-0.00396151
12020.5	-0.00376296
12038.2	-0.00335706
12047.1	-0.00314991
12056	-0.0029401
12064.8	-0.00272773
12073.7	-0.00251291
12082.6	-0.00229575
12091.4	-0.00207635
12100.3	-0.00185481
12118	-0.00140577
12126.9	-0.00117848
12135.7	-0.000949484
12144.6	-0.000718896
12153.5	-0.000486821
12162.3	-0.000253368
12171.2	-1.86452e-05
12180.1	0.00021724
12197.8	0.000692069
12206.7	0.000930797
12215.5	0.00117026
12224.4	0.00141035
12233.3	0.00165096
12242.1	0.00189199
12251	0.00213333
12268.7	0.00261655
12277.6	0.00285821
12286.4	0.00309978
12295.3	0.00334114
12304.2	0.00358222
12313	0.00382289
12321.9	0.00406307
12330.8	0.00430267
12348.5	0.0047797
12357.4	0.00501695
12366.2	0.00525324
12375.1	0.00548846
12384	0.00572254
12392.8	0.00595538
12401.7	0.00618689
12410.6	0.00641699
12428.3	0.00687261
12437.1	0.00709796
12446	0.00732156
12454.9	0.00754333
12463.7	0.00776318
12472.6	0.00798104
12481.5	0.00819684
12490.3	0.00841048
12508.1	0.00883103
12516.9	0.00903779
12525.8	0.00924209
12534.7	0.00944389
12543.5	0.00964309
12552.4	0.00983964
12561.3	0.0100335
12570.1	0.0102245
12587.8	0.0105979
12596.7	0.0107801
12605.6	0.0109593
12614.4	0.0111354
12623.3	0.0113083
12632.2	0.0114779
12641	0.0116442
12658.8	0.0119667
12667.6	0.0121227
12676.5	0.0122752
12685.4	0.0124241
12694.2	0.0125693
12703.1	0.0127107
12712	0.0128485
12720.8	0.0129823
12738.5	0.0132384
12747.4	0.0133604
12756.3	0.0134784
12765.1	0.0135923
12774	0.013702
12782.9	0.0138076
12791.7	0.0139088
12800.6	0.0140058
12818.3	0.0141865
12827.2	0.0142703
12836.1	0.0143495
12844.9	0.0144241
12853.8	0.0144941
12862.7	0.0145595
12871.5	0.0146202
12880.4	0.0146761
12898.1	0.0147736
12907	0.014815
12915.8	0.0148515
12924.7	0.014883
12933.6	0.0149095
12942.4	0.014931
12951.3	0.0149474
12960.2	0.0149586
12977.9	0.0149656
12986.8	0.0149612
12995.6	0.0149516
13004.5	0.0149366
13013.4	0.0149163
13022.2	0.0148907
13031.1	0.0148596
13048.8	0.0147812
13057.7	0.0147338
13066.5	0.0146808
13075.4	0.0146223
13084.3	0.0145583
13093.1	0.0144887
13102	0.0144136
13110.9	0.0143328
13128.6	0.0141544
13137.5	0.0140568
13146.3	0.0139535
13155.2	0.0138446
13164.1	0.01373
13172.9	0.0136098
13181.8	0.013484
13190.6	0.0133525
13208.4	0.0130727
13217.2	0.0129243
13226.1	0.0127704
13235	0.0126109
13243.8	0.0124459
13252.7	0.0122753
13261.6	0.0120993
13270.4	0.0119177
13288.2	0.0115385
13297	0.0113408
13305.9	0.0111378
13314.8	0.0109295
13323.6	0.010716
13332.5	0.0104974
13341.3	0.0102737
13350.2	0.0100449
13367.9	0.00957251
13376.8	0.00932901
13385.7	0.00908075
13394.5	0.0088278
13403.4	0.00857024
13412.3	0.00830815
13421.1	0.00804163
13438.9	0.00749565
13447.7	0.00721638
13456.6	0.00693306
13465.5	0.00664579
13474.3	0.00635468
13483.2	0.00605985
13492	0.0057614
13500.9	0.00545946
13518.6	0.00484556
13527.5	0.00453387
13536.4	0.00421918
13545.2	0.00390162
13554.1	0.00358134
13563	0.00325847
13571.8	0.00293316
13580.7	0.00260553
13598.4	0.00194396
13607.3	0.0016103
13616.2	0.00127494
13625	0.000938029
13633.9	0.000599718
13642.7	0.00026017
13651.6	-8.04565e-05
13660.5	-0.000421998
13678.2	-0.00110717
13687.1	-0.00145048
13695.9	-0.00179403
13704.8	-0.00213767
13713.7	-0.00248123
13722.5	-0.00282454
13731.4	-0.00316742
13740.3	-0.00350971
13758	-0.00419182
13766.9	-0.0045313
13775.7	-0.0048695
13784.6	-0.00520625
13793.4	-0.00554138
13802.3	-0.00587473
13811.2	-0.00620611
13820	-0.00653536
13837.8	-0.00718681
13846.6	-0.00750869
13855.5	-0.00782777
13864.4	-0.0081439
13873.2	-0.00845691
13882.1	-0.00876666
13891	-0.00907298
13908.7	-0.00967473
13917.6	-0.00996986
13926.4	-0.010261
13935.3	-0.0105479
13944.1	-0.0108305
13953	-0.0111087
13961.9	-0.0113822
13970.7	-0.0116511
13988.5	-0.0121742
13997.3	-0.0124281
14006.2	-0.0126768
14015.1	-0.0129202
14023.9	-0.0131582
14032.8	-0.0133906
14041.7	-0.0136174
14050.5	-0.0138384
14068.3	-0.0142629
14077.1	-0.0144661
14086	-0.0146633
14094.8	-0.0148543
14103.7	-0.015039
14112.6	-0.0152174
14121.4	-0.0153895
14130.3	-0.0155551
14148	-0.0158669
14156.9	-0.016013
14165.8	-0.0161524
14174.6	-0.0162852
14183.5	-0.0164113
14192.4	-0.0165307
14201.2	-0.0166435
14210.1	-0.0167495
14227.8	-0.0169412
14236.7	-0.017027
14245.5	-0.0171061
14254.4	-0.0171784
14263.3	-0.0172441
14272.1	-0.0173031
14281	-0.0173554
14298.7	-0.0174403
14307.6	-0.0174729
14316.5	-0.017499
14325.3	-0.0175186
14334.2	-0.0175319
14343.1	-0.0175389
14351.9	-0.0175397
14360.8	-0.0175342
14378.5	-0.017505
14387.4	-0.0174815
14396.2	-0.0174521
14405.1	-0.0174169
14414	-0.0173761
14422.8	-0.0173297
14431.7	-0.0172778
14440.6	-0.0172206
14458.3	-0.0170906
14467.2	-0.017018
14476	-0.0169405
14484.9	-0.0168582
14493.8	-0.0167714
14502.6	-0.01668
14511.5	-0.0165843
14520.4	-0.0164843
14538.1	-0.0162723
14547	-0.0161606
14555.8	-0.0160452
14564.7	-0.0159263
14573.5	-0.0158041
14582.4	-0.0156787
14591.3	-0.0155503
14600.1	-0.0154191
14617.9	-0.0151487
14626.7	-0.0150098
14635.6	-0.0148688
14644.5	-0.0147257
14653.3	-0.0145808
14662.2	-0.0144342
14671.1	-0.0142861
14688.8	-0.013986
14697.7	-0.0138343
14706.5	-0.0136819
14715.4	-0.0135288
14724.2	-0.0133752
14733.1	-0.0132213
14742	-0.0130673
14750.8	-0.0129133
14768.6	-0.0126062
14777.4	-0.0124534
14786.3	-0.0123013
14795.2	-0.0121502
14804	-0.0120001
14812.9	-0.0118512
14821.8	-0.0117038
14830.6	-0.011558
14848.4	-0.0112716
14857.2	-0.0111315
14866.1	-0.0109936
14874.9	-0.010858
14883.8	-0.010725
14892.7	-0.0105946
14901.5	-0.0104671
14910.4	-0.0103426
14928.1	-0.010103
14937	-0.00998829
14945.9	-0.00987708
14954.7	-0.00976954
14963.6	-0.00966579
14972.5	-0.00956598
14981.3	-0.0094702
14990.2	-0.00937859
15007.9	-0.00920832
15016.8	-0.00912987
15025.6	-0.00905603
15034.5	-0.00898688
15043.4	-0.00892253
15052.2	-0.00886306
15061.1	-0.00880856
15078.8	-0.0087148
15087.7	-0.00867568
15096.6	-0.00864184
15105.4	-0.00861332
15114.3	-0.0085902
15123.2	-0.00857253
15132	-0.00856035
15140.9	-0.0085537
15158.6	-0.00855716
15167.5	-0.00856734
15176.3	-0.00858317
15185.2	-0.00860467
15194.1	-0.00863186
15202.9	-0.00866475
15211.8	-0.00870333
15220.7	-0.0087476
15238.4	-0.00885317
15247.3	-0.00891443
15256.1	-0.00898131
15265	-0.00905378
15273.9	-0.00913179
15282.7	-0.0092153
15291.6	-0.00930427
15300.5	-0.00939864
15318.2	-0.00960334
15327	-0.00971353
15335.9	-0.00982885
15344.8	-0.00994921
15353.6	-0.0100745
15362.5	-0.0102047
15371.4	-0.0103397
15380.2	-0.0104793
15398	-0.010772
15406.8	-0.010925
15415.7	-0.0110821
15424.6	-0.0112433
15433.4	-0.0114084
15442.3	-0.0115773
15451.2	-0.0117499
15460	-0.0119259
15477.7	-0.012288
15486.6	-0.0124736
15495.5	-0.0126621
15504.3	-0.0128533
15513.2	-0.013047
15522.1	-0.013243
15530.9	-0.0134413
15548.7	-0.0138434
15557.5	-0.014047
15566.4	-0.014252
15575.3	-0.0144581
15584.1	-0.0146653
15593	-0.0148733
15601.9	-0.0150818
15610.7	-0.0152908
15628.4	-0.0157089
15637.3	-0.0159178
15646.2	-0.0161261
15655	-0.0163338
15663.9	-0.0165405
15672.8	-0.0167461
15681.6	-0.0169504
15690.5	-0.0171531
15708.2	-0.017553
15717.1	-0.0177496
15726	-0.0179439
15734.8	-0.0181354
15743.7	-0.0183241
15752.6	-0.0185096
15761.4	-0.0186918
15770.3	-0.0188704
15788	-0.0192161
15796.9	-0.0193828
15805.7	-0.019545
15814.6	-0.0197026
15823.5	-0.0198554
15832.3	-0.0200032
15841.2	-0.0201457
15850.1	-0.0202827
15867.8	-0.0205398
15876.7	-0.0206594
15885.5	-0.0207727
15894.4	-0.0208797
15903.3	-0.0209802
15912.1	-0.0210739
15921	-0.0211607
15938.7	-0.0213129
15947.6	-0.021378
15956.4	-0.0214356
15965.3	-0.0214855
15974.2	-0.0215276
15983	-0.0215617
15991.9	-0.0215877
16000.8	-0.0216056
16018.5	-0.0216163
16027.4	-0.0216088
16036.2	-0.0215928
16045.1	-0.021568
16054	-0.0215345
16062.8	-0.021492
16071.7	-0.0214406
16080.5	-0.0213802
16098.3	-0.0212321
16107.1	-0.0211443
16116	-0.0210473
16124.9	-0.0209411
16133.7	-0.0208256
16142.6	-0.0207008
16151.5	-0.0205667
16160.3	-0.0204234
16178.1	-0.0201089
16186.9	-0.0199377
16195.8	-0.0197573
16204.7	-0.0195678
16213.5	-0.0193691
16222.4	-0.0191613
16231.2	-0.0189444
16240.1	-0.0187186
16257.8	-0.0182403
16266.7	-0.017988
16275.6	-0.017727
16284.4	-0.0174575
16293.3	-0.0171795
16302.2	-0.0168931
16311	-0.0165985
16328.8	-0.0159852
16337.6	-0.0156666
16346.5	-0.0153404
16355.4	-0.0150066
16364.2	-0.0146653
16373.1	-0.0143169
16381.9	-0.0139613
16390.8	-0.0135988
16408.5	-0.0128537
16417.4	-0.0124715
16426.3	-0.0120831
16435.1	-0.0116887
16444	-0.0112885
16452.9	-0.0108826
16461.7	-0.0104714
16470.6	-0.0100549
16488.3	-0.00920726
16497.2	-0.00877647
16506.1	-0.00834135
16514.9	-0.00790212
16523.8	-0.00745899
16532.6	-0.00701221
16541.5	-0.00656199
16550.4	-0.00610857
16568.1	-0.00519309
16577	-0.00473149
16585.8	-0.00426764
16594.7	-0.00380177
16603.6	-0.00333413
16612.4	-0.00286495
16621.3	-0.00239448
16630.2	-0.00192295
16647.9	-0.000977703
16656.8	-0.000504458
16665.6	-3.11191e-05
16674.5	0.000442076
16683.3	0.000914889
16692.2	0.00138709
16701.1	0.00185843
16718.8	0.00279764
16727.7	0.00326504
16736.5	0.00373066
16745.4	0.00419429
16754.3	0.00465571
16763.1	0.00511468
16772	0.005571
16780.9	0.00602445
16798.6	0.00692191
16807.5	0.0073655
16816.3	0.0078054
16825.2	0.00824141
16834	0.00867334
16842.9	0.009101
16851.8	0.0095242
16860.6	0.00994276
16878.4	0.0107653
16887.2	0.0111689
16896.1	0.0115671
16905	0.0119599
16913.8	0.0123471
16922.7	0.0127285
16931.6	0.013104
16940.4	0.0134733
16958.2	0.0141934
16967	0.0145438
16975.9	0.0148876
16984.7	0.0152247
16993.6	0.015555
17002.5	0.0158784
17011.3	0.0161948
17020.2	0.016504
17037.9	0.017101
17046.8	0.0173884
17055.7	0.0176684
17064.5	0.017941
17073.4	0.0182059
17082.3	0.0184633
17091.1	0.018713
17108.9	0.0191891
17117.7	0.0194155
17126.6	0.0196341
17135.4	0.0198448
17144.3	0.0200476
17153.2	0.0202425
17162	0.0204296
17170.9	0.0206086
17188.6	0.020943
17197.5	0.0210983
17206.4	0.0212457
17215.2	0.0213853
17224.1	0.0215169
17233	0.0216407
17241.8	0.0217566
17250.7	0.0218647
17268.4	0.0220578
17277.3	0.0221428
17286.1	0.0222201
17295	0.0222899
17303.9	0.0223521
17312.7	0.0224068
17321.6	0.0224541
17330.5	0.0224941
17348.2	0.0225522
17357.1	0.0225705
17365.9	0.0225818
17374.8	0.022586
17383.7	0.0225833
17392.5	0.0225738
17401.4	0.0225575
17410.3	0.0225346
17428	0.0224691
17436.8	0.0224267
17445.7	0.022378
17454.6	0.0223231
17463.4	0.022262
17472.3	0.022195
17481.2	0.022122
17490	0.0220433
17507.8	0.0218687
17516.6	0.0217732
17525.5	0.0216722
17534.4	0.0215659
17543.2	0.0214545
17552.1	0.021338
17561	0.0212164
17578.7	0.0209589
17587.5	0.0208232
17596.4	0.0206828
17605.3	0.0205381
17614.1	0.020389
17623	0.0202357
17631.9	0.0200783
17640.7	0.0199168
17658.5	0.0195824
17667.3	0.0194095
17676.2	0.0192331
17685.1	0.0190533
17693.9	0.01887
17702.8	0.0186834
17711.7	0.0184937
17720.5	0.0183009
17738.2	0.0179065
17747.1	0.0177051
17756	0.017501
17764.8	0.0172943
17773.7	0.0170851
17782.6	0.0168735
17791.4	0.0166595
17800.3	0.0164434
17818	0.0160048
17826.9	0.0157825
17835.8	0.0155584
17844.6	0.0153324
17853.5	0.0151048
17862.4	0.0148755
17871.2	0.0146447
17880.1	0.0144123
17897.8	0.0139436
17906.7	0.0137073
17915.5	0.0134698
17924.4	0.0132312
17933.3	0.0129916
17942.1	0.012751
17951	0.0125094
17968.7	0.0120239
17977.6	0.01178
17986.5	0.0115354
17995.3	0.0112902
18004.2	0.0110445
18013.1	0.0107982
18021.9	0.0105515
18030.8	0.0103045
18048.5	0.00980931
18057.4	0.00956133
18066.2	0.00931315
18075.1	0.00906481
18084	0.00881637
18092.8	0.00856785
18101.7	0.0083193
18110.6	0.00807076
18128.3	0.00757388
18137.2	0.00732562
18146	0.00707751
18154.9	0.00682961
18163.8	0.00658193
18172.6	0.00633453
18181.5	0.00608742
18190.3	0.00584064
18208.1	0.00534821
18216.9	0.00510261
18225.8	0.00485746
18234.7	0.00461278
18243.5	0.00436862
18252.4	0.00412498
18261.3	0.00388191
18270.1	0.00363942
18287.9	0.0031563
18296.7	0.00291572
18305.6	0.00267582
18314.5	0.00243663
18323.3	0.00219817
18332.2	0.00196047
18341	0.00172355
18358.8	0.00125213
18367.6	0.00101767
18376.5	0.000784089
18385.4	0.000551397
18394.2	0.000319619
18403.1	8.87769e-05
18412	-0.000141107
18420.8	-0.00037001
18438.6	-0.000824785
18447.4	-0.00105061
18456.3	-0.00127537
18465.2	-0.00149903
18474	-0.00172157
18482.9	-0.00194298
18491.8	-0.00216322
18500.6	-0.00238228
18518.3	-0.00281674
18527.2	-0.0030321
18536.1	-0.00324617
18544.9	-0.00345893
18553.8	-0.00367037
18562.7	-0.00388044
18571.5	-0.00408913
18580.4	-0.00429642
18598.1	-0.00470666
18607	-0.00490956
18615.9	-0.00511095
18624.7	-0.0053108
18633.6	-0.00550908
18642.5	-0.00570576
18651.3	-0.00590082
18660.2	-0.00609422
18677.9	-0.00647597
18686.8	-0.00666424
18695.6	-0.00685076
18704.5	-0.00703547
18713.4	-0.00721836
18722.2	-0.0073994
18731.1	-0.00757855
18748.8	-0.00793108
18757.7	-0.00810439
18766.6	-0.00827571
18775.4	-0.00844499
18784.3	-0.0086122
18793.2	-0.00877732
18802	-0.00894031
18810.9	-0.00910115
18828.6	-0.00941624
18837.5	-0.00957043
18846.3	-0.00972235
18855.2	-0.00987197
18864.1	-0.0100193
18872.9	-0.0101642
18881.8	-0.0103067
18890.7	-0.0104468
18908.4	-0.0107197
18917.3	-0.0108523
18926.1	-0.0109825
18935	-0.0111101
18943.9	-0.0112351
18952.7	-0.0113575
18961.6	-0.0114773
18970.4	-0.0115944
18988.2	-0.0118205
18997	-0.0119295
19005.9	-0.0120358
19014.8	-0.0121393
19023.6	-0.0122399
19032.5	-0.0123378
19041.4	-0.0124328
19050.2	-0.012525
19068	-0.0127008
19076.8	-0.0127843
19085.7	-0.0128649
19094.6	-0.0129426
19103.4	-0.0130174
19112.3	-0.0130891
19121.1	-0.013158
19130	-0.0132238
19147.7	-0.0133465
19156.6	-0.0134034
19165.5	-0.0134573
19174.3	-0.0135081
19183.2	-0.013556
19192.1	-0.0136008
19200.9	-0.0136426
19218.7	-0.0137171
19227.5	-0.0137499
19236.4	-0.0137796
19245.3	-0.0138063
19254.1	-0.0138301
19263	-0.0138508
19271.8	-0.0138685
19280.7	-0.0138833
19298.4	-0.0139039
19307.3	-0.0139097
19316.2	-0.0139127
19325	-0.0139127
19333.9	-0.0139098
19342.8	-0.0139041
19351.6	-0.0138955
19360.5	-0.013884
19378.2	-0.0138526
19387.1	-0.0138327
19396	-0.0138101
19404.8	-0.0137847
19413.7	-0.0137567
19422.5	-0.0137259
19431.4	-0.0136925
19440.3	-0.0136565
19458	-0.0135767
19466.9	-0.013533
19475.7	-0.0134869
19484.6	-0.0134382
19493.5	-0.0133872
19502.3	-0.0133337
19511.2	-0.0132779
19520.1	-0.0132198
19537.8	-0.0130968
19546.7	-0.013032
19555.5	-0.012965
19564.4	-0.0128959
19573.2	-0.0128247
19582.1	-0.0127515
19591	-0.0126764
19608.7	-0.0125202
19617.6	-0.0124394
19626.4	-0.0123567
19635.3	-0.0122723
19644.2	-0.0121861
19653	-0.0120983
19661.9	-0.0120088
19670.8	-0.0119178
19688.5	-0.0117312
19697.4	-0.0116357
19706.2	-0.0115388
19715.1	-0.0114406
19723.9	-0.0113411
19732.8	-0.0112404
19741.7	-0.0111385
19750.5	-0.0110354
19768.3	-0.0108259
19777.1	-0.0107197
19786	-0.0106125
19794.9	-0.0105044
19803.7	-0.0103954
19812.6	-0.0102856
19821.5	-0.0101751
19830.3	-0.0100638
19848.1	-0.00983922
19856.9	-0.00972603
19865.8	-0.00961231
19874.6	-0.00949809
19883.5	-0.00938342
19892.4	-0.00926833
19901.2	-0.00915288
19910.1	-0.0090371
19927.8	-0.00880474
19936.7	-0.00868823
19945.6	-0.00857157
19954.4	-0.00845478
19963.3	-0.00833791
19972.2	-0.00822099
19981	-0.00810406
19998.8	-0.00787033
