0	0
11.5399	0
20.7718	0
30.0037	0
41.5436	0
50.7755	0
60.0074	0
71.5473	0
80.7792	0
90.0111	0
101.551	0
110.783	0
120.015	0
131.555	0
140.787	0
150.018	0
161.558	0
170.79	0
180.022	0
191.562	0
200.794	0
210.026	0
221.566	0
230.798	0
240.03	0
251.569	0
260.801	0
270.033	0
281.573	0
290.805	0
300.037	0
311.577	0
320.809	0
330.041	0
341.581	0
350.812	0
360.044	0
371.584	0
380.816	0
390.048	0
401.588	0
410.82	0
420.052	0
431.592	0
440.824	0
450.055	0
461.595	0
470.827	0
480.059	0
491.599	0
500.831	0
510.063	0
521.603	0
530.835	0
540.067	0
551.606	0
560.838	0
570.07	0
581.61	0
590.842	0
600.074	0
611.614	0
620.846	0
630.078	0
641.618	0
650.849	0
660.081	0
671.621	0
680.853	0
690.085	0
701.625	0
710.857	0
720.089	0
731.629	0
740.861	0
750.092	0
761.632	0
770.864	0
780.096	0
791.636	0
800.868	0
810.1	0
821.64	0
830.872	0
840.104	0
851.643	0
860.875	0
870.107	0
881.647	0
890.879	0
900.111	0
911.651	0
920.883	0
930.115	0
941.654	0
950.886	0
960.118	0
971.658	0
980.89	0
990.122	0
1001.66	0
1010.89	0
1020.13	0
1031.67	0
1040.9	0
1050.13	0
1061.67	0
1070.9	0
1080.13	0
1091.67	0
1100.9	0
1110.14	0
1121.68	0
1130.91	0
1140.14	0
1151.68	0
1160.91	0
1170.14	0
1181.68	0
1190.92	0
1200.15	0
1211.69	0
1220.92	0
1230.15	0
1241.69	0
1250.92	0
1260.16	0
1271.7	0
1280.93	0
1290.16	0
1301.7	0
1310.93	0
1320.16	0
1331.7	0
1340.93	0
1350.17	0
1361.71	0
1370.94	0
1380.17	0
1391.71	0
1400.94	0
1410.17	0
1421.71	0
1430.95	0
1440.18	0
1451.72	0
1460.95	0
1470.18	0
1481.72	0
1490.95	0
1500.18	0
1511.72	0
1520.96	0
1530.19	0
1541.73	0
1550.96	0
1560.19	0
1571.73	0
1580.96	0
1590.2	0
1601.74	0
1610.97	0
1620.2	0
1631.74	0
1640.97	0
1650.2	0
1661.74	0
1670.98	0
1680.21	0
1691.75	0
1700.98	0
1710.21	0
1721.75	0
1730.98	0
1740.21	0
1751.75	0
1760.99	0
1770.22	0
1781.76	0
1790.99	0
1800.22	0
1811.76	0
1820.99	0
1830.23	0
1841.77	0
1851	0
1860.23	0
1871.77	0
1881	0
1890.23	0
1901.77	0
1911	0
1920.24	0
1931.78	0
1941.01	0
1950.24	0
1961.78	0
1971.01	0
1980.24	0
1991.78	0
2001.02	0
2010.25	0
2021.79	0
2031.02	0
2040.25	0
2051.79	0
2061.02	0
2070.26	0
2081.79	0
2091.03	0
2100.26	0
2111.8	0
2121.03	0
2130.26	0
2141.8	0
2151.03	0
2160.27	0
2171.81	0
2181.04	0
2190.27	0
2201.81	0
2211.04	0
2220.27	0
2231.81	0
2241.05	0
2250.28	0
2261.82	0
2271.05	0
2280.28	0
2291.82	0
2301.05	0
2310.28	0
2321.82	0
2331.06	0
2340.29	0
2351.83	0
2361.06	0
2370.29	0
2381.83	0
2391.06	0
2400.3	0
2411.84	0
2421.07	0
2430.3	0
2441.84	0
2451.07	0
2460.3	0
2471.84	0
2481.07	0
2490.31	0
2501.85	0
2511.08	0
2520.31	0
2531.85	0
2541.08	0
2550.31	0
2561.85	0
2571.09	0
2580.32	0
2591.86	0
2601.09	0
2610.32	0
2621.86	0
2631.09	0
2640.33	0
2651.87	0
2661.1	0
2670.33	0
2681.87	0
2691.1	0
2700.33	0
2711.87	0
2721.1	0
2730.34	0
2741.88	0
2751.11	0
2760.34	0
2771.88	0
2781.11	0
2790.34	0
2801.88	0
2811.12	0
2820.35	0
2831.89	0
2841.12	0
2850.35	0
2861.89	0
2871.12	0
2880.35	0
2891.89	0
2901.13	0
2910.36	0
2921.9	0
2931.13	0
2940.36	0
2951.9	0
2961.13	0
2970.36	0
2981.9	0
2991.14	0
3000.37	0
3011.91	0
3021.14	0
3030.37	0
3041.91	0
3051.14	0
3060.37	0
3071.91	0
3081.15	0
3090.38	0
3101.92	0
3111.15	0
3120.38	0
3131.92	0
3141.15	0
3150.38	0
3161.92	0
3171.16	0
3180.39	0
3191.93	0
3201.16	0
3210.39	0
3221.93	0
3231.16	0
3240.39	0
3251.93	0
3261.16	-9.09495e-13
3270.4	-2.72848e-12
3281.94	-6.36646e-12
3291.17	-1.18234e-11
3300.4	-2.09184e-11
3311.94	-4.18368e-11
3321.17	-7.00311e-11
3330.4	-1.16415e-10
3341.94	-2.17369e-10
3351.17	-3.53793e-10
3360.4	-5.69344e-10
3371.94	-1.01682e-09
3381.18	-1.5998e-09
3390.41	-2.49474e-09
3401.95	-4.28645e-09
3411.18	-6.54018e-09
3420.41	-9.88803e-09
3431.95	-1.63591e-08
3441.18	-2.42262e-08
3450.41	-3.55576e-08
3461.95	-5.67352e-08
3471.18	-8.16472e-08
3480.41	-1.16497e-07
3491.95	-1.79526e-07
3501.19	-2.51372e-07
3510.42	-3.491e-07
3521.96	-5.20386e-07
3531.19	-7.09826e-07
3540.42	-9.60707e-07
3551.96	-1.38741e-06
3561.19	-1.84592e-06
3570.42	-2.43782e-06
3581.96	-3.4162e-06
3591.19	-4.439e-06
3600.42	-5.72771e-06
3611.96	-7.80099e-06
3621.19	-9.91265e-06
3630.43	-1.2513e-05
3641.96	-1.65911e-05
3651.2	-2.06439e-05
3660.43	-2.55283e-05
3671.97	-3.30078e-05
3681.2	-4.02725e-05
3690.43	-4.88538e-05
3701.97	-6.17069e-05
3711.2	-7.39284e-05
3720.43	-8.81008e-05
3731.97	-0.000108902
3741.2	-0.000128301
3750.43	-0.000150422
3761.97	-0.000182301
3771.2	-0.000211516
3780.44	-0.000244335
3791.97	-0.000290868
3801.21	-0.000332861
3810.44	-0.00037942
3821.98	-0.000444506
3831.21	-0.000502468
3840.44	-0.00056601
3851.98	-0.000653779
3861.21	-0.000731065
3870.44	-0.000814995
3881.98	-0.000929768
3891.21	-0.00102989
3900.44	-0.00113777
3911.98	-0.00128408
3921.21	-0.00141073
3930.45	-0.0015463
3941.99	-0.00172889
3951.22	-0.00188591
3960.45	-0.00205307
3971.99	-0.00227685
3981.22	-0.00246818
3990.45	-0.00267084
4001.99	-0.00294064
4011.22	-0.00317008
4020.45	-0.00341194
4031.99	-0.0037322
4041.22	-0.00400308
4050.46	-0.00428726
4062	-0.00466151
4071.23	-0.00497633
4080.46	-0.00530499
4092	-0.0057354
4101.23	-0.00609544
4110.46	-0.00646943
4122	-0.00695644
4131.23	-0.00736152
4140.46	-0.00778017
4152	-0.00832225
4161.24	-0.00877059
4170.47	-0.00923162
4182.01	-0.00982516
4191.24	-0.0103133
4200.47	-0.0108126
4212.01	-0.0114518
4221.24	-0.0119742
4230.47	-0.0125058
4242.01	-0.0131817
4251.25	-0.0137305
4260.48	-0.0142852
4272.02	-0.0149851
4281.25	-0.0155484
4290.48	-0.0161129
4302.02	-0.0168176
4311.25	-0.0173779
4320.49	-0.0179326
4332.03	-0.0186139
4341.26	-0.0191456
4350.49	-0.0196617
4362.03	-0.0202791
4371.26	-0.0207455
4380.49	-0.0211825
4390.53	-0.0216176
4402.07	-0.0220579
4411.3	-0.0223558
4420.53	-0.0225979
4432.07	-0.0228104
4441.3	-0.0228983
4450.53	-0.0229035
4462.07	-0.0227791
4471.3	-0.0225622
4480.54	-0.0222287
4492.08	-0.0216298
4501.31	-0.0209894
4510.54	-0.020191
4522.08	-0.0189489
4531.31	-0.0177414
4540.54	-0.0163268
4552.08	-0.0142423
4561.31	-0.012301
4570.55	-0.0100977
4582.09	-0.0069483
4591.32	-0.00409117
4600.55	-0.0009151
4612.09	0.00352933
4621.32	0.00748417
4630.55	0.0118105
4642.09	0.0177621
4651.33	0.0229736
4660.56	0.0285965
4672.1	0.0362165
4681.33	0.0427928
4690.56	0.0497996
4702.1	0.0591639
4711.33	0.0671367
4720.56	0.075531
4732.1	0.0866027
4741.34	0.0959083
4750.57	0.105596
4762.11	0.118213
4771.34	0.128688
4780.57	0.139475
4792.11	0.153358
4801.34	0.164749
4810.57	0.176359
4822.11	0.191133
4831.35	0.20312
4840.58	0.215219
4852.12	0.230448
4861.35	0.242672
4870.58	0.254895
4882.12	0.270118
4891.35	0.282209
4900.59	0.294184
4912.13	0.308939
4921.36	0.320529
4930.59	0.331894
4942.13	0.345732
4951.36	0.356468
4960.59	0.366872
4972.13	0.37936
4981.36	0.388899
4990.6	0.398002
5002.14	0.408721
5011.37	0.416731
5020.6	0.424204
5032.14	0.432747
5041.37	0.438906
5050.6	0.444434
5062.14	0.450417
5071.38	0.454428
5080.61	0.457725
5092.15	0.460806
5101.38	0.462415
5110.61	0.463243
5122.15	0.463159
5131.38	0.46218
5140.61	0.460383
5152.15	0.456978
5161.39	0.453326
5170.62	0.448853
5182.16	0.442117
5191.39	0.435829
5200.62	0.428757
5212.16	0.418847
5221.39	0.410094
5230.63	0.400637
5242.17	0.387878
5251.4	0.376963
5260.63	0.365462
5272.17	0.350326
5281.4	0.337664
5290.63	0.324559
5302.17	0.307628
5311.4	0.293702
5320.64	0.279489
5332.18	0.261392
5341.41	0.246705
5350.64	0.231882
5362.18	0.213226
5371.41	0.198249
5380.64	0.183263
5392.18	0.164573
5401.42	0.14969
5410.65	0.134897
5422.19	0.116565
5431.42	0.102051
5440.65	0.087686
5452.19	0.0699581
5461.42	0.0559679
5470.65	0.0421543
5482.19	0.02514
5491.43	0.0117322
5500.66	-0.00149469
5512.2	-0.0177751
5521.43	-0.0305976
5530.66	-0.0432411
5542.2	-0.0587921
5551.43	-0.0710268
5560.66	-0.0830731
5572.2	-0.0978542
5581.44	-0.109445
5590.67	-0.120812
5602.21	-0.13468
5611.44	-0.145477
5620.67	-0.155983
5632.21	-0.168664
5641.44	-0.17841
5650.68	-0.187767
5662.22	-0.198861
5671.45	-0.207209
5680.68	-0.215049
5692.22	-0.224075
5701.45	-0.230631
5710.68	-0.236557
5722.22	-0.243026
5731.45	-0.247412
5740.69	-0.251067
5752.23	-0.25457
5761.46	-0.256498
5770.69	-0.257633
5782.23	-0.257924
5791.46	-0.257255
5800.69	-0.255786
5812.23	-0.252846
5821.46	-0.249631
5830.7	-0.245675
5842.24	-0.239733
5851.47	-0.234227
5860.7	-0.228097
5872.24	-0.219625
5881.47	-0.212263
5890.7	-0.20444
5902.24	-0.194099
5911.48	-0.185449
5920.71	-0.176528
5932.25	-0.16509
5941.48	-0.155783
5950.71	-0.146403
5962.25	-0.134664
5971.48	-0.125329
5980.71	-0.116102
5992.25	-0.104797
6001.49	-0.0959919
6010.72	-0.0874457
6022.26	-0.0771852
6031.49	-0.0693557
6040.72	-0.0618951
6052.26	-0.053126
6061.49	-0.0465813
6070.73	-0.0404728
6082.26	-0.0334693
6091.5	-0.0283826
6100.73	-0.0237602
6112.27	-0.0186375
6121.5	-0.0150619
6130.73	-0.0119467
6142.27	-0.00868978
6151.5	-0.00658348
6160.74	-0.00490947
6172.28	-0.00340606
6181.51	-0.0026578
6190.74	-0.00229713
6202.28	-0.00236651
6211.51	-0.00281703
6220.74	-0.00359889
6232.28	-0.00501299
6241.51	-0.00646941
6250.75	-0.0081925
6262.29	-0.0106889
6271.52	-0.0129335
6280.75	-0.0153737
6292.29	-0.0186644
6301.52	-0.0214609
6310.75	-0.0243779
6322.29	-0.0281577
6331.53	-0.0312597
6340.76	-0.0344059
6352.3	-0.0383659
6361.53	-0.0415283
6370.76	-0.0446622
6382.3	-0.048508
6391.53	-0.0515035
6400.76	-0.054407
6412.3	-0.0578815
6421.54	-0.0605188
6430.77	-0.0630152
6440	-0.0653594
6451.54	-0.0680611
6460.77	-0.0700309
6470	-0.0718246
6481.54	-0.0738148
6490.78	-0.0752041
6500.01	-0.0764143
6511.55	-0.07768
6520.78	-0.0785007
6530.01	-0.0791578
6541.55	-0.0797615
6550.78	-0.0800814
6560.01	-0.0802673
6571.55	-0.0803283
6580.79	-0.080254
6590.02	-0.0800832
6601.56	-0.0797525
6610.79	-0.0794086
6620.02	-0.0790069
6631.56	-0.0784402
6640.79	-0.0779481
6650.03	-0.077432
6661.57	-0.0767664
6670.8	-0.076227
6680.03	-0.0756884
6691.57	-0.0750249
6700.8	-0.0745069
6710.03	-0.0740038
6721.57	-0.0733989
6730.8	-0.0729351
6740.04	-0.0724892
6751.58	-0.071955
6760.81	-0.0715439
6770.04	-0.0711442
6781.58	-0.0706553
6790.81	-0.0702679
6800.04	-0.0698791
6811.58	-0.0693836
6820.81	-0.0689736
6830.05	-0.068546
6841.59	-0.0679788
6850.82	-0.0674929
6860.05	-0.0669732
6871.59	-0.0662689
6880.82	-0.0656568
6890.05	-0.0649971
6901.59	-0.0641008
6910.83	-0.0633229
6920.06	-0.0624884
6931.6	-0.0613634
6940.83	-0.0603965
6950.06	-0.0593697
6961.6	-0.0580023
6970.83	-0.0568422
6980.06	-0.0556249
6991.6	-0.0540258
7000.84	-0.0526877
7010.07	-0.0513006
7021.61	-0.0495034
7030.84	-0.0480199
7040.07	-0.0465004
7051.61	-0.0445578
7060.84	-0.0429752
7070.08	-0.0413732
7081.62	-0.0393514
7090.85	-0.0377255
7100.08	-0.0360982
7111.62	-0.0340707
7120.85	-0.0324609
7130.08	-0.0308678
7141.62	-0.028908
7150.85	-0.0273718
7160.09	-0.0258689
7171.63	-0.0240439
7180.86	-0.022632
7190.09	-0.0212669
7201.63	-0.0196315
7210.86	-0.0183833
7220.09	-0.0171914
7231.63	-0.0157833
7240.86	-0.014724
7250.1	-0.0137256
7261.64	-0.0125634
7270.87	-0.0117024
7280.1	-0.0109017
7291.64	-0.00998405
7300.87	-0.00931464
7310.1	-0.00870062
7321.64	-0.00800737
7330.87	-0.00750888
7340.11	-0.00705698
7351.65	-0.00655256
7360.88	-0.00619305
7370.11	-0.00586862
7381.65	-0.00550651
7390.88	-0.00524669
7400.11	-0.00500907
7411.65	-0.0047371
7420.88	-0.00453472
7430.12	-0.00434161
7441.66	-0.00410751
7450.89	-0.00392167
7460.12	-0.0037334
7471.66	-0.00348985
7480.89	-0.00328489
7490.12	-0.0030681
7501.66	-0.00277699
7510.89	-0.00252562
7520.13	-0.00225605
7531.67	-0.00189161
7540.9	-0.00157696
7550.13	-0.00124122
7561.67	-0.000791625
7570.9	-0.000408244
7580.13	-4.36965e-06
7591.67	0.00052796
7600.9	0.000974367
7610.14	0.00143744
7621.67	0.00203702
7630.91	0.00253086
7640.14	0.00303488
7651.68	0.00367558
7660.91	0.00419355
7670.14	0.00471343
7681.68	0.00536172
7690.91	0.00587568
7700.14	0.00638238
7711.68	0.00700125
7720.92	0.00748132
7730.15	0.0079451
7741.69	0.00849791
7750.92	0.00891559
7760.15	0.0093089
7771.69	0.00976296
7780.92	0.0100937
7790.15	0.0103937
7801.69	0.010723
7810.93	0.0109482
7820.16	0.0111382
7831.7	0.0113249
7840.93	0.0114327
7850.16	0.0115031
7861.7	0.0115379
7870.93	0.0115233
7880.16	0.0114708
7891.7	0.0113525
7900.94	0.0112161
7910.17	0.0110431
7921.71	0.0107763
7930.94	0.0105232
7940.17	0.0102356
7951.71	0.00982874
7960.94	0.00946635
7970.17	0.00907198
7981.71	0.00853525
7990.95	0.00807175
8000.18	0.00757872
8011.72	0.00692195
8020.95	0.00636491
8030.18	0.00578043
8041.72	0.00501206
8050.95	0.00436777
8060.18	0.00369768
8071.72	0.00282447
8080.96	0.00209793
8090.19	0.00134696
8101.73	0.000374505
8110.96	-0.000429944
8120.19	-0.00125746
8131.73	-0.00232357
8140.96	-0.00320119
8150.19	-0.00410017
8161.73	-0.00525292
8170.97	-0.00619745
8180.2	-0.00716093
8191.74	-0.00839052
8200.97	-0.00939315
8210.2	-0.0104114
8221.74	-0.0117044
8230.97	-0.0127532
8240.2	-0.0138133
8251.74	-0.0151522
8260.98	-0.0162322
8270.21	-0.0173185
8281.75	-0.0186823
8290.98	-0.0197761
8300.21	-0.0208703
8311.75	-0.0222359
8320.98	-0.0233245
8330.21	-0.0244076
8341.75	-0.0257512
8350.99	-0.0268156
8360.22	-0.0278689
8371.76	-0.0291674
8380.99	-0.0301898
8390.22	-0.0311961
8401.76	-0.0324291
8410.99	-0.0333941
8420.23	-0.0343387
8431.77	-0.0354891
8441	-0.0363839
8450.23	-0.037255
8461.77	-0.0383091
8471	-0.0391236
8480.23	-0.0399117
8491.77	-0.0408586
8501	-0.0415847
8510.24	-0.0422821
8521.78	-0.0431125
8531.01	-0.0437428
8540.24	-0.0443421
8551.78	-0.0450464
8561.01	-0.045573
8570.24	-0.0460658
8581.78	-0.0466327
8591.02	-0.0470458
8600.25	-0.0474216
8611.79	-0.0478371
8621.02	-0.0481245
8630.25	-0.0483702
8641.79	-0.0486167
8651.02	-0.0487634
8660.25	-0.0488634
8671.79	-0.0489205
8681.03	-0.0489096
8690.26	-0.0488467
8701.8	-0.0486923
8711.03	-0.0485062
8720.26	-0.0482628
8731.8	-0.0478757
8741.03	-0.0474979
8750.27	-0.0470583
8761.81	-0.04642
8771.04	-0.0458372
8780.27	-0.0451894
8791.81	-0.0442872
8801.04	-0.0434912
8810.27	-0.042629
8821.81	-0.0414581
8831.04	-0.0404475
8840.28	-0.0393719
8851.82	-0.0379371
8861.05	-0.0367184
8870.28	-0.0354385
8881.82	-0.0337547
8891.05	-0.032343
8900.28	-0.0308761
8911.82	-0.0289686
8921.06	-0.0273867
8930.29	-0.025758
8941.83	-0.0236612
8951.06	-0.0219387
8960.29	-0.0201799
8971.83	-0.0179355
8981.06	-0.0161077
8990.29	-0.0142549
9001.83	-0.0119098
9011.07	-0.0100147
9020.3	-0.00810698
9031.84	-0.0057101
9041.07	-0.00378736
9050.3	-0.00186391
9061.84	0.000535948
9071.07	0.00244801
9080.31	0.00434947
9091.85	0.00670641
9101.08	0.00857227
9110.31	0.0104174
9121.85	0.0126904
9131.08	0.0144789
9140.31	0.0162382
9151.85	0.0183927
9161.08	0.0200782
9170.32	0.0217276
9181.86	0.0237363
9191.09	0.0252989
9200.32	0.0268207
9211.86	0.0286639
9221.09	0.0300901
9230.32	0.0314725
9241.86	0.0331381
9251.1	0.0344202
9260.33	0.0356572
9271.87	0.0371401
9281.1	0.0382758
9290.33	0.0393667
9301.87	0.0406679
9311.1	0.0416596
9320.33	0.042608
9331.87	0.0437338
9341.11	0.0445876
9350.34	0.0454007
9361.88	0.0463612
9371.11	0.047086
9380.34	0.0477733
9391.88	0.0485812
9401.11	0.0491877
9410.35	0.0497601
9421.88	0.0504291
9431.12	0.0509284
9440.35	0.0513969
9451.89	0.0519407
9461.12	0.0523434
9470.35	0.0527182
9481.89	0.0531488
9491.12	0.0534639
9500.36	0.0537534
9511.9	0.0540805
9521.13	0.0543148
9530.36	0.0545252
9541.9	0.0547552
9551.13	0.054913
9560.36	0.0550478
9571.9	0.0551841
9581.13	0.0552673
9590.37	0.0553276
9601.91	0.0553705
9611.14	0.0553788
9620.37	0.0553638
9631.91	0.0553118
9641.14	0.0552436
9650.37	0.0551513
9661.91	0.055002
9671.15	0.0548551
9680.38	0.0546837
9691.92	0.0544347
9701.15	0.0542076
9710.38	0.0539558
9721.92	0.0536062
9731.15	0.0532988
9740.39	0.0529669
9751.92	0.052518
9761.16	0.052132
9770.39	0.0517225
9781.93	0.0511782
9791.16	0.0507174
9800.39	0.0502347
9811.93	0.0496014
9821.16	0.0490715
9830.4	0.0485217
9841.94	0.0478075
9851.17	0.0472155
9860.4	0.0466058
9871.94	0.04582
9881.17	0.0451732
9890.4	0.044511
9901.94	0.0436627
9911.18	0.0429681
9920.41	0.0422602
9931.95	0.0413571
9941.18	0.0406206
9950.41	0.0398721
9961.95	0.0389202
9971.18	0.0381458
9980.41	0.0373602
9991.95	0.0363628
10001.2	0.0355526
10010.4	0.0347314
10022	0.0336896
10031.2	0.0328439
10040.4	0.031987
10052	0.0309001
10061.2	0.0300179
10070.4	0.0291241
10082	0.0279906
10091.2	0.0270705
10100.4	0.0261386
10112	0.024957
10121.2	0.0239983
10130.4	0.0230277
10142	0.0217979
10151.2	0.020801
10160.4	0.0197928
10172	0.018517
10181.2	0.0174845
10190.4	0.0164419
10202	0.0151251
10211.2	0.0140618
10220.4	0.0129903
10232	0.0116406
10241.2	0.0105536
10250.4	0.00946105
10262	0.00808905
10271.2	0.00698754
10280.5	0.00588365
10292	0.004502
10301.2	0.00339653
10310.5	0.00229207
10322	0.000914536
10331.2	-0.000183765
10340.5	-0.00127762
10352	-0.00263714
10361.2	-0.00371729
10370.5	-0.00478975
10382	-0.0061181
10391.2	-0.00716991
10400.5	-0.00821114
10412	-0.00949656
10421.2	-0.0105111
10430.5	-0.0115125
10442	-0.012745
10451.2	-0.0137146
10460.5	-0.0146692
10472	-0.0158402
10481.2	-0.0167588
10490.5	-0.0176604
10502	-0.0187631
10511.2	-0.0196251
10520.5	-0.0204688
10532	-0.0214969
10541.3	-0.0222977
10550.5	-0.0230787
10562	-0.0240264
10571.3	-0.0247612
10580.5	-0.0254748
10592	-0.0263361
10601.3	-0.0270001
10610.5	-0.0276413
10622	-0.0284099
10631.3	-0.0289979
10640.5	-0.0295616
10652	-0.030231
10661.3	-0.030738
10670.5	-0.031219
10682	-0.0317832
10691.3	-0.0322044
10700.5	-0.0325984
10712	-0.0330524
10721.3	-0.0333844
10730.5	-0.0336887
10742	-0.0340297
10751.3	-0.0342713
10760.5	-0.0344852
10772	-0.0347142
10781.3	-0.034867
10790.5	-0.0349933
10802.1	-0.0351151
10811.3	-0.0351845
10820.5	-0.0352299
10832.1	-0.0352546
10841.3	-0.03525
10850.5	-0.0352251
10862.1	-0.0351678
10871.3	-0.0351027
10880.5	-0.0350223
10892.1	-0.0349029
10901.3	-0.0347945
10910.5	-0.0346767
10922.1	-0.0345191
10931.3	-0.0343874
10940.5	-0.0342528
10952.1	-0.0340836
10961.3	-0.0339502
10970.5	-0.0338207
10982.1	-0.0336676
10991.3	-0.0335546
11000.5	-0.0334522
11012.1	-0.0333421
11021.3	-0.0332706
11030.5	-0.0332157
11042.1	-0.0331733
11051.3	-0.033162
11060.5	-0.0331726
11072.1	-0.0332186
11081.3	-0.0332831
11090.5	-0.0333733
11102.1	-0.0335236
11111.3	-0.0336749
11120.6	-0.0338544
11132.1	-0.0341192
11141.3	-0.0343636
11150.6	-0.0346372
11162.1	-0.0350202
11171.3	-0.0353591
11180.6	-0.0357266
11192.1	-0.0362253
11201.3	-0.036655
11210.6	-0.0371112
11222.1	-0.0377173
11231.3	-0.0382296
11240.6	-0.0387649
11252.1	-0.0394647
11261.3	-0.0400473
11270.6	-0.0406485
11282.1	-0.0414239
11291.3	-0.0420614
11300.6	-0.0427124
11312.1	-0.0435424
11321.3	-0.0442173
11330.6	-0.0449001
11342.1	-0.045762
11351.3	-0.046456
11360.6	-0.0471522
11372.1	-0.0480229
11381.4	-0.0487178
11390.6	-0.0494097
11402.1	-0.0502677
11411.4	-0.050947
11420.6	-0.0516185
11432.1	-0.0524451
11441.4	-0.0530947
11450.6	-0.0537329
11462.1	-0.0545132
11471.4	-0.0551226
11480.6	-0.0557182
11492.1	-0.0564423
11501.4	-0.057005
11510.6	-0.0575527
11522.1	-0.0582161
11531.4	-0.0587298
11540.6	-0.0592287
11552.1	-0.0598318
11561.4	-0.0602984
11570.6	-0.0607514
11582.1	-0.0612995
11591.4	-0.0617242
11600.6	-0.0621376
11612.1	-0.0626394
11621.4	-0.06303
11630.6	-0.0634119
11642.2	-0.0638783
11651.4	-0.0642437
11660.6	-0.0646032
11672.2	-0.0650455
11681.4	-0.0653946
11690.6	-0.0657402
11702.2	-0.0661683
11711.4	-0.0665082
11720.6	-0.0668463
11732.2	-0.067267
11741.4	-0.0676021
11750.6	-0.0679361
11762.2	-0.0683518
11771.4	-0.0686827
11780.6	-0.0690117
11792.2	-0.0694195
11801.4	-0.0697423
11810.6	-0.070061
11822.2	-0.0704525
11831.4	-0.0707588
11840.6	-0.0710577
11852.2	-0.0714189
11861.4	-0.0716963
11870.6	-0.0719617
11882.2	-0.0722744
11891.4	-0.0725073
11900.6	-0.0727229
11912.2	-0.0729658
11921.4	-0.0731366
11930.6	-0.0732847
11942.2	-0.0734353
11951.4	-0.0735262
11960.6	-0.073589
11972.2	-0.0736256
11981.4	-0.0736198
11990.7	-0.0735812
12002.2	-0.073485
12011.4	-0.0733684
12020.7	-0.0732154
12032.2	-0.0729719
12041.4	-0.0727344
12050.7	-0.0724584
12062.2	-0.0720587
12071.4	-0.0716951
12080.7	-0.0712924
12092.2	-0.0707345
12101.4	-0.0702449
12110.7	-0.0697175
12122.2	-0.0690061
12131.4	-0.0683963
12140.7	-0.0677515
12152.2	-0.0668982
12161.4	-0.0661792
12170.7	-0.0654295
12182.2	-0.0644517
12191.4	-0.0636389
12200.7	-0.0628008
12212.2	-0.0617204
12221.4	-0.0608323
12230.7	-0.0599249
12242.2	-0.0587667
12251.4	-0.0578232
12260.7	-0.0568667
12272.2	-0.0556556
12281.5	-0.0546765
12290.7	-0.0536902
12302.2	-0.0524496
12311.5	-0.0514527
12320.7	-0.0504535
12332.2	-0.049203
12341.5	-0.0482028
12350.7	-0.0472038
12362.2	-0.045958
12371.5	-0.0449645
12380.7	-0.0439743
12392.2	-0.0427419
12401.5	-0.0417604
12410.7	-0.0407829
12422.2	-0.0395665
12431.5	-0.0385974
12440.7	-0.0376316
12452.2	-0.0364282
12461.5	-0.0354678
12470.7	-0.0345087
12482.2	-0.0333104
12491.5	-0.0323512
12500.7	-0.0313906
12512.2	-0.0301861
12521.5	-0.0292184
12530.7	-0.0282457
12542.3	-0.0270214
12551.5	-0.0260337
12560.7	-0.0250376
12572.3	-0.0237788
12581.5	-0.0227596
12590.7	-0.0217283
12602.3	-0.0204208
12611.5	-0.0193589
12620.7	-0.0182817
12632.3	-0.0169127
12641.5	-0.0157983
12650.7	-0.0146662
12662.3	-0.013225
12671.5	-0.0120506
12680.7	-0.0108567
12692.3	-0.00933612
12701.5	-0.00809683
12710.7	-0.00683706
12722.3	-0.00523341
12731.5	-0.00392738
12740.7	-0.00260095
12752.3	-0.000914576
12761.5	0.000456776
12770.7	0.00184744
12782.3	0.00361211
12791.5	0.00504416
12800.7	0.00649349
12812.3	0.00832824
12821.5	0.00981346
12830.7	0.0113131
12842.3	0.0132065
12851.5	0.014735
12860.8	0.0162745
12872.3	0.0182125
12881.5	0.0197725
12890.8	0.0213396
12902.3	0.0233066
12911.5	0.0248852
12920.8	0.0264667
12932.3	0.0284459
12941.5	0.0300293
12950.8	0.0316115
12962.3	0.0335853
12971.5	0.0351595
12980.8	0.036728
12992.3	0.0386784
13001.5	0.0402289
13010.8	0.0417691
13020	0.0432977
13031.5	0.0451899
13040.8	0.0466871
13050	0.0481681
13061.5	0.0499943
13070.8	0.0514335
13080	0.0528518
13091.6	0.0545934
13100.8	0.0559598
13110	0.057301
13121.6	0.0589399
13130.8	0.0602195
13140	0.0614698
13151.6	0.0629896
13160.8	0.0641696
13170	0.0653168
13181.6	0.0667031
13190.8	0.067773
13200	0.0688073
13211.6	0.0700491
13220.8	0.071001
13230	0.0719154
13241.6	0.0730054
13250.8	0.0738345
13260	0.0746255
13271.6	0.0755605
13280.8	0.0762656
13290	0.0769328
13301.6	0.0777138
13310.8	0.0782967
13320	0.0788429
13331.6	0.0794747
13340.8	0.0799402
13350	0.0803708
13361.6	0.0808612
13370.8	0.0812162
13380	0.0815389
13391.6	0.0818982
13400.8	0.0821514
13410.1	0.0823753
13421.6	0.0826151
13430.8	0.0827763
13440.1	0.0829111
13451.6	0.0830442
13460.8	0.0831235
13470.1	0.0831796
13481.6	0.0832188
13490.8	0.0832264
13500.1	0.0832141
13511.6	0.0831721
13520.8	0.0831183
13530.1	0.0830476
13541.6	0.0829369
13550.8	0.0828315
13560.1	0.0827121
13571.6	0.0825448
13580.8	0.0823974
13590.1	0.0822389
13601.6	0.0820267
13610.8	0.0818466
13620.1	0.0816582
13631.6	0.0814124
13640.8	0.0812084
13650.1	0.0809988
13661.6	0.0807298
13670.9	0.0805099
13680.1	0.0802866
13691.6	0.0800034
13700.9	0.0797742
13710.1	0.0795432
13721.6	0.0792523
13730.9	0.0790182
13740.1	0.0787831
13751.6	0.0784877
13760.9	0.0782503
13770.1	0.0780116
13781.6	0.0777111
13790.9	0.0774685
13800.1	0.0772234
13811.6	0.0769125
13820.9	0.0766593
13830.1	0.0764012
13841.6	0.0760705
13850.9	0.0757982
13860.1	0.0755179
13871.6	0.0751545
13880.9	0.0748521
13890.1	0.0745381
13901.6	0.0741273
13910.9	0.0737828
13920.1	0.073423
13931.7	0.0729499
13940.9	0.0725516
13950.1	0.0721347
13961.7	0.0715861
13970.9	0.0711244
13980.1	0.0706417
13991.7	0.0700081
14000.9	0.0694766
14010.1	0.0689231
14021.7	0.0682001
14030.9	0.067597
14040.1	0.0669722
14051.7	0.0661614
14060.9	0.0654896
14070.1	0.064798
14081.7	0.0639069
14090.9	0.063174
14100.1	0.0624245
14111.7	0.061466
14120.9	0.0606834
14130.1	0.0598882
14141.7	0.0588786
14150.9	0.05806
14160.1	0.0572333
14171.7	0.0561905
14180.9	0.0553504
14190.1	0.0545064
14201.7	0.0534478
14210.9	0.0525995
14220.1	0.0517509
14231.7	0.0506913
14240.9	0.0498456
14250.2	0.0490023
14261.7	0.0479527
14270.9	0.047117
14280.2	0.0462853
14291.7	0.0452517
14300.9	0.0444297
14310.2	0.043612
14321.7	0.0425959
14330.9	0.0417874
14340.2	0.0409826
14351.7	0.039981
14360.9	0.0391826
14370.2	0.0383862
14381.7	0.0373925
14390.9	0.036598
14400.2	0.0358031
14411.7	0.0348075
14420.9	0.0340086
14430.2	0.0332062
14441.7	0.0321972
14450.9	0.0313838
14460.2	0.0305639
14471.7	0.0295281
14481	0.0286894
14490.2	0.0278408
14501.7	0.0267642
14511	0.0258889
14520.2	0.0250002
14531.7	0.0238686
14541	0.0229455
14550.2	0.0220055
14561.7	0.0208053
14571	0.0198237
14580.2	0.0188222
14591.7	0.017541
14601	0.0164916
14610.2	0.0154198
14621.7	0.0140474
14631	0.0129228
14640.2	0.0117739
14651.7	0.0103031
14661	0.00909834
14670.2	0.0078685
14681.7	0.00629581
14691	0.00500943
14700.2	0.00369817
14711.7	0.00202459
14721	0.000658639
14730.2	-0.00073077
14741.8	-0.00249948
14751	-0.00393904
14760.2	-0.00539947
14771.8	-0.0072528
14781	-0.00875633
14790.2	-0.0102771
14801.8	-0.0122003
14811	-0.0137551
14820.2	-0.0153226
14831.8	-0.0172979
14841	-0.0188889
14850.2	-0.0204878
14861.8	-0.0224953
14871	-0.0241066
14880.2	-0.0257208
14891.8	-0.0277404
14901	-0.029356
14910.2	-0.0309697
14921.8	-0.0329824
14931	-0.0345872
14940.2	-0.0361861
14951.8	-0.0381744
14961	-0.0397553
14970.2	-0.0413265
14981.8	-0.0432752
14991	-0.0448208
15000.2	-0.0463533
15011.8	-0.0482492
15021	-0.0497491
15030.2	-0.051233
15041.8	-0.0530641
15051	-0.0545087
15060.3	-0.0559345
15071.8	-0.0576885
15081	-0.0590679
15090.3	-0.060425
15101.8	-0.0620883
15111	-0.063391
15120.3	-0.0646673
15131.8	-0.0662237
15141	-0.0674356
15150.3	-0.0686164
15161.8	-0.0700461
15171	-0.0711505
15180.3	-0.072218
15191.8	-0.0734975
15201	-0.0744747
15210.3	-0.0754083
15221.8	-0.0765109
15231	-0.0773386
15240.3	-0.0781157
15251.8	-0.0790123
15261	-0.079667
15270.3	-0.0802636
15281.8	-0.0809244
15291	-0.0813823
15300.3	-0.081775
15311.8	-0.0821712
15321.1	-0.08241
15330.3	-0.0825772
15341.8	-0.082683
15351.1	-0.0826832
15360.3	-0.0826067
15371.8	-0.0824013
15381.1	-0.082148
15390.3	-0.0818144
15401.8	-0.0812838
15411.1	-0.0807678
15420.3	-0.0801702
15431.8	-0.0793086
15441.1	-0.078528
15450.3	-0.0776669
15461.8	-0.0764784
15471.1	-0.0754394
15480.3	-0.0743234
15491.8	-0.0728229
15501.1	-0.0715403
15510.3	-0.0701871
15521.8	-0.0684002
15531.1	-0.0668976
15540.3	-0.0653334
15551.9	-0.0632964
15561.1	-0.0616055
15570.3	-0.0598642
15581.9	-0.0576224
15591.1	-0.0557816
15600.3	-0.0539033
15611.9	-0.0515091
15621.1	-0.0495618
15630.3	-0.047591
15641.9	-0.0451011
15651.1	-0.0430934
15660.3	-0.0410766
15671.9	-0.0385493
15681.1	-0.0365278
15690.3	-0.0345113
15701.9	-0.0320039
15711.1	-0.0300138
15720.3	-0.0280419
15731.9	-0.0256086
15741.1	-0.0236918
15750.3	-0.0218054
15761.9	-0.0194955
15771.1	-0.01769
15780.3	-0.0159257
15791.9	-0.0137828
15801.1	-0.0121221
15810.3	-0.0105118
15821.9	-0.00857397
15831.1	-0.00708668
15840.3	-0.00565788
15851.9	-0.00395746
15861.1	-0.00266811
15870.4	-0.00144395
15881.9	-8.20574e-06
15891.1	0.00106275
15900.4	0.00206299
15911.9	0.00321158
15921.1	0.00404744
15930.4	0.00480818
15941.9	0.00565177
15951.1	0.00623957
15960.4	0.00674904
15971.9	0.00727464
15981.1	0.00760543
15990.4	0.00785603
16001.9	0.00805613
16011.1	0.0081256
16020.4	0.00811463
16031.9	0.00798825
16041.1	0.00779763
16050.4	0.00752823
16061.9	0.00708215
16071.1	0.00663926
16080.4	0.00612148
16091.9	0.00537152
16101.1	0.00469175
