0	0
13.2971	0
26.5942	0
39.8912	0
53.1883	0
66.4854	0
79.7825	0
93.0796	0
106.377	0
119.674	0
132.971	0
146.268	0
159.565	0
172.862	0
186.159	0
199.456	0
212.753	0
226.05	0
239.347	0
252.645	0
265.942	0
279.239	0
292.536	0
305.833	0
319.13	0
332.427	0
345.724	0
359.021	0
372.318	0
385.615	0
398.912	0
412.21	0
425.507	0
438.804	0
452.101	0
465.398	0
478.695	0
491.992	0
505.289	0
518.586	0
531.883	0
545.18	0
558.477	0
571.775	0
585.072	0
598.369	0
611.666	0
624.963	0
638.26	0
651.557	0
664.854	0
678.151	0
691.448	0
704.745	0
718.042	0
731.34	0
744.637	0
757.934	0
771.231	0
784.528	0
797.825	0
811.122	0
824.419	0
837.716	0
851.013	0
864.31	0
877.607	0
890.904	0
904.202	0
917.499	0
930.796	0
944.093	0
957.39	0
970.687	0
983.984	0
997.281	0
1010.58	0
1023.88	0
1037.17	0
1050.47	0
1063.77	0
1077.06	0
1090.36	0
1103.66	0
1116.95	0
1130.25	0
1143.55	0
1156.85	0
1170.14	0
1183.44	0
1196.74	0
1210.03	0
1223.33	0
1236.63	0
1249.93	0
1263.22	0
1276.52	0
1289.82	0
1303.11	0
1316.41	0
1329.71	0
1343.01	0
1356.3	0
1369.6	0
1382.9	0
1396.19	0
1409.49	0
1422.79	0
1436.08	0
1449.38	0
1462.68	0
1475.98	0
1489.27	0
1502.57	0
1515.87	0
1529.16	0
1542.46	0
1555.76	0
1569.06	0
1582.35	0
1595.65	0
1608.95	0
1622.24	0
1635.54	0
1648.84	0
1662.14	0
1675.43	0
1688.73	0
1702.03	0
1715.32	0
1728.62	0
1741.92	0
1755.21	0
1768.51	0
1781.81	0
1795.11	0
1808.4	0
1821.7	0
1835	0
1848.29	0
1861.59	0
1874.89	0
1888.19	0
1901.48	0
1914.78	0
1928.08	0
1941.37	0
1954.67	0
1967.97	0
1981.27	0
1994.56	0
2007.86	0
2021.16	0
2034.45	0
2047.75	0
2061.05	0
2074.34	0
2087.64	0
2100.94	0
2114.24	0
2127.53	0
2140.83	-9.09495e-13
2154.13	-9.09495e-13
2167.42	-1.81899e-12
2180.72	-2.72848e-12
2194.02	-3.63798e-12
2207.32	-4.54747e-12
2220.61	-6.36646e-12
2233.91	-9.09495e-12
2247.21	-1.36424e-11
2260.5	-1.90994e-11
2273.8	-2.72848e-11
2287.1	-3.81988e-11
2300.4	-5.36602e-11
2313.69	-7.54881e-11
2326.99	-1.04592e-10
2340.29	-1.4461e-10
2353.58	-1.9827e-10
2366.88	-2.71029e-10
2380.18	-3.69255e-10
2393.47	-5.00222e-10
2406.77	-6.74845e-10
2420.07	-9.06766e-10
2433.37	-1.21327e-09
2446.66	-1.61617e-09
2459.96	-2.14459e-09
2473.26	-2.83399e-09
2486.55	-3.72893e-09
2499.85	-4.88762e-09
2513.15	-6.38192e-09
2526.45	-8.30096e-09
2539.74	-1.07566e-08
2553.04	-1.38871e-08
2566.34	-1.78625e-08
2579.63	-2.28938e-08
2592.93	-2.92366e-08
2606.23	-3.72056e-08
2619.53	-4.71828e-08
2632.82	-5.9631e-08
2646.12	-7.51097e-08
2659.42	-9.4291e-08
2672.71	-1.17982e-07
2686.01	-1.47148e-07
2699.31	-1.82938e-07
2712.6	-2.26717e-07
2725.9	-2.80099e-07
2739.2	-3.44989e-07
2752.5	-4.23624e-07
2765.79	-5.18631e-07
2779.09	-6.33075e-07
2792.39	-7.70523e-07
2805.68	-9.35122e-07
2818.98	-1.13167e-06
2832.28	-1.36569e-06
2845.58	-1.64355e-06
2858.87	-1.97256e-06
2872.17	-2.36105e-06
2885.47	-2.81855e-06
2898.76	-3.35587e-06
2912.06	-3.98526e-06
2925.36	-4.72057e-06
2938.65	-5.57742e-06
2951.95	-6.57332e-06
2965.25	-7.72794e-06
2978.55	-9.0632e-06
2991.84	-1.06035e-05
3005.14	-1.23761e-05
3018.44	-1.4411e-05
3031.73	-1.67414e-05
3045.03	-1.94038e-05
3058.33	-2.24384e-05
3071.62	-2.5889e-05
3084.92	-2.98038e-05
3098.22	-3.42347e-05
3111.52	-3.92385e-05
3124.81	-4.48764e-05
3138.11	-5.12142e-05
3151.41	-5.83231e-05
3164.7	-6.62789e-05
3178	-7.51627e-05
3191.3	-8.50608e-05
3204.59	-9.60647e-05
3217.89	-0.000108271
3231.19	-0.000121781
3244.48	-0.000136701
3257.78	-0.000153143
3271.08	-0.00017122
3284.37	-0.000191053
3297.67	-0.000212762
3310.97	-0.000236473
3324.27	-0.000262312
3337.56	-0.000290405
3350.86	-0.00032088
3364.16	-0.000353861
3377.45	-0.000389471
3390.75	-0.000427828
3404.05	-0.000469043
3417.34	-0.000513218
3430.64	-0.000560448
3443.94	-0.000610811
3457.23	-0.000664372
3470.53	-0.000721177
3483.83	-0.00078125
3497.12	-0.000844592
3510.42	-0.000911175
3523.72	-0.000980938
3537.01	-0.00105378
3550.31	-0.00112958
3563.61	-0.00120814
3576.9	-0.00128923
3590.2	-0.00137257
3603.5	-0.00145781
3616.79	-0.00154456
3630.09	-0.00163231
3643.39	-0.00172052
3656.68	-0.00180856
3669.98	-0.0018957
3683.28	-0.00198113
3696.57	-0.00206392
3709.87	-0.00214307
3723.17	-0.00221745
3736.46	-0.00228583
3749.76	-0.00234683
3763.06	-0.00239899
3776.35	-0.00244068
3789.65	-0.00247018
3802.95	-0.00248559
3816.24	-0.00248492
3829.54	-0.00246599
3842.84	-0.00242653
3856.13	-0.00236408
3869.43	-0.00227607
3882.72	-0.00215978
3896.02	-0.00201235
3909.32	-0.00183077
3922.61	-0.00161193
3935.91	-0.00135256
3949.21	-0.0010493
3962.5	-0.000698651
3975.8	-0.00029703
3989.1	0.000159247
4002.39	0.000673944
4015.69	0.00125089
4028.99	0.00189398
4042.28	0.00260713
4055.58	0.00339428
4068.88	0.00425939
4082.17	0.00520639
4095.47	0.00623917
4108.77	0.00736156
4122.06	0.00857733
4135.36	0.00989013
4148.66	0.0113035
4161.95	0.0128207
4175.25	0.0144451
4188.55	0.0161795
4201.84	0.0180268
4215.14	0.0199893
4228.44	0.0220694
4241.73	0.0242689
4255.03	0.0265894
4268.33	0.029032
4281.62	0.0315976
4294.92	0.0342866
4308.22	0.0370988
4321.51	0.0400339
4334.81	0.0430909
4348.11	0.0462682
4361.4	0.049564
4374.7	0.0529758
4388	0.0565005
4401.3	0.0601345
4414.59	0.0638738
4427.89	0.0677138
4441.19	0.0716491
4454.48	0.075674
4467.78	0.0797822
4481.08	0.0839669
4494.37	0.0882206
4507.67	0.0925355
4520.97	0.096903
4534.27	0.101314
4547.56	0.10576
4560.86	0.110231
4574.16	0.114716
4587.45	0.119205
4600.75	0.123687
4614.05	0.128151
4627.35	0.132586
4640.64	0.136979
4653.94	0.141318
4667.24	0.145593
4680.53	0.14979
4693.83	0.153898
4707.13	0.157903
4720.42	0.161795
4733.72	0.165562
4747.02	0.16919
4760.32	0.172669
4773.61	0.175988
4786.91	0.179134
4800.21	0.182098
4813.5	0.184869
4826.8	0.187437
4840.1	0.189792
4853.4	0.191927
4866.69	0.193831
4879.99	0.195499
4893.29	0.196922
4906.58	0.198094
4919.88	0.19901
4933.18	0.199665
4946.47	0.200053
4959.77	0.200173
4973.07	0.200021
4986.37	0.199596
4999.66	0.198896
5012.96	0.197921
5026.26	0.196673
5039.55	0.195152
5052.85	0.193361
5066.15	0.191303
5079.44	0.188982
5092.74	0.186402
5106.04	0.18357
5119.34	0.180491
5132.63	0.177172
5145.93	0.173621
5159.23	0.169847
5172.52	0.165858
5185.82	0.161663
5199.12	0.157273
5212.42	0.152699
5225.71	0.147951
5239.01	0.143041
5252.31	0.137981
5265.6	0.132782
5278.9	0.127458
5292.2	0.122021
5305.49	0.116484
5318.79	0.110859
5332.09	0.105161
5345.39	0.0994009
5358.68	0.0935932
5371.98	0.0877505
5385.28	0.0818857
5398.57	0.0760116
5411.87	0.0701406
5425.17	0.0642852
5438.46	0.0584572
5451.76	0.0526684
5465.06	0.0469302
5478.36	0.0412534
5491.65	0.0356486
5504.95	0.0301259
5518.25	0.0246947
5531.54	0.0193642
5544.84	0.014143
5558.14	0.00903908
5571.44	0.00405982
5584.73	-0.000787865
5598.03	-0.00549768
5611.33	-0.0100639
5624.62	-0.0144815
5637.92	-0.0187458
5651.22	-0.0228531
5664.51	-0.0267998
5677.81	-0.0305834
5691.11	-0.0342017
5704.41	-0.0376529
5717.7	-0.0409362
5731	-0.044051
5744.3	-0.0469973
5757.59	-0.0497756
5770.89	-0.0523869
5784.19	-0.0548327
5797.49	-0.0571149
5810.78	-0.0592358
5824.08	-0.0611982
5837.38	-0.063005
5850.67	-0.0646597
5863.97	-0.0661661
5877.27	-0.0675282
5890.56	-0.0687501
5903.86	-0.0698365
5917.16	-0.0707919
5930.46	-0.0716214
5943.75	-0.0723298
5957.05	-0.0729224
5970.35	-0.0734043
5983.64	-0.073781
5996.94	-0.0740576
6010.24	-0.0742397
6023.54	-0.0743326
6036.83	-0.0743415
6050.13	-0.074272
6063.43	-0.0741291
6076.72	-0.073918
6090.02	-0.0736439
6103.32	-0.0733117
6116.61	-0.0729262
6129.91	-0.0724922
6143.21	-0.072014
6156.51	-0.0714963
6169.8	-0.070943
6183.1	-0.0703584
6196.4	-0.0697462
6209.69	-0.06911
6222.99	-0.0684534
6236.29	-0.0677796
6249.59	-0.0670917
6262.88	-0.0663925
6276.18	-0.0656847
6289.48	-0.0649707
6302.77	-0.0642529
6316.07	-0.0635332
6329.37	-0.0628136
6342.67	-0.0620958
6355.96	-0.0613812
6369.26	-0.0606712
6382.56	-0.059967
6395.85	-0.0592696
6409.15	-0.0585798
6422.45	-0.0578983
6435.74	-0.0572257
6449.04	-0.0565624
6462.34	-0.0559087
6475.64	-0.0552647
6488.93	-0.0546306
6502.23	-0.0540064
6515.53	-0.0533919
6528.82	-0.0527869
6542.12	-0.0521911
6555.42	-0.0516043
6568.72	-0.051026
6582.01	-0.0504557
6595.31	-0.0498931
6608.61	-0.0493375
6621.9	-0.0487885
6635.2	-0.0482454
6648.5	-0.0477076
6661.8	-0.0471747
6675.09	-0.0466459
6688.39	-0.0461207
6701.69	-0.0455985
6714.98	-0.0450787
6728.28	-0.0445609
6741.58	-0.0440444
6754.87	-0.0435287
6768.17	-0.0430134
6781.47	-0.0424981
6794.77	-0.0419823
6808.06	-0.0414657
6821.36	-0.0409479
6834.66	-0.0404286
6847.95	-0.0399077
6861.25	-0.0393849
6874.55	-0.03886
6887.85	-0.038333
6901.14	-0.0378037
6914.44	-0.0372722
6927.74	-0.0367385
6941.03	-0.0362026
6954.33	-0.0356647
6967.63	-0.0351249
6980.93	-0.0345833
6994.22	-0.0340404
7007.52	-0.0334962
7020.82	-0.0329511
7034.11	-0.0324054
7047.41	-0.0318596
7060.71	-0.031314
7074.01	-0.030769
7087.3	-0.0302251
7100.6	-0.0296828
7113.9	-0.0291426
7127.19	-0.0286049
7140.49	-0.0280704
7153.79	-0.0275395
7167.08	-0.0270128
7180.38	-0.0264909
7193.68	-0.0259743
7206.98	-0.0254636
7220.27	-0.0249594
7233.57	-0.0244621
7246.87	-0.0239725
7260.16	-0.023491
7273.46	-0.0230181
7286.76	-0.0225544
7300.06	-0.0221004
7313.35	-0.0216566
7326.65	-0.0212234
7339.95	-0.0208014
7353.24	-0.0203909
7366.54	-0.0199923
7379.84	-0.019606
7393.14	-0.0192325
7406.43	-0.0188719
7419.73	-0.0185246
7433.03	-0.0181908
7446.32	-0.0178708
7459.62	-0.0175647
7472.92	-0.0172728
7486.21	-0.0169951
7499.51	-0.0167318
7512.81	-0.0164828
7526.11	-0.0162483
7539.4	-0.0160281
7552.7	-0.0158223
7566	-0.0156307
7579.29	-0.0154533
7592.59	-0.0152897
7605.89	-0.01514
7619.18	-0.0150038
7632.48	-0.0148808
7645.78	-0.0147709
7659.08	-0.0146735
7672.37	-0.0145885
7685.67	-0.0145154
7698.97	-0.0144538
7712.26	-0.0144032
7725.56	-0.0143632
7738.86	-0.0143333
7752.15	-0.014313
7765.45	-0.0143017
7778.75	-0.014299
7792.05	-0.0143041
7805.34	-0.0143166
7818.64	-0.0143358
7831.94	-0.0143611
7845.23	-0.0143919
7858.53	-0.0144276
7871.83	-0.0144674
7885.12	-0.0145108
7898.42	-0.0145572
7911.72	-0.0146058
7925.02	-0.0146559
7938.31	-0.0147071
7951.61	-0.0147585
7964.91	-0.0148096
7978.2	-0.0148596
7991.5	-0.0149081
8004.8	-0.0149543
8018.09	-0.0149976
8031.39	-0.0150375
8044.69	-0.0150734
8057.99	-0.0151046
8071.28	-0.0151307
8084.58	-0.0151511
8097.88	-0.0151653
8111.17	-0.0151728
8124.47	-0.0151731
8137.77	-0.0151658
8151.06	-0.0151505
8164.36	-0.0151267
8177.66	-0.0150941
8190.96	-0.0150522
8204.25	-0.0150009
8217.55	-0.0149397
8230.85	-0.0148685
8244.14	-0.0147869
8257.44	-0.0146948
8270.74	-0.014592
8284.03	-0.0144782
8297.33	-0.0143534
8310.63	-0.0142174
8323.93	-0.0140703
8337.22	-0.0139118
8350.52	-0.0137421
8363.82	-0.013561
8377.11	-0.0133687
8390.41	-0.0131652
8403.71	-0.0129506
8417	-0.012725
8430.3	-0.0124884
8443.6	-0.0122412
8456.9	-0.0119834
8470.19	-0.0117153
8483.49	-0.0114371
8496.79	-0.0111491
8510.08	-0.0108515
8523.38	-0.0105445
8536.68	-0.0102286
8549.98	-0.00990409
8563.27	-0.00957123
8576.57	-0.00923041
8589.87	-0.00888203
8603.16	-0.00852645
8616.46	-0.00816409
8629.76	-0.00779537
8643.05	-0.0074207
8656.35	-0.00704052
8669.65	-0.00665527
8682.95	-0.00626542
8696.24	-0.0058714
8709.54	-0.00547371
8722.84	-0.00507279
8736.13	-0.00466912
8749.43	-0.00426318
8762.73	-0.00385545
8776.02	-0.0034464
8789.32	-0.00303652
8802.62	-0.00262628
8815.92	-0.00221615
8829.21	-0.00180661
8842.51	-0.00139813
8855.81	-0.000991162
8869.1	-0.000586177
8882.4	-0.000183622
8895.7	0.000216055
8908.99	0.000612418
8922.29	0.00100504
8935.59	0.00139349
8948.89	0.00177737
8962.18	0.00215626
8975.48	0.00252979
8988.78	0.00289757
9002.07	0.00325923
9015.37	0.00361442
9028.67	0.00396279
9041.96	0.00430401
9055.26	0.00463776
9068.56	0.00496374
9081.86	0.00528165
9095.15	0.00559123
9108.45	0.00589219
9121.75	0.0061843
9135.04	0.00646732
9148.34	0.00674102
9161.64	0.0070052
9174.94	0.00725966
9188.23	0.00750423
9201.53	0.00773874
9214.83	0.00796303
9228.12	0.00817698
9241.42	0.00838045
9254.72	0.00857333
9268.01	0.00875553
9281.31	0.00892697
9294.61	0.00908757
9307.91	0.00923727
9321.2	0.00937604
9334.5	0.00950382
9347.8	0.00962061
9361.09	0.00972638
9374.39	0.00982115
9387.69	0.00990491
9400.99	0.0099777
9414.28	0.0100395
9427.58	0.0100905
9440.88	0.0101305
9454.17	0.0101598
9467.47	0.0101783
9480.77	0.0101862
9494.06	0.0101835
9507.36	0.0101703
9520.66	0.0101467
9533.96	0.0101129
9547.25	0.0100688
9560.55	0.0100147
9573.85	0.00995066
9587.14	0.00987678
9600.44	0.00979321
9613.74	0.00970009
9627.04	0.00959755
9640.33	0.00948573
9653.63	0.00936477
9666.93	0.00923484
9680.22	0.00909607
9693.52	0.00894862
9706.82	0.00879265
9720.11	0.0086283
9733.41	0.00845575
9746.71	0.00827515
9760.01	0.00808666
9773.3	0.00789045
9786.6	0.00768668
9799.9	0.00747551
9813.19	0.00725711
9826.49	0.00703165
9839.79	0.00679928
9853.09	0.00656018
9866.38	0.00631451
9879.68	0.00606244
9892.98	0.00580413
9906.27	0.00553975
9919.57	0.00526947
9932.87	0.00499344
9946.16	0.00471183
9959.46	0.00442481
9972.76	0.00413254
9986.06	0.00383518
9999.35	0.00353289
10012.7	0.00322584
10025.9	0.00291419
10039.2	0.00259809
10052.5	0.00227771
10065.8	0.0019532
10079.1	0.00162472
10092.4	0.00129244
10105.7	0.000956494
10119	0.000617056
10132.3	0.000274274
10145.6	-7.1697e-05
10158.9	-0.000420703
10172.2	-0.00077259
10185.5	-0.00112721
10198.8	-0.0014844
10212.1	-0.00184403
10225.4	-0.00220593
10238.7	-0.00256997
10252	-0.00293598
10265.3	-0.00330383
10278.6	-0.00367337
10291.9	-0.00404445
10305.2	-0.00441693
10318.5	-0.00479066
10331.8	-0.0051655
10345.1	-0.00554132
10358.4	-0.00591796
10371.7	-0.0062953
10385	-0.00667319
10398.3	-0.00705149
10411.6	-0.00743007
10424.9	-0.00780879
10438.2	-0.00818753
10451.5	-0.00856614
10464.8	-0.0089445
10478	-0.00932247
10491.3	-0.00969993
10504.6	-0.0100768
10517.9	-0.0104528
10531.2	-0.010828
10544.5	-0.0112021
10557.8	-0.0115752
10571.1	-0.0119469
10584.4	-0.0123173
10597.7	-0.0126862
10611	-0.0130535
10624.3	-0.0134191
10637.6	-0.0137829
10650.9	-0.0141447
10664.2	-0.0145045
10677.5	-0.0148621
10690.8	-0.0152174
10704.1	-0.0155703
10717.4	-0.0159208
10730.7	-0.0162687
10744	-0.0166139
10757.3	-0.0169564
10770.6	-0.0172959
10783.9	-0.0176325
10797.2	-0.0179659
10810.5	-0.0182963
10823.8	-0.0186233
10837.1	-0.018947
10850.4	-0.0192672
10863.7	-0.0195838
10877	-0.0198968
10890.3	-0.0202061
10903.6	-0.0205115
10916.9	-0.020813
10930.1	-0.0211105
10943.4	-0.0214039
10956.7	-0.0216931
10970	-0.021978
10983.3	-0.0222585
10996.6	-0.0225345
11009.9	-0.022806
11023.2	-0.0230728
11036.5	-0.0233349
11049.8	-0.0235921
11063.1	-0.0238443
11076.4	-0.0240916
11089.7	-0.0243337
11103	-0.0245706
11116.3	-0.0248022
11129.6	-0.0250283
11142.9	-0.025249
11156.2	-0.025464
11169.5	-0.0256733
11182.8	-0.0258768
11196.1	-0.0260744
11209.4	-0.026266
11222.7	-0.0264514
11236	-0.0266306
11249.3	-0.0268035
11262.6	-0.02697
11275.9	-0.0271299
11289.2	-0.0272832
11302.5	-0.0274297
11315.8	-0.0275694
11329.1	-0.0277021
11342.4	-0.0278277
11355.7	-0.0279461
11369	-0.0280573
11382.2	-0.028161
11395.5	-0.0282573
11408.8	-0.0283459
11422.1	-0.0284267
11435.4	-0.0284998
11448.7	-0.0285649
11462	-0.0286219
11475.3	-0.0286708
11488.6	-0.0287115
11501.9	-0.0287437
11515.2	-0.0287676
11528.5	-0.0287828
11541.8	-0.0287894
11555.1	-0.0287872
11568.4	-0.0287762
11581.7	-0.0287562
11595	-0.0287272
11608.3	-0.028689
11621.6	-0.0286417
11634.9	-0.028585
11648.2	-0.028519
11661.5	-0.0284435
11674.8	-0.0283585
11688.1	-0.028264
11701.4	-0.0281597
11714.7	-0.0280458
11728	-0.0279221
11741.3	-0.0277886
11754.6	-0.0276452
11767.9	-0.0274918
11781.2	-0.0273286
11794.5	-0.0271553
11807.8	-0.0269721
11821.1	-0.0267788
11834.3	-0.0265754
11847.6	-0.026362
11860.9	-0.0261385
11874.2	-0.0259049
11887.5	-0.0256612
11900.8	-0.0254075
11914.1	-0.0251438
11927.4	-0.02487
11940.7	-0.0245862
11954	-0.0242925
11967.3	-0.0239888
11980.6	-0.0236752
11993.9	-0.0233519
12007.2	-0.0230188
12020.5	-0.0226759
12033.8	-0.0223235
12047.1	-0.0219615
12060.4	-0.02159
12073.7	-0.0212092
12087	-0.0208191
12100.3	-0.0204198
12113.6	-0.0200115
12126.9	-0.0195942
12140.2	-0.0191681
12153.5	-0.0187334
12166.8	-0.0182901
12180.1	-0.0178383
12193.4	-0.0173784
12206.7	-0.0169103
12220	-0.0164342
12233.3	-0.0159504
12246.6	-0.015459
12259.9	-0.0149602
12273.2	-0.0144541
12286.5	-0.013941
12299.7	-0.013421
12313	-0.0128944
12326.3	-0.0123613
12339.6	-0.011822
12352.9	-0.0112766
12366.2	-0.0107255
12379.5	-0.0101687
12392.8	-0.00960667
12406.1	-0.00903949
12419.4	-0.00846744
12432.7	-0.00789076
12446	-0.0073097
12459.3	-0.00672452
12472.6	-0.00613546
12485.9	-0.00554278
12499.2	-0.00494676
12512.5	-0.00434765
12525.8	-0.00374572
12539.1	-0.00314124
12552.4	-0.0025345
12565.7	-0.00192576
12579	-0.00131531
12592.3	-0.000703424
12605.6	-9.03916e-05
12618.9	0.000523503
12632.2	0.00113797
12645.5	0.00175273
12658.8	0.00236748
12672.1	0.00298193
12685.4	0.00359579
12698.7	0.00420877
12712	0.00482056
12725.3	0.00543089
12738.6	0.00603944
12751.8	0.00664593
12765.1	0.00725005
12778.4	0.00785152
12791.7	0.00845004
12805	0.00904531
12818.3	0.00963705
12831.6	0.0102249
12844.9	0.0108087
12858.2	0.0113881
12871.5	0.0119627
12884.8	0.0125324
12898.1	0.0130967
12911.4	0.0136556
12924.7	0.0142085
12938	0.0147553
12951.3	0.0152958
12964.6	0.0158295
12977.9	0.0163563
12991.2	0.0168759
13004.5	0.0173879
13017.8	0.0178923
13031.1	0.0183886
13044.4	0.0188766
13057.7	0.0193561
13071	0.0198268
13084.3	0.0202885
13097.6	0.0207409
13110.9	0.0211838
13124.2	0.021617
13137.5	0.0220401
13150.8	0.0224531
13164.1	0.0228557
13177.4	0.0232476
13190.7	0.0236287
13203.9	0.0239987
13217.2	0.0243574
13230.5	0.0247047
13243.8	0.0250403
13257.1	0.0253641
13270.4	0.0256759
13283.7	0.0259754
13297	0.0262626
13310.3	0.0265373
13323.6	0.0267992
13336.9	0.0270484
13350.2	0.0272845
13363.5	0.0275075
13376.8	0.0277172
13390.1	0.0279135
13403.4	0.0280962
13416.7	0.0282654
13430	0.0284208
13443.3	0.0285623
13456.6	0.0286898
13469.9	0.0288034
13483.2	0.0289028
13496.5	0.028988
13509.8	0.0290589
13523.1	0.0291154
13536.4	0.0291576
13549.7	0.0291854
13563	0.0291986
13576.3	0.0291974
13589.6	0.0291815
13602.9	0.0291512
13616.2	0.0291062
13629.5	0.0290467
13642.8	0.0289725
13656	0.0288839
13669.3	0.0287806
13682.6	0.0286628
13695.9	0.0285306
13709.2	0.0283839
13722.5	0.0282228
13735.8	0.0280473
13749.1	0.0278576
13762.4	0.0276536
13775.7	0.0274355
13789	0.0272034
13802.3	0.0269574
13815.6	0.0266975
13828.9	0.0264239
13842.2	0.0261367
13855.5	0.025836
13868.8	0.025522
13882.1	0.0251948
13895.4	0.0248546
13908.7	0.0245015
13922	0.0241357
13935.3	0.0237573
13948.6	0.0233667
13961.9	0.0229639
13975.2	0.0225491
13988.5	0.0221226
14001.8	0.0216847
14015.1	0.0212354
14028.4	0.020775
14041.7	0.0203039
14055	0.0198222
14068.3	0.0193302
14081.6	0.0188281
14094.9	0.0183163
14108.1	0.0177949
14121.4	0.0172644
14134.7	0.0167249
14148	0.0161768
14161.3	0.0156204
14174.6	0.015056
14187.9	0.0144839
14201.2	0.0139045
14214.5	0.013318
14227.8	0.0127248
14241.1	0.0121253
14254.4	0.0115198
14267.7	0.0109086
14281	0.0102921
14294.3	0.00967064
14307.6	0.00904462
14320.9	0.00841441
14334.2	0.00778035
14347.5	0.00714285
14360.8	0.00650226
14374.1	0.00585898
14387.4	0.00521339
14400.7	0.00456588
14414	0.00391683
14427.3	0.00326665
14440.6	0.00261571
14453.9	0.00196442
14467.2	0.00131316
14480.5	0.000662335
14493.8	1.23356e-05
14507.1	-0.000636445
14520.4	-0.00128362
14533.7	-0.00192878
14547	-0.00257156
14560.2	-0.00321155
14573.5	-0.00384838
14586.8	-0.00448166
14600.1	-0.00511102
14613.4	-0.00573606
14626.7	-0.00635644
14640	-0.00697176
14653.3	-0.00758168
14666.6	-0.00818584
14679.9	-0.00878387
14693.2	-0.00937544
14706.5	-0.0099602
14719.8	-0.0105378
14733.1	-0.011108
14746.4	-0.0116703
14759.7	-0.0122246
14773	-0.0127704
14786.3	-0.0133076
14799.6	-0.0138357
14812.9	-0.0143546
14826.2	-0.0148639
14839.5	-0.0153634
14852.8	-0.0158529
14866.1	-0.016332
14879.4	-0.0168006
14892.7	-0.0172585
14906	-0.0177054
14919.3	-0.0181411
14932.6	-0.0185655
14945.9	-0.0189784
14959.2	-0.0193795
14972.5	-0.0197688
14985.8	-0.0201461
14999.1	-0.0205113
15012.4	-0.0208643
15025.6	-0.0212048
15038.9	-0.021533
15052.2	-0.0218485
15065.5	-0.0221515
15078.8	-0.0224418
15092.1	-0.0227195
15105.4	-0.0229843
15118.7	-0.0232364
15132	-0.0234757
15145.3	-0.0237022
15158.6	-0.0239159
15171.9	-0.0241169
15185.2	-0.0243051
15198.5	-0.0244807
15211.8	-0.0246436
15225.1	-0.024794
15238.4	-0.024932
15251.7	-0.0250575
15265	-0.0251708
15278.3	-0.0252719
15291.6	-0.0253609
15304.9	-0.025438
15318.2	-0.0255033
15331.5	-0.025557
15344.8	-0.0255991
15358.1	-0.02563
15371.4	-0.0256496
15384.7	-0.0256583
15398	-0.0256562
15411.3	-0.0256435
15424.6	-0.0256204
15437.9	-0.0255871
15451.2	-0.0255438
15464.5	-0.0254907
15477.7	-0.0254281
15491	-0.0253562
15504.3	-0.0252751
15517.6	-0.0251852
15530.9	-0.0250867
15544.2	-0.0249797
15557.5	-0.0248647
15570.8	-0.0247417
15584.1	-0.0246111
15597.4	-0.024473
15610.7	-0.0243278
15624	-0.0241757
15637.3	-0.024017
15650.6	-0.0238518
15663.9	-0.0236805
15677.2	-0.0235032
15690.5	-0.0233203
15703.8	-0.023132
15717.1	-0.0229385
15730.4	-0.0227401
15743.7	-0.0225369
15757	-0.0223293
15770.3	-0.0221175
15783.6	-0.0219017
15796.9	-0.0216821
15810.2	-0.021459
15823.5	-0.0212326
15836.8	-0.021003
15850.1	-0.0207705
15863.4	-0.0205354
15876.7	-0.0202977
15890	-0.0200578
15903.3	-0.0198157
15916.6	-0.0195717
15929.8	-0.019326
15943.1	-0.0190786
15956.4	-0.0188299
15969.7	-0.01858
15983	-0.018329
15996.3	-0.018077
16009.6	-0.0178242
16022.9	-0.0175708
16036.2	-0.0173169
16049.5	-0.0170627
16062.8	-0.0168081
16076.1	-0.0165534
16089.4	-0.0162987
16102.7	-0.016044
16116	-0.0157895
16129.3	-0.0155353
16142.6	-0.0152814
16155.9	-0.015028
16169.2	-0.014775
16182.5	-0.0145227
16195.8	-0.014271
16209.1	-0.01402
16222.4	-0.0137698
16235.7	-0.0135204
16249	-0.0132718
16262.3	-0.0130242
16275.6	-0.0127775
16288.9	-0.0125318
16302.2	-0.0122872
16315.5	-0.0120435
16328.8	-0.011801
16342.1	-0.0115595
16355.4	-0.0113191
16368.7	-0.0110799
16381.9	-0.0108418
16395.2	-0.0106048
16408.5	-0.010369
16421.8	-0.0101344
16435.1	-0.00990086
16448.4	-0.00966852
16461.7	-0.00943733
16475	-0.0092073
16488.3	-0.00897842
16501.6	-0.00875068
16514.9	-0.00852408
16528.2	-0.00829861
16541.5	-0.00807427
16554.8	-0.00785105
16568.1	-0.00762893
16581.4	-0.00740792
16594.7	-0.00718799
16608	-0.00696915
16621.3	-0.00675139
16634.6	-0.00653469
16647.9	-0.00631905
16661.2	-0.00610446
16674.5	-0.00589091
16687.8	-0.00567841
16701.1	-0.00546695
16714.4	-0.00525652
16727.7	-0.00504711
16741	-0.00483874
16754.3	-0.0046314
16767.6	-0.00442508
16780.9	-0.0042198
16794.2	-0.00401555
16807.5	-0.00381234
16820.8	-0.00361019
16834.1	-0.00340908
16847.3	-0.00320904
16860.6	-0.00301008
16873.9	-0.00281221
16887.2	-0.00261544
16900.5	-0.00241979
16913.8	-0.00222527
16927.1	-0.00203191
16940.4	-0.00183972
16953.7	-0.00164872
16967	-0.00145895
16980.3	-0.00127042
16993.6	-0.00108315
17006.9	-0.000897184
17020.2	-0.000712539
17033.5	-0.000529247
17046.8	-0.000347339
17060.1	-0.000166847
17073.4	1.21966e-05
17086.7	0.000189758
17100	0.000365803
17113.3	0.000540296
17126.6	0.0007132
17139.9	0.000884478
17153.2	0.00105409
17166.5	0.001222
17179.8	0.00138818
17193.1	0.00155257
17206.4	0.00171514
17219.7	0.00187586
17233	0.00203467
17246.3	0.00219155
17259.6	0.00234645
17272.9	0.00249933
17286.2	0.00265015
17299.4	0.00279887
17312.7	0.00294546
17326	0.00308987
17339.3	0.00323206
17352.6	0.003372
17365.9	0.00350965
17379.2	0.00364498
17392.5	0.00377794
17405.8	0.0039085
17419.1	0.00403663
17432.4	0.00416229
17445.7	0.00428546
17459	0.0044061
17472.3	0.00452418
17485.6	0.00463967
17498.9	0.00475254
17512.2	0.00486277
17525.5	0.00497034
17538.8	0.00507521
17552.1	0.00517737
17565.4	0.00527679
17578.7	0.00537346
17592	0.00546736
17605.3	0.00555847
17618.6	0.00564678
17631.9	0.00573227
17645.2	0.00581494
17658.5	0.00589477
17671.8	0.00597175
17685.1	0.00604588
17698.4	0.00611716
17711.7	0.00618558
17725	0.00625113
17738.3	0.00631383
17751.5	0.00637367
17764.8	0.00643066
17778.1	0.0064848
17791.4	0.0065361
17804.7	0.00658457
17818	0.00663022
17831.3	0.00667306
17844.6	0.00671311
17857.9	0.00675039
17871.2	0.0067849
17884.5	0.00681668
17897.8	0.00684573
17911.1	0.00687209
17924.4	0.00689578
17937.7	0.00691682
17951	0.00693524
17964.3	0.00695107
17977.6	0.00696434
17990.9	0.00697508
18004.2	0.00698331
18017.5	0.00698909
18030.8	0.00699244
18044.1	0.00699339
18057.4	0.00699199
18070.7	0.00698827
18084	0.00698227
18097.3	0.00697404
18110.6	0.00696361
18123.9	0.00695103
18137.2	0.00693634
18150.5	0.00691958
18163.8	0.00690081
18177.1	0.00688006
18190.4	0.00685738
18203.6	0.00683281
18216.9	0.00680641
18230.2	0.00677823
18243.5	0.0067483
18256.8	0.00671668
18270.1	0.00668342
18283.4	0.00664857
18296.7	0.00661217
18310	0.00657427
18323.3	0.00653493
18336.6	0.00649419
18349.9	0.0064521
18363.2	0.0064087
18376.5	0.00636406
18389.8	0.00631821
18403.1	0.00627121
18416.4	0.00622309
18429.7	0.00617392
18443	0.00612372
18456.3	0.00607256
18469.6	0.00602048
18482.9	0.00596751
18496.2	0.00591371
18509.5	0.00585912
18522.8	0.00580377
18536.1	0.00574772
18549.4	0.00569099
18562.7	0.00563364
18576	0.0055757
18589.3	0.0055172
18602.6	0.00545819
18615.9	0.00539869
18629.2	0.00533874
18642.5	0.00527838
18655.8	0.00521763
18669	0.00515653
18682.3	0.0050951
18695.6	0.00503337
18708.9	0.00497137
18722.2	0.00490912
18735.5	0.00484665
18748.8	0.00478397
18762.1	0.00472111
18775.4	0.00465808
18788.7	0.00459491
18802	0.0045316
18815.3	0.00446818
18828.6	0.00440465
18841.9	0.00434102
18855.2	0.00427731
18868.5	0.00421353
18881.8	0.00414967
18895.1	0.00408575
18908.4	0.00402176
18921.7	0.00395772
18935	0.00389361
18948.3	0.00382944
18961.6	0.00376521
18974.9	0.00370091
18988.2	0.00363654
19001.5	0.00357209
19014.8	0.00350755
19028.1	0.00344292
19041.4	0.00337817
19054.7	0.0033133
19068	0.00324831
19081.3	0.00318316
19094.6	0.00311785
19107.9	0.00305236
19121.1	0.00298667
19134.4	0.00292077
19147.7	0.00285463
19161	0.00278823
19174.3	0.00272156
19187.6	0.00265459
19200.9	0.00258729
19214.2	0.00251965
19227.5	0.00245164
19240.8	0.00238324
19254.1	0.00231441
19267.4	0.00224514
19280.7	0.0021754
19294	0.00210516
19307.3	0.00203439
19320.6	0.00196308
19333.9	0.00189119
19347.2	0.00181869
19360.5	0.00174557
19373.8	0.00167179
19387.1	0.00159732
19400.4	0.00152215
19413.7	0.00144624
19427	0.00136957
19440.3	0.00129212
19453.6	0.00121385
19466.9	0.00113475
19480.2	0.0010548
19493.5	0.000973966
19506.8	0.000892232
19520.1	0.000809577
19533.4	0.000725981
19546.7	0.000641425
19560	0.000555891
19573.2	0.000469362
19586.5	0.000381823
19599.8	0.00029326
19613.1	0.000203658
19626.4	0.000113007
19639.7	2.12957e-05
19653	-7.14847e-05
19666.3	-0.000165342
19679.6	-0.000260282
19692.9	-0.00035631
19706.2	-0.000453428
19719.5	-0.000551638
19732.8	-0.000650939
19746.1	-0.00075133
19759.4	-0.000852807
19772.7	-0.000955365
19786	-0.001059
19799.3	-0.00116369
19812.6	-0.00126944
19825.9	-0.00137623
19839.2	-0.00148405
19852.5	-0.00159287
19865.8	-0.00170269
19879.1	-0.00181348
19892.4	-0.00192523
19905.7	-0.00203789
19919	-0.00215146
19932.3	-0.00226591
19945.6	-0.0023812
19958.9	-0.0024973
19972.2	-0.00261418
19985.5	-0.00273181
19998.8	-0.00285014
