0	0
17.7294	0
26.5942	0
35.4589	0
44.3236	0
53.1883	0
62.053	0
70.9178	0
88.6472	0
97.5119	0
106.377	0
115.241	0
124.106	0
132.971	0
141.836	0
150.7	0
168.43	0
177.294	0
186.159	0
195.024	0
203.889	0
212.753	0
221.618	0
230.483	0
248.212	0
257.077	0
265.942	0
274.806	0
283.671	0
292.536	0
301.401	0
310.265	0
327.995	0
336.859	0
345.724	0
354.589	0
363.454	0
372.318	0
381.183	0
390.048	0
407.777	0
416.642	0
425.507	0
434.371	0
443.236	0
452.101	0
460.966	0
478.695	0
487.56	0
496.424	0
505.289	0
514.154	0
523.019	0
531.883	0
540.748	0
558.477	0
567.342	0
576.207	0
585.072	0
593.936	0
602.801	0
611.666	0
620.53	0
638.26	0
647.125	0
655.989	0
664.854	0
673.719	0
682.584	0
691.448	0
700.313	0
718.042	0
726.907	0
735.772	0
744.637	0
753.501	0
762.366	0
771.231	0
780.095	0
797.825	0
806.69	0
815.554	0
824.419	0
833.284	0
842.149	0
851.013	0
868.743	0
877.607	0
886.472	0
895.337	0
904.202	0
913.066	0
921.931	0
930.796	0
948.525	0
957.39	0
966.255	0
975.119	0
983.984	0
992.849	0
1001.71	0
1010.58	0
1028.31	0
1037.17	0
1046.04	0
1054.9	0
1063.77	0
1072.63	0
1081.5	0
1090.36	0
1108.09	0
1116.95	0
1125.82	0
1134.68	0
1143.55	0
1152.41	0
1161.28	0
1170.14	0
1187.87	0
1196.74	0
1205.6	0
1214.47	0
1223.33	0
1232.2	0
1241.06	0
1258.79	0
1267.66	0
1276.52	0
1285.38	0
1294.25	0
1303.11	0
1311.98	0
1320.84	0
1338.57	0
1347.44	0
1356.3	0
1365.17	0
1374.03	0
1382.9	0
1391.76	0
1400.63	0
1418.36	0
1427.22	0
1436.08	0
1444.95	0
1453.81	0
1462.68	0
1471.54	0
1480.41	0
1498.14	0
1507	0
1515.87	0
1524.73	0
1533.6	0
1542.46	0
1551.33	0
1560.19	0
1577.92	0
1586.79	0
1595.65	0
1604.51	0
1613.38	0
1622.24	0
1631.11	0
1648.84	0
1657.7	0
1666.57	0
1675.43	0
1684.3	0
1693.16	0
1702.03	0
1710.89	0
1728.62	0
1737.49	0
1746.35	0
1755.21	0
1764.08	0
1772.94	0
1781.81	0
1790.67	0
1808.4	0
1817.27	0
1826.13	0
1835	0
1843.86	0
1852.73	0
1861.59	0
1870.46	0
1888.19	0
1897.05	0
1905.92	0
1914.78	0
1923.64	0
1932.51	0
1941.37	0
1950.24	0
1967.97	0
1976.83	0
1985.7	0
1994.56	0
2003.43	0
2012.29	0
2021.16	0
2030.02	0
2047.75	0
2056.62	0
2065.48	0
2074.34	0
2083.21	0
2092.07	0
2100.94	0
2118.67	9.09495e-13
2127.53	1.81899e-12
2136.4	1.81899e-12
2145.26	2.72848e-12
2154.13	3.63798e-12
2162.99	5.45697e-12
2171.86	7.27596e-12
2180.72	9.09495e-12
2198.45	1.63709e-11
2207.32	2.18279e-11
2216.18	2.81943e-11
2225.05	3.63798e-11
2233.91	4.72937e-11
2242.77	6.09361e-11
2251.64	7.9126e-11
2260.5	1.02773e-10
2278.23	1.69166e-10
2287.1	2.1646e-10
2295.96	2.76486e-10
2304.83	3.51974e-10
2313.69	4.46562e-10
2322.56	5.63887e-10
2331.42	7.11225e-10
2340.29	8.94943e-10
2358.02	1.40335e-09
2366.88	1.75078e-09
2375.75	2.17824e-09
2384.61	2.70211e-09
2393.47	3.3433e-09
2402.34	4.12638e-09
2411.2	5.07953e-09
2420.07	6.23641e-09
2437.8	9.32869e-09
2446.66	1.13669e-08
2455.53	1.3817e-08
2464.39	1.67538e-08
2473.26	2.02663e-08
2482.12	2.44572e-08
2490.99	2.94449e-08
2508.72	4.23852e-08
2517.58	5.0678e-08
2526.45	6.04568e-08
2535.31	7.19619e-08
2544.17	8.5467e-08
2553.04	1.01286e-07
2561.9	1.19773e-07
2570.77	1.41333e-07
2588.5	1.95551e-07
2597.36	2.29306e-07
2606.23	2.68338e-07
2615.09	3.13377e-07
2623.96	3.65243e-07
2632.82	4.2485e-07
2641.69	4.93214e-07
2650.55	5.71469e-07
2668.28	7.62802e-07
2677.15	8.78805e-07
2686.01	1.01057e-06
2694.88	1.15994e-06
2703.74	1.32898e-06
2712.6	1.51992e-06
2721.47	1.73519e-06
2730.33	1.97746e-06
2748.06	2.55486e-06
2756.93	2.89656e-06
2765.79	3.27842e-06
2774.66	3.70445e-06
2783.52	4.17894e-06
2792.39	4.70653e-06
2801.25	5.29219e-06
2810.12	5.94125e-06
2827.85	7.45278e-06
2836.71	8.32783e-06
2845.58	9.29148e-06
2854.44	1.03511e-05
2863.3	1.15144e-05
2872.17	1.27897e-05
2881.03	1.41856e-05
2898.76	1.73767e-05
2907.63	1.91918e-05
2916.49	2.11673e-05
2925.36	2.33145e-05
2934.22	2.5645e-05
2943.09	2.81713e-05
2951.95	3.0906e-05
2960.82	3.38628e-05
2978.55	4.04985e-05
2987.41	4.42073e-05
2996.28	4.81974e-05
3005.14	5.24852e-05
3014	5.70877e-05
3022.87	6.20227e-05
3031.73	6.73083e-05
3040.6	7.29637e-05
3058.33	8.54635e-05
3067.19	9.23499e-05
3076.06	9.96898e-05
3084.92	0.000107507
3093.79	0.000115824
3102.65	0.000124668
3111.52	0.000134065
3120.38	0.000144042
3138.11	0.000165856
3146.97	0.000177757
3155.84	0.000190365
3164.7	0.000203717
3173.57	0.000217854
3182.43	0.000232815
3191.3	0.000248648
3200.16	0.0002654
3217.89	0.000301874
3226.76	0.000321715
3235.62	0.000342712
3244.49	0.000364938
3253.35	0.000388473
3262.21	0.000413403
3271.08	0.000439823
3288.81	0.000497562
3297.67	0.00052912
3306.54	0.00056265
3315.4	0.000598303
3324.27	0.000636245
3333.13	0.000676659
3342	0.000719744
3350.86	0.00076572
3368.59	0.000867333
3377.45	0.000923523
3386.32	0.000983714
3395.18	0.00104825
3404.05	0.00111752
3412.91	0.00119192
3421.78	0.0012719
3430.64	0.00135797
3448.37	0.00155047
3457.23	0.00165812
3466.1	0.00177425
3474.96	0.00189958
3483.83	0.00203491
3492.69	0.00218109
3501.56	0.00233902
3510.42	0.00250969
3528.15	0.00289352
3537.01	0.00310901
3545.88	0.0033419
3554.74	0.00359356
3563.61	0.00386544
3572.47	0.0041591
3581.34	0.00447616
3590.2	0.00481837
3607.93	0.00558565
3616.79	0.00601469
3625.66	0.0064768
3634.52	0.00697424
3643.39	0.00750934
3652.25	0.00808457
3661.12	0.00870247
3678.85	0.010077
3687.71	0.0108393
3696.57	0.0116556
3705.44	0.0125288
3714.3	0.0134622
3723.17	0.0144589
3732.03	0.0155223
3740.9	0.0166559
3758.63	0.0191471
3767.49	0.0205119
3776.35	0.021961
3785.22	0.023498
3794.08	0.0251266
3802.95	0.0268504
3811.81	0.0286733
3820.68	0.0305987
3838.4	0.034772
3847.27	0.0370269
3856.13	0.0393987
3865	0.0418906
3873.86	0.0445059
3882.73	0.0472477
3891.59	0.050119
3900.45	0.0531225
3918.18	0.0595366
3927.05	0.0629517
3935.91	0.0665081
3944.78	0.0702076
3953.64	0.0740514
3962.51	0.0780406
3971.37	0.0821759
3980.23	0.0864578
3997.96	0.0954609
4006.83	0.100181
4015.69	0.105045
4024.56	0.110053
4033.42	0.1152
4042.28	0.120486
4051.15	0.125908
4060.01	0.131461
4077.74	0.142946
4086.61	0.148869
4095.47	0.154905
4104.33	0.161049
4113.2	0.167294
4122.06	0.173632
4130.93	0.180058
4148.66	0.193136
4157.52	0.199773
4166.39	0.206461
4175.25	0.213192
4184.11	0.219956
4192.98	0.226741
4201.84	0.233538
4210.71	0.240334
4228.44	0.253879
4237.3	0.260602
4246.17	0.267278
4255.03	0.273891
4263.89	0.280431
4272.76	0.286882
4281.62	0.293233
4290.49	0.29947
4308.22	0.311547
4317.08	0.317361
4325.95	0.323008
4334.81	0.328473
4343.67	0.333744
4352.54	0.338808
4361.4	0.343653
4370.27	0.348266
4388	0.356746
4396.86	0.36059
4405.73	0.364156
4414.59	0.367433
4423.46	0.37041
4432.32	0.373078
4441.19	0.375428
4450.05	0.37745
4467.78	0.380485
4476.64	0.381482
4485.51	0.382125
4494.37	0.382407
4503.24	0.382325
4512.1	0.381874
4520.97	0.381052
4538.7	0.378282
4547.56	0.376333
4556.43	0.374007
4565.29	0.371304
4574.16	0.368227
4583.02	0.364777
4591.88	0.360958
4600.75	0.356772
4618.48	0.347322
4627.34	0.342069
4636.21	0.336471
4645.07	0.330537
4653.94	0.324275
4662.8	0.317692
4671.67	0.310799
4680.53	0.303604
4698.26	0.288355
4707.13	0.280322
4715.99	0.272033
4724.86	0.263499
4733.72	0.254734
4742.58	0.245751
4751.45	0.236563
4760.31	0.227184
4778.04	0.20791
4786.91	0.198043
4795.77	0.188042
4804.64	0.177922
4813.5	0.167698
4822.37	0.157385
4831.23	0.146997
4840.1	0.13655
4857.83	0.115537
4866.69	0.105
4875.56	0.0944617
4884.42	0.0839371
4893.28	0.07344
4902.15	0.0629842
4911.01	0.0525831
4928.74	0.0319981
4937.61	0.0218396
4946.47	0.0117869
4955.34	0.00185172
4964.2	-0.0079545
4973.07	-0.0176208
4981.93	-0.0271367
4990.8	-0.036492
5008.53	-0.0546833
5017.39	-0.0635016
5026.26	-0.072124
5035.12	-0.0805429
5043.98	-0.0887513
5052.85	-0.0967427
5061.71	-0.104511
5070.58	-0.112051
5088.31	-0.126425
5097.17	-0.133252
5106.04	-0.139833
5114.9	-0.146167
5123.77	-0.15225
5132.63	-0.15808
5141.5	-0.163658
5150.36	-0.16898
5168.09	-0.178861
5176.95	-0.18342
5185.82	-0.187726
5194.68	-0.19178
5203.55	-0.195583
5212.41	-0.199139
5221.28	-0.202449
5230.14	-0.205517
5247.87	-0.210938
5256.74	-0.2133
5265.6	-0.215433
5274.47	-0.217344
5283.33	-0.219036
5292.2	-0.220515
5301.06	-0.221786
5318.79	-0.223724
5327.65	-0.224403
5336.52	-0.224896
5345.38	-0.22521
5354.25	-0.22535
5363.11	-0.225323
5371.98	-0.225134
5380.84	-0.224792
5398.57	-0.223667
5407.44	-0.222899
5416.3	-0.222001
5425.17	-0.220981
5434.03	-0.219846
5442.9	-0.2186
5451.76	-0.217251
5460.62	-0.215805
5478.35	-0.212646
5487.22	-0.210945
5496.08	-0.209171
5504.95	-0.20733
5513.81	-0.205428
5522.68	-0.20347
5531.54	-0.20146
5540.41	-0.199406
5558.14	-0.195181
5567	-0.19302
5575.87	-0.190834
5584.73	-0.188625
5593.6	-0.186399
5602.46	-0.18416
5611.32	-0.181912
5620.19	-0.179657
5637.92	-0.175146
5646.78	-0.172895
5655.65	-0.170651
5664.51	-0.168417
5673.38	-0.166197
5682.24	-0.163991
5691.11	-0.161802
5708.84	-0.157486
5717.7	-0.155362
5726.57	-0.153262
5735.43	-0.151189
5744.3	-0.149143
5753.16	-0.147125
5762.02	-0.145137
5770.89	-0.143179
5788.62	-0.139356
5797.48	-0.137493
5806.35	-0.135661
5815.21	-0.133862
5824.08	-0.132094
5832.94	-0.130359
5841.81	-0.128656
5850.67	-0.126985
5868.4	-0.123737
5877.27	-0.122158
5886.13	-0.12061
5895	-0.11909
5903.86	-0.117599
5912.72	-0.116135
5921.59	-0.114698
5930.45	-0.113287
5948.18	-0.110539
5957.05	-0.1092
5965.91	-0.107882
5974.78	-0.106585
5983.64	-0.105309
5992.51	-0.10405
6001.37	-0.10281
6010.24	-0.101585
6027.97	-0.0991822
6036.83	-0.098001
6045.7	-0.0968321
6054.56	-0.0956742
6063.42	-0.0945266
6072.29	-0.093388
6081.15	-0.0922577
6090.02	-0.0911346
6107.75	-0.0889065
6116.61	-0.0877999
6125.48	-0.0866971
6134.34	-0.0855974
6143.21	-0.0845
6152.07	-0.0834044
6160.94	-0.0823099
6178.67	-0.0801219
6187.53	-0.0790275
6196.4	-0.0779321
6205.26	-0.0768354
6214.12	-0.0757371
6222.99	-0.0746369
6231.85	-0.0735346
6240.72	-0.07243
6258.45	-0.0702133
6267.31	-0.0691011
6276.18	-0.0679864
6285.04	-0.0668691
6293.91	-0.0657494
6302.77	-0.0646275
6311.64	-0.0635034
6320.5	-0.0623775
6338.23	-0.0601212
6347.1	-0.0589914
6355.96	-0.057861
6364.83	-0.0567304
6373.69	-0.0556001
6382.55	-0.0544704
6391.42	-0.053342
6400.28	-0.0522152
6418.01	-0.0499689
6426.88	-0.0488505
6435.74	-0.0477361
6444.61	-0.0466261
6453.47	-0.0455214
6462.34	-0.0444224
6471.2	-0.0433298
6480.07	-0.0422442
6497.8	-0.0400967
6506.66	-0.0390361
6515.53	-0.037985
6524.39	-0.036944
6533.25	-0.0359139
6542.12	-0.0348952
6550.98	-0.0338885
6568.71	-0.0319134
6577.58	-0.0309462
6586.44	-0.0299931
6595.31	-0.0290548
6604.17	-0.0281317
6613.04	-0.0272243
6621.9	-0.026333
6630.77	-0.0254582
6648.5	-0.0237598
6657.36	-0.0229368
6666.23	-0.0221317
6675.09	-0.0213448
6683.96	-0.0205762
6692.82	-0.0198262
6701.68	-0.019095
6710.55	-0.0183826
6728.28	-0.0170149
6737.14	-0.0163596
6746.01	-0.0157233
6754.87	-0.015106
6763.74	-0.0145077
6772.6	-0.0139281
6781.47	-0.0133672
6790.33	-0.0128248
6808.06	-0.0117943
6816.93	-0.0113057
6825.79	-0.0108345
6834.66	-0.0103804
6843.52	-0.00994279
6852.39	-0.00952142
6861.25	-0.0091158
6870.11	-0.00872546
6887.84	-0.00798854
6896.71	-0.00764087
6905.57	-0.0073063
6914.44	-0.00698421
6923.3	-0.00667398
6932.17	-0.00637495
6941.03	-0.00608647
6958.76	-0.00553836
6967.63	-0.00527731
6976.49	-0.00502396
6985.36	-0.00477757
6994.22	-0.00453738
7003.09	-0.00430264
7011.95	-0.00407257
7020.82	-0.0038464
7038.54	-0.00340264
7047.41	-0.00318349
7056.27	-0.00296512
7065.14	-0.00274676
7074	-0.00252762
7082.87	-0.00230695
7091.73	-0.00208398
7100.6	-0.00185797
7118.33	-0.00139385
7127.19	-0.0011543
7136.06	-0.000908829
7144.92	-0.000656746
7153.79	-0.000397388
7162.65	-0.000130108
7171.52	0.000145719
7180.38	0.000430696
7198.11	0.0010304
7206.97	0.00134622
7215.84	0.00167337
7224.7	0.00201232
7233.57	0.00236353
7242.43	0.00272742
7251.3	0.00310438
7260.16	0.00349478
7277.89	0.00431716
7286.76	0.00474972
7295.62	0.00519684
7304.49	0.00565874
7313.35	0.00613557
7322.22	0.00662747
7331.08	0.00713455
7348.81	0.00819446
7357.67	0.00874732
7366.54	0.00931542
7375.4	0.00989869
7384.27	0.010497
7393.13	0.0111103
7402	0.0117383
7410.86	0.0123809
7428.59	0.0137088
7437.46	0.0143935
7446.32	0.0150917
7455.19	0.0158029
7464.05	0.0165268
7472.92	0.017263
7481.78	0.018011
7490.64	0.0187704
7508.37	0.0203213
7517.24	0.0211116
7526.1	0.0219113
7534.97	0.0227195
7543.83	0.0235358
7552.7	0.0243595
7561.56	0.0251899
7570.43	0.0260265
7588.16	0.027715
7597.02	0.0285656
7605.89	0.0294195
7614.75	0.0302759
7623.62	0.0311341
7632.48	0.0319934
7641.34	0.0328529
7650.21	0.0337119
7667.94	0.0354253
7676.8	0.0362781
7685.67	0.0371273
7694.53	0.0379722
7703.4	0.0388118
7712.26	0.0396455
7721.13	0.0404725
7738.86	0.0421031
7747.72	0.0429052
7756.59	0.0436976
7765.45	0.0444794
7774.31	0.04525
7783.18	0.0460086
7792.04	0.0467545
7800.91	0.047487
7818.64	0.048909
7827.5	0.0495973
7836.37	0.0502695
7845.23	0.050925
7854.1	0.0515633
7862.96	0.0521837
7871.83	0.0527857
7880.69	0.0533686
7898.42	0.0544755
7907.28	0.0549984
7916.15	0.0555003
7925.01	0.0559808
7933.88	0.0564393
7942.74	0.0568756
7951.61	0.0572893
7960.47	0.0576799
7978.2	0.0583907
7987.07	0.0587103
7995.93	0.0590057
8004.8	0.0592765
8013.66	0.0595227
8022.53	0.0597439
8031.39	0.0599399
8040.25	0.0601107
8057.98	0.060376
8066.85	0.0604702
8075.71	0.0605388
8084.58	0.0605816
8093.44	0.0605986
8102.31	0.0605898
8111.17	0.0605553
8120.04	0.060495
8137.77	0.0602973
8146.63	0.0601601
8155.5	0.0599975
8164.36	0.0598095
8173.22	0.0595964
8182.09	0.0593583
8190.95	0.0590953
8208.68	0.0584955
8217.55	0.0581592
8226.41	0.0577989
8235.28	0.0574148
8244.14	0.0570073
8253.01	0.0565765
8261.87	0.0561228
8270.74	0.0556466
8288.47	0.0546274
8297.33	0.0540852
8306.19	0.0535216
8315.06	0.0529372
8323.92	0.0523321
8332.79	0.0517068
8341.65	0.0510617
8350.52	0.0503972
8368.25	0.0490114
8377.11	0.0482909
8385.98	0.0475527
8394.84	0.046797
8403.71	0.0460244
8412.57	0.0452353
8421.44	0.04443
8430.3	0.0436091
8448.03	0.0419222
8456.89	0.041057
8465.76	0.0401781
8474.62	0.0392857
8483.49	0.0383804
8492.35	0.0374627
8501.22	0.036533
8510.08	0.0355917
8527.81	0.0336766
8536.68	0.0327036
8545.54	0.031721
8554.41	0.0307292
8563.27	0.0297288
8572.13	0.0287202
8581	0.0277038
8598.73	0.0256498
8607.59	0.0246131
8616.46	0.0235705
8625.32	0.0225226
8634.19	0.0214698
8643.05	0.0204126
8651.92	0.0193514
8660.78	0.0182867
8678.51	0.0161488
8687.38	0.0150764
8696.24	0.0140025
8705.1	0.0129273
8713.97	0.0118514
8722.83	0.0107753
8731.7	0.00969932
8740.56	0.00862398
8758.29	0.00647693
8767.16	0.00540611
8776.02	0.00433766
8784.89	0.00327203
8793.75	0.00220962
8802.62	0.00115087
8811.48	9.61988e-05
8820.35	-0.00095399
8838.08	-0.00303928
8846.94	-0.00407358
8855.8	-0.00510179
8864.67	-0.00612351
8873.53	-0.00713838
8882.4	-0.008146
8891.26	-0.00914602
8900.13	-0.010138
8917.86	-0.0120968
8926.72	-0.0130627
8935.59	-0.0140193
8944.45	-0.0149662
8953.32	-0.0159031
8962.18	-0.0168295
8971.05	-0.0177454
8988.77	-0.0195439
8997.64	-0.0204259
9006.5	-0.0212961
9015.37	-0.0221543
9024.23	-0.023
9033.1	-0.0238332
9041.96	-0.0246535
9050.83	-0.0254607
9068.56	-0.0270349
9077.42	-0.0278015
9086.29	-0.0285542
9095.15	-0.0292927
9104.02	-0.0300169
9112.88	-0.0307267
9121.75	-0.0314218
9130.61	-0.0321022
9148.34	-0.033418
9157.2	-0.0340532
9166.07	-0.0346732
9174.93	-0.0352777
9183.8	-0.0358669
9192.66	-0.0364405
9201.53	-0.0369986
9210.39	-0.037541
9228.12	-0.0385787
9236.99	-0.0390739
9245.85	-0.0395535
9254.72	-0.0400172
9263.58	-0.0404652
9272.44	-0.0408975
9281.31	-0.0413141
9290.17	-0.0417151
9307.9	-0.0424702
9316.77	-0.0428246
9325.63	-0.0431635
9334.5	-0.0434871
9343.36	-0.0437955
9352.23	-0.0440888
9361.09	-0.0443671
9378.82	-0.0448792
9387.69	-0.0451132
9396.55	-0.0453328
9405.42	-0.0455382
9414.28	-0.0457293
9423.14	-0.0459066
9432.01	-0.04607
9440.87	-0.0462198
9458.6	-0.0464794
9467.47	-0.0465895
9476.33	-0.0466869
9485.2	-0.0467716
9494.06	-0.046844
9502.93	-0.0469042
9511.79	-0.0469524
9520.66	-0.046989
9538.39	-0.0470279
9547.25	-0.0470307
9556.12	-0.0470229
9564.98	-0.0470044
9573.84	-0.0469758
9582.71	-0.0469371
9591.57	-0.0468887
9600.44	-0.0468308
9618.17	-0.0466874
9627.03	-0.0466025
9635.9	-0.0465092
9644.76	-0.0464075
9653.63	-0.046298
9662.49	-0.0461806
9671.36	-0.0460559
9680.22	-0.0459239
9697.95	-0.0456392
9706.82	-0.0454871
9715.68	-0.0453287
9724.54	-0.0451643
9733.41	-0.0449942
9742.27	-0.0448186
9751.14	-0.0446377
9760	-0.0444518
9777.73	-0.0440657
9786.6	-0.0438659
9795.46	-0.043662
9804.33	-0.0434542
9813.19	-0.0432426
9822.06	-0.0430275
9830.92	-0.042809
9848.65	-0.0423628
9857.52	-0.0421354
9866.38	-0.0419055
9875.24	-0.0416731
9884.11	-0.0414385
9892.97	-0.0412018
9901.84	-0.0409632
9910.7	-0.0407228
9928.43	-0.0402374
9937.3	-0.0399926
9946.16	-0.0397466
9955.03	-0.0394995
9963.89	-0.0392515
9972.76	-0.0390027
9981.62	-0.0387531
9990.49	-0.038503
10008.2	-0.0380014
10017.1	-0.03775
10025.9	-0.0374985
10034.8	-0.0372469
10043.7	-0.0369952
10052.5	-0.0367435
10061.4	-0.036492
10070.3	-0.0362406
10088	-0.0357387
10096.9	-0.0354882
10105.7	-0.0352381
10114.6	-0.0349885
10123.5	-0.0347393
10132.3	-0.0344907
10141.2	-0.0342426
10150.1	-0.0339952
10167.8	-0.0335021
10176.6	-0.0332566
10185.5	-0.0330117
10194.4	-0.0327676
10203.2	-0.0325241
10212.1	-0.0322814
10221	-0.0320394
10238.7	-0.0315575
10247.6	-0.0313177
10256.4	-0.0310785
10265.3	-0.0308401
10274.2	-0.0306024
10283	-0.0303654
10291.9	-0.030129
10300.8	-0.0298933
10318.5	-0.0294238
10327.3	-0.02919
10336.2	-0.0289567
10345.1	-0.028724
10353.9	-0.0284918
10362.8	-0.0282601
10371.7	-0.0280289
10380.5	-0.0277981
10398.3	-0.0273377
10407.1	-0.0271081
10416	-0.0268787
10424.9	-0.0266496
10433.7	-0.0264208
10442.6	-0.0261921
10451.5	-0.0259636
10460.3	-0.0257352
10478	-0.0252786
10486.9	-0.0250503
10495.8	-0.024822
10504.6	-0.0245935
10513.5	-0.024365
10522.4	-0.0241362
10531.2	-0.0239073
10540.1	-0.023678
10557.8	-0.0232186
10566.7	-0.0229883
10575.6	-0.0227575
10584.4	-0.0225262
10593.3	-0.0222945
10602.2	-0.0220621
10611	-0.0218291
10628.7	-0.0213609
10637.6	-0.0211257
10646.5	-0.0208897
10655.3	-0.0206528
10664.2	-0.020415
10673.1	-0.0201763
10681.9	-0.0199365
10690.8	-0.0196957
10708.5	-0.0192108
10717.4	-0.0189665
10726.3	-0.0187211
10735.1	-0.0184743
10744	-0.0182262
10752.9	-0.0179768
10761.7	-0.017726
10770.6	-0.0174737
10788.3	-0.0169646
10797.2	-0.0167078
10806	-0.0164493
10814.9	-0.0161891
10823.8	-0.0159273
10832.6	-0.0156638
10841.5	-0.0153985
10850.4	-0.0151314
10868.1	-0.0145917
10877	-0.0143191
10885.8	-0.0140445
10894.7	-0.013768
10903.6	-0.0134895
10912.4	-0.013209
10921.3	-0.0129264
10930.1	-0.0126418
10947.9	-0.0120665
10956.7	-0.0117756
10965.6	-0.0114826
10974.5	-0.0111875
10983.3	-0.0108903
10992.2	-0.0105908
11001.1	-0.0102892
11018.8	-0.00967952
11027.7	-0.00937138
11036.5	-0.00906105
11045.4	-0.00874853
11054.3	-0.00843384
11063.1	-0.00811697
11072	-0.00779793
11080.8	-0.00747673
11098.6	-0.00682792
11107.4	-0.00650034
11116.3	-0.00617067
11125.2	-0.00583893
11134	-0.00550514
11142.9	-0.00516933
11151.8	-0.00483154
11160.6	-0.00449179
11178.4	-0.00380658
11187.2	-0.00346118
11196.1	-0.00311399
11205	-0.00276503
11213.8	-0.00241437
11222.7	-0.00206205
11231.5	-0.00170812
11240.4	-0.00135264
11258.1	-0.000637253
11267	-0.000277466
11275.9	8.36325e-05
11284.7	0.000445975
11293.6	0.000809493
11302.5	0.00117412
11311.3	0.00153977
11320.2	0.00190638
11337.9	0.00264217
11346.8	0.00301118
11355.7	0.00338083
11364.5	0.00375103
11373.4	0.00412169
11382.2	0.00449274
11391.1	0.00486407
11408.8	0.00560723
11417.7	0.00597888
11426.6	0.00635044
11435.4	0.00672182
11444.3	0.00709292
11453.2	0.00746364
11462	0.00783389
11470.9	0.00820356
11488.6	0.00894076
11497.5	0.00930809
11506.4	0.00967444
11515.2	0.0100397
11524.1	0.0104038
11532.9	0.0107665
11541.8	0.0111279
11550.7	0.0114878
11568.4	0.0122026
11577.3	0.0125574
11586.1	0.0129102
11595	0.013261
11603.9	0.0136097
11612.7	0.0139562
11621.6	0.0143004
11630.5	0.0146422
11648.2	0.015318
11657.1	0.0156519
11665.9	0.0159831
11674.8	0.0163113
11683.6	0.0166365
11692.5	0.0169587
11701.4	0.0172776
11710.2	0.0175933
11728	0.0182146
11736.8	0.0185201
11745.7	0.0188219
11754.6	0.01912
11763.4	0.0194144
11772.3	0.019705
11781.2	0.0199916
11790	0.0202743
11807.8	0.0208274
11816.6	0.0210978
11825.5	0.0213638
11834.3	0.0216256
11843.2	0.021883
11852.1	0.0221359
11860.9	0.0223844
11878.7	0.0228676
11887.5	0.0231022
11896.4	0.0233322
11905.3	0.0235574
11914.1	0.0237778
11923	0.0239934
11931.9	0.0242042
11940.7	0.02441
11958.5	0.0248067
11967.3	0.0249975
11976.2	0.0251833
11985	0.0253641
11993.9	0.0255397
12002.8	0.0257101
12011.6	0.0258754
12020.5	0.0260355
12038.2	0.0263401
12047.1	0.0264845
12056	0.0266236
12064.8	0.0267575
12073.7	0.026886
12082.6	0.0270092
12091.4	0.0271271
12100.3	0.0272396
12118	0.0274486
12126.9	0.0275451
12135.7	0.0276361
12144.6	0.0277217
12153.5	0.027802
12162.3	0.0278768
12171.2	0.0279462
12180.1	0.0280101
12197.8	0.0281218
12206.7	0.0281694
12215.5	0.0282116
12224.4	0.0282484
12233.3	0.0282797
12242.1	0.0283055
12251	0.0283259
12268.7	0.0283503
12277.6	0.0283543
12286.4	0.0283528
12295.3	0.0283458
12304.2	0.0283334
12313	0.0283155
12321.9	0.0282921
12330.8	0.0282632
12348.5	0.028189
12357.4	0.0281436
12366.2	0.0280928
12375.1	0.0280365
12384	0.0279747
12392.8	0.0279073
12401.7	0.0278345
12410.6	0.0277562
12428.3	0.0275831
12437.1	0.0274883
12446	0.0273879
12454.9	0.0272821
12463.7	0.0271708
12472.6	0.027054
12481.5	0.0269317
12490.3	0.0268038
12508.1	0.0265317
12516.9	0.0263874
12525.8	0.0262377
12534.7	0.0260824
12543.5	0.0259217
12552.4	0.0257554
12561.3	0.0255838
12570.1	0.0254066
12587.8	0.0250361
12596.7	0.0248426
12605.6	0.0246438
12614.4	0.0244396
12623.3	0.02423
12632.2	0.024015
12641	0.0237946
12658.8	0.023338
12667.6	0.0231018
12676.5	0.0228603
12685.4	0.0226135
12694.2	0.0223616
12703.1	0.0221044
12712	0.0218422
12720.8	0.0215748
12738.5	0.0210248
12747.4	0.0207423
12756.3	0.0204549
12765.1	0.0201625
12774	0.0198653
12782.9	0.0195632
12791.7	0.0192564
12800.6	0.0189449
12818.3	0.0183079
12827.2	0.0179825
12836.1	0.0176527
12844.9	0.0173185
12853.8	0.0169799
12862.7	0.0166371
12871.5	0.01629
12880.4	0.0159388
12898.1	0.0152244
12907	0.0148613
12915.8	0.0144944
12924.7	0.0141237
12933.6	0.0137494
12942.4	0.0133716
12951.3	0.0129904
12960.2	0.0126058
12977.9	0.0118269
12986.8	0.0114328
12995.6	0.0110358
13004.5	0.0106359
13013.4	0.0102333
13022.2	0.00982809
13031.1	0.00942036
13048.8	0.00859783
13057.7	0.00818326
13066.5	0.00776665
13075.4	0.00734811
13084.3	0.00692777
13093.1	0.00650575
13102	0.00608218
13110.9	0.00565718
13128.6	0.00480341
13137.5	0.0043749
13146.3	0.00394548
13155.2	0.00351527
13164.1	0.00308441
13172.9	0.00265304
13181.8	0.00222128
13190.6	0.00178927
13208.4	0.000925026
13217.2	0.000493061
13226.1	6.13791e-05
13235	-0.000369885
13243.8	-0.000800599
13252.7	-0.00123063
13261.6	-0.00165984
13270.4	-0.0020881
13288.2	-0.00294124
13297	-0.00336586
13305.9	-0.00378901
13314.8	-0.00421055
13323.6	-0.00463035
13332.5	-0.0050483
13341.3	-0.00546426
13350.2	-0.00587811
13367.9	-0.00669899
13376.8	-0.00710577
13385.7	-0.00750996
13394.5	-0.00791143
13403.4	-0.00831008
13412.3	-0.00870578
13421.1	-0.00909843
13438.9	-0.00987412
13447.7	-0.010257
13456.6	-0.0106363
13465.5	-0.0110121
13474.3	-0.0113841
13483.2	-0.0117524
13492	-0.0121169
13500.9	-0.0124773
13518.6	-0.013186
13527.5	-0.013534
13536.4	-0.0138777
13545.2	-0.014217
13554.1	-0.0145518
13563	-0.0148821
13571.8	-0.0152077
13580.7	-0.0155287
13598.4	-0.0161563
13607.3	-0.0164628
13616.2	-0.0167644
13625	-0.017061
13633.9	-0.0173525
13642.7	-0.0176389
13651.6	-0.0179202
13660.5	-0.0181962
13678.2	-0.0187326
13687.1	-0.0189928
13695.9	-0.0192477
13704.8	-0.0194972
13713.7	-0.0197412
13722.5	-0.0199799
13731.4	-0.020213
13740.3	-0.0204407
13758	-0.0208795
13766.9	-0.0210906
13775.7	-0.0212962
13784.6	-0.0214962
13793.4	-0.0216906
13802.3	-0.0218795
13811.2	-0.0220627
13820	-0.0222404
13837.8	-0.0225791
13846.6	-0.0227401
13855.5	-0.0228956
13864.4	-0.0230454
13873.2	-0.0231898
13882.1	-0.0233286
13891	-0.0234619
13908.7	-0.0237121
13917.6	-0.0238291
13926.4	-0.0239405
13935.3	-0.0240466
13944.1	-0.0241473
13953	-0.0242427
13961.9	-0.0243327
13970.7	-0.0244175
13988.5	-0.0245712
13997.3	-0.0246402
14006.2	-0.0247041
14015.1	-0.0247629
14023.9	-0.0248165
14032.8	-0.0248652
14041.7	-0.0249088
14050.5	-0.0249474
14068.3	-0.0250099
14077.1	-0.0250339
14086	-0.025053
14094.8	-0.0250674
14103.7	-0.0250771
14112.6	-0.025082
14121.4	-0.0250824
14130.3	-0.0250782
14148	-0.0250561
14156.9	-0.0250384
14165.8	-0.0250163
14174.6	-0.0249899
14183.5	-0.0249591
14192.4	-0.0249241
14201.2	-0.0248849
14210.1	-0.0248415
14227.8	-0.0247424
14236.7	-0.0246868
14245.5	-0.0246273
14254.4	-0.0245638
14263.3	-0.0244965
14272.1	-0.0244253
14281	-0.0243504
14298.7	-0.0241894
14307.6	-0.0241034
14316.5	-0.0240139
14325.3	-0.0239208
14334.2	-0.0238243
14343.1	-0.0237243
14351.9	-0.0236209
14360.8	-0.0235142
14378.5	-0.023291
14387.4	-0.0231745
14396.2	-0.023055
14405.1	-0.0229323
14414	-0.0228065
14422.8	-0.0226778
14431.7	-0.0225461
14440.6	-0.0224115
14458.3	-0.0221337
14467.2	-0.0219906
14476	-0.0218448
14484.9	-0.0216964
14493.8	-0.0215452
14502.6	-0.0213915
14511.5	-0.0212353
14520.4	-0.0210766
14538.1	-0.0207518
14547	-0.0205859
14555.8	-0.0204176
14564.7	-0.0202471
14573.5	-0.0200744
14582.4	-0.0198995
14591.3	-0.0197225
14600.1	-0.0195434
14617.9	-0.0191791
14626.7	-0.0189941
14635.6	-0.0188071
14644.5	-0.0186183
14653.3	-0.0184278
14662.2	-0.0182355
14671.1	-0.0180414
14688.8	-0.0176485
14697.7	-0.0174497
14706.5	-0.0172493
14715.4	-0.0170476
14724.2	-0.0168444
14733.1	-0.0166398
14742	-0.016434
14750.8	-0.0162269
14768.6	-0.0158092
14777.4	-0.0155986
14786.3	-0.015387
14795.2	-0.0151744
14804	-0.0149609
14812.9	-0.0147465
14821.8	-0.0145312
14830.6	-0.0143152
14848.4	-0.0138809
14857.2	-0.0136629
14866.1	-0.0134442
14874.9	-0.0132251
14883.8	-0.0130055
14892.7	-0.0127855
14901.5	-0.0125652
14910.4	-0.0123445
14928.1	-0.0119027
14937	-0.0116815
14945.9	-0.0114603
14954.7	-0.0112391
14963.6	-0.011018
14972.5	-0.010797
14981.3	-0.0105762
14990.2	-0.0103556
15007.9	-0.00991533
15016.8	-0.0096958
15025.6	-0.00947674
15034.5	-0.00925821
15043.4	-0.00904028
15052.2	-0.00882299
15061.1	-0.00860641
15078.8	-0.00817563
15087.7	-0.00796154
15096.6	-0.0077484
15105.4	-0.00753627
15114.3	-0.0073252
15123.2	-0.00711525
15132	-0.00690649
15140.9	-0.00669896
15158.6	-0.00628787
15167.5	-0.00608442
15176.3	-0.00588244
15185.2	-0.00568198
15194.1	-0.00548311
15202.9	-0.00528588
15211.8	-0.00509034
15220.7	-0.00489655
15238.4	-0.00451444
15247.3	-0.00432623
15256.1	-0.00413998
15265	-0.00395574
15273.9	-0.00377357
15282.7	-0.00359352
15291.6	-0.00341564
15300.5	-0.00323997
15318.2	-0.00289549
15327	-0.00272676
15335.9	-0.00256044
15344.8	-0.00239658
15353.6	-0.00223521
15362.5	-0.00207638
15371.4	-0.00192013
15380.2	-0.00176651
15398	-0.0014673
15406.8	-0.0013218
15415.7	-0.00117908
15424.6	-0.00103918
15433.4	-0.000902134
15442.3	-0.000767981
15451.2	-0.000636754
15460	-0.000508486
15477.7	-0.000260954
15486.6	-0.000141751
15495.5	-2.56301e-05
15504.3	8.73821e-05
15513.2	0.000197258
15522.1	0.000303973
15530.9	0.0004075
15548.7	0.000604902
15557.5	0.000698732
15566.4	0.000789287
15575.3	0.000876548
15584.1	0.000960496
15593	0.00104111
15601.9	0.00111838
15610.7	0.00119229
15628.4	0.00132997
15637.3	0.00139372
15646.2	0.00145405
15655	0.00151096
15663.9	0.00156444
15672.8	0.00161449
15681.6	0.00166108
15690.5	0.00170423
15708.2	0.00178014
15717.1	0.00181291
15726	0.00184221
15734.8	0.00186804
15743.7	0.00189041
15752.6	0.00190931
15761.4	0.00192475
15770.3	0.00193673
15788	0.00195032
15796.9	0.00195194
15805.7	0.00195012
15814.6	0.00194487
15823.5	0.0019362
15832.3	0.00192411
15841.2	0.00190861
15850.1	0.00188972
15867.8	0.00184181
15876.7	0.00181281
15885.5	0.00178047
15894.4	0.0017448
15903.3	0.00170583
15912.1	0.00166356
15921	0.00161801
15938.7	0.00151717
15947.6	0.00146191
15956.4	0.00140346
15965.3	0.00134183
15974.2	0.00127705
15983	0.00120915
15991.9	0.00113814
16000.8	0.00106405
16018.5	0.000906753
16027.4	0.000823597
16036.2	0.000737473
16045.1	0.000648412
16054	0.000556444
16062.8	0.000461601
16071.7	0.000363914
16080.5	0.000263418
16098.3	5.41343e-05
16107.1	-5.45827e-05
16116	-0.000165968
16124.9	-0.000279983
16133.7	-0.000396589
16142.6	-0.000515748
16151.5	-0.000637418
16160.3	-0.000761558
16178.1	-0.00101708
16186.9	-0.00114837
16195.8	-0.00128195
16204.7	-0.00141779
16213.5	-0.00155582
16222.4	-0.00169601
16231.2	-0.0018383
16240.1	-0.00198265
16257.8	-0.00227729
16266.7	-0.00242749
16275.6	-0.00257952
16284.4	-0.00273335
16293.3	-0.0028889
16302.2	-0.00304613
16311	-0.00320497
16328.8	-0.00352727
16337.6	-0.0036906
16346.5	-0.0038553
16355.4	-0.00402131
16364.2	-0.00418857
16373.1	-0.00435701
16381.9	-0.00452656
16390.8	-0.00469716
16408.5	-0.00504122
16417.4	-0.00521454
16426.3	-0.00538864
16435.1	-0.00556343
16444	-0.00573884
16452.9	-0.0059148
16461.7	-0.00609124
16470.6	-0.00626809
16488.3	-0.00662267
16497.2	-0.00680025
16506.1	-0.00697793
16514.9	-0.00715562
16523.8	-0.00733325
16532.6	-0.00751073
16541.5	-0.00768798
16550.4	-0.00786492
16568.1	-0.00821755
16577	-0.00839308
16585.8	-0.00856796
16594.7	-0.00874212
16603.6	-0.00891548
16612.4	-0.00908794
16621.3	-0.00925942
16630.2	-0.00942985
16647.9	-0.00976718
16656.8	-0.00993391
16665.6	-0.0100992
16674.5	-0.0102631
16683.3	-0.0104253
16692.2	-0.010586
16701.1	-0.0107448
16718.8	-0.011057
16727.7	-0.0112101
16736.5	-0.0113612
16745.4	-0.0115101
16754.3	-0.0116568
16763.1	-0.0118011
16772	-0.011943
16780.9	-0.0120825
16798.6	-0.0123535
16807.5	-0.012485
16816.3	-0.0126137
16825.2	-0.0127395
16834	-0.0128624
16842.9	-0.0129822
16851.8	-0.013099
16860.6	-0.0132125
16878.4	-0.0134299
16887.2	-0.0135335
16896.1	-0.0136337
16905	-0.0137304
16913.8	-0.0138235
16922.7	-0.013913
16931.6	-0.0139988
16940.4	-0.0140808
16958.2	-0.0142334
16967	-0.0143039
16975.9	-0.0143704
16984.7	-0.0144329
16993.6	-0.0144913
17002.5	-0.0145456
17011.3	-0.0145958
17020.2	-0.0146419
17037.9	-0.0147212
17046.8	-0.0147545
17055.7	-0.0147835
17064.5	-0.0148081
17073.4	-0.0148283
17082.3	-0.0148442
17091.1	-0.0148557
17108.9	-0.0148653
17117.7	-0.0148635
17126.6	-0.0148571
17135.4	-0.0148464
17144.3	-0.0148311
17153.2	-0.0148114
17162	-0.0147872
17170.9	-0.0147585
17188.6	-0.0146878
17197.5	-0.0146458
17206.4	-0.0145994
17215.2	-0.0145486
17224.1	-0.0144934
17233	-0.0144338
17241.8	-0.0143699
17250.7	-0.0143017
17268.4	-0.0141525
17277.3	-0.0140716
17286.1	-0.0139865
17295	-0.0138973
17303.9	-0.0138041
17312.7	-0.0137068
17321.6	-0.0136056
17330.5	-0.0135004
17348.2	-0.0132786
17357.1	-0.0131621
17365.9	-0.0130418
17374.8	-0.012918
17383.7	-0.0127907
17392.5	-0.0126598
17401.4	-0.0125256
17410.3	-0.0123881
17428	-0.0121034
17436.8	-0.0119564
17445.7	-0.0118065
17454.6	-0.0116536
17463.4	-0.0114979
17472.3	-0.0113395
17481.2	-0.0111785
17490	-0.0110149
17507.8	-0.0106806
17516.6	-0.01051
17525.5	-0.0103373
17534.4	-0.0101626
17543.2	-0.00998595
17552.1	-0.00980747
17561	-0.00962729
17578.7	-0.00926222
17587.5	-0.00907756
17596.4	-0.00889163
17605.3	-0.00870454
17614.1	-0.0085164
17623	-0.00832734
17631.9	-0.00813746
17640.7	-0.00794688
17658.5	-0.0075641
17667.3	-0.00737213
17676.2	-0.00717993
17685.1	-0.00698762
17693.9	-0.00679531
17702.8	-0.00660313
17711.7	-0.00641119
17720.5	-0.00621961
17738.2	-0.00583801
17747.1	-0.00564821
17756	-0.00545925
17764.8	-0.00527123
17773.7	-0.00508428
17782.6	-0.0048985
17791.4	-0.00471402
17800.3	-0.00453094
17818	-0.00416944
17826.9	-0.00399124
17835.8	-0.0038149
17844.6	-0.00364051
17853.5	-0.00346819
17862.4	-0.00329804
17871.2	-0.00313017
17880.1	-0.00296467
17897.8	-0.00264122
17906.7	-0.00248346
17915.5	-0.00232847
17924.4	-0.00217635
17933.3	-0.00202719
17942.1	-0.00188108
17951	-0.00173811
17968.7	-0.00146193
17977.6	-0.00132888
17986.5	-0.00119931
17995.3	-0.00107329
18004.2	-0.000950889
18013.1	-0.000832187
18021.9	-0.000717254
18030.8	-0.000606155
18048.5	-0.000395722
18057.4	-0.00029651
18066.2	-0.000201379
18075.1	-0.000110383
18084	-2.3573e-05
18092.8	5.90008e-05
18101.7	0.000137292
18110.6	0.000211259
18128.3	0.000346056
18137.2	0.000406815
18146	0.000463105
18154.9	0.000514896
18163.8	0.000562163
18172.6	0.000604884
18181.5	0.000643039
18190.3	0.000676611
18208.1	0.000729956
18216.9	0.000749712
18225.8	0.00076485
18234.7	0.000775368
18243.5	0.00078127
18252.4	0.000782559
18261.3	0.000779244
18270.1	0.000771336
18287.9	0.000741802
18296.7	0.000720214
18305.6	0.000694108
18314.5	0.000663511
18323.3	0.000628452
18332.2	0.000588964
18341	0.000545083
18358.8	0.000444294
18367.6	0.000387472
18376.5	0.000326427
18385.4	0.000261208
18394.2	0.000191868
18403.1	0.000118462
18412	4.1049e-05
18420.8	-4.03113e-05
18438.6	-0.000214618
18447.4	-0.000307429
18456.3	-0.000403919
18465.2	-0.000504014
18474	-0.000607639
18482.9	-0.000714715
18491.8	-0.000825162
18500.6	-0.000938897
18518.3	-0.00117589
18527.2	-0.00129897
18536.1	-0.00142499
18544.9	-0.00155386
18553.8	-0.00168547
18562.7	-0.00181973
18571.5	-0.00195655
18580.4	-0.00209582
18598.1	-0.00238132
18607	-0.00252734
18615.9	-0.0026754
18624.7	-0.00282538
18633.6	-0.0029772
18642.5	-0.00313072
18651.3	-0.00328584
18660.2	-0.00344246
18677.9	-0.00375971
18686.8	-0.00392011
18695.6	-0.00408155
18704.5	-0.00424391
18713.4	-0.00440707
18722.2	-0.00457091
18731.1	-0.00473532
18748.8	-0.00506538
18757.7	-0.00523079
18766.6	-0.00539629
18775.4	-0.00556178
18784.3	-0.00572712
18793.2	-0.00589221
18802	-0.00605692
18810.9	-0.00622115
18828.6	-0.00654765
18837.5	-0.00670971
18846.3	-0.0068708
18855.2	-0.00703083
18864.1	-0.00718968
18872.9	-0.00734723
18881.8	-0.00750338
18890.7	-0.00765801
18908.4	-0.00796228
18917.3	-0.00811171
18926.1	-0.00825919
18935	-0.00840463
18943.9	-0.00854791
18952.7	-0.00868893
18961.6	-0.0088276
18970.4	-0.00896382
18988.2	-0.00922853
18997	-0.00935683
19005.9	-0.0094823
19014.8	-0.00960486
19023.6	-0.00972442
19032.5	-0.00984089
19041.4	-0.0099542
19050.2	-0.0100643
19068	-0.0102743
19076.8	-0.0103742
19085.7	-0.0104705
19094.6	-0.0105632
19103.4	-0.0106523
19112.3	-0.0107376
19121.1	-0.0108191
19130	-0.0108967
19147.7	-0.0110402
19156.6	-0.0111059
19165.5	-0.0111676
19174.3	-0.0112251
19183.2	-0.0112786
19192.1	-0.0113278
19200.9	-0.0113728
19218.7	-0.0114499
19227.5	-0.0114821
19236.4	-0.0115098
19245.3	-0.0115332
19254.1	-0.0115523
19263	-0.0115669
19271.8	-0.0115771
19280.7	-0.0115829
19298.4	-0.0115811
19307.3	-0.0115736
19316.2	-0.0115616
19325	-0.0115452
19333.9	-0.0115243
19342.8	-0.011499
19351.6	-0.0114693
19360.5	-0.0114353
19378.2	-0.011354
19387.1	-0.0113068
19396	-0.0112554
19404.8	-0.0111996
19413.7	-0.0111396
19422.5	-0.0110754
19431.4	-0.0110069
19440.3	-0.0109344
19458	-0.010777
19466.9	-0.0106922
19475.7	-0.0106035
19484.6	-0.0105109
19493.5	-0.0104143
19502.3	-0.010314
19511.2	-0.0102099
19520.1	-0.0101021
19537.8	-0.00987566
19546.7	-0.00975712
19555.5	-0.00963513
19564.4	-0.00950976
19573.2	-0.00938107
19582.1	-0.00924914
19591	-0.00911404
19608.7	-0.00883462
19617.6	-0.00869045
19626.4	-0.00854341
19635.3	-0.00839359
19644.2	-0.00824106
19653	-0.0080859
19661.9	-0.0079282
19670.8	-0.00776804
19688.5	-0.00744068
19697.4	-0.00727365
19706.2	-0.0071045
19715.1	-0.00693333
19723.9	-0.00676021
19732.8	-0.00658525
19741.7	-0.00640852
19750.5	-0.00623012
19768.3	-0.00586866
19777.1	-0.00568578
19786	-0.00550158
19794.9	-0.00531617
19803.7	-0.00512962
19812.6	-0.00494204
19821.5	-0.0047535
19830.3	-0.0045641
19848.1	-0.00418308
19856.9	-0.00399164
19865.8	-0.0037997
19874.6	-0.00360733
19883.5	-0.00341464
19892.4	-0.00322171
19901.2	-0.00302862
19910.1	-0.00283547
19927.8	-0.00244927
19936.7	-0.00225641
19945.6	-0.00206381
19954.4	-0.00187155
19963.3	-0.00167971
19972.2	-0.00148837
19981	-0.00129762
19998.8	-0.000918147
