0	0
20.6843	0
41.3687	0
62.053	0
82.7374	0
103.422	0
124.106	0
144.79	0
165.475	0
186.159	0
206.843	0
227.528	0
248.212	0
268.897	0
289.581	0
310.265	0
330.95	0
351.634	0
372.318	0
393.003	0
413.687	0
434.371	0
455.056	0
475.74	0
496.424	0
517.109	0
537.793	0
558.477	0
579.162	0
599.846	0
620.53	0
641.215	0
661.899	0
682.584	0
703.268	0
723.952	0
744.637	0
765.321	0
785.791	0
805.793	0
825.097	0
843.411	0
860.509	0
872.714	0
879.587	0
886.654	0
895.72	0
907.422	0
920.881	0
935.604	0
951.374	0
968.021	0
985.262	0
1002.58	0
1019.93	0
1037.34	0
1054.84	0
1072.42	0
1090.08	0
1107.81	0
1125.56	0
1143.25	0
1160.85	0
1178.36	0
1195.79	0
1213.09	0
1230.16	0
1246.97	0
1263.4	0
1279.4	0
1294.9	0
1309.82	0
1324.27	0
1338.77	0
1353.7	0
1368.96	0
1384.59	0
1400.52	0
1416.69	0
1432.98	0
1449.38	0
1465.85	0
1482.38	0
1498.95	0
1515.52	0
1532.06	0
1548.55	0
1564.97	0
1581.15	0
1596.96	0
1612.41	0
1627.78	0
1643.23	0
1658.65	0
1674.02	0
1689.39	0
1704.88	0
1720.54	0
1736.37	0
1752.34	0
1768.46	0
1784.69	0
1801.01	0
1817.49	0
1834.05	0
1850.64	0
1867.17	0
1883.61	0
1899.97	0
1916.11	0
1932.11	0
1947.97	0
1963.71	0
1979.31	0
1994.76	0
2010.04	0
2025.19	0
2040.24	0
2055.23	0
2070.18	0
2085.14	0
2100.17	0
2115.28	0
2130.49	0
2145.83	-9.09495e-13
2161.31	-9.09495e-13
2176.81	-1.81899e-12
2192.39	-2.72848e-12
2208.06	-5.45697e-12
2223.82	-8.18545e-12
2239.72	-1.27329e-11
2255.72	-2.00089e-11
2271.8	-3.09228e-11
2287.96	-4.72937e-11
2304.19	-7.27596e-11
2320.5	-1.10049e-10
2336.89	-1.65528e-10
2353.34	-2.47383e-10
2369.86	-3.67436e-10
2386.45	-5.43878e-10
2403.1	-7.98536e-10
2419.8	-1.16506e-09
2436.53	-1.68984e-09
2453.26	-2.43381e-09
2469.99	-3.48064e-09
2486.7	-4.9431e-09
2503.4	-6.97037e-09
2520.07	-9.76252e-09
2536.72	-1.35806e-08
2553.34	-1.87647e-08
2569.94	-2.57551e-08
2586.49	-3.51183e-08
2603.01	-4.75748e-08
2619.48	-6.40366e-08
2635.81	-8.55061e-08
2652.04	-1.13359e-07
2668.08	-1.49061e-07
2683.83	-1.94114e-07
2699.28	-2.50348e-07
2714.43	-3.1991e-07
2729.7	-4.07881e-07
2745.12	-5.19019e-07
2760.57	-6.57916e-07
2776.02	-8.30437e-07
2791.48	-1.04426e-06
2806.99	-1.30862e-06
2822.55	-1.63438e-06
2838.15	-2.0344e-06
2853.8	-2.52389e-06
2869.48	-3.1208e-06
2885.21	-3.84617e-06
2900.98	-4.72455e-06
2916.8	-5.78553e-06
2932.68	-7.06373e-06
2948.61	-8.59876e-06
2964.61	-1.04358e-05
2980.64	-1.26264e-05
2996.72	-1.52292e-05
3012.84	-1.83109e-05
3028.99	-2.19466e-05
3045.17	-2.62209e-05
3061.36	-3.12252e-05
3077.54	-3.70504e-05
3093.68	-4.38015e-05
3109.71	-5.15549e-05
3125.65	-6.04308e-05
3141.52	-7.05659e-05
3157.33	-8.21013e-05
3173.09	-9.51874e-05
3188.86	-0.000110041
3204.75	-0.000126974
3220.6	-0.000146039
3236.45	-0.000167457
3252.29	-0.000191457
3268.15	-0.000218302
3284.04	-0.000248257
3299.97	-0.00028158
3315.92	-0.000318531
3331.99	-0.000359592
3348.08	-0.000404843
3364.08	-0.000454178
3380.01	-0.000507796
3395.97	-0.000566222
3411.9	-0.000629405
3427.79	-0.000697438
3443.73	-0.000770842
3459.82	-0.000850179
3475.91	-0.000934849
3492	-0.00102477
3508.01	-0.00111931
3523.96	-0.00121829
3539.96	-0.00132202
3555.97	-0.00142998
3572	-0.00154155
3587.96	-0.0016554
3603.97	-0.00177148
3620	-0.00188864
3636.05	-0.00200558
3652.03	-0.00212023
3668.04	-0.0022316
3684.01	-0.00233743
3699.93	-0.00243554
3715.82	-0.00252372
3731.67	-0.00259938
3747.47	-0.0026597
3763.23	-0.0027017
3778.95	-0.00272211
3794.67	-0.00271737
3810.37	-0.00268355
3826.1	-0.00261623
3841.87	-0.00251046
3857.66	-0.00236113
3873.48	-0.00216276
3889.32	-0.00190959
3905.17	-0.00159543
3921.02	-0.00121453
3936.88	-0.000759782
3952.77	-0.000224131
3968.65	0.00039882
3984.52	0.00111593
4000.39	0.00193455
4016.25	0.00286178
4032.12	0.00390534
4047.99	0.00507311
4063.92	0.0063778
4079.9	0.00782582
4095.85	0.00941945
4111.81	0.0111671
4127.76	0.0130757
4143.72	0.0151517
4159.68	0.0174022
4175.6	0.0198245
4191.55	0.0224345
4207.47	0.0252265
4223.43	0.0282163
4239.47	0.0314166
4255.58	0.0348302
4271.7	0.0384455
4287.78	0.0422532
4303.84	0.0462544
4319.94	0.050461
4336.05	0.0548639
4352.17	0.0594612
4368.29	0.0642424
4384.43	0.0692049
4400.56	0.0743362
4416.69	0.0796262
4432.84	0.0850702
4448.98	0.0906523
4465.13	0.096358
4481.29	0.10218
4497.45	0.108097
4513.61	0.114092
4529.77	0.120147
4545.94	0.12625
4562.12	0.132377
4578.29	0.138505
4594.46	0.144613
4610.62	0.15068
4626.78	0.156685
4642.96	0.162611
4659.13	0.168431
4675.31	0.17412
4691.47	0.179654
4707.62	0.185011
4723.77	0.190167
4739.91	0.195103
4756.04	0.199795
4772.16	0.204224
4788.27	0.208368
4804.38	0.212209
4820.47	0.215727
4836.55	0.218905
4852.62	0.221727
4868.67	0.224178
4884.71	0.226243
4900.74	0.227911
4916.75	0.22917
4932.75	0.230011
4948.7	0.230426
4964.6	0.23041
4980.51	0.229959
4996.43	0.229067
5012.29	0.227738
5028.16	0.225965
5044.1	0.223739
5060.03	0.22107
5075.96	0.217962
5091.88	0.214419
5107.75	0.210462
5123.63	0.206084
5139.58	0.201278
5155.57	0.196055
5171.56	0.190443
5187.57	0.184453
5203.59	0.178098
5219.63	0.171395
5235.69	0.164362
5251.77	0.157018
5267.87	0.149385
5283.99	0.141485
5300.13	0.133343
5316.29	0.124984
5332.5	0.116424
5348.74	0.107694
5365.01	0.098827
5381.3	0.089855
5397.62	0.0808094
5413.95	0.0717227
5430.31	0.0626273
5446.68	0.0535562
5463.05	0.0445511
5479.42	0.035646
5495.75	0.0268875
5512.06	0.0182988
5528.3	0.00993395
5544.47	0.00181029
5560.6	-0.00605158
5576.68	-0.0136308
5592.8	-0.020948
5608.92	-0.0279652
5625.02	-0.0346458
5641	-0.0409435
5656.96	-0.0468806
5672.82	-0.0524202
5688.6	-0.0575644
5704.33	-0.0623224
5720.12	-0.0667132
5735.92	-0.0707224
5751.74	-0.0743423
5767.52	-0.077565
5783.3	-0.0803975
5799.08	-0.0828449
5814.86	-0.0849128
5830.63	-0.0866058
5846.33	-0.0879318
5862.06	-0.0889099
5877.82	-0.0895499
5893.61	-0.0898638
5909.44	-0.0898646
5925.33	-0.0895655
5941.27	-0.0889807
5957.29	-0.0881244
5973.36	-0.0870133
5989.47	-0.0856651
6005.64	-0.0840979
6021.84	-0.0823293
6038.1	-0.0803771
6054.39	-0.0782595
6070.73	-0.0759938
6087.1	-0.0735966
6103.5	-0.0710829
6119.92	-0.0684691
6136.35	-0.0657678
6152.79	-0.0629889
6169.23	-0.0601396
6185.66	-0.0572248
6202.1	-0.0542462
6218.5	-0.0512079
6234.88	-0.0481037
6251.22	-0.044925
6267.47	-0.0416737
6283.64	-0.038334
6299.71	-0.0348889
6315.78	-0.0313
6331.69	-0.0275769
6347.46	-0.0236917
6363.12	-0.0196109
6378.69	-0.0153032
6394.16	-0.0107362
6409.53	-0.00587943
6424.79	-0.000703064
6439.95	0.00482979
6455.02	0.0107595
6470.02	0.0171286
6484.96	0.0239815
6499.91	0.0313944
6514.91	0.0394355
6530.04	0.0482106
6545.28	0.0577749
6560.59	0.0681624
6575.96	0.0794392
6591.41	0.0916728
6606.93	0.10493
6622.52	0.119277
6638.18	0.134779
6653.93	0.151516
6669.76	0.169549
6685.67	0.188937
6701.68	0.20977
6717.76	0.232068
6733.91	0.255875
6750.11	0.281232
6766.38	0.308162
6782.71	0.336703
6799.1	0.366877
6815.55	0.398696
6832.06	0.43216
6848.63	0.467262
6865.26	0.503981
6881.95	0.542283
6898.7	0.582121
6915.5	0.623432
6932.36	0.666137
6949.26	0.710143
6966.19	0.755305
6983.12	0.801392
7000.03	0.848272
7016.94	0.895798
7033.84	0.943816
7050.74	0.992162
7067.63	1.04066
7084.51	1.08913
7101.38	1.13738
7118.24	1.18521
7134.96	1.23207
7151.52	1.2777
7167.91	1.32194
7184.13	1.36463
7200.05	1.40531
7215.73	1.44399
7231.19	1.48065
7246.43	1.51524
7261.39	1.54753
7276.09	1.57754
7290.52	1.60525
7304.7	1.63067
7318.67	1.6539
7332.5	1.67503
7346.22	1.69411
7359.93	1.71123
7373.72	1.72643
7387.69	1.73973
7401.75	1.75092
7415.91	1.75996
7430.16	1.76675
7444.51	1.77126
7458.95	1.77342
7473.52	1.7732
7488.2	1.77055
7503.01	1.76545
7517.94	1.75787
7532.98	1.74784
7548.1	1.73537
7563.32	1.72051
7578.63	1.70332
7594.03	1.68386
7609.52	1.66223
7625.09	1.63853
7640.74	1.61289
7656.48	1.58542
7672.3	1.55629
7688.19	1.52564
7704.17	1.49367
7720.21	1.46055
7736.33	1.42647
7752.52	1.39165
7768.76	1.35629
7785.07	1.32064
7801.42	1.28491
7817.83	1.2493
7834.3	1.21404
7850.82	1.17933
7867.39	1.14537
7884.02	1.11238
7900.7	1.08054
7917.45	1.05004
7934.25	1.02105
7951.11	0.993732
7968.02	0.968249
7984.97	0.944771
8001.94	0.923421
8018.93	0.904289
8035.95	0.887447
8052.99	0.872951
8070.06	0.860838
8087.16	0.851127
8104.28	0.843819
8121.43	0.838897
8138.61	0.836325
8155.82	0.836051
8173.06	0.838006
8190.33	0.842104
8207.62	0.848245
8224.95	0.856314
8242.3	0.866182
8259.68	0.877709
8277.08	0.890741
8294.5	0.905117
8311.94	0.920668
8329.39	0.937221
8346.86	0.954597
8364.33	0.972617
8381.82	0.991101
8399.3	1.00987
8416.79	1.02875
8434.22	1.04752
8451.58	1.066
8468.86	1.08406
8486.07	1.10156
8503.08	1.11827
8519.79	1.13401
8535.92	1.14848
8551.18	1.16145
8565.33	1.17281
8577.74	1.18221
8589.58	1.19067
8601.4	1.19859
8613.05	1.2059
8624.76	1.21273
8636.69	1.21914
8648.84	1.22509
8661.16	1.23055
8673.7	1.2355
8686.51	1.23994
8699.49	1.24379
8712.62	1.24706
8725.97	1.24975
8739.56	1.25184
8753.39	1.25334
8767.5	1.25423
8781.81	1.25453
8796.31	1.25424
8805.5	1.25377
8820.36	1.25257
8835.38	1.25085
8850.57	1.24865
8864.78	1.24623
8876.63	1.24397
8886.8	1.24188
8902.49	1.23842
8918.26	1.23472
8934.13	1.23082
8950.07	1.22679
8966.09	1.22269
8982.17	1.21856
8998.31	1.21447
9014.47	1.21046
9030.69	1.20656
9046.95	1.20282
9063.25	1.19925
9077.43	1.19632
9077.61	1.19629
9077.75	1.19626
9077.89	1.19623
9078.02	1.19621
9078.16	1.19618
9078.3	1.19615
9078.44	1.19612
9078.58	1.1961
9078.72	1.19607
9078.86	1.19604
9079	1.19601
9079.14	1.19598
9079.28	1.19596
9079.42	1.19593
9079.56	1.1959
9079.7	1.19587
9079.84	1.19584
9079.98	1.19582
9080.12	1.19579
9080.26	1.19576
9080.41	1.19573
9080.55	1.1957
9080.69	1.19568
9080.83	1.19565
9080.97	1.19562
9081.11	1.19559
9081.25	1.19556
9081.39	1.19554
9081.53	1.19551
9081.67	1.19548
9081.82	1.19545
9081.96	1.19543
9082.1	1.1954
9082.24	1.19537
9082.38	1.19534
9082.52	1.19531
9082.66	1.19529
9082.81	1.19526
9082.95	1.19523
9083.09	1.1952
9083.23	1.19518
9083.37	1.19515
9083.51	1.19512
9083.65	1.19509
9083.8	1.19506
9083.94	1.19504
9084.08	1.19501
9084.22	1.19498
9084.36	1.19495
9084.5	1.19493
9084.65	1.1949
9084.79	1.19487
9084.93	1.19484
9085.07	1.19482
9085.21	1.19479
9085.36	1.19476
9085.5	1.19473
9085.64	1.19471
9085.78	1.19468
9085.92	1.19465
9086.06	1.19462
9086.21	1.1946
9086.35	1.19457
9086.49	1.19454
9086.63	1.19451
9086.77	1.19449
9086.92	1.19446
9087.06	1.19443
9087.2	1.1944
9087.34	1.19438
9087.48	1.19435
9087.63	1.19432
9087.77	1.19429
9087.91	1.19427
9088.05	1.19424
9088.19	1.19421
9088.34	1.19419
9088.48	1.19416
9088.62	1.19413
9088.76	1.1941
9088.9	1.19408
9089.05	1.19405
9089.19	1.19402
9089.33	1.194
9089.48	1.19397
9089.62	1.19394
9089.76	1.19391
9089.91	1.19389
9090.05	1.19386
9090.19	1.19383
9090.34	1.1938
9090.48	1.19378
9090.62	1.19375
9090.77	1.19372
9090.91	1.1937
9091.06	1.19367
9091.2	1.19364
9091.35	1.19361
9091.49	1.19359
9091.64	1.19356
9091.78	1.19353
9091.93	1.1935
9092.08	1.19347
9092.23	1.19345
9092.37	1.19342
9092.52	1.19339
9092.68	1.19336
9092.83	1.19333
9092.98	1.19331
9093.13	1.19328
9093.29	1.19325
9093.44	1.19322
9093.6	1.19319
9093.77	1.19316
9093.94	1.19313
9094.11	1.19309
9094.29	1.19306
9094.47	1.19303
9094.65	1.19299
9094.83	1.19296
9095.01	1.19293
9095.2	1.19289
9095.39	1.19285
9095.59	1.19282
9095.78	1.19278
9095.93	1.19275
9096.12	1.19272
9096.31	1.19269
9096.51	1.19265
9096.74	1.19261
9097.02	1.19255
9097.27	1.19251
9097.47	1.19247
9097.65	1.19244
9097.81	1.19241
9098	1.19237
9098.19	1.19234
9098.38	1.1923
9098.53	1.19228
9098.73	1.19224
9098.93	1.1922
9099.15	1.19216
9099.32	1.19213
9099.51	1.1921
9099.68	1.19207
9099.84	1.19204
9100.01	1.19201
9100.17	1.19198
9100.33	1.19195
9100.5	1.19192
9100.66	1.19189
9100.83	1.19186
9100.99	1.19183
9101.16	1.1918
9101.32	1.19177
9101.52	1.19173
9101.68	1.1917
9101.85	1.19167
9102.02	1.19164
9102.19	1.19161
9102.36	1.19158
9102.52	1.19155
9102.69	1.19152
9102.85	1.19149
9103.02	1.19146
9103.19	1.19143
9103.36	1.1914
9103.58	1.19136
9103.79	1.19133
9104.04	1.19128
9104.33	1.19123
9104.61	1.19118
9104.91	1.19113
9105.18	1.19108
9105.44	1.19103
9105.71	1.19098
9105.9	1.19095
9106.11	1.19091
9106.29	1.19088
9106.47	1.19085
9106.66	1.19082
9106.87	1.19078
9107.06	1.19075
9107.24	1.19071
9107.42	1.19068
9107.6	1.19065
9107.78	1.19062
9107.95	1.19059
9108.13	1.19056
9108.32	1.19053
9108.49	1.19049
9108.69	1.19046
9108.9	1.19042
9109.12	1.19039
9109.33	1.19035
9109.69	1.19029
9110	1.19023
9110.29	1.19018
9110.51	1.19014
9110.72	1.19011
9110.96	1.19007
9111.2	1.19003
9111.4	1.18999
9111.64	1.18995
9111.84	1.18992
9112.04	1.18988
9112.24	1.18985
9112.43	1.18981
9112.62	1.18978
9112.82	1.18975
9113.01	1.18972
9113.19	1.18968
9113.38	1.18965
9113.57	1.18962
9113.75	1.18959
9113.94	1.18956
9114.13	1.18952
9114.36	1.18948
9114.64	1.18944
9114.94	1.18939
9115.29	1.18933
9115.65	1.18927
9115.98	1.18921
9116.33	1.18915
9116.63	1.1891
9116.92	1.18905
9117.2	1.18901
9117.48	1.18896
9117.75	1.18891
9118.03	1.18887
9118.27	1.18883
9118.53	1.18878
9118.78	1.18874
9119	1.18871
9119.26	1.18866
9119.47	1.18863
9119.68	1.18859
9119.9	1.18856
9120.11	1.18852
9120.3	1.18849
9120.48	1.18846
9120.67	1.18843
9120.88	1.1884
9121.12	1.18836
9121.38	1.18831
9121.65	1.18827
9121.91	1.18823
9122.18	1.18818
9122.46	1.18814
9122.7	1.1881
9122.93	1.18806
9123.16	1.18802
9123.4	1.18799
9123.6	1.18795
9123.84	1.18791
9124.06	1.18788
9124.28	1.18784
9124.5	1.18781
9124.72	1.18777
9124.99	1.18773
9125.3	1.18768
9125.59	1.18763
9125.84	1.18759
9126.13	1.18755
9126.39	1.18751
9126.63	1.18747
9126.88	1.18743
9127.12	1.18739
9127.36	1.18735
9127.59	1.18731
9127.82	1.18728
9128.06	1.18724
9128.34	1.18719
9128.87	1.18711
9129.42	1.18702
9129.74	1.18697
9130.08	1.18692
9130.4	1.18687
9130.74	1.18682
9131.01	1.18677
9131.33	1.18673
9131.63	1.18668
9131.89	1.18664
9132.19	1.18659
9132.44	1.18655
9132.75	1.1865
9133.09	1.18645
9133.38	1.18641
9133.72	1.18635
9134.05	1.1863
9134.33	1.18626
9134.66	1.18621
9134.98	1.18616
9135.75	1.18605
9136.36	1.18595
9136.82	1.18588
9137.3	1.18581
9137.71	1.18575
9138.07	1.18569
9138.45	1.18564
9138.79	1.18558
9139.14	1.18553
9139.5	1.18548
9139.85	1.18543
9140.2	1.18538
9140.55	1.18532
9140.9	1.18527
9141.25	1.18522
9141.58	1.18517
9141.91	1.18512
9142.25	1.18507
9142.68	1.18501
9143.1	1.18495
9143.44	1.1849
9143.9	1.18483
9144.32	1.18477
9144.69	1.18471
9145.17	1.18464
9145.51	1.18459
9145.85	1.18455
9146.23	1.18449
9146.61	1.18444
9147.04	1.18437
9147.38	1.18433
9147.73	1.18428
9148.22	1.1842
9148.69	1.18414
9149.12	1.18408
9149.56	1.18401
9150.06	1.18394
9150.52	1.18388
9151.04	1.1838
9151.57	1.18373
9152.13	1.18365
9152.62	1.18358
9153.05	1.18352
9153.51	1.18346
9153.99	1.18339
9154.53	1.18332
9155.05	1.18325
9155.58	1.18317
9156.11	1.1831
9156.65	1.18303
9157.17	1.18296
9157.38	1.18293
9157.62	1.18289
9157.82	1.18287
9158.03	1.18284
9158.25	1.18281
9158.47	1.18278
9158.7	1.18275
9158.99	1.18271
9159.26	1.18267
9159.6	1.18263
9160.28	1.18253
9170.07	1.18125
9180.01	1.18
9190.01	1.17881
9200.06	1.17765
9210.03	1.17653
9220.09	1.17544
9230.1	1.17436
9240.07	1.1733
9250.04	1.17223
9260	1.17115
9270.01	-nan
9280.02	-nan
9290.02	-nan
9300.04	-nan
9310.08	-nan
9320.1	-nan
9330.06	-nan
9340.18	-nan
9350.18	-nan
9360.15	-nan
9370.14	-nan
9380.05	-nan
9390.03	-nan
9400.28	-nan
9410.35	-nan
9420.08	-nan
9430.09	-nan
9440.35	-nan
9450.35	-nan
9460.42	-nan
9470.46	-nan
9480.42	-nan
9490.21	-nan
9500.34	-nan
9510.25	-nan
9520.52	-nan
9530.52	-nan
9540.23	-nan
9550.28	-nan
9560	-nan
9570.08	-nan
9580.57	-nan
9590.67	-nan
9600.29	-nan
9610.19	-nan
9620.42	-nan
9630.08	-nan
9640.03	-nan
9650.29	-nan
9660.87	-nan
9670.76	-nan
9680.91	-nan
9690.27	-nan
9700.93	-nan
9710.76	-nan
9720.82	-nan
9731.1	-nan
9740.44	-nan
9751.04	-nan
9760.74	-nan
9770.67	-nan
9780.8	-nan
9791.13	-nan
9800.32	-nan
9811.02	-nan
9820.54	-nan
9830.22	-nan
9840.06	-nan
9850.06	-nan
9860.23	-nan
9870.57	-nan
9881.07	-nan
9890.22	-nan
9901.06	-nan
9910.5	-nan
9920.09	-nan
9931.45	-nan
9941.35	-nan
9951.41	-nan
9961.62	-nan
9970.25	-nan
9980.75	-nan
9991.4	-nan
10000.4	-nan
10011.4	-nan
10020.7	-nan
10030.1	-nan
10041.5	-nan
10051.2	-nan
10061.1	-nan
10071.1	-nan
10081.2	-nan
10091.5	-nan
10102	-nan
10110.4	-nan
10121.1	-nan
10132	-nan
10140.8	-nan
10152	-nan
10161	-nan
10170.1	-nan
10181.7	-nan
10191.1	-nan
10200.6	-nan
10210.2	-nan
10222.3	-nan
10232.1	-nan
10242.1	-nan
10252.1	-nan
10262.3	-nan
10272.6	-nan
10280.4	-nan
10290.9	-nan
10301.5	-nan
10312.2	-nan
10320.4	-nan
10331.3	-nan
10342.4	-nan
10350.8	-nan
10362.1	-nan
10370.7	-nan
10382.3	-nan
10391	-nan
10402.8	-nan
10411.7	-nan
10420.7	-nan
10432.9	-nan
10442.1	-nan
10451.3	-nan
10460.7	-nan
10470.1	-nan
10482.8	-nan
10492.5	-nan
10502.2	-nan
10512	-nan
10521.9	-nan
10531.2	-nan
10541.3	-nan
10551.4	-nan
10561.6	-nan
10571.9	-nan
10582.4	-nan
10592.9	-nan
10603.4	-nan
10610.6	-nan
10621.3	-nan
10632.1	-nan
10643.1	-nan
10650.4	-nan
10661.5	-nan
10672.7	-nan
10680.2	-nan
10691.6	-nan
10703	-nan
10710.7	-nan
10722.3	-nan
10730.1	-nan
10741.9	-nan
10753.7	-nan
10761.7	-nan
10773.8	-nan
10780	-nan
10790.7	-nan
10800.8	-nan
10810.7	-nan
10820.7	-nan
10832.4	-nan
10840.3	-nan
10852.2	-nan
10862.1	-nan
10872.8	-nan
10880.4	-nan
10892.6	-nan
10900.9	-nan
10913.9	-nan
10922.8	-nan
10931.8	-nan
10940.7	-nan
10954.4	-nan
10963.5	-nan
10972.8	-nan
10982.2	-nan
10991.6	-nan
11001.2	-nan
11011	-nan
11020	-nan
11031	-nan
11040.5	-nan
11050.8	-nan
11061.2	-nan
11071	-nan
11082.2	-nan
11091.5	-nan
11101.3	-nan
11111.3	-nan
11121.7	-nan
11132.5	-nan
11140	-nan
11150	-nan
11160	-nan
11170	-nan
11180.1	-nan
11190.2	-nan
11200.1	-nan
11210.3	-nan
11220	-nan
11230.4	-nan
11240.1	-nan
11250.1	-nan
11260.1	-nan
11270.3	-nan
11280.2	-nan
11290.2	-nan
11300.2	-nan
11310.4	-nan
11320.2	-nan
11330	-nan
11340.4	-nan
11350.1	-nan
11360.3	-nan
11370.3	-nan
11380.1	-nan
11390.3	-nan
11400.2	-nan
11410.5	-nan
11420.4	-nan
11430.6	-nan
11440.5	-nan
11450.6	-nan
11460.2	-nan
11470.1	-nan
11480.2	-nan
11490.7	-nan
11500.5	-nan
11510.6	-nan
11520	-nan
11530	-nan
11540.1	-nan
11550	-nan
11560.2	-nan
11570.2	-nan
11580.3	-nan
11590.1	-nan
11600.2	-nan
11610.4	-nan
11620.1	-nan
11630.2	-nan
11640.2	-nan
11650	-nan
11660.1	-nan
11670.4	-nan
11680.7	-nan
11690.1	-nan
11700.8	-nan
11710.3	-nan
11720.2	-nan
11730.7	-nan
11740.6	-nan
11751	-nan
11760.7	-nan
11770.9	-nan
11780.4	-nan
11790.3	-nan
11800.6	-nan
11811.3	-nan
11821.1	-nan
11831.3	-nan
11840.3	-nan
11851.2	-nan
11860.9	-nan
11870.9	-nan
11881.3	-nan
11890.2	-nan
11901.1	-nan
11910.5	-nan
11920.2	-nan
11930.1	-nan
11940.3	-nan
11950.8	-nan
11961.5	-nan
11970.3	-nan
11981.6	-nan
11990.9	-nan
12000.3	-nan
12012.2	-nan
12021.8	-nan
12031.6	-nan
12041.4	-nan
12051.4	-nan
12061.5	-nan
12071.7	-nan
12082	-nan
12092.4	-nan
12100.3	-nan
12110.9	-nan
12121.5	-nan
12132.2	-nan
12140.3	-nan
12151.2	-nan
12162.2	-nan
12170.5	-nan
12181.6	-nan
12192.8	-nan
12201.3	-nan
12212.6	-nan
12221.2	-nan
12232.8	-nan
12241.5	-nan
12250.2	-nan
12262	-nan
12270.9	-nan
12282.8	-nan
12291.9	-nan
12300.9	-nan
12310.1	-nan
12322.3	-nan
12331.5	-nan
12340.8	-nan
12350.1	-nan
12362.7	-nan
12372.1	-nan
12381.6	-nan
12391.2	-nan
12400.2	-nan
12413.1	-nan
12422.8	-nan
12432.6	-nan
12442.5	-nan
12452.4	-nan
12462.3	-nan
12472.4	-nan
12482.5	-nan
12492.6	-nan
12502.9	-nan
12513.1	-nan
12520	-nan
12530.3	-nan
12540.4	-nan
12550.3	-nan
12560.2	-nan
12573.1	-nan
12582.7	-nan
12592.2	-nan
12601.5	-nan
12610.8	-nan
12622.9	-nan
12632	-nan
12640.9	-nan
12652.7	-nan
12661.4	-nan
12670	-nan
12681.4	-nan
12692.6	-nan
12701	-nan
12712	-nan
12720.2	-nan
12731	-nan
12741.7	-nan
12752.2	-nan
12760.1	-nan
12770.5	-nan
12780.7	-nan
12790.9	-nan
12801	-nan
12811	-nan
12820.9	-nan
12830.7	-nan
12840.4	-nan
12850	-nan
12862	-nan
12871.4	-nan
12880.8	-nan
12890.1	-nan
12900	-nan
12910.1	-nan
12920.3	-nan
12930.1	-nan
12940	-nan
12950.3	-nan
12960.2	-nan
12970.2	-nan
12980.2	-nan
12990.8	-nan
13001.1	-nan
13011.3	-nan
13021.4	-nan
13031.1	-nan
13040	-nan
13051.8	-nan
13060.3	-nan
13071.8	-nan
13081.7	-nan
13092.2	-nan
13100.7	-nan
13112.6	-nan
13122.1	-nan
13132.1	-nan
13142.6	-nan
13153.6	-nan
13161.3	-nan
13171.1	-nan
13183.7	-nan
13192.4	-nan
13201.4	-nan
13210.3	-nan
13223.7	-nan
13232.9	-nan
13242.5	-nan
13250.8	-nan
13262	-nan
13272.4	-nan
13280.4	-nan
13290.8	-nan
13301	-nan
13315.4	-nan
13322.1	-nan
13332.4	-nan
13344.9	-nan
13351.7	-nan
13365.3	-nan
13375.3	-nan
13381.8	-nan
13395.9	-nan
13403	-nan
13410.1	-nan
13426.5	-nan
13433.7	-nan
13444.2	-nan
13450.1	-nan
13460.1	-nan
13470.4	-nan
13480	-nan
13490.1	-nan
13500.1	-nan
13510	-nan
13520.2	-nan
13530.7	-nan
13540.7	-nan
13551.6	-nan
13561.1	-nan
13571.7	-nan
13580.3	-nan
13590.1	-nan
13600.3	-nan
13611	-nan
13620.3	-nan
13631.7	-nan
13640.9	-nan
13651	-nan
13661.2	-nan
13672	-nan
13680.9	-nan
13692.9	-nan
13702.3	-nan
13710.1	-nan
13720.1	-nan
13730.1	-nan
13740.1	-nan
13750.5	-nan
13761.3	-nan
13771.3	-nan
13781.1	-nan
13790.8	-nan
13800	-nan
13811.1	-nan
13824.8	-nan
13834.6	-nan
13844.1	-nan
13854.9	-nan
13860.4	-nan
13871.2	-nan
13880.7	-nan
13891.5	-nan
13903.5	-nan
13914.6	-nan
13921	-nan
13936.1	-nan
13940.7	-nan
13950.2	-nan
13961	-nan
13970.7	-nan
13981.5	-nan
13993.3	-nan
14004.9	-nan
14010.5	-nan
14023.4	-nan
14030.3	-nan
14040.5	-nan
14050	-nan
14060.8	-nan
14070.5	-nan
14080.7	-nan
14090	-nan
14100.5	-nan
14110.5	-nan
14121.7	-nan
14130	-nan
14141.4	-nan
14151.4	-nan
14162.1	-nan
14170.7	-nan
14183.1	-nan
14193.1	-nan
14203.5	-nan
14210.8	-nan
14222.1	-nan
14230	-nan
14242	-nan
14250.6	-nan
14262	-nan
14270.2	-nan
14283.3	-nan
14290.2	-nan
14303.4	-nan
14312.3	-nan
14320	-nan
14330	-nan
14340	-nan
14350	-nan
14360	-nan
14370.6	-nan
14380.2	-nan
14390.5	-nan
14400.8	-nan
14410.2	-nan
14420.5	-nan
14430.6	-nan
14440.1	-nan
14450.1	-nan
14460.3	-nan
14470.5	-nan
14480.9	-nan
14490	-nan
14500.6	-nan
14511.2	-nan
14520.4	-nan
14530.6	-nan
14540.9	-nan
14550.1	-nan
14560.8	-nan
14570.4	-nan
14580.2	-nan
14590.3	-nan
14600.6	-nan
14611.3	-nan
14620.7	-nan
14630.4	-nan
14640.4	-nan
14650.7	-nan
14661.3	-nan
14670.5	-nan
14681.8	-nan
14691.5	-nan
14701.6	-nan
14712	-nan
14720.5	-nan
14731.5	-nan
14740.5	-nan
14752.1	-nan
14761.6	-nan
14771.3	-nan
14781.3	-nan
14791.5	-nan
14802	-nan
14812.6	-nan
14820.8	-nan
14831.9	-nan
14840.3	-nan
14851.9	-nan
14860.6	-nan
14872.6	-nan
14881.7	-nan
14891	-nan
14900.4	-nan
14913.2	-nan
14922.9	-nan
14932.8	-nan
14942.9	-nan
14953.2	-nan
14960.1	-nan
14970.4	-nan
14981.1	-nan
14992	-nan
15003	-nan
15010.5	-nan
15021.9	-nan
15033.4	-nan
15041.2	-nan
15053	-nan
15060.9	-nan
15072.9	-nan
15081	-nan
15093.3	-nan
15101.5	-nan
15114	-nan
15122.4	-nan
15130.9	-nan
15143.7	-nan
15152.3	-nan
15161	-nan
15174.1	-nan
15183	-nan
15191.9	-nan
15200.9	-nan
15210.1	-nan
15223.9	-nan
15233.3	-nan
15242.7	-nan
15252.2	-nan
15261.8	-nan
15271.6	-nan
15281.6	-nan
15291.8	-nan
15302.1	-nan
15312.5	-nan
15323	-nan
15333.7	-nan
15344.5	-nan
15355.5	-nan
15361	-nan
15371.8	-nan
15383.3	-nan
15393.5	-nan
15405.4	-nan
15411.3	-nan
15420.5	-nan
15430.8	-nan
15440.1	-nan
15455	-nan
15461.4	-nan
15470.8	-nan
15481.8	-nan
15491.1	-nan
15502.3	-nan
15513.9	-nan
15526.2	-nan
15533	-nan
15540.3	-nan
15555	-nan
15562.4	-nan
15577.3	-nan
15584.7	-nan
15592	-nan
15606.7	-nan
15614	-nan
15621.3	-nan
15635.8	-nan
15643.2	-nan
15653.2	-nan
15664.2	-nan
15671.8	-nan
15681.6	-nan
15697.4	-nan
15706.1	-nan
15714.8	-nan
15723.6	-nan
15731.5	-nan
15740.3	-nan
15758	-nan
15766.8	-nan
15775.7	-nan
15784.6	-nan
15794.4	-nan
15800.9	-nan
15816.3	-nan
15825.3	-nan
15836.1	-nan
15845.3	-nan
15854.5	-nan
15863.8	-nan
15873.2	-nan
15882.5	-nan
15892	-nan
15901.5	-nan
15911	-nan
15920	-nan
15939.3	-nan
15949	-nan
15958.8	-nan
15968.6	-nan
15978.5	-nan
15988.1	-nan
15990.8	-nan
16000.8	-nan
16010.8	-nan
16020.8	-nan
16030.9	-nan
16046.9	-nan
16057.1	-nan
16064.3	-nan
16073.5	-nan
16080.4	-nan
16090.5	-nan
16100.5	-nan
16110.6	-nan
16120.1	-nan
16130.2	-nan
16140.2	-nan
16150.3	-nan
16168.2	-nan
16179.9	-nan
16191.6	-nan
16203.4	-nan
16204.2	-nan
16210.4	-nan
16220	-nan
16230.2	-nan
16240.3	-nan
16250.4	-nan
16260	-nan
16270.1	-nan
16280.5	-nan
16290.4	-nan
16305.7	-nan
16313.8	-nan
16323.5	-nan
16331.1	-nan
16349.5	-nan
16360.6	-nan
16363.4	-nan
16374.2	-nan
16384.9	-nan
16397	-nan
16409.1	-nan
16421.1	-nan
16433.2	-nan
16445.3	-nan
16457.4	-nan
16469.5	-nan
16481.6	-nan
16493.6	-nan
16505.7	-nan
16517.8	-nan
16529.9	-nan
16542	-nan
16554.1	-nan
16554.1	-nan
16554.2	-nan
16554.2	-nan
16560	-nan
16576	-nan
16588.1	-nan
16600.2	-nan
16612.2	-nan
16616.7	-nan
16623.9	-nan
16630.7	-nan
16648.1	-nan
16658.2	-nan
16669.9	-nan
16682	-nan
16694.1	-nan
16706.1	-nan
16718.2	-nan
16730.3	-nan
16742.4	-nan
16754.5	-nan
16766.6	-nan
16778.6	-nan
16778.7	-nan
16778.9	-nan
16780.1	-nan
16790.2	-nan
16800.6	-nan
16810.5	-nan
16820.5	-nan
16831.1	-nan
16841.2	-nan
16851.5	-nan
16860.4	-nan
16870.4	-nan
16881.2	-nan
16892.8	-nan
16902.3	-nan
16912.2	-nan
16922.8	-nan
16930.1	-nan
16941.5	-nan
16950	-nan
16964.2	-nan
16973.3	-nan
16982.6	-nan
16992.6	-nan
17002.8	-nan
17013.3	-nan
17024.5	-nan
17030.2	-nan
17041.7	-nan
17053.8	-nan
17060.2	-nan
17073.1	-nan
17086.3	-nan
17093	-nan
17106.5	-nan
17113.4	-nan
17120.4	-nan
17134.9	-nan
17142.2	-nan
17157.1	-nan
17164.8	-nan
17174.9	-nan
17183	-nan
17191.3	-nan
17208.5	-nan
17217.3	-nan
17226.4	-nan
17235.8	-nan
17245.4	-nan
17255.3	-nan
17265.3	-nan
17275.6	-nan
17286.1	-nan
17296.6	-nan
17307.4	-nan
17318.4	-nan
17329.7	-nan
17341.2	-nan
17352.9	-nan
17364.9	-nan
17377	-nan
17389	-nan
17401.1	-nan
17413.2	-nan
17425.3	-nan
17437.3	-nan
17437.4	-nan
17437.4	-nan
17440	-nan
17450	-nan
17460.1	-nan
17470.2	-nan
17480.1	-nan
17490.3	-nan
17500.3	-nan
17510.3	-nan
17520	-nan
17530.5	-nan
17540.2	-nan
17550.2	-nan
17560.1	-nan
17570.1	-nan
17580.2	-nan
17590.7	-nan
17600.5	-nan
17610	-nan
17620	-nan
17630	-nan
17640	-nan
17650	-nan
17660.2	-nan
17670.3	-nan
17680	-nan
17690.9	-nan
17701	-nan
17711.2	-nan
17720.3	-nan
17730.6	-nan
17740.5	-nan
17751.3	-nan
17760.9	-nan
17770.9	-nan
17780.2	-nan
17790	-nan
17800.7	-nan
17810.2	-nan
17820.1	-nan
17830	-nan
17840.8	-nan
17853.9	-nan
17864.4	-nan
17875.4	-nan
17881	-nan
17893.5	-nan
17905.5	-nan
17911.7	-nan
17924.2	-nan
17930.6	-nan
17944.1	-nan
17951.2	-nan
17965.6	-nan
17972.9	-nan
17980.3	-nan
17995.3	-nan
18002.9	-nan
18010.7	-nan
18026.6	-nan
18034.7	-nan
18042.9	-nan
18051.2	-nan
18068	-nan
18076.5	-nan
18085.1	-nan
18093.7	-nan
18102.5	-nan
18111.4	-nan
18120.6	-nan
18139.9	-nan
18150.2	-nan
18150.3	-nan
18160.7	-nan
18170.2	-nan
18181.8	-nan
18190.8	-nan
18200	-nan
18213.5	-nan
18223.4	-nan
18233.3	-nan
18240.1	-nan
18253.8	-nan
18263.2	-nan
18274.5	-nan
18286.6	-nan
18298.6	-nan
18310.7	-nan
18322.8	-nan
18334.9	-nan
18347	-nan
18359.1	-nan
18371.1	-nan
18383.2	-nan
18395.3	-nan
18407.4	-nan
18419.5	-nan
18431.6	-nan
18443.6	-nan
18455.7	-nan
18467.8	-nan
18468.3	-nan
18468.7	-nan
18469.1	-nan
18470.3	-nan
18480	-nan
18490.4	-nan
18500.6	-nan
18510.1	-nan
18521.9	-nan
18531.2	-nan
18541.5	-nan
18550.1	-nan
18560.5	-nan
18570.7	-nan
18580	-nan
18590.1	-nan
18600.2	-nan
18610	-nan
18620.6	-nan
18630.4	-nan
18640.4	-nan
18651.1	-nan
18661.1	-nan
18671	-nan
18680.5	-nan
18690.9	-nan
18700.5	-nan
18711	-nan
18720	-nan
18732.3	-nan
18740.3	-nan
18751.6	-nan
18760.6	-nan
18770.2	-nan
18780.4	-nan
18791.2	-nan
18802.7	-nan
18810.8	-nan
18823.4	-nan
18832	-nan
18840.7	-nan
18854	-nan
18863	-nan
18872.1	-nan
18881.5	-nan
18891.4	-nan
18902	-nan
18913.3	-nan
18924.6	-nan
18930.2	-nan
18941	-nan
18951.8	-nan
18962.7	-nan
18973.9	-nan
18985.4	-nan
18991.3	-nan
19003.5	-nan
19016.1	-nan
19022.5	-nan
19035.7	-nan
19042.5	-nan
19056.3	-nan
19063.4	-nan
19070.6	-nan
19085.4	-nan
19093.1	-nan
19101.1	-nan
19117.6	-nan
19126.2	-nan
19135.1	-nan
19144.2	-nan
19153.6	-nan
19163.3	-nan
19173.2	-nan
19183.5	-nan
19194.2	-nan
19205.2	-nan
19216.6	-nan
19228.3	-nan
19236.6	-nan
19248.7	-nan
19260.8	-nan
19272.9	-nan
19284.9	-nan
19297	-nan
19309.1	-nan
19321.2	-nan
19333.3	-nan
19345.4	-nan
19357.4	-nan
19369.5	-nan
19381.6	-nan
19393.7	-nan
19405.8	-nan
19417.8	-nan
19429.9	-nan
19442	-nan
19454.1	-nan
19466.2	-nan
19478.3	-nan
19490.3	-nan
19502.4	-nan
19514.5	-nan
19526.6	-nan
19538.7	-nan
19550.8	-nan
19562.8	-nan
19574.9	-nan
19587	-nan
19599.1	-nan
19611.2	-nan
19623.3	-nan
19635.3	-nan
19647.4	-nan
19659.5	-nan
19671.6	-nan
19683.7	-nan
19695.7	-nan
19707.8	-nan
19719.9	-nan
19732	-nan
19744.1	-nan
19756.2	-nan
19767.6	-nan
19779.7	-nan
19791.8	-nan
19803.8	-nan
19815.9	-nan
19828	-nan
19840.1	-nan
19852.2	-nan
19864.2	-nan
19876.3	-nan
19888.4	-nan
19900.5	-nan
19912.6	-nan
19924.7	-nan
19936.7	-nan
19948.8	-nan
19960.9	-nan
19973	-nan
19985.1	-nan
19997.2	-nan
