0	0
20.8604	0
41.7207	0
62.5811	0
83.4414	0
104.302	0
125.162	0
146.023	0
166.883	0
187.743	0
208.604	0
229.464	0
250.324	0
271.185	0
292.045	0
312.905	0
333.766	0
354.626	0
375.486	0
396.347	0
417.207	0
438.068	0
458.928	0
479.788	0
500.649	0
521.509	0
542.369	0
563.23	0
584.09	0
604.95	0
625.811	0
646.671	0
667.531	0
688.392	0
709.252	0
730.113	0
750.973	0
771.833	0
792.694	0
813.554	0
834.414	0
855.275	0
876.135	0
896.995	0
917.856	0
938.716	0
959.576	0
980.437	0
1001.3	0
1022.16	0
1043.02	0
1063.88	0
1084.74	0
1105.6	0
1126.46	0
1147.32	0
1168.18	0
1189.04	0
1209.9	0
1230.76	0
1251.62	0
1272.48	0
1293.34	0
1314.2	0
1335.06	0
1355.92	0
1376.78	0
1397.64	0
1418.5	0
1439.36	0
1460.23	0
1481.09	0
1501.95	-9.09495e-13
1522.81	-9.09495e-13
1543.67	-1.81899e-12
1564.53	-5.45697e-12
1585.39	-1.45519e-11
1606.25	-3.72893e-11
1627.11	-9.3678e-11
1647.97	-2.25555e-10
1668.83	-5.19321e-10
1689.69	-1.15506e-09
1710.55	-2.48019e-09
1731.41	-5.15411e-09
1752.27	-1.03873e-08
1773.13	-2.03272e-08
1793.99	-3.86863e-08
1814.85	-7.17064e-08
1835.71	-1.29606e-07
1856.57	-2.28699e-07
1877.43	-3.94418e-07
1898.29	-6.65492e-07
1919.15	-1.09961e-06
1940.01	-1.78085e-06
1960.87	-2.82926e-06
1981.73	-4.41281e-06
2002.59	-6.76197e-06
2023.45	-1.0187e-05
2044.31	-1.50981e-05
2065.18	-2.20272e-05
2086.04	-3.16529e-05
2106.9	-4.48251e-05
2127.76	-6.25902e-05
2148.62	-8.62142e-05
2169.48	-0.000117203
2190.34	-0.000157316
2211.2	-0.000208573
2232.06	-0.000273249
2252.92	-0.000353858
2273.78	-0.000453118
2294.64	-0.000573902
2315.5	-0.000719164
2336.36	-0.000891844
2357.22	-0.00109475
2378.08	-0.00133042
2398.94	-0.00160093
2419.8	-0.00190772
2440.66	-0.00225135
2461.52	-0.00263129
2482.38	-0.00304558
2503.24	-0.00349062
2524.1	-0.00396078
2544.96	-0.00444816
2565.82	-0.00494223
2586.68	-0.00542951
2607.54	-0.00589327
2628.4	-0.00631327
2649.26	-0.00666552
2670.13	-0.00692206
2690.99	-0.00705086
2711.85	-0.00701577
2732.71	-0.00677657
2753.57	-0.00628913
2774.43	-0.00550568
2795.29	-0.00437525
2816.15	-0.00284418
2837.01	-0.000856845
2857.87	0.0016435
2878.73	0.00471376
2899.59	0.00840986
2920.45	0.0127856
2941.31	0.0178911
2962.17	0.0237718
2983.03	0.0304666
3003.89	0.0380068
3024.75	0.0464143
3045.61	0.0557008
3066.47	0.0658658
3087.33	0.0768964
3108.19	0.0887656
3129.05	0.101432
3149.91	0.11484
3170.77	0.128918
3191.63	0.14358
3212.49	0.158725
3233.35	0.174239
3254.21	0.189996
3275.07	0.205856
3295.93	0.221671
3316.79	0.237286
3337.64	0.252539
3358.5	0.267263
3379.36	0.281291
3400.22	0.294459
3421.08	0.306604
3441.94	0.317569
3462.8	0.327209
3483.66	0.335385
3504.52	0.341976
3525.38	0.346873
3546.24	0.349984
3567.1	0.351238
3587.96	0.350579
3608.82	0.347977
3629.68	0.343419
3650.54	0.336914
3671.4	0.328494
3692.26	0.318212
3713.12	0.306138
3733.98	0.292366
3754.84	0.277004
3775.7	0.260179
3796.56	0.242032
3817.42	0.222717
3838.28	0.202399
3859.14	0.18125
3880	0.159452
3900.86	0.137188
3921.72	0.114644
3942.58	0.0920052
3963.44	0.069454
3984.3	0.0471681
4005.16	0.0253182
4026.02	0.00406628
4046.88	-0.0164362
4067.74	-0.0360499
4088.6	-0.0546486
4109.46	-0.0721204
4130.32	-0.0883689
4151.18	-0.103313
4172.04	-0.116889
4192.9	-0.129048
4213.76	-0.139757
4234.62	-0.149002
4255.48	-0.156781
4276.34	-0.163108
4297.2	-0.168012
4318.06	-0.171533
4338.92	-0.173723
4359.78	-0.174646
4380.64	-0.174373
4401.5	-0.172985
4422.36	-0.170567
4443.22	-0.167211
4464.08	-0.163011
4484.94	-0.158065
4505.81	-0.15247
4526.67	-0.146325
4547.53	-0.139726
4568.39	-0.132766
4589.25	-0.125537
4610.11	-0.118124
4630.97	-0.11061
4651.83	-0.103071
4672.69	-0.0955771
4693.55	-0.0881923
4714.41	-0.0809742
4735.27	-0.0739739
4756.13	-0.0672357
4776.99	-0.0607972
4797.85	-0.0546898
4818.71	-0.0489385
4839.57	-0.0435621
4860.43	-0.038574
4881.29	-0.0339823
4902.15	-0.02979
4923.01	-0.0259958
4943.87	-0.0225944
4964.73	-0.0195769
4985.59	-0.0169313
5006.45	-0.014643
5027.31	-0.0126953
5048.17	-0.0110697
5069.03	-0.00974637
5089.89	-0.00870471
5110.75	-0.00792342
5131.61	-0.00738104
5152.47	-0.00705616
5173.33	-0.00692776
5194.19	-0.00697537
5215.06	-0.00717928
5235.92	-0.00752074
5256.78	-0.00798203
5277.64	-0.0085466
5298.5	-0.00919909
5319.36	-0.00992538
5340.22	-0.0107126
5361.08	-0.0115491
5381.94	-0.0124244
5402.8	-0.0133292
5423.66	-0.0142552
5444.52	-0.0151951
5465.38	-0.0161425
5486.24	-0.0170918
5507.1	-0.018038
5527.96	-0.0189769
5548.82	-0.0199047
5569.68	-0.020818
5590.54	-0.0217138
5611.4	-0.0225893
5632.26	-0.023442
5653.12	-0.0242696
5673.98	-0.0250699
5694.84	-0.0258405
5715.7	-0.0265796
5736.56	-0.027285
5757.42	-0.0279547
5778.28	-0.0285868
5799.14	-0.0291795
5820	-0.0297308
5840.87	-0.0302391
5861.73	-0.0307028
5882.59	-0.0311203
5903.45	-0.0314905
5924.31	-0.0318121
5945.17	-0.0320842
5966.03	-0.0323061
5986.89	-0.0324774
6007.75	-0.0325977
6028.61	-0.0326672
6049.47	-0.0326861
6070.33	-0.0326549
6091.19	-0.0325745
6112.05	-0.0324458
6132.91	-0.03227
6153.77	-0.0320487
6174.63	-0.0317835
6195.49	-0.0314761
6216.35	-0.0311284
6237.21	-0.0307425
6258.07	-0.0303204
6278.93	-0.0298643
6299.79	-0.0293763
6320.65	-0.0288585
6341.51	-0.0283131
6362.37	-0.0277421
6383.23	-0.0271474
6404.09	-0.026531
6424.95	-0.0258946
6445.82	-0.0252397
6466.68	-0.0245681
6487.54	-0.023881
6508.4	-0.0231797
6529.26	-0.0224654
6550.12	-0.0217391
6570.98	-0.0210017
6591.84	-0.020254
6612.7	-0.0194969
6633.56	-0.0187309
6654.42	-0.0179568
6675.28	-0.0171751
6696.14	-0.0163864
6717	-0.0155914
6737.86	-0.0147907
6758.72	-0.0139849
6779.58	-0.0131747
6800.44	-0.0123611
6821.3	-0.0115447
6842.16	-0.0107267
6863.02	-0.0099081
6883.88	-0.00908999
6904.74	-0.00827368
6925.6	-0.00746054
6946.46	-0.00665203
6967.32	-0.00584972
6988.18	-0.00505523
7009.04	-0.0042703
7029.9	-0.0034967
7050.76	-0.00273627
7071.62	-0.00199086
7092.49	-0.00126237
7113.35	-0.000552683
7134.21	0.000136334
7155.07	0.000802842
7175.93	0.00144505
7196.79	0.00206124
7217.65	0.00264976
7238.51	0.00320908
7259.37	0.00373777
7280.23	0.0042345
7301.09	0.0046981
7321.95	0.00512754
7342.81	0.00552193
7363.67	0.00588053
7384.53	0.00620278
7405.39	0.00648825
7426.25	0.00673669
7447.11	0.00694798
7467.97	0.00712218
7488.83	0.00725948
7509.69	0.00736021
7530.55	0.00742482
7551.41	0.00745389
7572.27	0.0074481
7593.13	0.00740824
7613.99	0.00733516
7634.85	0.00722982
7655.71	0.00709321
7676.57	0.00692636
7697.43	0.00673037
7718.29	0.00650634
7739.15	0.00625537
7760.01	0.00597859
7780.87	0.0056771
7801.73	0.005352
7822.59	0.00500435
7843.46	0.00463519
7864.32	0.00424552
7885.18	0.0038363
7906.04	0.00340844
7926.9	0.00296281
7947.76	0.00250024
7968.62	0.00202151
7989.48	0.00152735
8010.34	0.00101845
8031.2	0.000495482
8052.06	-4.0945e-05
8072.92	-0.000590236
8093.78	-0.00115182
8114.64	-0.00172516
8135.5	-0.0023097
8156.36	-0.00290493
8177.22	-0.00351031
8198.08	-0.0041253
8218.94	-0.00474937
8239.8	-0.00538195
8260.66	-0.00602245
8281.52	-0.00667026
8302.38	-0.00732475
8323.24	-0.00798523
8344.1	-0.00865099
8364.96	-0.00932127
8385.82	-0.00999528
8406.68	-0.0106722
8427.54	-0.0113511
8448.4	-0.0120311
8469.26	-0.0127112
8490.12	-0.0133904
8510.98	-0.0140677
8531.84	-0.014742
8552.7	-0.0154122
8573.57	-0.0160771
8594.43	-0.0167357
8615.29	-0.0173867
8636.15	-0.0180289
8657.01	-0.0186612
8677.87	-0.0192824
8698.73	-0.0198912
8719.59	-0.0204865
8740.45	-0.0210672
8761.31	-0.021632
8782.17	-0.0221799
8803.03	-0.0227097
8823.89	-0.0232204
8844.75	-0.023711
8865.61	-0.0241805
8886.47	-0.0246279
8907.33	-0.0250524
8928.19	-0.025453
8949.05	-0.0258291
8969.91	-0.0261799
8990.77	-0.0265046
9011.63	-0.0268028
9032.49	-0.0270738
9053.35	-0.0273171
9074.21	-0.0275323
9095.07	-0.0277191
9115.93	-0.027877
9136.79	-0.0280059
9157.65	-0.0281055
9178.51	-0.0281758
9199.37	-0.0282166
9220.24	-0.028228
9241.1	-0.0282099
9261.96	-0.0281624
9282.82	-0.0280858
9303.68	-0.0279802
9324.54	-0.0278459
9345.4	-0.0276832
9366.26	-0.0274924
9387.12	-0.027274
9407.98	-0.0270285
9428.84	-0.0267564
9449.7	-0.0264582
9470.56	-0.0261346
9491.42	-0.0257863
9512.28	-0.0254139
9533.14	-0.0250182
9554	-0.0246001
9574.86	-0.0241604
9595.72	-0.0237
9616.58	-0.0232199
9637.44	-0.022721
9658.3	-0.0222045
9679.16	-0.0216713
9700.02	-0.0211227
9720.88	-0.0205597
9741.74	-0.0199837
9762.6	-0.0193957
9783.46	-0.0187972
9804.32	-0.0181894
9825.18	-0.0175736
9846.05	-0.0169512
9866.91	-0.0163236
9887.77	-0.0156922
9908.63	-0.0150584
9929.49	-0.0144236
9950.35	-0.0137893
9971.21	-0.013157
9992.07	-0.012528
10012.9	-0.0119039
10033.8	-0.011286
10054.6	-0.0106758
10075.5	-0.0100747
10096.4	-0.00948399
10117.2	-0.00890512
10138.1	-0.00833938
10159	-0.00778804
10179.8	-0.00725234
10200.7	-0.00673347
10221.5	-0.00623256
10242.4	-0.00575071
10263.3	-0.00528892
10284.1	-0.00484816
10305	-0.00442932
10325.8	-0.00403319
10346.7	-0.00366053
10367.6	-0.003312
10388.4	-0.00298817
10409.3	-0.00268952
10430.1	-0.00241648
10451	-0.00216936
10471.9	-0.00194837
10492.7	-0.00175366
10513.6	-0.00158527
10534.4	-0.00144314
10555.3	-0.00132713
10576.2	-0.00123701
10597	-0.00117242
10617.9	-0.00113296
10638.7	-0.00111809
10659.6	-0.00112722
10680.5	-0.00115965
10701.3	-0.00121458
10722.2	-0.00129115
10743	-0.00138842
10763.9	-0.00150535
10784.8	-0.00164084
10805.6	-0.00179371
10826.5	-0.00196272
10847.3	-0.00214657
10868.2	-0.00234388
10889.1	-0.00255324
10909.9	-0.00277318
10930.8	-0.00300219
10951.6	-0.00323872
10972.5	-0.00348118
10993.4	-0.00372797
11014.2	-0.00397746
11035.1	-0.004228
11055.9	-0.00447795
11076.8	-0.00472565
11097.7	-0.00496946
11118.5	-0.00520776
11139.4	-0.00543893
11160.2	-0.00566138
11181.1	-0.00587356
11202	-0.00607397
11222.8	-0.00626114
11243.7	-0.00643365
11264.5	-0.00659017
11285.4	-0.00672939
11306.3	-0.0068501
11327.1	-0.00695117
11348	-0.00703155
11368.8	-0.00709025
11389.7	-0.0071264
11410.6	-0.00713923
11431.4	-0.00712803
11452.3	-0.00709224
11473.2	-0.00703137
11494	-0.00694504
11514.9	-0.00683301
11535.7	-0.00669509
11556.6	-0.00653126
11577.5	-0.00634157
11598.3	-0.00612619
11619.2	-0.00588539
11640	-0.00561956
11660.9	-0.00532917
11681.8	-0.00501482
11702.6	-0.00467716
11723.5	-0.00431698
11744.3	-0.00393513
11765.2	-0.00353255
11786.1	-0.00311025
11806.9	-0.00266932
11827.8	-0.00221091
11848.6	-0.00173624
11869.5	-0.00124658
11890.4	-0.000743232
11911.2	-0.00022756
11932.1	0.000299048
11952.9	0.000835174
11973.8	0.00137938
11994.7	0.00193021
12015.5	0.00248621
12036.4	0.00304591
12057.2	0.00360784
12078.1	0.00417056
12099	0.00473262
12119.8	0.00529261
12140.7	0.00584913
12161.5	0.0064008
12182.4	0.0069463
12203.3	0.00748431
12224.1	0.00801356
12245	0.00853284
12265.8	0.00904095
12286.7	0.00953675
12307.6	0.0100191
12328.4	0.010487
12349.3	0.0109395
12370.1	0.0113754
12391	0.011794
12411.9	0.0121944
12432.7	0.0125756
12453.6	0.0129369
12474.4	0.0132775
12495.3	0.0135968
12516.2	0.0138939
12537	0.0141683
12557.9	0.0144193
12578.7	0.0146462
12599.6	0.0148486
12620.5	0.0150259
12641.3	0.0151775
12662.2	0.015303
12683	0.0154018
12703.9	0.0154735
12724.8	0.0155177
12745.6	0.0155338
12766.5	0.0155216
12787.4	0.0154806
12808.2	0.0154104
12829.1	0.0153108
12849.9	0.0151814
12870.8	0.015022
12891.7	0.0148322
12912.5	0.0146119
12933.4	0.0143609
12954.2	0.0140791
12975.1	0.0137663
12996	0.0134225
13016.8	0.0130477
13037.7	0.0126419
13058.5	0.0122054
13079.4	0.0117383
13100.3	0.0112408
13121.1	0.0107133
13142	0.0101563
13162.8	0.0095701
13183.7	0.00895541
13204.6	0.00831288
13225.4	0.00764326
13246.3	0.00694742
13267.1	0.00622629
13288	0.00548091
13308.9	0.00471244
13329.7	0.0039221
13350.6	0.00311121
13371.4	0.0022812
13392.3	0.00143358
13413.2	0.000569938
13434	-0.000308038
13454.9	-0.00119859
13475.7	-0.00209989
13496.6	-0.00301004
13517.5	-0.00392707
13538.3	-0.00484896
13559.2	-0.00577366
13580	-0.00669905
13600.9	-0.00762301
13621.8	-0.00854337
13642.6	-0.00945796
13663.5	-0.0103646
13684.3	-0.0112611
13705.2	-0.0121454
13726.1	-0.0130152
13746.9	-0.0138686
13767.8	-0.0147033
13788.6	-0.0155175
13809.5	-0.0163092
13830.4	-0.0170765
13851.2	-0.0178176
13872.1	-0.0185307
13893	-0.0192144
13913.8	-0.019867
13934.7	-0.0204871
13955.5	-0.0210735
13976.4	-0.021625
13997.3	-0.0221404
14018.1	-0.022619
14039	-0.0230598
14059.8	-0.0234622
14080.7	-0.0238256
14101.6	-0.0241498
14122.4	-0.0244344
14143.3	-0.0246792
14164.1	-0.0248844
14185	-0.0250501
14205.9	-0.0251766
14226.7	-0.0252642
14247.6	-0.0253136
14268.4	-0.0253254
14289.3	-0.0253005
14310.2	-0.0252398
14331	-0.0251442
14351.9	-0.025015
14372.7	-0.0248535
14393.6	-0.0246609
14414.5	-0.0244387
14435.3	-0.0241886
14456.2	-0.023912
14477	-0.0236108
14497.9	-0.0232866
14518.8	-0.0229413
14539.6	-0.0225769
14560.5	-0.0221951
14581.3	-0.0217981
14602.2	-0.0213877
14623.1	-0.0209662
14643.9	-0.0205354
14664.8	-0.0200975
14685.6	-0.0196545
14706.5	-0.0192085
14727.4	-0.0187616
14748.2	-0.0183158
14769.1	-0.0178731
14789.9	-0.0174355
14810.8	-0.0170049
14831.7	-0.0165831
14852.5	-0.0161721
14873.4	-0.0157736
14894.2	-0.0153892
14915.1	-0.0150206
14936	-0.0146692
14956.8	-0.0143366
14977.7	-0.0140241
14998.5	-0.0137328
15019.4	-0.013464
15040.3	-0.0132185
15061.1	-0.0129973
15082	-0.0128011
15102.9	-0.0126305
15123.7	-0.012486
15144.6	-0.012368
15165.4	-0.0122766
15186.3	-0.0122118
15207.2	-0.0121737
15228	-0.0121619
15248.9	-0.0121759
15269.7	-0.0122154
15290.6	-0.0122796
15311.5	-0.0123675
15332.3	-0.0124784
15353.2	-0.0126109
15374	-0.0127639
15394.9	-0.012936
15415.8	-0.0131256
15436.6	-0.013331
15457.5	-0.0135506
15478.3	-0.0137824
15499.2	-0.0140245
15520.1	-0.0142748
15540.9	-0.0145312
15561.8	-0.0147915
15582.6	-0.0150534
15603.5	-0.0153147
15624.4	-0.0155729
15645.2	-0.0158258
15666.1	-0.0160709
15686.9	-0.0163059
15707.8	-0.0165285
15728.7	-0.0167363
15749.5	-0.016927
15770.4	-0.0170984
15791.2	-0.0172484
15812.1	-0.0173748
15833	-0.0174757
15853.8	-0.0175492
15874.7	-0.0175935
15895.5	-0.017607
15916.4	-0.0175881
15937.3	-0.0175355
15958.1	-0.0174479
15979	-0.0173242
15999.8	-0.0171636
16020.7	-0.0169654
16041.6	-0.0167289
16062.4	-0.0164538
16083.3	-0.0161398
16104.1	-0.015787
16125	-0.0153954
16145.9	-0.0149656
16166.7	-0.0144978
16187.6	-0.0139929
16208.4	-0.0134517
16229.3	-0.0128753
16250.2	-0.0122648
16271	-0.0116215
16291.9	-0.0109471
16312.8	-0.0102431
16333.6	-0.00951126
16354.5	-0.00875352
16375.3	-0.00797187
16396.2	-0.0071684
16417.1	-0.00634533
16437.9	-0.0055049
16458.8	-0.00464947
16479.6	-0.00378142
16500.5	-0.00290319
16521.4	-0.00201723
16542.2	-0.00112604
16563.1	-0.000232092
16583.9	0.000662127
16604.8	0.00155416
16625.7	0.00244157
16646.5	0.00332196
16667.4	0.00419299
16688.2	0.00505239
16709.1	0.00589793
16730	0.00672749
16750.8	0.00753901
16771.7	0.00833056
16792.5	0.00910028
16813.4	0.00984642
16834.3	0.0105674
16855.1	0.0112616
16876	0.0119277
16896.8	0.0125645
16917.7	0.0131707
16938.6	0.0137455
16959.4	0.0142878
16980.3	0.0147971
17001.1	0.0152725
17022	0.0157137
17042.9	0.0161203
17063.7	0.016492
17084.6	0.0168287
17105.4	0.0171304
17126.3	0.0173972
17147.2	0.0176293
17168	0.0178271
17188.9	0.0179909
17209.7	0.0181213
17230.6	0.0182188
17251.5	0.0182842
17272.3	0.0183181
17293.2	0.0183214
17314	0.0182951
17334.9	0.0182399
17355.8	0.0181569
17376.6	0.0180471
17397.5	0.0179117
17418.3	0.0177515
17439.2	0.0175679
17460.1	0.0173619
17480.9	0.0171346
17501.8	0.0168872
17522.7	0.0166209
17543.5	0.0163367
17564.4	0.0160359
17585.2	0.0157196
17606.1	0.0153889
17627	0.0150448
17647.8	0.0146884
17668.7	0.0143208
17689.5	0.013943
17710.4	0.0135559
17731.3	0.0131606
17752.1	0.0127578
17773	0.0123486
17793.8	0.0119337
17814.7	0.011514
17835.6	0.0110901
17856.4	0.0106629
17877.3	0.0102331
17898.1	0.00980121
17919	0.00936797
17939.9	0.00893395
17960.7	0.0084997
17981.6	0.00806574
18002.4	0.00763259
18023.3	0.0072007
18044.2	0.00677052
18065	0.00634248
18085.9	0.00591697
18106.7	0.00549438
18127.6	0.00507506
18148.5	0.00465936
18169.3	0.00424763
18190.2	0.00384017
18211	0.00343732
18231.9	0.00303936
18252.8	0.00264661
18273.6	0.00225937
18294.5	0.00187792
18315.3	0.00150257
18336.2	0.0011336
18357.1	0.000771327
18377.9	0.000416039
18398.8	6.80433e-05
18419.6	-0.000272353
18440.5	-0.000604838
18461.4	-0.000929095
18482.2	-0.0012448
18503.1	-0.00155163
18523.9	-0.00184926
18544.8	-0.00213734
18565.7	-0.00241556
18586.5	-0.00268356
18607.4	-0.002941
18628.2	-0.00318756
18649.1	-0.00342289
18670	-0.00364667
18690.8	-0.00385855
18711.7	-0.00405823
18732.6	-0.00424539
18753.4	-0.00441972
18774.3	-0.00458094
18795.1	-0.00472877
18816	-0.00486296
18836.9	-0.00498325
18857.7	-0.00508943
18878.6	-0.0051813
18899.4	-0.00525868
18920.3	-0.00532143
18941.2	-0.00536942
18962	-0.00540257
18982.9	-0.00542079
19003.7	-0.00542408
19024.6	-0.00541243
19045.5	-0.00538587
19066.3	-0.00534448
19087.2	-0.00528837
19108	-0.00521767
19128.9	-0.00513258
19149.8	-0.00503331
19170.6	-0.00492012
19191.5	-0.00479329
19212.3	-0.00465316
19233.2	-0.00450008
19254.1	-0.00433446
19274.9	-0.00415672
19295.8	-0.00396734
19316.6	-0.00376681
19337.5	-0.00355564
19358.4	-0.0033344
19379.2	-0.00310367
19400.1	-0.00286404
19420.9	-0.00261615
19441.8	-0.00236063
19462.7	-0.00209814
19483.5	-0.00182937
19504.4	-0.00155501
19525.2	-0.00127574
19546.1	-0.000992281
19567	-0.000705339
19587.8	-0.000415625
19608.7	-0.00012385
19629.5	0.000169276
19650.4	0.000463052
19671.3	0.000756785
19692.1	0.00104979
19713	0.0013414
19733.8	0.00163096
19754.7	0.00191783
19775.6	0.00220139
19796.4	0.00248106
19817.3	0.00275624
19838.1	0.00302641
19859	0.00329104
19879.9	0.00354962
19900.7	0.0038017
19921.6	0.00404685
19942.5	0.00428465
19963.3	0.00451473
19984.2	0.00473676
