%%MatrixMarket matrix array complex general
10 10
1 0
0 0
0 0
0 0
0 0
0 0
0 0
0 0
0 0
0 0
-0.707106781 0
-0.25 0
0 0
0 0
-0.433012702 0
0 0
0 0
0 0
0 0
0 0
0.144337567 0
0.408248291 0
0.0833333333 0
0 0
0.707106782 0
0.144337567 0
0 0
0.186338998 0
0 0
0 0
0.125 0
-0.265165043 0
-0.216506351 0
-0.03125 0
-0.459279327 0
-0.375 0
-0.0541265877 0
-0.484122918 0
-0.0698771243 0
-0.0826797284 0
0.408248291 0
0.721687837 0
0 0
0 0
-0.75 0
0 0
0 0
0 0
0 0
0 0
0.125 0
-0.707106781 0
-0.216506351 0
0 0
0 0
-0.125 0
0 0
0.484122918 0
0 0
0 0
-0.245373864 0
0.316392425 0
0.425 0
0.0757772228 0
0.123743687 0
0.389711432 0
0.08125 0
-0.391311896 0
-0.0242061459 0
-0.257769883 0
-0.161374306 0
0.365148372 0
0.577650894 0
0 0
-0.316227766 0
-0.742321808 0
0 0
0.541666667 0
0 0
0 0
0.0559016994 0
0.0395284708 0
-0.613222363 0
-0.181680523 0
-0.114108866 0
0.279508497 0
0.00806871531 0
0.360843918 0
0.34375 0
-0.480681482 0
0.0661437828 0
-0.140312152 0
0.321871388 0
0.493716093 0
0.189021604 0
-0.349617138 0
-0.694205663 0
0.13418626 0
0.596890193 0
-0.39375 0
