%%MatrixMarket matrix array complex general
13 10
1.41421356 0
1.41421356 0
1.41421356 0
1.41421356 0
1.41421356 0
1.41421356 0
1.41421356 0
1.41421356 0
1.41421356 0
1.41421356 0
1.41421356 0
1.41421356 0
1.41421356 0
0 0
-0.437924203 0
-0.437924203 0
0.875848407 0
-1.60921938 0
-1.60921938 0
3.21843876 0
-0.122807024 0
1.83066513 0
-1.70785811 0
-1.70785811 0
-0.122807024 0
1.83066513 0
-1.36082764 0
-0.991963758 0
-0.991963758 0
-1.31562658 0
1.27711124 0
1.27711124 0
3.93523936 0
-1.28371825 0
-0.0770209937 0
1.55342952 0
1.55342952 0
-1.28371825 0
-0.0770209937 0
0.838052481 0
1.33701853 0
1.33701853 0
-0.832983574 0
-0.5777504 0
-0.5777504 0
2.92148079 0
1.01832706 0
-1.85980728 0
-1.05299157 0
-1.05299157 0
1.01832706 0
-1.85980728 0
0 0
0.75850697 0
-0.75850697 0
0 0
2.78724973 0
-2.78724973 0
0 0
-2.04296734 0
0.91512967 0
1.12783767 0
-1.12783768 0
2.04296734 0
-0.91512967 0
0 0
0.28030023 0
-0.28030023 0
0 0
-2.30200648 0
2.30200648 0
0 0
-1.41201156 0
2.45704204 0
-1.04503048 0
1.04503048 0
1.41201156 0
-2.45704204 0
0 0
-0.751710775 0
0.751710775 0
0 0
1.21216924 0
-1.21216924 0
0 0
2.01898122 0
2.45701788 0
0.74247708 0
-0.74247708 0
-2.01898122 0
-2.45701788 0
-1.21716124 0
-1.10435898 0
-1.10435898 0
-0.742492943 0
2.92540958 0
2.92540957 0
-0.0464680165 0
1.5645012 0
0.215372652 0
-1.60752644 0
-1.60752644 0
1.5645012 0
0.215372654 0
-1.87394232 0
-1.04875545 0
-1.04875545 0
-2.01920989 0
-1.83791836 0
-1.83791836 0
-0.273014584 0
2.14987678 0
0.862735977 0
1.22355493 0
1.22355493 0
2.14987678 0
0.862735986 0
0 0
-1.14825718 0
1.14825718 0
-7.48331477e-09 0
1.8516191 0
-1.8516191 0
-7.48331477e-10 0
-0.711838124 0
-0.0427260605 0
-2.66173043 0
2.66173039 0
0.711838045 0
0.0427260642 0
