%%MatrixMarket matrix array complex general
4 10
1.41421356 0
1.41421356 0
1.41421356 0
1.41421356 0
-0.019943131 0
2.01994313 0
-1.58340893 0
3.58340893 0
-1.34970135 0
0.31585881 0
1.20699356 0
5.42568268 0
0.869073973 0
-1.76440786 0
-0.463133532 0
6.20719964 0
2.32091525 0
1.14318637 0
3.22358265 0
0.240518964 0
1.84777859 0
3.290196 0
-2.57745869 0
1.07603326 0
-2.20923795 0
3.85867698 0
1.222015 0
2.72737966 0
2.458657 0
0.596504123 0
4.74304234 0
0.026404504 0
3.71929482 0
2.5415659 0
-2.81494641 0
0.168117274 0
2.25060871 0
0.268951059 0
6.03029518 0
0.00250477995 0
