output_2012_06_10_sierpi_intel_omp_tsunami_parallel_release_d20_a8_t100.txt
Executable + params: ../../build/sierpi_intel_omp_tsunami_parallel_release -o 32768 -k 10 -A 1 -d 20 -a 8 -t 100
Problem size with different number of CPUs using function optimization
THREADS	MTPS	TIMESTEPS	TIMESTEP_SIZE	SECONDS_FOR_SIMULATION	AVERAGE_TRIANGLES	AVERAGE_PARTITIONS
80	55.7687	100	0.000491318		1.9047e+07	1158.4
64	51.1107	100	0.000491318		1.9047e+07	1158.4
60	49.3017	100	0.000491318		1.9047e+07	1158.4
40	55.4864	100	0.000491318		1.9047e+07	1158.4
32	48.9943	100	0.000491318		1.9047e+07	1158.4
30	36.3724	100	0.000491318		1.9047e+07	1158.4
20	23.3357	100	0.000491318		1.9047e+07	1158.4
16	20.4317	100	0.000491318		1.9047e+07	1158.4
10	12.6894	100	0.000491318		1.9047e+07	1158.4
8	11.7338	100	0.000491318		1.9047e+07	1158.4
4	8.64371	100	0.000491318		1.9047e+07	1158.4
2	4.95155	100	0.000491318		1.9047e+07	1158.4
1	2.52585	100	0.000491318		1.9047e+07	1158.4

output_2012_06_10_sierpi_intel_tbb_forced_scan_tsunami_parallel_release_d20_a8_t100.txt
Executable + params: ../../build/sierpi_intel_tbb_forced_scan_tsunami_parallel_release -o 32768 -k 10 -A 1 -d 20 -a 8 -t 100
Problem size with different number of CPUs using function optimization
THREADS	MTPS	TIMESTEPS	TIMESTEP_SIZE	SECONDS_FOR_SIMULATION	AVERAGE_TRIANGLES	AVERAGE_PARTITIONS
80	65.4086	100	0.000491318		1.9047e+07	1762.6
64	54.7753	100	0.000491318		1.9047e+07	1438.5
60	42.5185	100	0.000491318		1.9047e+07	1364.2
40	45.4038	100	0.000491318		1.9047e+07	955.9
32	36.1135	100	0.000491318		1.9047e+07	593.1
30	35.1695	100	0.000491318		1.9047e+07	753.1
20	24.6948	100	0.000491318		1.9047e+07	533.8
16	19.8456	100	0.000491318		1.9047e+07	345.9
10	14.2061	100	0.000491318		1.9047e+07	289.9
8	12.5627	100	0.000491318		1.9047e+07	238.6
4	8.60847	100	0.000491318		1.9047e+07	111.9
2	4.55951	100	0.000491318		1.9047e+07	71.2
1	2.39922	100	0.000491318		1.9047e+07	48

output_2012_06_10_sierpi_intel_tbb_sacsp_tsunami_parallel_release_d20_a8_t100.txt
Executable + params: ../../build/sierpi_intel_tbb_sacsp_tsunami_parallel_release -o 32768 -k 10 -A 1 -d 20 -a 8 -t 100
Problem size with different number of CPUs using function optimization
THREADS	MTPS	TIMESTEPS	TIMESTEP_SIZE	SECONDS_FOR_SIMULATION	AVERAGE_TRIANGLES	AVERAGE_PARTITIONS
80	75.0955	100	0.000491318		1.9047e+07	1158.4
64	69.0796	100	0.000491318		1.9047e+07	1158.4
60	67.4328	100	0.000491318		1.9047e+07	1158.4
40	60.1587	100	0.000491318		1.9047e+07	1158.4
32	46.7929	100	0.000491318		1.9047e+07	1158.4
30	39.9477	100	0.000491318		1.9047e+07	1158.4
20	27.2175	100	0.000491318		1.9047e+07	1158.4
16	23.9235	100	0.000491318		1.9047e+07	1158.4
10	14.3036	100	0.000491318		1.9047e+07	1158.4
8	13.4729	100	0.000491318		1.9047e+07	1158.4
4	10.0075	100	0.000491318		1.9047e+07	1158.4
2	6.09664	100	0.000491318		1.9047e+07	1158.4
1	3.09317	100	0.000491318		1.9047e+07	1158.4

output_2012_06_10_sierpi_intel_tbb_scan_sacsp_tsunami_parallel_release_d20_a8_t100.txt
Executable + params: ../../build/sierpi_intel_tbb_scan_sacsp_tsunami_parallel_release -o 32768 -k 10 -A 1 -d 20 -a 8 -t 100
Problem size with different number of CPUs using function optimization
THREADS	MTPS	TIMESTEPS	TIMESTEP_SIZE	SECONDS_FOR_SIMULATION	AVERAGE_TRIANGLES	AVERAGE_PARTITIONS
80	71.5084	100	0.000491318		1.9047e+07	1762.6
64	57.8737	100	0.000491318		1.9047e+07	1438.5
60	54.5799	100	0.000491318		1.9047e+07	1364.2
40	52.0733	100	0.000491318		1.9047e+07	955.9
32	41.2303	100	0.000491318		1.9047e+07	593.1
30	36.3084	100	0.000491318		1.9047e+07	753.1
20	24.9049	100	0.000491318		1.9047e+07	533.8
16	21.5112	100	0.000491318		1.9047e+07	345.9
10	13.6336	100	0.000491318		1.9047e+07	289.9
8	12.9579	100	0.000491318		1.9047e+07	238.6
4	8.76048	100	0.000491318		1.9047e+07	111.9
2	4.70486	100	0.000491318		1.9047e+07	71.2
1	2.42941	100	0.000491318		1.9047e+07	48

output_2012_06_10_sierpi_intel_tbb_scan_tsunami_parallel_release_d20_a8_t100.txt
Executable + params: ../../build/sierpi_intel_tbb_scan_tsunami_parallel_release -o 32768 -k 10 -A 1 -d 20 -a 8 -t 100
Problem size with different number of CPUs using function optimization
THREADS	MTPS	TIMESTEPS	TIMESTEP_SIZE	SECONDS_FOR_SIMULATION	AVERAGE_TRIANGLES	AVERAGE_PARTITIONS
80	65.7441	100	0.000491318		1.9047e+07	1762.6
64	55.0267	100	0.000491318		1.9047e+07	1438.5
60	51.5703	100	0.000491318		1.9047e+07	1364.2
40	46.1934	100	0.000491318		1.9047e+07	955.9
32	39.9182	100	0.000491318		1.9047e+07	593.1
30	34.331	100	0.000491318		1.9047e+07	753.1
20	26.6612	100	0.000491318		1.9047e+07	533.8
16	20.9434	100	0.000491318		1.9047e+07	345.9
10	15.0611	100	0.000491318		1.9047e+07	289.9
8	12.405	100	0.000491318		1.9047e+07	238.6
4	8.52532	100	0.000491318		1.9047e+07	111.9
2	4.57301	100	0.000491318		1.9047e+07	71.2
1	2.3949	100	0.000491318		1.9047e+07	48

output_2012_06_10_sierpi_intel_tbb_taskaffinities_scan_sacsp_tsunami_parallel_release_d20_a8_t100.txt
Executable + params: ../../build/sierpi_intel_tbb_taskaffinities_scan_sacsp_tsunami_parallel_release -o 32768 -k 10 -A 1 -d 20 -a 8 -t 100
Problem size with different number of CPUs using function optimization
THREADS	MTPS	TIMESTEPS	TIMESTEP_SIZE	SECONDS_FOR_SIMULATION	AVERAGE_TRIANGLES	AVERAGE_PARTITIONS
80	69.5178	100	0.000491318		1.9047e+07	1762.6
64	58.839	100	0.000491318		1.9047e+07	1438.5
60	56.7191	100	0.000491318		1.9047e+07	1364.2
40	48.3107	100	0.000491318		1.9047e+07	955.9
32	40.4301	100	0.000491318		1.9047e+07	593.1
30	38.825	100	0.000491318		1.9047e+07	753.1
20	23.8272	100	0.000491318		1.9047e+07	533.8
16	21.6804	100	0.000491318		1.9047e+07	345.9
10	15.9521	100	0.000491318		1.9047e+07	289.9
8	12.8571	100	0.000491318		1.9047e+07	238.6
4	9.04424	100	0.000491318		1.9047e+07	111.9
2	4.70822	100	0.000491318		1.9047e+07	71.2
1	2.44695	100	0.000491318		1.9047e+07	48

output_2012_06_10_sierpi_intel_tbb_taskaffinities_scan_tsunami_parallel_release_d20_a8_t100.txt
Executable + params: ../../build/sierpi_intel_tbb_taskaffinities_scan_tsunami_parallel_release -o 32768 -k 10 -A 1 -d 20 -a 8 -t 100
Problem size with different number of CPUs using function optimization
THREADS	MTPS	TIMESTEPS	TIMESTEP_SIZE	SECONDS_FOR_SIMULATION	AVERAGE_TRIANGLES	AVERAGE_PARTITIONS
80	66.1935	100	0.000491318		1.9047e+07	1762.6
64	55.7455	100	0.000491318		1.9047e+07	1438.5
60	50.0381	100	0.000491318		1.9047e+07	1364.2
40	45.5192	100	0.000491318		1.9047e+07	955.9
32	39.4532	100	0.000491318		1.9047e+07	593.1
30	34.7986	100	0.000491318		1.9047e+07	753.1
20	24.939	100	0.000491318		1.9047e+07	533.8
16	20.4016	100	0.000491318		1.9047e+07	345.9
10	13.2453	100	0.000491318		1.9047e+07	289.9
8	12.3604	100	0.000491318		1.9047e+07	238.6
4	8.69734	100	0.000491318		1.9047e+07	111.9
2	4.5859	100	0.000491318		1.9047e+07	71.2
1	2.39452	100	0.000491318		1.9047e+07	48

output_2012_06_10_sierpi_intel_tbb_tsunami_parallel_release_d20_a8_t100.txt
Executable + params: ../../build/sierpi_intel_tbb_tsunami_parallel_release -o 32768 -k 10 -A 1 -d 20 -a 8 -t 100
Problem size with different number of CPUs using function optimization
THREADS	MTPS	TIMESTEPS	TIMESTEP_SIZE	SECONDS_FOR_SIMULATION	AVERAGE_TRIANGLES	AVERAGE_PARTITIONS
80	67.2779	100	0.000491318		1.9047e+07	1158.4
64	62.6628	100	0.000491318		1.9047e+07	1158.4
60	60.6353	100	0.000491318		1.9047e+07	1158.4
40	50.4899	100	0.000491318		1.9047e+07	1158.4
32	41.4889	100	0.000491318		1.9047e+07	1158.4
30	35.6392	100	0.000491318		1.9047e+07	1158.4
20	24.934	100	0.000491318		1.9047e+07	1158.4
16	21.7973	100	0.000491318		1.9047e+07	1158.4
10	12.9509	100	0.000491318		1.9047e+07	1158.4
8	11.9982	100	0.000491318		1.9047e+07	1158.4
4	8.726	100	0.000491318		1.9047e+07	1158.4
2	4.98928	100	0.000491318		1.9047e+07	1158.4
1	2.51835	100	0.000491318		1.9047e+07	1158.4

