Executable + params: ../../build/sierpi_intel_tbb_scan_sacsp_tsunami_parallel_release -o 32768 -k 10 -A 1 -d 20 -a 8 -t 100
Problem size with different number of CPUs using function optimization
THREADS	MTPS	TIMESTEPS	TIMESTEP_SIZE	SECONDS_FOR_SIMULATION	AVERAGE_TRIANGLES	AVERAGE_PARTITIONS
80	71.5084	100	0.000491318		1.9047e+07	1762.6
64	57.8737	100	0.000491318		1.9047e+07	1438.5
60	54.5799	100	0.000491318		1.9047e+07	1364.2
40	52.0733	100	0.000491318		1.9047e+07	955.9
32	41.2303	100	0.000491318		1.9047e+07	593.1
30	36.3084	100	0.000491318		1.9047e+07	753.1
20	24.9049	100	0.000491318		1.9047e+07	533.8
16	21.5112	100	0.000491318		1.9047e+07	345.9
10	13.6336	100	0.000491318		1.9047e+07	289.9
8	12.9579	100	0.000491318		1.9047e+07	238.6
4	8.76048	100	0.000491318		1.9047e+07	111.9
2	4.70486	100	0.000491318		1.9047e+07	71.2
1	2.42941	100	0.000491318		1.9047e+07	48
