0	0
16.2013	0
24.3019	0
32.4023	0
40.5028	0
56.7035	0
64.8037	0
72.9039	0
81.0041	0
97.2043	0
105.236	0
113.19	0
121.29	-9.09495e-13
137.336	-2.72848e-12
145.283	-3.63798e-12
153.229	-5.45697e-12
161.175	-7.27596e-12
177.067	-1.36424e-11
185.014	-1.81899e-11
192.96	-2.36469e-11
200.906	-3.00133e-11
216.798	-4.72937e-11
224.744	-5.91172e-11
232.69	-7.27596e-11
240.636	-8.91305e-11
256.528	-1.30967e-10
264.474	-1.57343e-10
272.42	-1.87356e-10
280.336	-2.22826e-10
296.17	-3.10138e-10
304.086	-3.63798e-10
312.003	-4.24734e-10
327.836	-5.72072e-10
335.753	-6.60293e-10
343.669	-7.59428e-10
351.508	-8.69477e-10
367.129	-1.12959e-09
374.968	-1.28239e-09
382.807	-1.45155e-09
390.646	-1.63891e-09
406.267	-2.07001e-09
414.002	-2.31557e-09
421.736	-2.58296e-09
437.205	-3.19233e-09
444.94	-3.53612e-09
452.595	-3.90355e-09
460.251	-4.30009e-09
475.44	-5.17593e-09
482.988	-5.65706e-09
490.536	-6.17001e-09
505.632	-7.29233e-09
513.18	-7.90351e-09
520.713	-8.54652e-09
535.774	-9.93077e-09
543.302	-1.06738e-08
550.829	-1.14533e-08
565.884	-1.31313e-08
573.411	-1.40344e-08
580.938	-1.49848e-08
595.993	-1.70357e-08
603.52	-1.81417e-08
611.047	-1.93049e-08
626.102	-2.18179e-08
633.629	-2.31767e-08
641.156	-2.46109e-08
656.19	-2.77259e-08
663.706	-2.94222e-08
671.223	-3.12202e-08
686.256	-3.51538e-08
693.773	-3.73047e-08
701.289	-3.95894e-08
716.343	-4.4598e-08
723.869	-4.73356e-08
731.396	-5.02396e-08
746.449	-5.65788e-08
753.975	-6.00294e-08
761.502	-6.36774e-08
776.555	-7.15945e-08
784.081	-7.58764e-08
791.608	-8.0383e-08
806.638	-9.00745e-08
814.154	-9.5275e-08
821.669	-1.00717e-07
836.699	-1.12338e-07
844.214	-1.18518e-07
851.729	-1.24945e-07
866.76	-1.38534e-07
874.275	-1.45689e-07
881.79	-1.53077e-07
896.82	-1.68522e-07
904.335	-1.76559e-07
911.85	-1.8479e-07
926.88	-2.0177e-07
934.395	-2.10481e-07
941.91	-2.19311e-07
956.94	-2.37225e-07
964.455	-2.46253e-07
971.97	-2.55284e-07
987	-2.73217e-07
994.515	-2.8204e-07
1002.03	-2.90711e-07
1017.06	-3.07412e-07
1024.57	-3.15342e-07
1032.09	-3.2292e-07
1047.12	-3.3678e-07
1054.63	-3.42935e-07
1062.15	-3.48479e-07
1077.18	-3.57436e-07
1084.69	-3.60685e-07
1092.21	-3.62998e-07
1107.23	-3.64435e-07
1114.74	-3.6336e-07
1122.25	-3.60942e-07
1137.27	-3.51618e-07
1144.78	-3.44462e-07
1152.29	-3.35468e-07
1167.31	-3.11396e-07
1174.82	-2.96016e-07
1182.33	-2.78195e-07
1197.35	-2.34547e-07
1204.87	-2.08358e-07
1212.38	-1.79006e-07
1227.4	-1.09996e-07
1234.91	-6.99092e-08
1242.42	-2.57987e-08
1257.44	7.54562e-08
1264.95	1.33109e-07
1272.46	1.95803e-07
1287.38	3.37814e-07
1294.84	4.18198e-07
1302.31	5.05183e-07
1317.23	6.99662e-07
1324.69	8.07444e-07
1332.16	9.22415e-07
1347.08	1.17435e-06
1354.54	1.31151e-06
1362	1.45627e-06
1376.93	1.76904e-06
1384.39	1.9373e-06
1391.78	2.11193e-06
1406.56	2.4857e-06
1413.94	2.68521e-06
1421.33	2.89343e-06
1436.11	3.33701e-06
1443.57	3.57527e-06
1451.03	3.82356e-06
1465.96	4.35176e-06
1473.42	4.63247e-06
1480.88	4.92487e-06
1495.81	5.54669e-06
1503.22	5.87529e-06
1510.64	6.21758e-06
1525.48	6.94576e-06
1532.9	7.33299e-06
1540.32	7.73662e-06
1555.16	8.59616e-06
1562.52	9.05054e-06
1577.26	1.00184e-05
1584.62	1.05338e-05
1591.99	1.10713e-05
1606.73	1.22171e-05
1614.09	1.28274e-05
1621.46	1.34642e-05
1636.2	1.48218e-05
1643.56	1.5545e-05
1650.93	1.62992e-05
1665.67	1.79045e-05
1673.03	1.87573e-05
1680.4	1.96444e-05
1695.13	2.15246e-05
1702.5	2.25189e-05
1717.24	2.46192e-05
1724.6	2.57264e-05
1731.97	2.68726e-05
1746.71	2.92844e-05
1754.07	3.05514e-05
1761.44	3.18601e-05
1776.17	3.46059e-05
1783.54	3.60446e-05
1790.91	3.75284e-05
1805.64	4.06353e-05
1813.01	4.22605e-05
1820.38	4.3935e-05
1835.11	4.74368e-05
1842.48	4.92668e-05
1857.21	5.30922e-05
1864.58	5.50907e-05
1871.95	5.71486e-05
1886.68	6.14498e-05
1894.05	6.36967e-05
1901.42	6.60105e-05
1916.15	7.08469e-05
1923.52	7.33737e-05
1930.88	7.5976e-05
1945.62	8.14162e-05
1952.98	8.4259e-05
1960.35	8.7187e-05
1975.09	9.33092e-05
1982.45	9.6509e-05
1997.19	9.39099e-05
2004.55	9.28858e-05
2011.92	9.20317e-05
2026.65	9.07989e-05
2034.02	9.04047e-05
2041.39	9.01492e-05
2056.12	9.00287e-05
2063.49	9.01522e-05
2070.85	9.03914e-05
2085.59	9.11989e-05
2092.96	9.17596e-05
2100.32	9.24204e-05
2115.06	9.40314e-05
2122.42	9.4977e-05
2137.16	9.71397e-05
2144.52	9.83542e-05
2151.89	9.96561e-05
2166.62	0.000102521
2173.99	0.000104083
2181.36	0.000105732
2196.09	0.000109293
2203.46	0.000111207
2210.82	0.000113211
2225.56	0.000117495
2232.92	0.000119778
2240.29	0.000122158
2255.02	0.000127217
2262.39	0.0001299
2277.12	0.000135588
2284.49	0.000138598
2291.86	0.000141723
2306.59	0.000148327
2313.96	0.000151813
2321.32	0.000155427
2336.06	0.000163051
2343.42	0.000167069
2350.79	0.000171228
2365.52	0.000179997
2372.89	0.000184605
2380.26	0.000189351
2394.95	0.0001992
2402.29	0.000204292
2416.95	0.000214814
2424.28	0.00022024
2431.62	0.000225774
2446.28	0.000237169
2453.65	0.000243058
2461	0.000249045
2475.73	0.000261398
2483.1	0.000267755
2490.46	0.000274238
2505.18	0.000287582
2512.53	0.000294452
2527.26	0.00030867
2534.63	0.000316013
2541.99	0.000323521
2556.73	0.000339064
2564.09	0.000347115
2571.46	0.000355364
2586.19	0.00037249
2593.56	0.000381387
2600.93	0.000390518
2615.66	0.000409519
2623.03	0.000419408
2630.4	0.000429567
2645.13	0.000450731
2652.5	0.000461753
2667.23	0.000484723
2674.6	0.000496688
2681.96	0.000508985
2696.7	0.000534616
2704.07	0.00054797
2711.43	0.000561697
2726.17	0.000590317
2733.53	0.000625018
2740.89	0.000659764
2755.61	0.00072903
2762.97	0.000763368
2770.32	0.000797491
2785.02	0.000865065
2792.37	0.00089854
2807.07	0.000965027
2814.42	0.000998129
2821.78	0.00103125
2836.49	0.00109761
2843.85	0.00113106
2851.21	0.00116476
2865.9	0.00123308
2873.23	0.00126785
2880.57	0.00130318
2895.23	0.00137578
2902.57	0.00141321
2917.23	0.0014907
2924.57	0.00153091
2931.9	0.00157219
2946.57	0.00165736
2953.9	0.00170105
2961.24	0.00174539
2975.9	0.00183594
2983.24	0.00188217
2990.57	0.00192907
3005.24	0.00202508
3012.57	0.00207434
3027.24	0.00217582
3034.57	0.00222828
3041.9	0.00228205
3056.57	0.00239407
3063.9	0.00245259
3071.24	0.00251294
3085.9	0.00263963
3093.24	0.0027062
3100.57	0.00277508
3115.24	0.00308987
3122.57	0.00324086
3137.24	0.00352852
3144.57	0.00366565
3151.9	0.0037994
3166.57	0.0040613
3173.9	0.00419195
3181.24	0.00432406
3195.9	0.00459746
3203.24	0.00474098
3210.57	0.00489045
3225.24	0.00520457
3232.57	0.00536736
3247.23	0.00570435
3254.57	0.00587965
3261.9	0.00606081
3276.57	0.00644661
3283.9	0.00665434
3291.23	0.00709326
3305.9	0.00795089
3313.23	0.008362
3320.57	0.00876298
3335.23	0.00958494
3342.57	0.0100293
3357.23	0.0110178
3364.56	0.011542
3371.9	0.0120858
3386.56	0.0139266
3393.9	0.015091
3401.23	0.0160227
3415.9	0.0182556
3423.23	0.0198007
3430.56	0.0216271
3445.23	0.02822
3452.56	0.0312455
3467.23	0.0374514
3474.56	0.0403905
3481.89	0.043215
3496.56	0.0486585
3503.89	0.0513281
3511.22	0.0539355
3525.89	0.0590992
3533.22	0.0617567
3540.56	0.0644906
3555.22	0.0701373
3562.55	0.0730223
3577.22	0.0788809
3584.55	0.0818459
3591.89	0.0848365
3606.55	0.0909563
3613.88	0.094116
3621.22	0.0973476
3635.88	0.103991
3643.22	0.107379
3650.55	0.110793
3665.21	0.117658
3672.55	0.121095
3687.21	0.127989
3694.54	0.131464
3701.88	0.134972
3716.54	0.142107
3723.88	0.145739
3731.21	0.149412
3745.87	0.15687
3753.21	0.160652
3760.54	0.16447
3775.21	0.172226
3782.54	0.17617
3797.21	0.184201
3804.54	0.188287
3811.87	0.192416
3826.54	0.200791
3833.87	0.205031
3841.2	0.209306
3855.87	0.217975
3863.2	0.222379
3870.53	0.226839
3885.2	0.235959
3892.53	0.240632
3907.2	0.250237
3914.53	0.255178
3921.87	0.260219
3936.53	0.27063
3943.87	0.276015
3951.2	0.28153
3965.87	0.292986
3973.2	0.298944
3980.53	0.305064
3995.2	0.317818
4002.53	0.324463
4017.2	0.338323
4024.53	0.34555
4031.87	0.352987
4046.53	0.368519
4053.87	0.376632
4061.2	0.384985
4075.87	0.402441
4083.2	0.411555
4090.53	0.420929
4105.26	0.440557
4112.66	0.450814
4120.06	0.46134
4134.85	0.483177
4142.25	0.494478
4157.04	0.517803
4164.44	0.529804
4171.85	0.542033
4186.67	0.56705
4194.08	0.5798
4201.56	0.592814
4216.53	0.619145
4224.02	0.632407
4231.5	0.645692
4246.48	0.67219
4253.96	0.685326
4261.45	0.698334
4276.42	0.723778
4283.9	0.736118
4291.39	0.748136
4306.36	0.770986
4313.84	0.781703
4321.33	0.791869
4336.3	0.810302
4343.79	0.818443
4351.27	0.825782
4366.24	0.837795
4373.73	0.842343
4381.21	0.845834
4396.19	0.849401
4403.67	0.84936
4411.16	0.848028
4426.13	0.841278
4433.61	0.835764
4441.1	0.828764
4456.07	0.810151
4463.56	0.798472
4471.04	0.785174
4486.01	0.753644
4493.5	0.735385
4500.98	0.715455
4515.96	0.670595
4523.44	0.645685
4530.93	0.619144
4545.9	0.561266
4553.38	0.529986
4560.87	0.497188
4575.84	0.427164
4583.33	0.390008
4590.81	0.351454
4605.79	0.270227
4613.27	0.227592
4620.76	0.184183
4635.73	0.0919581
4643.22	0.0488654
4650.7	-0.00517256
4665.67	-0.0746945
4673.16	-0.106267
4680.65	-0.132731
4695.62	-0.143047
4703.1	-0.15632
4710.59	-0.176638
4725.56	-0.210063
4733.05	-0.225925
4740.54	-0.239706
4755.51	-0.262811
4762.99	-0.272437
4770.48	-0.281391
4785.51	-0.298237
4793.02	-0.285339
4800.53	-0.292773
4815.55	-0.305351
4823.06	-0.313495
4830.57	-0.320314
4845.59	-0.331719
4853.1	-0.336596
4860.61	-0.341094
4875.63	-0.349212
4883.14	-0.352925
4890.65	-0.356454
4905.67	-0.362465
4913.18	-0.365244
4920.69	-0.367945
4935.71	-0.373034
4943.23	-0.3754
4950.74	-0.377644
4965.76	-0.38176
4973.22	-0.383623
4980.68	-0.385369
4995.6	-0.374746
5003.07	-0.376433
5010.53	-0.378047
5025.45	-0.381418
5032.92	-0.383439
5040.38	-0.385249
5055.3	-0.38825
5062.76	-0.389435
5070.23	-0.390439
5085.15	-0.391981
5092.61	-0.392551
5100.07	-0.393007
5115	-0.393578
5122.46	-0.393717
5137.38	-0.393755
5144.77	-0.393672
5152.16	-0.393531
5166.94	-0.393102
5174.33	-0.392823
5181.72	-0.392507
5196.49	-0.391672
5203.88	-0.391234
5211.34	-0.390795
5226.27	-0.389896
5233.73	-0.389296
5241.19	-0.388686
5256.12	-0.387429
5263.58	-0.38678
5271	-0.386121
5285.83	-0.384756
5293.25	-0.384049
5300.67	-0.383324
5315.46	-0.381828
5322.82	-0.381057
5330.19	-0.380268
5344.93	-0.378642
5352.29	-0.377805
5367.03	-0.376077
5374.4	-0.375177
5381.76	-0.372621
5396.5	-0.367509
5403.86	-0.367053
5411.23	-0.366581
5425.97	-0.365596
5433.33	-0.365081
5440.7	-0.364551
5455.44	-0.363445
5462.8	-0.362864
5470.17	-0.362267
5484.91	-0.361024
5492.27	-0.36038
5507.01	-0.359049
5514.37	-0.358362
5521.74	-0.357664
5536.48	-0.356241
5543.84	-0.355518
5551.21	-0.354788
5565.95	-0.353316
5573.31	-0.352573
5580.68	-0.351827
5595.41	-0.350326
5602.78	-0.349569
5610.15	-0.348807
5624.88	-0.347265
5632.25	-0.346484
5646.99	-0.344896
5654.35	-0.344088
5661.72	-0.34327
5676.45	-0.341598
5683.82	-0.340743
5691.19	-0.339874
5705.92	-0.33809
5713.29	-0.337173
5720.66	-0.336239
5735.39	-0.334315
5742.76	-0.333324
5750.13	-0.332382
5764.86	-0.330404
5772.23	-0.329372
5786.96	-0.327224
5794.33	-0.326107
5801.7	-0.324962
5816.43	-0.322505
5823.8	-0.321193
5831.17	-0.319853
5845.9	-0.317095
5853.27	-0.315676
5860.64	-0.314233
5875.37	-0.311274
5882.74	-0.309759
5890.1	-0.308222
5904.84	-0.306057
5912.21	-0.304892
5926.94	-0.302432
5934.31	-0.301146
5941.68	-0.299828
5956.41	-0.297104
5963.78	-0.295702
5971.14	-0.294275
5985.88	-0.291348
5993.25	-0.289849
6000.61	-0.288326
6015.35	-0.285208
6022.72	-0.283613
6030.08	-0.281994
6044.82	-0.278682
6052.18	-0.276989
6066.92	-0.273526
6074.29	-0.271757
6081.65	-0.269962
6096.39	-0.266296
6103.76	-0.264425
6111.12	-0.262528
6125.86	-0.25866
6133.22	-0.256681
6140.59	-0.254676
6155.33	-0.250614
6162.69	-0.248565
6170.06	-0.246508
6184.8	-0.242379
6192.16	-0.240309
6206.9	-0.236164
6214.26	-0.234088
6221.63	-0.232009
6236.3	-0.227858
6243.63	-0.225775
6250.96	-0.223684
6265.63	-0.219474
6272.96	-0.217352
6280.29	-0.215217
6294.99	-0.210893
6302.36	-0.208701
6317.09	-0.202518
6324.46	-0.198621
6331.83	-0.194827
6346.56	-0.187571
6353.91	-0.184109
6361.28	-0.180728
6376.01	-0.174171
6383.38	-0.170963
6390.75	-0.167778
6405.48	-0.161425
6412.85	-0.15823
6420.22	-0.155008
6434.95	-0.148444
6442.32	-0.145121
6457.05	-0.138474
6464.42	-0.135154
6471.79	-0.131831
6486.52	-0.125142
6493.89	-0.121749
6501.26	-0.118306
6515.99	-0.108225
6523.36	-0.101897
6530.73	-0.0957503
6545.46	-0.0841979
6552.83	-0.0786191
6560.19	-0.0730344
6574.93	-0.0615894
6582.3	-0.0556493
6597.03	-0.0437232
6604.4	-0.0378761
6611.77	-0.0320424
6626.5	-0.0118915
6633.87	-0.0042497
6641.24	0.00338353
6655.97	0.0211441
6663.34	0.0375456
6670.71	0.049598
6685.43	0.0746979
6692.79	0.0857404
6700.15	0.0949963
6714.87	0.108813
6722.23	0.113811
6736.95	0.120871
6744.31	0.123385
6751.66	0.125332
6766.37	0.128193
6773.72	0.129278
6781.07	0.130156
6795.77	0.131379
6803.12	0.131806
6810.47	0.132163
6825.17	0.132845
6832.52	0.133273
6847.24	0.134614
6854.59	0.135519
6861.95	0.136496
6876.67	0.138329
6884	0.139069
6891.34	0.139654
6906	0.140288
6913.34	0.140306
6920.67	0.140125
6935.34	0.139266
6942.67	0.138664
6950	0.137993
6964.67	0.136541
6972	0.135797
6986.67	0.134361
6994	0.133714
7001.34	0.133153
7016	0.132399
7023.34	0.132236
7030.67	0.132204
7045.34	0.132382
7052.67	0.132484
7060	0.132514
7074.67	0.132147
7082	0.131683
7096.67	0.130167
7104	0.129154
7111.34	0.128016
7126	0.125507
7133.34	0.1242
7140.67	0.122888
7155.34	0.120299
7162.67	0.11904
7170	0.117818
7184.67	0.115542
7192	0.114525
7206.67	0.11283
7214	0.112179
7221.34	0.111668
7236	0.111039
7243.34	0.110893
7250.67	0.110833
7265.34	0.110892
7272.67	0.110978
7280	0.11109
7294.67	0.111381
7302	0.111566
7316.67	0.112042
7324	0.112343
7331.34	0.112692
7346	0.113536
7353.34	0.114027
7360.67	0.11456
7375.34	0.115731
7382.67	0.116355
7390	0.116993
7404.67	0.118269
7412.01	0.118884
7426.67	0.120011
7434.01	0.120502
7441.34	0.120933
7456.01	0.121596
7463.34	0.121824
7470.67	0.121985
7485.34	0.122117
7492.67	0.122099
7500.01	0.122032
7514.67	0.121782
7522.01	0.121612
7536.67	0.121216
7544.01	0.121001
7551.34	0.120783
7566.01	0.120351
7573.34	0.12014
7580.67	0.119933
7595.34	0.119527
7602.67	0.119324
7610.01	0.119118
7624.67	0.118693
7632.01	0.118474
7646.67	0.118035
7654.01	0.117822
7661.34	0.117618
7676.01	0.117257
7683.34	0.117109
7690.67	0.116985
7705.34	0.116817
7712.67	0.11677
7720.01	0.116745
7734.67	0.116737
7742.01	0.116741
7756.67	0.116716
7764.01	0.116669
7771.34	0.116583
7786.01	0.116258
7793.34	0.116001
7800.68	0.11567
7815.34	0.114767
7822.68	0.114189
7830.01	0.113526
7844.68	0.111951
7852.01	0.111047
7866.68	0.109029
7874.01	0.107928
7881.34	0.106775
7896.01	0.104341
7903.34	0.103073
7910.68	0.101779
7925.34	0.0991377
7932.68	0.0977988
7940.01	0.0964528
7954.68	0.0937504
7962.01	0.0923985
7976.68	0.0897019
7984.01	0.0883604
7991.35	0.0870257
8006.01	0.0843845
8013.35	0.0830824
8020.68	0.081796
8035.35	0.0792803
8042.68	0.078056
8050.01	0.0768569
8064.68	0.0745407
8072.01	0.0734252
8086.68	0.0712786
8094.01	0.0702448
8101.35	0.0692341
8116.01	0.0672683
8123.35	0.0663045
8130.68	0.0653465
8145.35	0.0634251
8152.68	0.0624495
8160.01	0.0614555
8174.68	0.0593878
8182.01	0.0583022
8196.68	0.0559999
8204.02	0.0547735
8211.35	0.0534908
8226.02	0.0507411
8233.35	0.0492669
8240.68	0.047722
8255.35	0.0444069
8262.68	0.0426295
8270.02	0.0407658
8284.68	0.0367501
8292.02	0.0345745
8306.68	0.029797
8314.02	0.0271402
8321.35	0.0242774
8336.02	0.0179174
8343.35	0.0144538
8350.68	0.0070384
8365.35	0.000251743
8372.68	-0.000403594
8380.02	-0.00254746
8394.69	-0.0080749
8402.02	-0.0109128
8416.69	-0.0172654
8424.02	-0.0198023
8431.35	-0.0220335
8446.02	-0.0230513
8453.35	-0.0245663
8460.69	-0.0260243
8475.35	-0.0280453
8482.69	-0.0300171
8490.02	-0.0316183
8504.69	-0.034245
8512.02	-0.0353792
8526.69	-0.0374831
8534.02	-0.0384418
8541.35	-0.0393401
8556.02	-0.041093
8563.36	-0.042079
8570.69	-0.0429849
8585.36	-0.0446264
8592.69	-0.0453855
8600.02	-0.0461145
8614.69	-0.0473876
8622.02	-0.0478757
8636.69	-0.0462548
8644.02	-0.0468253
8651.36	-0.0482543
8666.02	-0.0500537
8673.36	-0.0509314
8680.69	-0.0517555
8695.36	-0.0532633
8702.69	-0.0539561
8710.02	-0.0546138
8724.69	-0.0558267
8732.02	-0.0563839
8746.69	-0.0574148
8754.03	-0.0578945
8761.36	-0.0583543
8776.03	-0.0592239
8783.36	-0.0596384
8790.69	-0.0599302
8805.36	-0.0605664
8812.69	-0.0609045
8820.03	-0.0612526
8834.69	-0.0621554
8842.03	-0.0625918
8856.69	-0.063438
8864.03	-0.0638486
8871.36	-0.064251
8886.03	-0.0650317
8893.36	-0.0654097
8900.69	-0.0657794
8915.36	-0.0664933
8922.7	-0.0668373
8930.03	-0.0671725
8944.7	-0.0677958
8952.03	-0.0680872
8966.7	-0.0686358
8974.03	-0.0642565
8981.36	-0.060329
8996.03	-0.060979
9003.36	-0.0612656
9010.7	-0.0615446
9025.36	-0.0620803
9032.7	-0.0623376
9040.03	-0.062588
9054.7	-0.0630695
9062.03	-0.0633009
9076.7	-0.063733
9084.03	-0.063935
9091.37	-0.0641286
9106.03	-0.0644926
9113.37	-0.0646641
9120.7	-0.064829
9135.37	-0.0651408
9142.7	-0.0652885
9150.03	-0.0654312
9164.7	-0.065702
9172.03	-0.0658306
9186.7	-0.0660744
9194.03	-0.0661899
9201.37	-0.0663011
9216.03	-0.0665164
9223.37	-0.0666181
9230.7	-0.0667133
9245.37	-0.0668837
9252.7	-0.0669588
9260.04	-0.0670272
9274.7	-0.0671439
9282.04	-0.0671922
9296.7	-0.067269
9304.04	-0.0672948
9311.37	-0.067312
9326.04	-0.0673217
9333.37	-0.0673151
9340.7	-0.0673013
9355.37	-0.0672535
9362.7	-0.0672201
9370.04	-0.0671808
9384.7	-0.067163
9392.04	-0.0671816
9406.7	-0.0671944
9414.04	-0.0671893
9421.37	-0.0671769
9436.04	-0.0671312
9443.37	-0.0670984
9450.71	-0.0670594
9465.37	-0.0669637
9472.71	-0.0669074
9480.04	-0.0668458
9494.71	-0.0667069
9502.04	-0.06663
9516.71	-0.0664619
9524.04	-0.066371
9531.37	-0.0662755
9546.04	-0.0660713
9553.37	-0.0659627
9560.7	-0.0658498
9575.37	-0.0656115
9582.7	-0.0654862
9590.04	-0.0653568
9604.7	-0.065086
9612.04	-0.0649447
9626.7	-0.0643107
9634.04	-0.0641665
9641.37	-0.0640198
9656.04	-0.0637185
9663.37	-0.0635638
9670.7	-0.0634064
9685.37	-0.0630829
9692.7	-0.0629168
9700.04	-0.0627477
9714.7	-0.0624001
9722.04	-0.0622216
9736.71	-0.0618549
9744.04	-0.0616666
9751.37	-0.061475
9766.04	-0.0610814
9773.37	-0.0608794
9780.71	-0.060674
9795.37	-0.0602524
9802.71	-0.0600363
9810.04	-0.0598165
9824.71	-0.0593661
9832.04	-0.0591354
9846.71	-0.058663
9854.04	-0.0584203
9861.37	-0.0581731
9876.04	-0.0576653
9883.37	-0.0574048
9890.71	-0.05714
9905.38	-0.0565269
9912.71	-0.0561817
9920.04	-0.0558352
9934.71	-0.0551382
9942.04	-0.0547875
9956.71	-0.054081
9964.04	-0.0537252
9971.38	-0.0533675
9986.04	-0.0526466
9993.38	-0.0522832
10000.7	-0.0519178
10015.4	-0.051181
10022.7	-0.0508095
10030	-0.050436
10044.7	-0.0496848
10052	-0.0493091
10066.7	-0.0485566
10074	-0.0481795
10081.4	-0.0478016
10096	-0.047043
10103.4	-0.0466621
10110.7	-0.0462801
10125.4	-0.045512
10132.7	-0.045126
10140	-0.0447384
10154.7	-0.0439589
10162	-0.0435668
10176.7	-0.0427779
10184	-0.042381
10191.4	-0.0419825
10206	-0.0411808
10213.4	-0.0407775
10220.7	-0.0403727
10235.4	-0.0395585
10242.7	-0.0391491
10250	-0.0387383
10264.7	-0.0379126
10272	-0.0374979
10286.7	-0.0366654
10294	-0.0362478
10301.4	-0.0358294
10316	-0.0349903
10323.4	-0.0345697
10330.7	-0.0341486
10345.4	-0.0333049
10352.7	-0.0328825
10360.1	-0.0324597
10374.7	-0.0316133
10382.1	-0.0311898
10396.7	-0.0303424
10404.1	-0.0299185
10411.4	-0.0294947
10426.1	-0.0286493
10433.4	-0.0282298
10440.7	-0.0278122
10455.4	-0.0269829
10462.7	-0.0265711
10470.1	-0.0260908
10484.7	-0.025148
10492.1	-0.0246851
10506.7	-0.0237752
10514.1	-0.0233279
10521.4	-0.0228853
10536.1	-0.0220136
10543.4	-0.0215842
10550.7	-0.0211588
10565.4	-0.0203194
10572.7	-0.019905
10580.1	-0.019494
10594.7	-0.0185869
10602.1	-0.0181093
10616.7	-0.0172101
10624.1	-0.0167846
10631.4	-0.0163727
10646.1	-0.0155837
10653.4	-0.015204
10660.7	-0.0148325
10675.4	-0.0141103
10682.7	-0.0137578
10690.1	-0.01341
10704.7	-0.0127259
10712.1	-0.0123918
10726.7	-0.0117404
10734.1	-0.0114221
10741.4	-0.011108
10756.1	-0.0104902
10763.4	-0.0101854
10770.7	-0.00988263
10785.4	-0.00928146
10792.7	-0.00898224
10800.1	-0.00868338
10814.7	-0.00808535
10822.1	-0.00778588
10836.7	-0.00718578
10844.1	-0.00688493
10851.4	-0.00658335
10866.1	-0.00597725
10873.4	-0.00567234
10880.7	-0.00537233
10895.4	-0.00478224
10902.7	-0.00449011
10910.1	-0.00419877
10924.7	-0.00361556
10932.1	-0.00332278
10946.7	-0.00273355
10954.1	-0.00243653
10961.4	-0.00213752
10976.1	-0.00131805
10983.4	-0.000881472
10990.7	-0.000434772
11005.4	0.000474444
11012.7	0.000932204
11020.1	0.00139011
11034.7	0.00230347
11042.1	0.00275839
11056.7	0.00366053
11064.1	0.00411049
11071.4	0.0045614
11086.1	0.00546696
11093.4	0.00592096
11100.7	0.00637519
11115.4	0.00728317
11122.7	0.0077366
11130.1	0.00818943
11144.7	0.00970223
11152.1	0.0107551
11166.7	0.0126926
11174.1	0.0135541
11181.4	0.014353
11196.1	0.0157774
11203.4	0.0164154
11210.7	0.0172845
11225.4	0.0185671
11232.7	0.0191567
11240.1	0.0196504
11254.7	0.0203863
11262.1	0.0211142
11276.7	0.0227352
11284.1	0.0235792
11291.4	0.0244209
11306.1	0.0260397
11313.4	0.0268539
11320.7	0.0276855
11335.4	0.0293774
11342.7	0.0302395
11350.1	0.0311094
11364.7	0.0328641
11372.1	0.0337574
11386.7	0.0356376
11394.1	0.036642
11401.4	0.0376956
11416.1	0.0399413
11423.4	0.0411224
11430.7	0.0423306
11445.5	0.0447938
11452.9	0.0460283
11460.3	0.0472534
11475.1	0.0496781
11482.4	0.0508869
11497.2	0.0533261
11504.7	0.0545668
11512.1	0.055822
11526.9	0.0583684
11534.3	0.0596516
11541.7	0.0609346
11556.7	0.0635061
11564.2	0.0647728
11571.6	0.0660228
11586.6	0.0684657
11594.1	0.0696565
11601.6	0.0708253
11616.6	0.073089
11624	0.0741774
11631.5	0.075231
11646.5	0.0772141
11654	0.0781342
11661.5	0.0790017
11676.5	0.0805719
11683.9	0.0812745
11691.4	0.081924
11706.4	0.0830751
11713.9	0.0835833
11721.4	0.0840512
11736.3	0.0848794
11743.8	0.0852456
11751.3	0.0855834
11766.3	0.0861815
11773.8	0.0864446
11781.3	0.0866849
11796.2	0.0870978
11803.7	0.0872701
11811.2	0.0874193
11826.2	0.0876478
11833.7	0.0877276
11841.1	0.0877851
11856.1	0.0878382
11863.6	0.0878363
11871.1	0.0878173
11886.1	0.0877321
11893.5	0.0876673
11901	0.0875881
11916	0.0873854
11923.5	0.087261
11931	0.0871203
11945.9	0.086788
11953.4	0.0865959
11960.9	0.0863868
11975.9	0.08592
11983.4	0.0856648
11990.9	0.0853969
