0	0
14.5822	0
24.3035	0
34.0247	0
43.7459	0
53.467	0
63.188	0
72.9089	0
82.6298	0
92.3506	0
102.071	0
111.792	0
121.472	0
131.192	0
140.913	0
150.546	0
160.178	0
174.759	0
184.387	0
193.923	0
203.458	0
212.994	0
222.529	0
232.065	0
241.6	1.81899e-12
251.135	3.63798e-12
260.67	5.45697e-12
270.206	7.27596e-12
284.508	1.27329e-11
294.044	1.72804e-11
303.579	2.27374e-11
313.114	3.00133e-11
322.631	4.00178e-11
332.131	5.18412e-11
341.631	6.73026e-11
351.131	8.6402e-11
360.631	1.10958e-10
370.131	1.41881e-10
384.381	2.01908e-10
393.788	2.5193e-10
403.16	3.11957e-10
412.567	3.84716e-10
421.974	4.71118e-10
431.381	5.73891e-10
440.753	6.94854e-10
450.035	8.34916e-10
463.957	1.08867e-09
473.238	1.29057e-09
482.519	1.52431e-09
491.706	1.78898e-09
500.893	2.09093e-09
510.006	2.43199e-09
523.592	3.02407e-09
532.65	3.48155e-09
541.708	3.99632e-09
550.765	4.57112e-09
564.334	5.56065e-09
573.367	6.31371e-09
582.4	7.14954e-09
591.433	8.0754e-09
600.466	9.1004e-09
614.015	1.08421e-08
623.048	1.21527e-08
632.08	1.35951e-08
641.113	1.51804e-08
650.146	1.69211e-08
663.695	1.9847e-08
672.728	2.20189e-08
681.748	2.43745e-08
690.768	2.6921e-08
704.298	3.11147e-08
713.317	3.4167e-08
722.337	3.74312e-08
731.357	4.09136e-08
740.389	4.46271e-08
753.937	5.06316e-08
762.969	5.49262e-08
772.001	5.94537e-08
781.033	6.42131e-08
790.065	6.92007e-08
803.613	7.71033e-08
812.644	8.26449e-08
821.676	8.84002e-08
830.695	9.43555e-08
844.222	1.03669e-07
853.24	1.10125e-07
862.258	1.16776e-07
871.277	1.23619e-07
880.295	1.30651e-07
893.822	1.41554e-07
902.84	1.4906e-07
911.858	1.5676e-07
920.877	1.64659e-07
934.404	1.76893e-07
943.422	1.8532e-07
952.44	1.93978e-07
961.458	2.02882e-07
970.476	2.12049e-07
984.003	2.26338e-07
993.021	2.36259e-07
1002.04	2.46532e-07
1011.06	2.57189e-07
1020.08	2.68268e-07
1033.6	2.85775e-07
1042.62	2.98109e-07
1051.64	3.11036e-07
1060.66	3.2462e-07
1074.18	3.46373e-07
1083.2	3.61904e-07
1092.22	3.78356e-07
1101.24	3.95819e-07
1110.25	4.14392e-07
1123.78	4.44559e-07
1132.79	4.66373e-07
1141.8	4.89699e-07
1150.82	5.14671e-07
1164.34	5.55528e-07
1173.35	5.85255e-07
1182.36	6.17162e-07
1191.37	6.51422e-07
1200.39	6.88216e-07
1213.9	7.48581e-07
1222.92	7.92572e-07
1231.93	8.39814e-07
1240.94	8.90535e-07
1254.46	9.7367e-07
1263.47	1.03417e-06
1272.49	1.09904e-06
1281.5	1.16857e-06
1290.51	1.24306e-06
1304	1.36451e-06
1312.96	1.4522e-06
1321.91	1.54593e-06
1330.86	1.64606e-06
1344.3	1.80909e-06
1353.25	1.92691e-06
1362.21	2.05254e-06
1371.16	2.18691e-06
1380.11	2.33071e-06
1393.55	2.56509e-06
1402.5	2.7343e-06
1411.45	2.91421e-06
1420.32	3.10315e-06
1433.62	3.40714e-06
1442.49	3.62379e-06
1451.35	3.85188e-06
1460.22	4.09162e-06
1473.61	4.47612e-06
1482.56	4.7488e-06
1491.52	5.03425e-06
1500.47	5.3328e-06
1513.9	5.80597e-06
1522.86	6.13893e-06
1531.78	6.48542e-06
1540.69	6.84585e-06
1554.04	7.4157e-06
1562.94	7.816e-06
1571.85	8.23344e-06
1580.75	8.6688e-06
1594.01	9.3524e-06
1602.85	9.83275e-06
1611.69	1.03339e-05
1620.53	1.0857e-05
1633.79	1.1685e-05
1642.63	1.22678e-05
1651.48	1.28767e-05
1660.32	1.3513e-05
1673.58	1.45221e-05
1682.42	1.52336e-05
1691.26	1.59778e-05
1700.1	1.67566e-05
1713.36	1.79933e-05
1722.2	1.88663e-05
1731.04	1.97803e-05
1744.3	2.1232e-05
1753.14	2.22559e-05
1761.99	2.33261e-05
1770.83	2.44439e-05
1784.09	2.62124e-05
1792.93	2.74542e-05
1801.77	2.87475e-05
1810.61	3.00934e-05
1823.87	3.22133e-05
1832.71	3.36957e-05
1841.55	3.52346e-05
1850.39	3.68316e-05
1863.65	3.93386e-05
1872.49	4.10865e-05
1881.33	4.28976e-05
1890.17	4.47735e-05
1903.44	4.77129e-05
1912.28	4.97593e-05
1921.12	5.18775e-05
1934.38	5.51948e-05
1943.22	5.75034e-05
1952.06	5.98929e-05
1960.9	6.23662e-05
1974.16	6.624e-05
1983	6.89366e-05
1991.84	7.17284e-05
2000.68	7.46192e-05
2013.94	7.91492e-05
2022.78	8.23042e-05
2031.62	8.55721e-05
2040.46	8.89572e-05
2053.72	9.42648e-05
2062.56	9.79634e-05
2071.41	0.000101796
2080.25	0.000100392
2093.51	9.87416e-05
2102.35	9.79222e-05
2111.19	9.73124e-05
2120.03	9.69006e-05
2133.29	9.66321e-05
2142.13	9.66719e-05
2150.97	9.68768e-05
2164.23	9.7478e-05
2173.07	9.80654e-05
2181.91	9.87957e-05
2190.75	9.96645e-05
2204.01	0.000101219
2212.85	0.000102419
2221.69	0.000103746
2230.53	0.000105201
2243.79	0.000107617
2252.63	0.000109385
2261.47	0.000111278
2270.31	0.000113297
2283.57	0.000116567
2292.41	0.000118909
2301.25	0.000121385
2310.09	0.000123996
2323.35	0.000128175
2332.19	0.000131141
2341.03	0.000134256
2354.29	0.000139217
2363.13	0.000142723
2371.97	0.000146395
2380.81	0.000150237
2394.07	0.000156333
2402.91	0.000160627
2411.75	0.000165112
2420.59	0.000169795
2433.79	0.000177169
2442.59	0.00018235
2451.39	0.000187755
2460.19	0.000193373
2473.39	0.000202168
2482.19	0.000208261
2491.02	0.000214551
2504.28	0.000224318
2513.12	0.00023104
2521.96	0.000237928
2530.8	0.000244984
2544.05	0.000255878
2552.87	0.000263356
2561.71	0.000271023
2570.56	0.000278877
2583.82	0.000291025
2592.66	0.00029938
2601.5	0.000307951
2610.34	0.000316748
2623.6	0.000330395
2632.44	0.000339812
2641.28	0.0003495
2650.12	0.000359474
2663.38	0.000375007
2672.22	0.000385766
2681.06	0.000396869
2694.32	0.000414202
2703.16	0.000426233
2712	0.000438663
2720.84	0.000451509
2734.1	0.000471591
2742.94	0.000485545
2751.78	0.00049997
2760.62	0.000514884
2773.88	0.0005382
2782.71	0.000554397
2791.54	0.000571145
2800.36	0.000588443
2813.6	0.000627091
2822.42	0.000668615
2831.24	0.000710009
2840.06	0.000751161
2853.29	0.000812328
2862.12	0.00085278
2870.95	0.000892921
2884.19	0.000952819
2893.01	0.000992539
2901.81	0.00103218
2910.61	0.00107193
2923.81	0.00113197
2932.61	0.00117247
2941.41	0.00121348
2950.21	0.00125513
2963.41	0.00131911
2972.21	0.00136294
2981.01	0.00140788
2994.21	0.00147763
3003.01	0.00152588
3011.81	0.00157567
3020.61	0.00162702
3033.81	0.00170646
3042.61	0.00176082
3051.41	0.00181621
3060.21	0.00187261
3073.41	0.00195914
3082.21	0.00201822
3091.01	0.00207853
3104.21	0.00217161
3113.01	0.00223566
3121.81	0.00230153
3130.61	0.00236946
3143.81	0.00247568
3152.61	0.0025497
3161.41	0.00262652
3170.21	0.00270635
3183.41	0.00283217
3192.21	0.00292041
3201.01	0.0031202
3214.21	0.00340553
3223.01	0.00358612
3231.81	0.00376028
3240.61	0.00392977
3253.81	0.00417969
3262.61	0.00434653
3271.41	0.00451598
3280.21	0.00469004
3293.41	0.00496381
3302.21	0.00515591
3311.01	0.00535382
3324.21	0.00566027
3333.01	0.0058716
3341.81	0.00609004
3350.61	0.00631759
3363.81	0.00668115
3372.61	0.00694156
3381.41	0.00736276
3390.21	0.00792452
3403.41	0.00872816
3412.21	0.00925321
3421.01	0.00978967
3434.21	0.0106519
3443.01	0.0112641
3451.81	0.0118942
3460.61	0.0125523
3473.81	0.0140384
3482.61	0.0154127
3491.41	0.0166164
3500.21	0.0179171
3513.41	0.0203201
3522.21	0.0235109
3531.01	0.0262724
3544.21	0.0305202
3553.01	0.0333553
3561.8	0.0361173
3570.6	0.0387968
3583.8	0.0426849
3592.6	0.045194
3601.4	0.0476682
3610.2	0.0501523
3623.4	0.0539613
3632.2	0.0565663
3641	0.0592169
3654.2	0.0632592
3663	0.0659919
3671.8	0.0687578
3680.6	0.0715648
3693.8	0.0758704
3702.6	0.0788105
3711.4	0.0818058
3720.2	0.0848514
3733.4	0.0894996
3742.2	0.092642
3751	0.0958148
3764.2	0.100634
3772.99	0.103895
3781.79	0.107203
3790.59	0.110567
3803.79	0.115733
3812.59	0.119266
3821.39	0.122875
3830.19	0.126566
3843.39	0.132264
3852.19	0.136177
3860.99	0.140187
3874.19	0.146389
3882.99	0.150652
3891.79	0.155019
3900.59	0.159491
3913.79	0.1664
3922.59	0.171145
3931.39	0.176008
3940.19	0.180995
3953.39	0.188727
3962.19	0.194063
3970.99	0.199553
3984.19	0.2081
3992.99	0.214017
4001.79	0.220119
4010.59	0.226413
4023.79	0.236228
4032.59	0.24303
4041.39	0.250042
4050.19	0.257268
4063.39	0.268513
4072.19	0.276281
4080.99	0.284265
4094.19	0.296643
4102.99	0.30516
4111.79	0.313884
4120.59	0.322811
4133.79	0.336569
4142.59	0.345975
4151.39	0.355558
4160.19	0.365305
4173.39	0.380204
4182.19	0.390298
4190.99	0.400499
4204.23	0.415997
4213.1	0.426455
4221.98	0.436933
4230.85	0.447402
4244.17	0.463015
4253.05	0.473313
4261.93	0.483488
4270.82	0.493501
4284.16	0.508111
4293.1	0.517566
4302.08	0.526746
4311.06	0.535557
4320.04	0.543952
4333.52	0.555662
4342.5	0.56281
4351.48	0.569374
4360.47	0.575306
4373.94	0.582913
4382.92	0.587052
4391.91	0.590391
4400.89	0.592883
4414.36	0.594934
4423.35	0.595116
4432.33	0.594302
4441.31	0.592455
4450.29	0.58954
4463.77	0.583101
4472.75	0.577391
4481.73	0.570522
4490.72	0.562476
4504.19	0.548171
4513.17	0.537132
4522.16	0.524889
4531.14	0.511442
4540.12	0.496798
4553.6	0.472615
4562.58	0.455038
4571.56	0.436322
4580.55	0.416494
4594.02	0.38473
4603	0.362255
4611.99	0.338784
4620.97	0.314356
4634.44	0.276009
4643.43	0.249366
4652.41	0.221914
4661.39	0.193693
4670.38	0.164779
4683.85	0.119953
4692.83	0.0891241
4701.82	0.0589285
4710.8	0.0241976
4724.27	-0.0171435
4733.26	-0.0415765
4742.24	-0.0625346
4751.22	-0.0639515
4760.21	-0.0762911
4773.68	-0.0994334
4782.67	-0.112318
4791.65	-0.12432
4800.63	-0.13513
4814.11	-0.148817
4823.09	-0.156662
4832.07	-0.163964
4841.06	-0.170876
4850.04	-0.162337
4863.52	-0.170697
4872.5	-0.177579
4881.48	-0.184396
4890.48	-0.190258
4904.01	-0.197663
4913.03	-0.201929
4922.05	-0.205802
4931.06	-0.209365
4940.08	-0.21268
4953.61	-0.216803
4962.63	-0.219448
4971.65	-0.221801
4980.66	-0.224133
4994.19	-0.227527
5003.21	-0.229691
5012.23	-0.231761
5021.25	-0.233728
5030.26	-0.235587
5043.79	-0.238126
5052.81	-0.229054
5061.83	-0.230656
5070.85	-0.231943
5084.37	-0.234877
5093.38	-0.236735
5102.39	-0.238377
5111.41	-0.239794
5120.42	-0.241014
5133.94	-0.242528
5142.95	-0.243355
5151.96	-0.244052
5160.98	-0.244632
5174.49	-0.245307
5183.51	-0.245644
5192.52	-0.245905
5201.53	-0.246097
5210.54	-0.246229
5224.06	-0.246332
5233.08	-0.246345
5242.09	-0.246227
5251.1	-0.246101
5260.11	-0.245977
5273.57	-0.245789
5282.53	-0.245569
5291.48	-0.24534
5300.44	-0.245102
5313.87	-0.244726
5322.82	-0.244461
5331.78	-0.244184
5340.73	-0.243893
5354.16	-0.24343
5363.12	-0.243103
5372.07	-0.242761
5381.03	-0.242405
5394.46	-0.241843
5403.41	-0.241451
5412.37	-0.24104
5421.28	-0.240613
5430.15	-0.238491
5443.44	-0.236268
5452.31	-0.236137
5461.18	-0.235991
5470.04	-0.235828
5483.34	-0.235554
5492.25	-0.23535
5501.21	-0.235125
5510.16	-0.234878
5523.59	-0.234472
5532.55	-0.234178
5541.5	-0.233866
5550.46	-0.233537
5563.84	-0.233015
5572.74	-0.232648
5581.64	-0.232265
5590.54	-0.231869
5603.87	-0.231248
5612.71	-0.230818
5621.55	-0.230374
5630.39	-0.229917
5643.65	-0.229204
5652.49	-0.228709
5661.33	-0.228199
5670.17	-0.227673
5683.43	-0.226852
5692.28	-0.226283
5701.12	-0.225696
5714.38	-0.224782
5723.22	-0.224149
5732.06	-0.223497
5740.9	-0.222826
5754.16	-0.221782
5763	-0.221061
5771.84	-0.22032
5780.68	-0.21956
5793.94	-0.218396
5802.79	-0.217609
5811.63	-0.216802
5820.47	-0.215979
5833.73	-0.214715
5842.57	-0.213854
5851.41	-0.212979
5860.25	-0.212089
5873.51	-0.210646
5882.35	-0.209666
5891.19	-0.208674
5900.03	-0.207669
5913.29	-0.206141
5922.14	-0.205109
5930.98	-0.204066
5944.24	-0.202483
5953.08	-0.201415
5961.92	-0.200338
5970.76	-0.199251
5984.02	-0.197602
5992.86	-0.196492
6001.7	-0.195372
6010.54	-0.194243
6023.8	-0.192531
6032.65	-0.191379
6041.49	-0.190218
6050.33	-0.189047
6063.59	-0.187275
6072.43	-0.186082
6081.27	-0.184882
6090.11	-0.183673
6103.37	-0.181844
6112.21	-0.180616
6121.05	-0.17938
6134.31	-0.177514
6143.15	-0.176261
6152	-0.175002
6160.84	-0.173848
6174.1	-0.172237
6182.94	-0.171127
6191.78	-0.169996
6200.62	-0.168849
6213.88	-0.167107
6222.72	-0.165935
6231.56	-0.164756
6240.4	-0.163572
6253.66	-0.161787
6262.51	-0.160591
6271.35	-0.15939
6280.19	-0.158184
6293.45	-0.156365
6302.29	-0.155144
6311.13	-0.153916
6324.39	-0.152059
6333.23	-0.150811
6342.07	-0.149552
6350.91	-0.148284
6364.17	-0.146361
6373.01	-0.145065
6381.86	-0.143757
6390.7	-0.142436
6403.96	-0.140433
6412.8	-0.139089
6421.64	-0.137742
6430.48	-0.136394
6443.74	-0.134374
6452.58	-0.133028
6461.42	-0.131682
6470.26	-0.130337
6483.52	-0.128317
6492.37	-0.126967
6501.21	-0.125611
6510.05	-0.124249
6523.31	-0.122188
6532.15	-0.1208
6540.99	-0.119398
6554.25	-0.117267
6563.09	-0.115825
6571.89	-0.114371
6580.69	-0.112112
6593.89	-0.107773
6602.69	-0.105073
6611.49	-0.102511
6620.29	-0.100068
6633.48	-0.0965755
6642.28	-0.0943297
6651.08	-0.0921249
6664.28	-0.0888541
6673.11	-0.0866667
6681.95	-0.0844612
6690.79	-0.0822295
6704.05	-0.0788176
6712.89	-0.076518
6721.73	-0.0742136
6730.58	-0.0719073
6743.84	-0.0684356
6752.68	-0.0661006
6761.52	-0.0637361
6770.36	-0.0613314
6783.62	-0.0566481
6792.46	-0.0523136
6801.3	-0.0480836
6810.14	-0.0440053
6823.4	-0.038093
6832.24	-0.0341828
6841.09	-0.0302295
6854.35	-0.024156
6863.19	-0.0200693
6872.02	-0.0160402
6880.86	-0.0120433
6894.11	-0.00444712
6902.95	0.00194408
6911.79	0.0074589
6920.63	0.0128566
6933.89	0.0212619
6942.73	0.0302983
6951.57	0.0382602
6960.41	0.045826
6973.67	0.0554917
6982.52	0.0606184
6991.36	0.064797
7000.2	0.0681561
7013.46	0.0719072
7022.3	0.073743
7031.14	0.075211
7044.4	0.076933
7053.24	0.0778399
7062.08	0.0785959
7070.92	0.079234
7084.19	0.0800462
7093.03	0.0805489
7101.87	0.0810747
7110.7	0.0816634
7123.95	0.0826929
7132.77	0.0834467
7141.6	0.0842055
7150.42	0.0849227
7163.65	0.0858332
7172.47	0.0862892
7181.29	0.0866084
7190.11	0.0867926
7203.35	0.0868477
7212.18	0.0867713
7221	0.0866357
7234.24	0.0863786
7243.04	0.0862065
7251.84	0.0860583
7260.64	0.0859529
7273.84	0.0859065
7282.64	0.0859604
7291.44	0.0860791
7300.24	0.0862492
7313.44	0.0865511
7322.24	0.0867423
7331.04	0.0868917
7344.24	0.0869852
7353.04	0.0869377
7361.84	0.0867952
7370.64	0.0865608
7383.84	0.0860583
7392.64	0.0856431
7401.44	0.0851824
7410.24	0.0846924
7423.44	0.0839369
7432.24	0.0834413
7441.04	0.0829687
7454.24	0.0823307
7463.04	0.0819682
7471.84	0.0816654
7480.64	0.0814268
7493.84	0.0811907
7502.64	0.0811105
7511.44	0.0810858
7520.24	0.0811098
7533.44	0.0812217
7542.24	0.0813379
7551.04	0.081482
7564.24	0.0817443
7573.04	0.081948
7581.84	0.0821743
7590.64	0.0824231
7603.84	0.0828372
7612.64	0.0831386
7621.44	0.0834571
7630.24	0.0837888
7643.44	0.0842989
7652.24	0.0846377
7661.04	0.0849668
7674.24	0.0854244
7683.04	0.0856941
7691.84	0.085927
7700.64	0.0861168
7713.84	0.0863098
7722.64	0.0863723
7731.44	0.0863796
7740.24	0.0863312
7753.44	0.0861565
7762.24	0.0859749
7771.04	0.0857446
7784.24	0.0853154
7793.04	0.0849789
7801.84	0.0846065
7810.64	0.0842014
7823.84	0.0835393
7832.64	0.0830652
7841.44	0.0825674
7850.24	0.0820476
7863.44	0.0812304
7872.24	0.080663
7881.04	0.0800796
7894.24	0.0791799
7903.04	0.0785673
7911.84	0.077948
7920.64	0.077325
7933.84	0.0763903
7942.64	0.0757709
7951.44	0.075157
7960.24	0.0745498
7973.44	0.0736521
7982.24	0.073061
7991.04	0.0724735
8004.24	0.0715915
8013.04	0.0709971
8021.84	0.0703919
8030.64	0.0697707
8043.85	0.0687977
8052.65	0.0681146
8061.45	0.0673989
8070.25	0.0666474
8083.45	0.0654475
8092.25	0.0645974
8101.05	0.063707
8114.25	0.0622976
8123.05	0.0613115
8131.85	0.0602912
8140.65	0.0592394
8153.85	0.0576101
8162.65	0.0564942
8171.45	0.0553583
8180.25	0.0542056
8193.45	0.0524506
8202.25	0.0512669
8211.05	0.0500748
8224.25	0.0482746
8233.05	0.0470687
8241.85	0.0458596
8250.65	0.0446486
8263.85	0.0428304
8272.65	0.0416183
8281.45	0.0404066
8290.25	0.0391954
8303.45	0.0373783
8312.25	0.0361649
8321.05	0.0349472
8334.25	0.0331052
8343.05	0.0318596
8351.85	0.0305921
8360.65	0.0292934
8373.85	0.0272571
8382.65	0.0258107
8391.45	0.0242557
8400.25	0.0225531
8413.45	0.0196124
8422.25	0.0172538
8431.05	0.0146868
8444.25	0.00943586
8453.05	0.00677139
8461.85	0.00422973
8470.65	0.00184954
8483.85	0.00083183
8492.65	-0.00145394
8501.45	-0.00360492
8510.25	-0.00582009
8523.45	-0.00899037
8532.25	-0.0107832
8541.05	-0.0100947
8554.25	-0.0118485
8563.05	-0.0137058
8571.85	-0.0156099
8580.65	-0.017329
8593.85	-0.0196745
8602.65	-0.0211657
8611.45	-0.0225973
8620.25	-0.0239646
8633.45	-0.0260056
8642.26	-0.0273587
8651.06	-0.0286072
8664.26	-0.0303057
8673.06	-0.0312759
8681.86	-0.0321561
8690.66	-0.0307795
8703.86	-0.0319205
8712.66	-0.0326567
8721.46	-0.0333766
8730.26	-0.0334017
8743.46	-0.0346579
8752.26	-0.0354322
8761.06	-0.0361567
8774.26	-0.0371657
8783.06	-0.037795
8791.86	-0.0383948
8800.66	-0.0389689
8813.86	-0.0397898
8822.66	-0.0403155
8831.46	-0.040827
8840.26	-0.0413266
8853.46	-0.0420577
8862.26	-0.0424749
8871.06	-0.0428916
8884.26	-0.0435239
8893.06	-0.0439475
8901.86	-0.0444278
8910.66	-0.044944
8923.86	-0.0456679
8932.66	-0.0461199
8941.46	-0.0465493
8950.26	-0.0469574
8963.46	-0.0475318
8972.26	-0.0478909
8981.06	-0.0482317
8994.26	-0.0487102
9003.06	-0.0490083
9011.86	-0.0492891
9020.66	-0.0495505
9033.86	-0.0443356
9042.66	-0.0445581
9051.46	-0.044754
9060.26	-0.0449403
9073.46	-0.0452026
9082.26	-0.0453665
9091.06	-0.045522
9104.26	-0.0457402
9113.06	-0.0458728
9121.86	-0.0459944
9130.66	-0.0461059
9143.86	-0.0462561
9152.66	-0.046346
9161.46	-0.0464287
9170.26	-0.0465047
9183.46	-0.0466077
9192.26	-0.0466699
9201.06	-0.0467274
9214.27	-0.0468062
9223.07	-0.0468542
9231.87	-0.0468993
9240.67	-0.0469415
9253.87	-0.0470012
9262.67	-0.0470384
9271.47	-0.0470734
9280.27	-0.0471059
9293.47	-0.047154
9302.27	-0.0471876
9311.07	-0.0472175
9324.27	-0.0472555
9333.07	-0.047276
9341.87	-0.0472924
9350.67	-0.0473047
9363.87	-0.047315
9372.67	-0.0473163
9381.47	-0.0473126
9390.27	-0.0473022
9403.47	-0.0472749
9412.27	-0.0472491
9421.07	-0.0472176
9434.27	-0.0471598
9443.07	-0.0471146
9451.87	-0.0470937
9460.67	-0.0470947
9473.87	-0.0470808
9482.67	-0.0470618
9491.47	-0.0470353
9500.27	-0.0470017
9513.47	-0.0469385
9522.27	-0.0468881
9531.07	-0.0468314
9544.27	-0.046735
9553.07	-0.0466634
9561.87	-0.0465863
9570.67	-0.0465037
9583.87	-0.0463699
9592.67	-0.0462744
9601.47	-0.046174
9610.27	-0.0460687
9623.47	-0.0459022
9632.27	-0.0457855
9641.07	-0.0456645
9654.27	-0.045475
9663.07	-0.0453437
9671.87	-0.0452084
9680.67	-0.044431
9693.87	-0.0442675
9702.67	-0.0441567
9711.47	-0.0440444
9720.27	-0.0439303
9733.47	-0.0437558
9742.27	-0.043637
9751.08	-0.0435161
9764.28	-0.0433306
9773.08	-0.0432041
9781.88	-0.0430751
9790.68	-0.0429435
9803.88	-0.0427413
9812.68	-0.042603
9821.48	-0.042462
9830.28	-0.042318
9843.48	-0.0420964
9852.28	-0.0419449
9861.08	-0.0417902
9874.28	-0.0415521
9883.08	-0.0413893
9891.88	-0.0412232
9900.68	-0.0391571
9913.88	-0.038794
9922.67	-0.03855
9931.47	-0.0383044
9940.27	-0.0380571
9953.47	-0.0377105
9962.27	-0.0375146
9971.07	-0.0373176
9984.27	-0.0370197
9993.07	-0.0368191
10001.9	-0.0366168
10010.7	-0.0364126
10023.9	-0.0361022
10032.7	-0.0358925
10041.5	-0.0356803
10050.3	-0.0354655
10063.5	-0.0351385
10072.3	-0.0349169
10081.1	-0.0346926
10094.3	-0.0343506
10103.1	-0.0341189
10111.9	-0.0338843
10120.7	-0.0336466
10133.9	-0.0332844
10142.7	-0.0330392
10151.5	-0.032791
10160.3	-0.0325398
10173.5	-0.0321575
10182.3	-0.0318989
10191.1	-0.0316373
10204.3	-0.0312396
10213.1	-0.0309708
10221.9	-0.0306991
10230.7	-0.0304247
10243.9	-0.0300077
10252.7	-0.0297263
10261.5	-0.0294422
10270.3	-0.0291554
10283.5	-0.0287203
10292.3	-0.028427
10301.1	-0.0281329
10314.3	-0.0276911
10323.1	-0.0273958
10331.9	-0.0270998
10340.7	-0.0268028
10353.9	-0.0263558
10362.7	-0.0260571
10371.5	-0.0257576
10380.3	-0.0254572
10393.5	-0.0250048
10402.3	-0.0247017
10411.1	-0.0243975
10424.3	-0.0239387
10433.1	-0.0236311
10441.9	-0.0233222
10450.7	-0.0230119
10463.9	-0.0225438
10472.7	-0.0222299
10481.5	-0.0219146
10490.3	-0.0215979
10503.5	-0.0211203
10512.3	-0.0208002
10521.1	-0.0204791
10534.3	-0.0199111
10543.1	-0.0195358
10551.9	-0.019163
10560.7	-0.0187928
10573.9	-0.018242
10582.7	-0.0178777
10591.5	-0.0175157
10600.3	-0.0171558
10613.5	-0.0166201
10622.3	-0.0162654
10631.1	-0.0159128
10644.3	-0.0153874
10653.1	-0.0150394
10661.9	-0.0146932
10670.7	-0.0143487
10683.9	-0.0138385
10692.7	-0.0135028
10701.5	-0.0131705
10710.3	-0.0128412
10723.5	-0.0123524
10732.3	-0.0120298
10741.1	-0.0117098
10754.3	-0.011234
10763.1	-0.0109195
10771.9	-0.010607
10780.7	-0.0102965
10793.9	-0.00983401
10802.7	-0.00952777
10811.5	-0.0092231
10820.3	-0.0089199
10833.5	-0.00845365
10842.3	-0.00813631
10851.1	-0.00783249
10864.3	-0.00739774
10873.1	-0.00711933
10881.9	-0.0068483
10890.7	-0.00658336
10903.9	-0.00619486
10912.7	-0.0059404
10921.5	-0.0056886
10930.3	-0.00543874
10943.5	-0.00506628
10952.3	-0.00481876
10961.1	-0.00457137
10974.3	-0.00420061
10983.1	-0.003957
10991.9	-0.00371624
11000.7	-0.00347778
11013.9	-0.00312318
11022.7	-0.00288808
11031.5	-0.00265345
11040.3	-0.00241883
11053.5	-0.00206606
11062.3	-0.0018298
11071.1	-0.00159247
11084.3	-0.00123444
11093.1	-0.000994418
11101.9	-0.000753179
11110.7	-0.00051058
11123.9	-0.000143785
11132.7	9.79868e-05
11141.5	0.000336225
11150.3	0.000572235
11163.5	0.00092444
11172.3	0.00115934
11181.1	0.00139518
11194.3	0.00175203
11203.1	0.00199274
11211.9	0.00223597
11220.7	0.00248174
11233.9	0.00285522
11242.7	0.00310747
11251.5	0.00344813
11260.3	0.00381
11273.5	0.00437653
11282.3	0.00476276
11291.1	0.00515202
11304.3	0.00573731
11313.1	0.00612675
11321.9	0.00651481
11330.7	0.00690045
11343.9	0.00747511
11352.7	0.00785923
11361.6	0.0082478
11370.5	0.00863761
11383.8	0.00922352
11392.6	0.0096138
11401.5	0.0100032
11410.8	0.0104098
11420.2	0.0108188
11434.3	0.011425
11443.7	0.0123898
11453.1	0.0133206
11462.5	0.0141819
11471.9	0.014963
11481.3	0.0156772
11490.7	0.0163328
11500.2	0.0169435
11514.6	0.0181039
11524.2	0.0187216
11533.8	0.0192915
11543.4	0.0197697
11553	0.0202643
11562.6	0.0209933
11572.2	0.0218112
11581.8	0.0226461
11591.4	0.023474
11601	0.0242821
11610.6	0.0250904
11620.2	0.0258907
11634.6	0.0270865
11644.2	0.0278827
11653.9	0.0286722
11663.5	0.0294566
11673.1	0.0302491
11682.7	0.0310655
11692.3	0.031917
11701.9	0.0328071
11711.5	0.0337322
11721.1	0.0346828
11730.7	0.0356463
11740.3	0.0366082
11754.7	0.0380215
11764.3	0.0389344
11773.9	0.0398236
11783.5	0.0406936
11793.1	0.0415504
11802.7	0.0423995
11812.3	0.0432446
11821.9	0.044087
11831.5	0.0449258
11841.1	0.0457582
11850.7	0.0465807
11860.3	0.0473895
11874.7	0.0485699
11884.3	0.0493308
11893.9	0.0500681
11903.5	0.0507793
11913.1	0.0514617
11922.7	0.0521121
11932.3	0.0527271
11941.9	0.0533033
11951.5	0.0538378
11961.1	0.0543288
11970.7	0.0547755
11980.3	0.0551789
11994.7	0.0557073
