0	0
10.0844	0
20.1687	0
30.253	0
40.3371	0
50.4212	0
60.001	0
70.085	0
80.1688	0
90.2526	0
100.284	0
110.368	0
120.451	0
130.031	0
140.023	0
150.106	0
160.19	0
170.272	0
180.271	0
190.17	0
200.054	0
210.434	0
220.319	0
230.204	0
240.089	0
250.468	0
260.353	0
270.238	0
280.122	0
290.004	1.81899e-12
300.38	2.09184e-11
310.262	3.91083e-11
320.145	5.72982e-11
330.027	7.54881e-11
340.403	1.03682e-10
350.285	1.40062e-10
360.167	1.7917e-10
370.049	2.3374e-10
380.425	3.01043e-10
390.307	3.7835e-10
400.186	4.72028e-10
410.014	5.84805e-10
420.255	7.25777e-10
430.48	8.91305e-10
440.217	1.08048e-09
450.376	1.31058e-09
460.433	1.57706e-09
470.457	1.88629e-09
480.468	2.24372e-09
490.002	2.63481e-09
500.013	3.10411e-09
510.024	3.64162e-09
520.035	4.2528e-09
530.466	4.97766e-09
540.369	5.75983e-09
550.259	6.64022e-09
560.149	7.62793e-09
570.033	8.73297e-09
580.381	1.00299e-08
590.249	1.14123e-08
600.109	1.29476e-08
610.435	1.47365e-08
620.292	1.66328e-08
630.149	1.87292e-08
640.005	2.10393e-08
650.331	2.37105e-08
660.188	2.65163e-08
670.044	2.9585e-08
680.37	3.30974e-08
690.226	3.67445e-08
700.083	4.06908e-08
710.409	4.51564e-08
720.265	4.97466e-08
730.105	5.46606e-08
740.398	6.01676e-08
750.223	6.57838e-08
760.047	7.17691e-08
770.34	7.84457e-08
780.164	8.52233e-08
790.457	9.27366e-08
800.281	1.00319e-07
810.106	1.08303e-07
820.398	1.17097e-07
830.222	1.25901e-07
840.047	1.35088e-07
850.339	1.4513e-07
860.163	1.55106e-07
870.455	1.65957e-07
880.28	1.76694e-07
890.104	1.87795e-07
900.396	1.99811e-07
910.22	2.11648e-07
920.045	2.23837e-07
930.337	2.36988e-07
940.161	2.49903e-07
950.453	2.63817e-07
960.277	2.7747e-07
970.101	2.91494e-07
980.393	3.06591e-07
990.217	3.21395e-07
1000.04	3.36615e-07
1010.33	3.53012e-07
1020.16	3.69122e-07
1030.45	3.86508e-07
1040.27	4.03619e-07
1050.1	4.21269e-07
1060.39	4.40378e-07
1070.21	4.59258e-07
1080.04	4.78809e-07
1090.33	5.00073e-07
1100.15	5.21181e-07
1110.45	5.44219e-07
1120.27	5.67175e-07
1130.09	5.91156e-07
1140.39	6.17483e-07
1150.21	6.43861e-07
1160.03	6.7157e-07
1170.33	7.02151e-07
1180.15	7.3295e-07
1190.44	7.67051e-07
1200.26	8.01495e-07
1210.09	8.37941e-07
1220.38	8.78439e-07
1230.2	9.1948e-07
1240.03	9.63027e-07
1250.32	1.01153e-06
1260.14	1.06078e-06
1270.43	1.1157e-06
1280.26	1.17151e-06
1290.08	1.23085e-06
1300.37	1.29705e-06
1310.17	1.36422e-06
1320.43	1.43901e-06
1330.21	1.515e-06
1340.46	1.59973e-06
1350.23	1.68573e-06
1360	1.77711e-06
1370.24	1.87892e-06
1380.01	1.98222e-06
1390.23	2.09704e-06
1400.44	2.21921e-06
1410.2	2.34336e-06
1420.41	2.48213e-06
1430.16	2.62314e-06
1440.38	2.77999e-06
1450.13	2.93851e-06
1460.35	3.11387e-06
1470.1	3.29016e-06
1480.31	3.48423e-06
1490.05	3.67825e-06
1500.22	3.89006e-06
1510.37	4.11149e-06
1520.07	4.33202e-06
1530.23	4.57281e-06
1540.39	4.82378e-06
1550.08	5.07308e-06
1560.24	5.34476e-06
1570.4	5.62754e-06
1580.1	5.90824e-06
1590.26	6.21401e-06
1600.35	6.53024e-06
1610.37	6.85711e-06
1620.38	7.19726e-06
1630.4	7.55159e-06
1640.41	7.92088e-06
1650.43	8.30599e-06
1660.45	8.70783e-06
1670.01	9.10791e-06
1680.02	9.54535e-06
1690.04	1.00026e-05
1700.05	1.04809e-05
1710.07	1.09813e-05
1720.08	1.15054e-05
1730.1	1.20543e-05
1740.11	1.26295e-05
1750.13	1.32325e-05
1760.14	1.38648e-05
1770.16	1.4528e-05
1780.17	1.52239e-05
1790.19	1.59538e-05
1800.2	1.67193e-05
1810.22	1.75214e-05
1820.23	1.83612e-05
1830.25	1.92395e-05
1840.27	2.01572e-05
1850.28	2.11151e-05
1860.3	2.21139e-05
1870.31	2.31543e-05
1880.33	2.42371e-05
1890.34	2.5363e-05
1900.36	2.65329e-05
1910.37	2.77475e-05
1920.39	2.9008e-05
1930.4	3.03152e-05
1940.42	3.16702e-05
1950.43	3.30743e-05
1960.45	3.45288e-05
1970.01	3.59654e-05
1980.02	3.75226e-05
1990.04	3.91348e-05
2000.05	4.08038e-05
2010.07	4.25315e-05
2020.08	4.432e-05
2030.1	4.61715e-05
2040.11	4.80884e-05
2050.13	5.00729e-05
2060.14	5.21278e-05
2070.16	5.42556e-05
2080.17	5.64592e-05
2090.19	5.87414e-05
2100.2	6.11054e-05
2110.22	6.35543e-05
2120.23	6.60915e-05
2130.25	6.87206e-05
2140.26	6.90504e-05
2150.28	6.76038e-05
2160.29	6.63964e-05
2170.31	6.54115e-05
2180.32	6.46339e-05
2190.33	6.40502e-05
2200.35	6.36476e-05
2210.36	6.34143e-05
2220.38	6.33396e-05
2230.39	6.3414e-05
2240.41	6.36289e-05
2250.42	6.39769e-05
2260.44	6.44514e-05
2270.45	6.50465e-05
2280.01	6.57226e-05
2290.17	6.65527e-05
2300.19	6.748e-05
2310.2	6.85128e-05
2320.21	6.9649e-05
2330.23	7.0887e-05
2340.24	7.22259e-05
2350.26	7.36652e-05
2360.27	7.52052e-05
2370.29	7.68465e-05
2380.3	7.859e-05
2390.32	8.04374e-05
2400.33	8.23903e-05
2410.35	8.44512e-05
2420.36	8.66225e-05
2430.37	8.8907e-05
2440.39	9.1308e-05
2450.4	9.38287e-05
2460.42	9.6473e-05
2470.43	9.92447e-05
2480.45	0.000102148
2490.01	0.000105046
2500.02	0.00010822
2510.04	0.000111539
2520.05	0.000115008
2530.07	0.000118618
2540.08	0.000122358
2550.09	0.00012622
2560.11	0.000130196
2570.12	0.000134283
2580.14	0.000138478
2590.15	0.00014278
2600.17	0.00014719
2610.18	0.000151709
2620.2	0.00015634
2630.21	0.000161086
2640.23	0.000165952
2650.24	0.000170944
2660.26	0.000176068
2670.27	0.000181329
2680.27	0.000186728
2690.24	0.000192271
2700.22	0.000197978
2710.2	0.000203858
2720.17	0.000209923
2730.15	0.000216184
2740.13	0.000222652
2750.11	0.000229338
2760.08	0.000236254
2770.06	0.00024341
2780.04	0.000250817
2790.01	0.000258487
2800.44	0.000266798
2810.42	0.000275039
2820.4	0.000283576
2830.38	0.000292421
2840.35	0.000301586
2850.33	0.000311083
2860.31	0.000320927
2870.28	0.000331131
2880.26	0.00034171
2890.24	0.000366665
2900.21	0.000393788
2910.19	0.000420738
2920.17	0.000447463
2930.15	0.000473943
2940.12	0.000500187
2950.1	0.00052622
2960.08	0.000552085
2970.05	0.000577837
2980.03	0.000603541
2990.01	0.000629272
3000.44	0.000656288
3010.41	0.000682329
3020.39	0.000708655
3030.37	0.000735356
3040.35	0.000762524
3050.32	0.000790249
3060.3	0.000818621
3070.28	0.000847729
3080.25	0.000877655
3090.23	0.000908388
3100.21	0.000939814
3110.18	0.000971835
3120.16	0.0010044
3130.14	0.0010375
3140.11	0.00107116
3150.09	0.00110542
3160.07	0.00114036
3170.04	0.00117607
3180.02	0.00121267
3190.45	0.00125203
3200.43	0.00129088
3210.4	0.00133105
3220.38	0.00137266
3230.36	0.00141586
3240.33	0.00146077
3250.31	0.00150752
3260.29	0.00155626
3270.26	0.00160669
3280.24	0.00172157
3290.22	0.00183029
3300.19	0.00193346
3310.17	0.00203227
3320.14	0.00212815
3330.12	0.00222268
3340.1	0.00231739
3350.07	0.00241374
3360.05	0.00251308
3370.03	0.00261631
3380	0.00272293
3390.43	0.0028375
3400.41	0.00295027
3410.39	0.00306685
3420.36	0.00318832
3430.34	0.00331603
3440.32	0.00345131
3450.29	0.00359531
3460.32	0.00378619
3470.3	0.00409621
3480.28	0.00439571
3490.25	0.00469061
3500.23	0.00499018
3510.21	0.00530244
3520.18	0.00562595
3530.16	0.00595798
3540.13	0.00630509
3550.11	0.0066786
3560.09	0.00737892
3570.06	0.00801596
3580.04	0.00865778
3590.02	0.00934228
3600.45	0.010272
3610.42	0.0116009
3620.4	0.0130243
3630.14	0.0157847
3640.11	0.0219964
3650.09	0.0302066
3660.07	0.0376202
3670.04	0.0444193
3680.02	0.050236
3690.45	0.0557259
3700.43	0.0599791
3710.4	0.0639876
3720.38	0.0678313
3730.36	0.0715145
3740.33	0.0748434
3750.31	0.0778296
3760.29	0.0806691
3770.26	0.0834316
3780.24	0.0860916
3790.22	0.0885653
3800.19	0.0910085
3810.17	0.0935462
3820.15	0.0961463
3830.12	0.0986644
3840.1	0.101078
3850.08	0.103505
3860.06	0.106039
3870.03	0.108679
3880.01	0.111405
3890.44	0.114405
3900.42	0.117508
3910.39	0.120856
3920.44	0.124401
3930.05	0.127888
3940.11	0.131635
3950.17	0.135497
3960.23	0.13946
3970.29	0.143497
3980.36	0.147609
3990.42	0.151809
4000.02	0.155876
4010.08	0.16014
4020.15	0.164359
4030.21	0.168527
4040.27	0.172654
4050.34	0.176741
4060.41	0.180796
4070.02	0.184669
4080.09	0.188778
4090.16	0.192967
4100.22	0.197242
4110.29	0.201618
4120.36	0.206145
4130.43	0.210892
4140.04	0.215686
4150.11	0.221036
4160.18	0.226776
4170.24	0.23297
4180.32	0.239678
4190.39	0.246962
4200.01	0.254516
4210.09	0.263152
4220.19	0.272658
4230.32	0.283174
4240	0.29424
4250.15	0.30704
4260.3	0.321186
4270	0.336065
4280.19	0.353252
4290.4	0.372185
4300.15	0.39196
4310.36	0.414555
4320.11	0.437981
4330.33	0.464502
4340.07	0.491695
4350.29	0.522088
4360.03	0.552809
4370.25	0.586614
4380.46	0.621859
4390.21	0.656608
4400.42	0.69389
4410.17	0.730015
4420.38	0.768069
4430.13	0.804229
4440.34	0.841524
4450.09	0.87615
4460.3	0.910949
4470.05	0.942325
4480.26	0.972811
4490.01	0.999215
4500.22	1.0236
4510.44	1.04418
4520.19	1.05982
4530.4	1.07152
4540.15	1.07771
4550.36	1.07841
4560.11	1.07299
4570.32	1.06029
4580.07	1.04087
4590.28	1.01221
4600.03	0.976319
4610.24	0.929183
4620.45	0.871801
4630.2	0.807146
4640.42	0.728891
4650.16	0.644089
4660.38	0.5445
4670.13	0.438552
4680.34	0.314421
4690.09	0.180208
4700.3	0.0157773
4710.05	-0.0723021
4720.26	-0.114388
4730.01	-0.147843
4740.22	-0.170815
4750.44	-0.180253
4760.18	-0.19485
4770.4	-0.205985
4780.15	-0.215355
4790.36	-0.221069
4800.16	-0.230064
4810.44	-0.237425
4820.25	-0.243164
4830.06	-0.248111
4840.34	-0.252062
4850.17	-0.255812
4860.46	-0.259592
4870.29	-0.262961
4880.11	-0.256646
4890.4	-0.256524
4900.23	-0.260683
4910.05	-0.264238
4920.34	-0.26737
4930.17	-0.269881
4940.46	-0.272115
4950.28	-0.273949
4960.11	-0.27557
4970.4	-0.277074
4980.23	-0.277965
4990.05	-0.278954
5000.34	-0.279913
5010.17	-0.280835
5020.46	-0.281787
5030.28	-0.282666
5040.11	-0.2835
5050.4	-0.284315
5060.22	-0.285014
5070.05	-0.278026
5080.34	-0.278874
5090.16	-0.279636
5100.46	-0.280773
5110.28	-0.281945
5120.11	-0.28298
5130.4	-0.283907
5140.22	-0.28464
5150.05	-0.285245
5160.34	-0.285759
5170.16	-0.286147
5180.45	-0.286457
5190.28	-0.286667
5200.1	-0.286801
5210.39	-0.286865
5220.22	-0.286857
5230.04	-0.286787
5240.33	-0.286651
5250.15	-0.286462
5260.45	-0.286189
5270.27	-0.285867
5280.08	-0.285503
5290.35	-0.285084
5300.13	-0.28463
5310.38	-0.283863
5320.16	-0.283114
5330.4	-0.282307
5340.17	-0.281514
5350.4	-0.280657
5360.16	-0.279812
5370.38	-0.278898
5380.13	-0.277994
5390.34	-0.277016
5400.1	-0.276051
5410.31	-0.275008
5420.06	-0.273982
5430.28	-0.272866
5440.03	-0.271763
5450.25	-0.270576
5460.46	-0.261636
5470.21	-0.260999
5480.43	-0.260323
5490.18	-0.259671
5500.39	-0.258985
5510.13	-0.258331
5520.29	-0.257649
5530.45	-0.25697
5540.14	-0.256329
5550.3	-0.255666
5560.46	-0.255015
5570.16	-0.254408
5580.31	-0.253789
5590.01	-0.253215
5600.17	-0.252632
5610.3	-0.252072
5620.35	-0.251536
5630.37	-0.251022
5640.38	-0.250528
5650.4	-0.250053
5660.41	-0.249595
5670.43	-0.249152
5680.44	-0.248721
5690	-0.248318
5700.02	-0.247899
5710.03	-0.247482
5720.05	-0.247062
5730.07	-0.246639
5740.08	-0.24621
5750.1	-0.245774
5760.11	-0.245328
5770.13	-0.244871
5780.14	-0.2444
5790.16	-0.243913
5800.17	-0.243408
5810.19	-0.242882
5820.2	-0.242389
5830.22	-0.241932
5840.23	-0.241423
5850.25	-0.240863
5860.26	-0.240252
5870.28	-0.23959
5880.3	-0.238768
5890.31	-0.237885
5900.33	-0.236952
5910.34	-0.235971
5920.36	-0.234946
5930.37	-0.233877
5940.39	-0.232766
5950.4	-0.231615
5960.42	-0.230425
5970.43	-0.229198
5980.45	-0.227935
5990.01	-0.226697
6000.02	-0.225368
6010.04	-0.224006
6020.05	-0.222615
6030.07	-0.221194
6040.08	-0.219746
6050.1	-0.218272
6060.12	-0.216773
6070.13	-0.215251
6080.15	-0.213708
6090.16	-0.212144
6100.18	-0.210974
6110.19	-0.209963
6120.21	-0.208875
6130.22	-0.20772
6140.24	-0.206508
6150.25	-0.205246
6160.27	-0.20394
6170.28	-0.202595
6180.3	-0.201215
6190.31	-0.199802
6200.33	-0.198355
6210.34	-0.19687
6220.36	-0.195352
6230.37	-0.193803
6240.39	-0.192228
6250.4	-0.190629
6260.42	-0.189009
6270.43	-0.187369
6280.45	-0.185713
6290.01	-0.184117
6300.02	-0.182432
6310.04	-0.180737
6320.05	-0.179039
6330.07	-0.177342
6340.08	-0.17565
6350.1	-0.173965
6360.12	-0.17229
6370.13	-0.170625
6380.15	-0.168969
6390.16	-0.167321
6400.18	-0.165682
6410.19	-0.164048
6420.21	-0.162419
6430.22	-0.160792
6440.24	-0.159167
6450.25	-0.15754
6460.27	-0.155911
6470.28	-0.154277
6480.3	-0.152639
6490.31	-0.150994
6500.33	-0.14878
6510.34	-0.145939
6520.36	-0.143173
6530.37	-0.140491
6540.39	-0.13789
6550.4	-0.135362
6560.42	-0.132892
6570.44	-0.130467
6580.45	-0.128069
6590.01	-0.125793
6600.03	-0.123409
6610.04	-0.121021
6620.06	-0.118637
6630.07	-0.116267
6640.09	-0.11391
6650.1	-0.11156
6660.12	-0.109205
6670.13	-0.106831
6680.15	-0.104424
6690.16	-0.101974
6700.18	-0.0982222
6710.19	-0.0940503
6720.21	-0.090084
6730.23	-0.0862479
6740.24	-0.0824544
6750.26	-0.0786338
6760.28	-0.0747651
6770.33	-0.070902
6780.4	-0.0670651
6790	-0.0633759
6800.07	-0.0586528
6810.13	-0.0524648
6820.19	-0.0468495
6830.25	-0.0411959
6840.32	-0.035446
6850.38	-0.0282604
6860.42	-0.0191239
6870.43	-0.0100021
6880.43	0.00433374
6890.43	0.0291394
6900.4	0.0500085
6910.38	0.0619572
6920.36	0.0690241
6930.33	0.0715912
6940.31	0.0727484
6950.29	0.0707644
6960.27	0.0692169
6970.24	0.0692187
6980.22	0.070234
6990.2	0.0712827
7000.17	0.0712867
7010.15	0.0711525
7020.13	0.0712977
7030.11	0.0720408
7040.08	0.0726329
7050.06	0.0728751
7060.04	0.0735924
7070.01	0.075054
7080.44	0.0766501
7090.42	0.0773145
7100.4	0.077302
7110.38	0.0773377
7120.35	0.077796
7130.33	0.0783367
7140.31	0.0785172
7150.28	0.078483
7160.26	0.0786229
7170.24	0.0789578
7180.21	0.0790591
7190.19	0.0786155
7200.17	0.0777878
7210.14	0.0769589
7220.12	0.076328
7230.1	0.0758421
7240.08	0.0754629
7250.05	0.075231
7260.03	0.0750364
7270.01	0.074568
7280.44	0.0735425
7290.41	0.0721236
7300.39	0.0705163
7310.37	0.0688847
7320.34	0.067296
7330.32	0.0658583
7340.3	0.0647189
7350.28	0.0638824
7360.25	0.0631271
7370.23	0.0621831
7380.21	0.0609744
7390.18	0.0596568
7400.16	0.0584523
7410.14	0.0575009
7420.11	0.0568553
7430.09	0.0565303
7440.07	0.0564898
7450.04	0.0566137
7460.02	0.0567399
7470.45	0.056762
7480.43	0.0566815
7490.41	0.0565726
7500.38	0.0565106
7510.36	0.056557
7520.34	0.0567571
7530.31	0.0571195
7540.29	0.0575983
7550.27	0.0581199
7560.24	0.0586383
7570.22	0.0591592
7580.2	0.0597159
7590.18	0.0603365
7600.15	0.0610338
7610.13	0.0618055
7620.11	0.0626217
7630.08	0.063418
7640.06	0.0641188
7650.04	0.0646834
7660.01	0.0651307
7670.44	0.0655401
7680.42	0.0659469
7690.4	0.0664179
7700.38	0.066973
7710.35	0.0676018
7720.33	0.0682691
7730.31	0.0689374
7740.28	0.0695996
7750.26	0.0702995
7760.24	0.0711231
7770.22	0.0721665
7780.19	0.0734994
7790.17	0.0751385
7800.15	0.0770365
7810.12	0.0790921
7820.1	0.0811856
7830.08	0.0832269
7840.06	0.0851923
7850.08	0.0871378
7860.14	0.0891563
7870.2	0.0913462
7880.26	0.0937905
7890.33	0.0965255
7900.39	0.0995307
7910.45	0.102738
7920.05	0.105907
7930.12	0.10927
7940.18	0.112642
7950.24	0.116021
7960.3	0.119418
7970.36	0.122827
7980.42	0.126206
7990.03	0.129327
8000.09	0.132383
8010.15	0.135109
8020.21	0.137421
8030.28	0.139276
8040.34	0.140681
8050.4	0.141687
8060	0.142337
8070.07	0.14276
8080.13	0.142968
8090.19	0.142979
8100.25	0.14278
8110.31	0.142346
8120.37	0.141649
8130.44	0.140671
8140.04	0.13947
8150.11	0.137932
8160.18	0.136113
8170.25	0.13401
8180.32	0.131612
8190.38	0.128902
8200.45	0.125866
8210.06	0.122659
8220.13	0.118989
8230.2	0.115031
8240.27	0.110828
8250.34	0.106433
8260.41	0.101898
8270.02	0.097487
8280.08	0.0928308
8290.15	0.0881913
8300.22	0.0836231
8310.3	0.0791778
8320.38	0.074905
8330.05	0.0710107
8340.18	0.0671547
8350.34	0.0635329
8360.02	0.0602855
8370.18	0.0570768
8380.36	0.0540336
8390.11	0.0512654
8400.32	0.0485046
8410.07	0.0460043
8420.28	0.0435298
8430.03	0.0413055
8440.24	0.0391084
8450.45	0.037023
8460.2	0.0351044
8470.42	0.0331326
8480.16	0.0312574
8490.38	0.0292823
8500.13	0.0273855
8510.34	0.0253997
8520.09	0.0235261
8530.3	0.0216081
8540.05	0.0198336
8550.26	0.0180354
8560.01	0.0163671
8570.22	0.0146496
8580.44	0.0129383
8590.18	0.0112904
8600.4	0.0097222
8610.15	0.0076762
8620.36	0.0062072
8630.11	0.00453767
8640.32	0.0032113
8650.07	0.00192483
8660.28	0.000241101
8670.03	-0.00120337
8680.24	-0.00244304
8690.46	-0.0035237
8700.21	-0.00458789
8710.42	-0.00412089
8720.17	-0.0051795
8730.38	-0.006382
8740.13	-0.00758597
8750.34	-0.00808442
8760.09	-0.0104302
8770.3	-0.0126917
8780.05	-0.014655
8790.26	-0.0165299
8800.01	-0.0182631
8810.23	-0.020102
8820.44	-0.0218833
8830.19	-0.0235457
8840.4	-0.0252567
8850.15	-0.0268644
8860.36	-0.0285228
8870.11	-0.0300799
8880.32	-0.0316811
8890.07	-0.0331909
8900.28	-0.0347542
8910.03	-0.0362142
8920.25	-0.037157
8930.46	-0.0385569
8940.21	-0.0397537
8950.42	-0.0408805
8960.17	-0.0418507
8970.38	-0.0427708
8980.13	-0.0435688
8990.34	-0.0443322
9000.09	-0.0450035
9010.3	-0.0456727
9020.05	-0.046275
9030.27	-0.0467369
9040.01	-0.0471404
9050.23	-0.0475793
9060.44	-0.0480318
9070.19	-0.0484738
9080.4	-0.0489447
9090.15	-0.0493996
9100.36	-0.0498795
9110.11	-0.0503389
9120.32	-0.0508199
9130.07	-0.0512771
9140.29	-0.0517528
9150.03	-0.0522026
9160.21	-0.0452289
9170.37	-0.0460026
9180.07	-0.0467159
9190.23	-0.0474339
9200.39	-0.0481218
9210.08	-0.048753
9220.24	-0.0493896
9230.4	-0.0500032
9240.1	-0.0505683
9250.25	-0.0511351
9260.35	-0.0516738
9270.41	-0.0521879
9280.44	-0.05268
9290.45	-0.0531525
9300.01	-0.053587
9310.03	-0.0540259
9320.04	-0.0544491
9330.06	-0.0548575
9340.08	-0.0552517
9350.09	-0.0556325
9360.11	-0.0560005
9370.12	-0.056356
9380.14	-0.0566996
9390.15	-0.0570316
9400.17	-0.0573521
9410.18	-0.0576614
9420.2	-0.0579596
9430.21	-0.0582467
9440.23	-0.0585227
9450.25	-0.0587878
9460.26	-0.0590418
9470.28	-0.0592834
9480.29	-0.0595107
9490.31	-0.0597231
9500.32	-0.0599206
9510.34	-0.0601002
9520.35	-0.0602621
9530.37	-0.0603692
9540.38	-0.0605015
9550.4	-0.0606193
9560.41	-0.0607232
9570.43	-0.060814
9580.45	-0.0608922
9590.01	-0.0609557
9600.02	-0.061011
9610.04	-0.0610555
9620.05	-0.0610896
9630.07	-0.0611137
9640.08	-0.0611283
9650.1	-0.0611337
9660.11	-0.0611304
9670.13	-0.0611187
9680.14	-0.0610988
9690.16	-0.0610712
9700.17	-0.0610359
9710.19	-0.0609932
9720.21	-0.0609434
9730.22	-0.0608867
9740.24	-0.0608232
9750.25	-0.060753
9760.27	-0.0606765
9770.28	-0.0605936
9780.3	-0.0605045
9790.31	-0.0604094
9800.33	-0.0603083
9810.34	-0.0602014
9820.36	-0.0600887
9830.37	-0.0599704
9840.39	-0.0598464
9850.4	-0.0597171
9860.42	-0.0595825
9870.44	-0.0594428
9880.45	-0.0581007
9890.01	-0.0579823
9900.03	-0.0578565
9910.04	-0.0577287
9920.06	-0.0575989
9930.07	-0.0574668
9940.09	-0.0573324
9950.1	-0.0571955
9960.12	-0.0570562
9970.13	-0.0569142
9980.15	-0.0567696
9990.16	-0.0566223
10000.2	-0.0564724
10010.2	-0.0563197
10020.2	-0.0561642
10030.2	-0.0560058
10040.2	-0.0558445
10050.3	-0.0556801
10060.3	-0.0555121
10070.3	-0.055339
10080.3	-0.0551607
10090.3	-0.0549772
10100.3	-0.0547886
10110.3	-0.0545949
10120.4	-0.0543961
10130.4	-0.0541922
10140.4	-0.0539832
10150.4	-0.0537691
10160.4	-0.0535498
10170.4	-0.0533254
10180	-0.0531064
10190	-0.052872
10200	-0.0526323
10210	-0.0523874
10220.1	-0.0521372
10230.1	-0.0518376
10240.1	-0.0514821
10250.1	-0.0511246
10260.1	-0.0507652
10270.1	-0.050404
10280.2	-0.0500409
10290.2	-0.0496761
10300.2	-0.0493107
10310.2	-0.0489458
10320.2	-0.048581
10330.2	-0.048216
10340.2	-0.0478504
10350.3	-0.0474841
10360.3	-0.0471167
10370.3	-0.046748
10380.3	-0.0463779
10390.3	-0.0460063
10400.3	-0.0456329
10410.4	-0.0452578
10420.4	-0.0448808
10430.4	-0.044502
10440.4	-0.0441212
10450.4	-0.0437386
10460.4	-0.0433541
10470.4	-0.0429677
10480	-0.0425972
10490	-0.0422073
10500	-0.0418157
10510.1	-0.0414225
10520.1	-0.0410277
10530.1	-0.0406315
10540.1	-0.0402342
10550.1	-0.0398355
10560.1	-0.0394357
10570.1	-0.0390349
10580.1	-0.0386331
10590.1	-0.0382318
10600.1	-0.0378306
10610.1	-0.0374293
10620	-0.037028
10630	-0.0366268
10640	-0.0362258
10650.4	-0.0358069
10660.4	-0.0354065
10670.4	-0.0349946
10680.4	-0.0345541
10690.3	-0.0341185
10700.3	-0.0336875
10710.3	-0.0332611
10720.3	-0.0328392
10730.2	-0.0324216
10740.2	-0.0320084
10750.2	-0.0315994
10760.2	-0.0311946
10770.2	-0.0307938
10780.1	-0.030397
10790.1	-0.0300041
10800.1	-0.029615
10810.1	-0.0292295
10820	-0.0288476
10830	-0.0284692
10840.5	-0.0280771
10850.4	-0.0277053
10860.4	-0.0273367
10870.4	-0.0269711
10880.4	-0.0266085
10890.3	-0.0262494
10900.3	-0.0258949
10910.3	-0.0255446
10920.3	-0.0251982
10930.2	-0.0248551
10940.2	-0.0245152
10950.2	-0.0241782
10960.2	-0.0238437
10970.2	-0.0235116
10980.1	-0.0231816
10990.1	-0.0228559
11000.1	-0.0225444
11010.1	-0.0222459
11020	-0.0219576
11030	-0.0216774
11040.4	-0.0213911
11050.4	-0.0211239
11060.4	-0.0208638
11070.4	-0.0206098
11080.4	-0.020361
11090.3	-0.0201166
11100.3	-0.0198753
11110.3	-0.0196363
11120.3	-0.0193985
11130.2	-0.019161
11140.2	-0.018923
11150.2	-0.0186839
11160.2	-0.0184429
11170.1	-0.0181993
11180.1	-0.0179527
11190.1	-0.0177024
11200.1	-0.0174484
11210.1	-0.0171907
11220	-0.0169292
11230	-0.0166637
11240.4	-0.0163817
11250.4	-0.0161076
11260.4	-0.0158289
11270.4	-0.0155455
11280.3	-0.0152577
11290.3	-0.0149658
11300.3	-0.0146701
11310.3	-0.0143704
11320.3	-0.0140667
11330.2	-0.0137613
11340.2	-0.0134593
11350.2	-0.0131588
11360.2	-0.0128577
11370.1	-0.0125544
11380.1	-0.0122477
11390.1	-0.0119365
11400.1	-0.0115621
11410.1	-0.0110795
11420	-0.010575
11430	-0.0100581
11440.4	-0.00951087
11450.4	-0.00898472
11460.4	-0.00845815
11470.4	-0.00793264
11480.3	-0.00740905
11490.3	-0.00688866
11500.3	-0.0063716
11510.3	-0.00585695
11520.3	-0.00534349
11530.2	-0.00483008
11540.2	-0.00431686
11550.2	-0.00379927
11560.2	-0.00327609
11570.1	-0.00274681
11580.1	-0.00221116
11590.1	-0.00117436
11600.1	0.00014971
11610	0.00137243
11620	0.00248627
11630	0.00349484
11640.4	0.00444651
11650.4	0.00527528
11660.4	0.00604977
11670.4	0.00679078
11680.3	0.00778704
11690.3	0.00877521
11700.3	0.00961849
11710.3	0.0104029
11720.2	0.0111694
11730.2	0.0119324
11740.2	0.0131931
11750.2	0.0144734
11760.2	0.0171134
11770.1	0.0221359
11780.1	0.0268215
11790.1	0.0319086
11800.1	0.0370219
11810	0.0420108
11820	0.0472831
11830.4	0.0525396
11840.4	0.0575591
11850.4	0.0625852
11860.4	0.0673741
11870.4	0.0717026
11880.3	0.0756204
11890.3	0.0790817
11900.3	0.0821492
11910.3	0.0848028
11920.2	0.086971
11930.2	0.0886815
11940.2	0.0899226
11950.2	0.0906768
11960.2	0.0910059
11970.1	0.0910647
11980.1	0.0910178
11990.2	0.0909528
