0	0
19.453	0
29.1794	0
38.9057	0
48.6319	0
58.3582	0
68.0844	0
77.8107	0
87.537	0
97.2634	0
106.99	0
116.717	0
126.443	0
136.17	0
145.714	0
155.259	0
164.803	0
174.348	0
183.892	0
193.437	0
202.981	0
212.526	0
222.07	0
231.615	0
241.253	0
250.891	-9.09495e-13
260.529	-1.81899e-12
270.167	-2.72848e-12
289.354	-4.54747e-12
298.992	-4.54747e-12
308.63	-4.54747e-12
318.267	-3.63798e-12
327.905	-2.72848e-12
337.543	0
347.181	3.63798e-12
356.729	1.00044e-11
366.286	1.90994e-11
375.842	3.18323e-11
384.939	4.82032e-11
394.496	7.09406e-11
404.052	1.01863e-10
413.608	1.41881e-10
423.165	1.92813e-10
432.721	2.57387e-10
442.277	3.39242e-10
451.616	4.38376e-10
460.954	5.59339e-10
470.051	7.03039e-10
488.728	1.0923e-09
497.791	1.33696e-09
507.13	1.63345e-09
516.468	1.98088e-09
525.806	2.38742e-09
535.145	2.86036e-09
544.483	3.40697e-09
553.523	4.01633e-09
562.563	4.713e-09
571.603	5.50608e-09
580.644	6.40557e-09
598.724	8.56926e-09
607.764	9.85892e-09
616.804	1.1305e-08
625.844	1.2923e-08
634.884	1.47293e-08
643.924	1.6742e-08
652.964	1.89802e-08
662.004	2.14641e-08
671.044	2.42162e-08
680.084	2.72612e-08
698.164	3.43325e-08
707.185	3.83943e-08
716.225	4.28472e-08
725.265	4.77021e-08
734.305	5.29762e-08
743.345	5.86888e-08
752.384	6.48588e-08
761.424	7.15054e-08
770.464	7.86486e-08
788.544	9.45111e-08
797.583	1.03263e-07
806.605	1.12561e-07
815.626	1.22431e-07
824.666	1.32904e-07
833.705	1.43968e-07
842.745	1.55631e-07
851.785	1.67902e-07
860.825	1.80788e-07
878.904	2.08443e-07
887.922	2.23198e-07
896.94	2.3861e-07
905.958	2.54695e-07
914.976	2.71469e-07
923.994	2.88953e-07
933.012	3.07171e-07
942.031	3.26149e-07
951.049	3.45919e-07
960.067	3.66515e-07
978.103	4.10345e-07
987.121	4.33673e-07
996.139	4.58012e-07
1005.16	4.83426e-07
1014.17	5.09981e-07
1023.19	5.37751e-07
1032.21	5.6682e-07
1041.23	5.97277e-07
1050.25	6.29222e-07
1068.28	6.9802e-07
1077.3	7.35122e-07
1086.32	7.74208e-07
1095.34	8.1543e-07
1104.35	8.58952e-07
1113.37	9.04949e-07
1122.39	9.53609e-07
1131.41	1.00513e-06
1140.43	1.05973e-06
1158.46	1.17908e-06
1167.48	1.24432e-06
1176.5	1.31362e-06
1185.51	1.38727e-06
1194.53	1.46557e-06
1203.55	1.54881e-06
1212.57	1.63734e-06
1221.59	1.7315e-06
1230.6	1.83164e-06
1248.64	2.05143e-06
1257.66	2.17188e-06
1266.67	2.29995e-06
1275.69	2.43609e-06
1284.71	2.58078e-06
1293.73	2.73452e-06
1302.74	2.89785e-06
1311.76	3.07131e-06
1320.78	3.25548e-06
1338.81	3.65838e-06
1347.83	3.87842e-06
1356.85	4.11175e-06
1365.87	4.35913e-06
1374.88	4.62129e-06
1383.9	4.89998e-06
1392.92	5.19647e-06
1401.94	5.5118e-06
1410.95	5.8468e-06
1428.99	6.5787e-06
1438.01	6.97681e-06
1447.02	7.39712e-06
1456.04	7.84011e-06
1465.06	8.30631e-06
1474.08	8.79621e-06
1483.09	9.31034e-06
1492.11	9.84923e-06
1501.13	1.04135e-05
1510.15	1.10037e-05
1528.18	1.22647e-05
1537.2	1.2937e-05
1546.22	1.36384e-05
1555.23	1.43697e-05
1564.25	1.51321e-05
1573.27	1.59266e-05
1582.28	1.67544e-05
1591.3	1.7617e-05
1600.32	1.85156e-05
1618.35	2.04277e-05
1627.37	2.14445e-05
1636.39	2.25043e-05
1645.41	2.36092e-05
1654.42	2.47614e-05
1663.44	2.59631e-05
1672.46	2.72168e-05
1681.47	2.8525e-05
1690.49	2.98906e-05
1708.53	3.28052e-05
1717.39	3.43331e-05
1726.25	3.59282e-05
1735.1	3.75938e-05
1743.96	3.93329e-05
1752.82	4.11482e-05
1761.68	4.30422e-05
1770.54	4.5017e-05
1788.26	4.92175e-05
1797.12	5.1447e-05
1805.98	5.37653e-05
1814.84	5.61742e-05
1823.73	5.86857e-05
1832.63	6.12925e-05
1841.52	6.39968e-05
1850.42	6.68009e-05
1868.2	7.27179e-05
1877.1	7.58359e-05
1885.99	7.90641e-05
1894.89	8.24054e-05
1903.78	8.58631e-05
1912.68	8.94407e-05
1921.57	9.31419e-05
1930.47	9.69707e-05
1948.25	0.000105029
1957.15	0.000109267
1966.04	0.000113653
1974.94	0.00011819
1983.83	0.000122885
1992.73	0.000127744
2001.62	0.000132774
2010.51	0.00013798
2028.3	0.000148951
2037.2	0.00015473
2046.09	0.000160716
2054.99	0.000166915
2063.88	0.000173338
2072.77	0.000171614
2081.67	0.00017025
2090.56	0.000169224
2108.35	0.0001681
2117.25	0.000167969
2126.14	0.000168107
2135.03	0.0001685
2143.93	0.000169138
2152.82	0.000170009
2161.72	0.000171106
2170.61	0.000172421
2188.4	0.000175685
2197.29	0.000177624
2206.19	0.000179765
2215.08	0.000182104
2223.98	0.000184642
2232.87	0.000187379
2241.76	0.000190314
2250.66	0.000193451
2268.45	0.000200335
2277.34	0.00020409
2286.23	0.000208059
2295.13	0.000212247
2304.02	0.000216659
2312.88	0.000221282
2321.77	0.000226161
2330.67	0.000231284
2348.45	0.000242295
2357.35	0.000248199
2366.24	0.00025438
2375.14	0.000260848
2384.03	0.000267612
2392.92	0.000274682
2401.82	0.000282069
2410.71	0.000289784
2428.42	0.000306169
2437.32	0.000314931
2446.21	0.000324084
2455.11	0.000333595
2464	0.000343442
2472.89	0.000353605
2481.79	0.000364071
2490.68	0.000374828
2508.32	0.000396999
2517.13	0.000408498
2525.95	0.000420274
2534.77	0.00043233
2543.59	0.000444672
2552.4	0.000457306
2561.22	0.000470243
2570.04	0.000483491
2587.67	0.000510976
2596.49	0.00052524
2605.31	0.000539874
2614.13	0.000554897
2622.94	0.000570328
2631.76	0.000586189
2640.58	0.000602503
2658.21	0.000636593
2667.03	0.000654421
2675.85	0.000672808
2684.67	0.000691781
2693.48	0.000711366
2702.3	0.000731589
2711.12	0.000752476
2728.75	0.000796348
2737.57	0.000819384
2746.39	0.00084319
2755.21	0.000867791
2764.02	0.000893217
2772.84	0.000919497
2781.66	0.000946661
2790.48	0.000974744
2808.11	0.00106913
2816.93	0.0011345
2825.75	0.0011996
2834.56	0.00126423
2843.38	0.00132833
2852.2	0.00139187
2861.01	0.00145486
2878.64	0.00157968
2887.45	0.00164178
2896.26	0.00170389
2905.08	0.0017662
2913.89	0.00182891
2922.7	0.00189224
2931.51	0.00195641
2940.33	0.00202163
2957.95	0.00215616
2966.77	0.00222593
2975.58	0.00229766
2984.39	0.00237158
2993.2	0.00244792
3002.02	0.00252689
3010.83	0.00260837
3028.46	0.00277745
3037.27	0.00286466
3046.08	0.00295355
3054.89	0.00304415
3063.71	0.00313653
3072.52	0.00323083
3081.33	0.00332724
3090.14	0.003426
3107.77	0.00363176
3116.58	0.00373949
3125.4	0.00385097
3134.21	0.00396662
3143.02	0.00408681
3151.83	0.00421189
3160.65	0.00434222
3178.27	0.00478977
3187.09	0.0050921
3195.9	0.00538249
3204.71	0.00566114
3213.52	0.00592983
3222.34	0.00619139
3231.15	0.00644921
3248.77	0.00696821
3257.59	0.00723657
3266.4	0.0075154
3275.21	0.00780809
3284.03	0.00811386
3292.84	0.00842939
3301.65	0.00875434
3310.46	0.00908961
3328.09	0.00979964
3336.9	0.0101813
3345.71	0.0105868
3354.53	0.01102
3363.34	0.0119788
3372.15	0.0129448
3380.96	0.0138657
3398.59	0.0156532
3407.4	0.0165962
3416.21	0.0176116
3425.03	0.0187145
3433.84	0.01991
3442.65	0.0211936
3451.46	0.0240802
3460.28	0.0265479
3477.9	0.0310206
3486.71	0.0331958
3495.53	0.0353635
3504.34	0.0375277
3513.15	0.0396906
3521.96	0.0418561
3530.78	0.0440307
3548.4	0.0484376
3557.21	0.0506856
3566.03	0.0529687
3574.84	0.0552868
3583.65	0.0576398
3592.46	0.0600302
3601.28	0.0624639
3610.09	0.064949
3627.71	0.0701077
3636.53	0.0727944
3645.34	0.0755576
3654.15	0.0783985
3662.96	0.0813168
3671.78	0.084311
3680.59	0.0873799
3698.21	0.0937356
3707.03	0.0970204
3715.84	0.100376
3724.65	0.103802
3733.46	0.107301
3742.28	0.110873
3751.09	0.114521
3768.71	0.122059
3777.53	0.125954
3786.34	0.129937
3795.15	0.134008
3803.96	0.13817
3812.78	0.142422
3821.59	0.146765
3830.4	0.151197
3848.02	0.160325
3856.84	0.165018
3865.65	0.169794
3874.46	0.174653
3883.27	0.179592
3892.09	0.184611
3900.9	0.189708
3918.52	0.200132
3927.34	0.205459
3936.15	0.21086
3944.96	0.216336
3953.77	0.221885
3962.59	0.227505
3971.4	0.233195
3980.21	0.238951
3997.84	0.250648
4006.65	0.256581
4015.46	0.262562
4024.28	0.268586
4033.09	0.274646
4041.9	0.280734
4050.71	0.286842
4068.34	0.299085
4077.15	0.305202
4085.96	0.311301
4094.78	0.317374
4103.59	0.323408
4112.4	0.329392
4121.21	0.335315
4130.03	0.341164
4147.65	0.352586
4156.47	0.358133
4165.28	0.363551
4174.09	0.368826
4182.9	0.373944
4191.72	0.378888
4200.53	0.383644
4218.16	0.39253
4226.97	0.39663
4235.78	0.40048
4244.59	0.404066
4253.41	0.407372
4262.22	0.410385
4271.03	0.413089
4288.66	0.417517
4297.47	0.419214
4306.28	0.42055
4315.28	0.421531
4324.28	0.422111
4333.28	0.422276
4342.28	0.422015
4351.28	0.421318
4360.28	0.420175
4378.28	0.416512
4387.28	0.413977
4396.28	0.410964
4405.28	0.407466
4414.28	0.403479
4423.28	0.398999
4432.28	0.394022
4441.28	0.388547
4450.28	0.382574
4468.28	0.369132
4477.28	0.361667
4486.28	0.35371
4495.28	0.345266
4504.27	0.336341
4513.27	0.326941
4522.27	0.317075
4531.27	0.30675
4540.27	0.295977
4558.27	0.273126
4567.27	0.261072
4576.27	0.248618
4585.27	0.235777
4594.27	0.222564
4603.27	0.208993
4612.27	0.195079
4621.27	0.180844
4630.27	0.16632
4648.27	0.136392
4657.27	0.120825
4666.27	0.104977
4675.27	0.0890579
4684.27	0.073281
4693.27	0.0578223
4702.27	0.0428082
4711.27	0.0219361
4720.27	0.00624803
4738.27	-0.0220206
4747.27	-0.0344961
4756.27	-0.0459338
4765.27	-0.0563958
4774.27	-0.0659678
4783.27	-0.0747398
4792.27	-0.0631226
4801.27	-0.0679494
4810.27	-0.0739958
4828.27	-0.0895986
4837.27	-0.0963028
4846.27	-0.102538
4855.27	-0.108418
4864.27	-0.114029
4873.27	-0.119422
4882.27	-0.124619
4891.27	-0.129633
4900.27	-0.133991
4918.27	-0.141985
4927.27	-0.145419
4936.31	-0.148658
4945.35	-0.151725
4954.39	-0.154651
4963.43	-0.157458
4972.47	-0.160164
4981.51	-0.162781
4990.55	-0.16532
5008.63	-0.156943
5017.65	-0.159267
5026.66	-0.161316
5035.68	-0.163623
5044.7	-0.166567
5053.72	-0.169151
5062.74	-0.171427
5071.76	-0.173439
5080.77	-0.175228
5098.81	-0.178269
5107.83	-0.179588
5116.85	-0.180798
5125.86	-0.181916
5134.88	-0.18295
5143.9	-0.183911
5152.92	-0.184807
5161.94	-0.185643
5170.95	-0.186426
5188.99	-0.187709
5198.01	-0.188253
5207.03	-0.188819
5216.04	-0.189392
5225.06	-0.189959
5234.08	-0.19044
5243.1	-0.190899
5252.12	-0.191336
5261.13	-0.191748
5270.15	-0.192137
5288.19	-0.192838
5297.21	-0.19315
5306.22	-0.193435
5315.24	-0.193694
5324.26	-0.193925
5333.28	-0.194131
5342.3	-0.19431
5351.31	-0.194462
5360.33	-0.194591
5378.37	-0.190891
5387.39	-0.189854
5396.4	-0.190149
5405.42	-0.190272
5414.44	-0.190367
5423.46	-0.190437
5432.48	-0.190482
5441.49	-0.190502
5450.51	-0.190498
5468.55	-0.190395
5477.57	-0.1903
5486.58	-0.190178
5495.6	-0.19003
5504.62	-0.189859
5513.64	-0.189664
5522.66	-0.189448
5531.68	-0.18922
5540.69	-0.188981
5558.73	-0.188472
5567.75	-0.188203
5576.77	-0.187924
5585.78	-0.187636
5594.8	-0.187338
5603.82	-0.187031
5612.84	-0.186713
5621.86	-0.186384
5630.87	-0.186044
5648.91	-0.185331
5657.93	-0.184957
5666.95	-0.184572
5675.96	-0.184174
5684.98	-0.183765
5694	-0.183342
5703.02	-0.182908
5712.04	-0.18246
5721.05	-0.182
5730.07	-0.181526
5748.11	-0.180538
5757.13	-0.180022
5766.14	-0.179492
5775.16	-0.178948
5784.18	-0.178394
5793.2	-0.17783
5802.22	-0.177254
5811.24	-0.176666
5820.25	-0.176066
5838.29	-0.174758
5847.31	-0.17408
5856.33	-0.173388
5865.34	-0.172681
5874.36	-0.171959
5883.38	-0.171224
5892.4	-0.170474
5901.42	-0.169712
5910.43	-0.168936
5928.15	-0.167373
5937.01	-0.166574
5945.87	-0.165763
5954.73	-0.164939
5963.59	-0.164104
5972.45	-0.16326
5981.31	-0.162407
5990.17	-0.161548
6007.89	-0.159815
6016.75	-0.158943
6025.6	-0.158068
6034.46	-0.15719
6043.32	-0.15631
6052.18	-0.155428
6061.04	-0.154545
6078.76	-0.152774
6087.62	-0.151886
6096.51	-0.150994
6105.41	-0.1501
6114.3	-0.149204
6123.2	-0.148306
6132.09	-0.15246
6140.99	-0.151941
6158.78	-0.150739
6167.67	-0.150063
6176.56	-0.149385
6185.46	-0.148704
6194.35	-0.148018
6203.25	-0.147329
6212.14	-0.146635
6221.04	-0.145937
6238.83	-0.144523
6247.72	-0.143808
6256.61	-0.143086
6265.51	-0.142358
6274.4	-0.141623
6283.3	-0.140881
6292.19	-0.140132
6301.09	-0.139375
6318.88	-0.13784
6327.77	-0.137062
6336.66	-0.136275
6345.56	-0.134884
6354.45	-0.133484
6363.35	-0.132079
6372.24	-0.130677
6381.14	-0.12928
6390.03	-0.127892
6407.82	-0.125144
6416.71	-0.123787
6425.61	-0.122439
6434.5	-0.121101
6443.4	-0.119771
6452.29	-0.118448
6461.19	-0.117132
6470.08	-0.11582
6487.87	-0.113205
6496.76	-0.111898
6505.66	-0.110591
6514.55	-0.109281
6523.45	-0.107968
6532.34	-0.10665
6541.24	-0.105327
6550.13	-0.103997
6567.92	-0.101312
6576.81	-0.0999568
6585.71	-0.0985912
6594.6	-0.097215
6603.5	-0.0958332
6612.39	-0.0944493
6621.29	-0.0930659
6630.18	-0.0916845
6647.97	-0.0889303
6656.86	-0.0875575
6665.76	-0.0861867
6674.65	-0.0848167
6683.55	-0.0834462
6692.44	-0.0820735
6701.34	-0.0806968
6710.23	-0.079314
6728.02	-0.076523
6736.91	-0.0751115
6745.81	-0.0736876
6754.7	-0.0722502
6763.6	-0.0707982
6772.49	-0.0678111
6781.39	-0.0650006
6790.28	-0.0623578
6808.07	-0.0575169
6816.96	-0.0552764
6825.86	-0.0531236
6834.75	-0.0510344
6843.65	-0.0489862
6852.54	-0.0469591
6861.44	-0.0449358
6870.33	-0.042902
6888.12	-0.0387593
6897.01	-0.0366341
6905.91	-0.0344809
6914.8	-0.0323195
6923.7	-0.030158
6932.59	-0.0279973
6941.49	-0.0258329
6950.38	-0.0236569
6968.17	-0.0192299
6977.06	-0.0169573
6985.96	-0.0130129
6994.85	-0.00923768
7003.75	-0.00550386
7012.64	-0.00187677
7021.54	0.00161937
7030.43	0.00505194
7048.22	0.0119613
7057.12	0.0154748
7066.01	0.0190078
7074.9	0.0225289
7083.8	0.0287412
7092.69	0.03395
7101.59	0.0385909
7110.48	0.0428525
7128.27	0.0503431
7137.17	0.0535423
7146.06	0.0563699
7154.95	0.0588421
7163.85	0.0609892
7172.74	0.0628488
7181.6	0.0644542
7190.49	0.0658589
7208.28	0.0681768
7217.18	0.0691226
7226.07	0.0699429
7234.97	0.0706576
7243.86	0.071293
7252.76	0.0718775
7261.65	0.0724367
7270.54	0.0729895
7288.33	0.0741131
7297.23	0.0746841
7306.12	0.075253
7315.02	0.0758099
7323.91	0.0763443
7332.81	0.0768463
7341.7	0.0773072
7350.59	0.0777204
7368.38	0.0783899
7377.27	0.0786464
7386.15	0.0788559
7395.04	0.0790247
7403.92	0.07916
7412.8	0.0792688
7421.69	0.0793569
7430.57	0.0794283
7448.34	0.0795253
7457.22	0.0795477
7466.11	0.0795479
7474.99	0.0795206
7483.88	0.0794608
7492.76	0.0793631
7501.64	0.0792232
7510.52	0.0790375
7528.28	0.0785192
7537.17	0.0781858
7546.05	0.0778048
7554.94	0.0773793
7563.82	0.0769138
7572.71	0.0764142
7581.59	0.075887
7590.47	0.0753397
7608.23	0.0742155
7617.04	0.073657
7625.86	0.0731072
7634.67	0.0725713
7643.48	0.0720542
7652.29	0.0715595
7661.11	0.0710898
7678.73	0.0702316
7687.55	0.0698442
7696.36	0.0694842
7705.17	0.0691508
7713.98	0.0688424
7722.8	0.0685576
7731.61	0.0682944
7740.42	0.0680506
7758.05	0.0676118
7766.86	0.0674116
7775.67	0.0672203
7784.49	0.0670349
7793.3	0.0668522
7802.11	0.0666688
7810.93	0.0664814
7828.55	0.0660806
7837.36	0.0658604
7846.18	0.0656229
7854.99	0.065365
7863.8	0.0650842
7872.62	0.0647783
7881.43	0.0644453
7890.24	0.0640839
7907.87	0.0632724
7916.68	0.0628218
7925.49	0.0623416
7934.31	0.0618327
7943.12	0.061296
7951.93	0.060733
7960.74	0.0601453
7978.37	0.0589033
7987.18	0.0582529
7996	0.0575856
8004.81	0.0569037
8013.62	0.0562092
8022.44	0.055504
8031.25	0.0547902
8040.06	0.0540695
8057.69	0.0526142
8066.5	0.0518825
8075.31	0.0511495
8084.13	0.0504161
8092.94	0.049683
8101.75	0.0489504
8110.56	0.0482183
8128.19	0.0467537
8137	0.0460196
8145.82	0.0452825
8154.63	0.0445408
8163.44	0.0437925
8172.25	0.0430354
8181.07	0.042267
8198.69	0.0406854
8207.51	0.0398662
8216.32	0.039024
8225.13	0.0381554
8233.94	0.0372571
8242.76	0.0363256
8251.57	0.0353572
8260.38	0.0343482
8278.01	0.0321942
8286.82	0.031042
8295.63	0.0298345
8304.45	0.0285676
8313.26	0.0272384
8322.07	0.0258456
8330.89	0.0243903
8348.51	0.0211628
8357.32	0.0193904
8366.14	0.0175525
8374.95	0.0156863
8383.76	0.0138222
8392.58	0.0109731
8401.39	0.00887173
8410.2	0.00688367
8427.83	0.00327384
8436.64	0.00165027
8445.45	0.000138816
8454.27	-0.00126943
8463.08	0.00017844
8471.89	-0.00019015
8480.71	-0.00119345
8498.33	-0.00363941
8507.14	-0.00468948
8515.96	-0.00568082
8524.77	-0.00664243
8533.58	-0.0075952
8542.4	-0.00855133
8551.21	-0.00954339
8560.02	-0.0105295
8577.65	-0.0124957
8586.46	-0.0134336
8595.27	-0.0143298
8604.09	-0.0151973
8612.9	-0.0160445
8621.71	-0.0140162
8630.52	-0.0147948
8648.15	-0.0163285
8656.96	-0.016213
8665.78	-0.0170176
8674.59	-0.0179253
8683.4	-0.0187896
8692.21	-0.0196153
8701.03	-0.0203829
8718.65	-0.0217866
8727.47	-0.0224403
8736.28	-0.0230701
8745.09	-0.0236773
8753.91	-0.0242653
8762.72	-0.0248747
8771.53	-0.0254601
8780.34	-0.0260243
8797.97	-0.027098
8806.78	-0.0276193
8815.6	-0.0281323
8824.41	-0.0286362
8833.22	-0.0291304
8842.03	-0.0297373
8850.85	-0.0303059
8868.47	-0.0313458
8877.29	-0.0318244
8886.1	-0.0322793
8894.91	-0.0327126
8903.72	-0.033126
8912.54	-0.033521
8921.35	-0.0338989
8930.16	-0.0342519
8947.79	-0.0348968
8956.6	-0.0351935
8965.41	-0.0341387
8974.23	-0.0336514
8983.04	-0.0338419
8991.85	-0.0339989
9000.67	-0.0341451
9018.29	-0.034406
9027.1	-0.0345212
9035.92	-0.0346267
9044.73	-0.0347227
9053.54	-0.0348096
9062.36	-0.0348832
9071.17	-0.0349447
9088.8	-0.035035
9097.61	-0.0350656
9106.42	-0.0350878
9115.23	-0.0351023
9124.05	-0.0351099
9132.86	-0.0351112
9141.67	-0.035107
9150.49	-0.0350979
9168.11	-0.0350671
9176.92	-0.0350464
9185.74	-0.035023
9194.55	-0.0349972
9203.36	-0.0349694
9212.18	-0.0349396
9220.99	-0.0349096
9238.61	-0.0348481
9247.43	-0.0348162
9256.24	-0.0347835
9265.05	-0.0347498
9273.87	-0.0347304
9282.68	-0.0347095
9291.49	-0.034687
9300.3	-0.0346629
9317.93	-0.0346091
9326.74	-0.0345792
9335.56	-0.0345466
9344.37	-0.0345114
9353.18	-0.0344736
9361.99	-0.034433
9370.81	-0.0343896
9388.43	-0.0342947
9397.25	-0.0342431
9406.06	-0.0341887
9414.87	-0.0341315
9423.68	-0.0341208
9432.5	-0.0341035
9441.31	-0.0340797
9450.12	-0.0340499
9467.75	-0.0339726
9476.56	-0.0339256
9485.38	-0.0338733
9494.19	-0.0338157
9503	-0.0337532
9511.81	-0.0336857
9520.63	-0.0336135
9538.25	-0.0334551
9547.07	-0.0333691
9555.88	-0.0332787
9564.69	-0.0331841
9573.5	-0.0330853
9582.32	-0.0329825
9591.13	-0.0328751
9608.76	-0.032647
9617.57	-0.0325267
9626.38	-0.0324023
9635.19	-0.0313891
9644.01	-0.0302988
9652.82	-0.0301559
9661.63	-0.0300118
9670.45	-0.0298665
9688.07	-0.0295719
9696.88	-0.0294225
9705.7	-0.0292717
9714.51	-0.0291194
9723.32	-0.0289656
9732.14	-0.0288103
9740.95	-0.0286533
9758.57	-0.0283346
9767.39	-0.0281728
9776.2	-0.0280093
9785.01	-0.0278441
9793.83	-0.0276772
9802.64	-0.0275086
9811.45	-0.0273382
9820.27	-0.0271662
9837.89	-0.0268169
9846.7	-0.0266396
9855.52	-0.0264606
9864.33	-0.0262799
9873.14	-0.0260974
9881.96	-0.0259131
9890.77	-0.0257268
9908.39	-0.0253486
9917.21	-0.0251568
9926.02	-0.0249631
9934.83	-0.0247678
9943.65	-0.0245706
9952.46	-0.0243718
9961.27	-0.0241713
9970.08	-0.0240563
9987.71	-0.0238159
9996.52	-0.0236905
10005.3	-0.0235617
10014.1	-0.0234295
10023	-0.0232938
10031.8	-0.0231548
10040.6	-0.0230124
10058.2	-0.0227177
10067	-0.0225655
10075.8	-0.0224101
10084.7	-0.0222516
10093.5	-0.02209
10102.3	-0.0219254
10111.1	-0.0217578
10128.7	-0.0214141
10137.5	-0.021238
10146.3	-0.0210593
10155.2	-0.020878
10164	-0.0206941
10172.8	-0.0205077
10181.6	-0.0203189
10190.4	-0.0201277
10208	-0.0197384
10216.8	-0.0195403
10225.7	-0.01934
10234.5	-0.0191376
10243.3	-0.0189331
10252.1	-0.0187264
10260.9	-0.0185177
10278.5	-0.0180942
10287.3	-0.0178795
10296.2	-0.0176628
10305	-0.017445
10313.8	-0.017226
10322.6	-0.0170058
10331.4	-0.0167843
10340.2	-0.0165615
10357.9	-0.0161118
10366.7	-0.015885
10375.5	-0.0156568
10384.3	-0.0154272
10393.1	-0.0151963
10401.9	-0.014964
10410.7	-0.0147303
10428.4	-0.014259
10437.2	-0.0140213
10446	-0.0137824
10454.8	-0.0135421
10463.6	-0.0133006
10472.4	-0.0130036
10481.2	-0.0127085
10490	-0.0124153
10507.7	-0.011834
10516.5	-0.0115458
10525.3	-0.011259
10534.1	-0.0109738
10542.9	-0.0106899
10551.7	-0.0104073
10560.5	-0.010126
10578.2	-0.00956701
10587	-0.00928923
10595.8	-0.00901254
10604.6	-0.00873691
10613.4	-0.00846238
10622.2	-0.00819108
10631.1	-0.00792492
10648.7	-0.0074063
10657.5	-0.00715308
10666.3	-0.00690344
10675.1	-0.00665707
10683.9	-0.00641368
10692.7	-0.00617297
10701.6	-0.00593469
10710.4	-0.00569848
10728	-0.00523178
10736.8	-0.0050009
10745.6	-0.00477142
10754.5	-0.00454319
10763.5	-0.00431136
10772.5	-0.00407846
10781.6	-0.00384645
10790.7	-0.00361521
10808.9	-0.00315462
10817.9	-0.00292507
10827	-0.00269592
10836.1	-0.00246709
10845.2	-0.00223852
10854.3	-0.00201016
10863.4	-0.00178196
10872.6	-0.00154869
10881.9	-0.00131552
10891.2	-0.00108242
10900.5	-0.000849379
10919.1	-0.000383531
10928.4	-0.000150763
10937.7	8.18606e-05
10946.9	0.000314305
10956.2	0.00054653
10965.5	0.000778496
10974.8	0.00101016
10984.1	0.00124148
10993.4	0.00148496
11002.7	0.00171673
11012	0.00193876
11021.2	0.00215247
11030.5	0.00235908
11049.1	0.00275531
11058.4	0.00294674
11067.7	0.00313474
11077	0.00331997
11086.3	0.00350297
11095.6	0.00368422
11104.8	0.00386415
11114.1	0.00404312
11123.4	0.00422147
11132.7	0.00439949
11142	0.00457741
11151.3	0.00475546
11160.6	0.0049338
11179.1	0.00529194
11188.4	0.00547193
11197.7	0.00565262
11207	0.00583404
11216.3	0.00601619
11225.6	0.00619907
11234.9	0.00638265
11244.2	0.00656688
11253.4	0.00675191
11262.7	0.00692721
11272	0.00709458
11281.3	0.0072555
11290.6	0.00741126
11309.2	0.00771156
11318.5	0.0078579
11327.8	0.0080027
11337	0.00814663
11346.3	0.00829024
11355.6	0.00843401
11364.9	0.00857837
11374.2	0.00872367
11383.5	0.00887022
11392.8	0.00901829
11402.1	0.00916808
11411.3	0.00931974
11420.6	0.00947324
11439.2	0.00978532
11448.5	0.00994356
11457.8	0.010103
11467.1	0.0102636
11476.4	0.0104252
11485.6	0.0105552
11494.9	0.0106946
11504.2	0.0108431
11513.5	0.011096
11522.8	0.0113716
11532.1	0.0116627
11541.4	0.0119624
11550.7	0.0122653
11569.2	0.0128659
11578.5	0.013159
11587.8	0.013446
11597.1	0.0137266
11606.4	0.014001
11615.7	0.0142696
11625	0.0145332
11634.3	0.0147924
11643.5	0.015047
11652.8	0.0152971
11662.1	0.0158981
11671.4	0.0166234
11680.7	0.0173514
11699.3	0.0186598
11708.6	0.0192052
11717.8	0.0196756
11727.1	0.0200771
11736.4	0.0209536
11745.7	0.021574
11755	0.0220018
11764.3	0.02229
11773.6	0.0224812
11782.9	0.0226076
11792.1	0.0226925
11801.4	0.0227521
11810.7	0.022798
11820	0.0228377
11838.6	0.0229141
11847.9	0.0229474
11857.2	0.0229756
11866.4	0.0230001
11875.7	0.0230212
11885	0.0230384
11894.3	0.0230508
11903.6	0.023058
11912.9	0.0230599
11922.2	0.0230565
11931.5	0.0230479
11940.8	0.0230343
11950	0.0230159
11968.6	0.0229652
11977.9	0.0229336
11987.2	0.0228989
11996.5	0.0228612
