0	0
11.8196	0
23.6393	0
35.4589	0
41.3687	0
53.1883	0
65.008	0
70.9178	0
82.7374	0
94.557	0
100.467	0
112.286	0
124.106	0
130.016	0
141.836	0
153.655	0
165.475	0
171.385	0
183.204	0
195.024	0
200.934	0
212.753	0
224.573	0
230.483	0
242.302	0
254.122	0
260.032	0
271.851	0
283.671	0
295.491	0
301.401	0
313.22	0
325.04	0
330.95	0
342.769	0
354.589	0
360.499	0
372.318	0
384.138	0
390.048	0
401.867	0
413.687	0
425.507	0
431.416	0
443.236	0
455.056	9.09495e-13
460.966	1.81899e-12
472.785	4.54747e-12
484.605	1.18234e-11
490.515	1.81899e-11
502.334	4.27463e-11
514.154	9.73159e-11
520.064	1.45519e-10
531.883	3.16504e-10
543.703	6.6575e-10
555.523	1.35969e-09
561.432	1.92176e-09
573.252	3.75985e-09
585.072	7.165e-09
590.981	9.79708e-09
602.801	1.79907e-08
614.621	3.22816e-08
620.53	4.28845e-08
632.35	7.44858e-08
644.17	1.26764e-07
650.08	1.64163e-07
661.899	2.71469e-07
673.719	4.40901e-07
685.538	7.03894e-07
691.448	8.83903e-07
703.268	1.37733e-06
715.088	2.11375e-06
720.997	2.60422e-06
732.817	3.91147e-06
744.637	5.79593e-06
750.546	7.02093e-06
762.366	1.02062e-05
774.186	1.46591e-05
780.095	1.74923e-05
791.915	2.47003e-05
803.735	3.45078e-05
815.554	4.77207e-05
821.464	5.59123e-05
833.284	7.62155e-05
845.103	0.000102956
851.013	0.000119273
862.833	0.000159075
874.652	0.000210465
880.562	0.000241387
892.382	0.000315767
904.202	0.000410133
910.111	0.000466216
921.931	0.000599465
933.751	0.000765913
945.57	0.000972643
951.48	0.00109366
963.3	0.00137689
975.119	0.00172397
981.029	0.00192522
992.849	0.00239168
1004.67	0.00295631
1010.58	0.00328079
1022.4	0.00402615
1034.22	0.00491796
1040.13	0.00542618
1051.95	0.00658358
1063.77	0.00795306
1075.59	0.00956639
1081.5	0.0104753
1093.32	0.0125215
1105.14	0.0149059
1111.05	0.0162387
1122.86	0.0192142
1134.68	0.0226446
1140.59	0.0245467
1152.41	0.028759
1164.23	0.0335632
1170.14	0.0362058
1181.96	0.0420104
1193.78	0.0485596
1205.6	0.0559173
1211.51	0.0599193
1223.33	0.0686096
1235.15	0.0782674
1241.06	0.0834784
1252.88	0.0947014
1264.7	0.107039
1270.61	0.113642
1282.43	0.127747
1294.25	0.143085
1300.16	0.151227
1311.98	0.168476
1323.8	0.187027
1335.62	0.206889
1341.53	0.217313
1353.35	0.239136
1365.17	0.262242
1371.08	0.274266
1382.9	0.299225
1394.72	0.32535
1400.63	0.338827
1412.45	0.366556
1424.27	0.395236
1430.18	0.409898
1441.99	0.439787
1453.81	0.470315
1465.63	0.501329
1471.54	0.516968
1483.36	0.548399
1495.18	0.579882
1501.09	0.595583
1512.91	0.626777
1524.73	0.657521
1530.64	0.672658
1542.46	0.702326
1554.28	0.731004
1560.19	0.744903
1572.01	0.771683
1583.83	0.796926
1595.65	0.820418
1601.56	0.831442
1613.38	0.851923
1625.2	0.870153
1631.11	0.878368
1642.93	0.892889
1654.75	0.904735
1660.66	0.909609
1672.48	0.917181
1684.3	0.921758
1690.21	0.922892
1702.03	0.922804
1713.85	0.919525
1725.67	0.913015
1731.58	0.908542
1743.4	0.897162
1755.21	0.882554
1761.12	0.874051
1772.94	0.854684
1784.76	0.832233
1790.67	0.819881
1802.49	0.792993
1814.31	0.763301
1820.22	0.747449
1832.04	0.713831
1843.86	0.677808
1855.68	0.639565
1861.59	0.619674
1873.41	0.578481
1885.23	0.535591
1891.14	0.513579
1902.96	0.468565
1914.78	0.422428
1920.69	0.399012
1932.51	0.351636
1944.33	0.303733
1950.24	0.279659
1962.06	0.231411
1973.88	0.183225
1985.7	0.135327
1991.61	0.111556
2003.43	0.0644998
2015.25	0.0182643
2021.16	-0.00448466
2032.98	-0.0491287
2044.8	-0.0924887
2050.71	-0.113636
2062.53	-0.154768
2074.34	-0.194236
2080.25	-0.213305
2092.07	-0.250043
2103.89	-0.284829
2115.71	-0.317573
2121.62	-0.333157
2133.44	-0.362711
2145.26	-0.390071
2151.17	-0.402918
2162.99	-0.426929
2174.81	-0.448689
2180.72	-0.458724
2192.54	-0.477112
2204.36	-0.493275
2210.27	-0.500532
2222.09	-0.51342
2233.91	-0.524184
2245.73	-0.532881
2251.64	-0.536474
2263.46	-0.542199
2275.28	-0.546038
2281.19	-0.547277
2293.01	-0.548448
2304.83	-0.547956
2310.74	-0.547117
2322.56	-0.544312
2334.38	-0.540091
2340.29	-0.537482
2352.11	-0.531331
2363.93	-0.524025
2375.75	-0.515667
2381.66	-0.511127
2393.47	-0.501387
2405.29	-0.490854
2411.2	-0.485321
2423.02	-0.473785
2434.84	-0.461699
2440.75	-0.45548
2452.57	-0.442743
2464.39	-0.429682
2470.3	-0.423055
2482.12	-0.409661
2493.94	-0.396141
2505.76	-0.382567
2511.67	-0.375781
2523.49	-0.362249
2535.31	-0.348822
2541.22	-0.342165
2553.04	-0.328996
2564.86	-0.316059
2570.77	-0.309692
2582.59	-0.297183
2594.41	-0.285005
2600.32	-0.27905
2612.14	-0.267426
2623.96	-0.256205
2635.78	-0.245407
2641.69	-0.240171
2653.51	-0.230038
2665.33	-0.220364
2671.24	-0.215702
2683.06	-0.206731
2694.88	-0.198234
2700.79	-0.194163
2712.6	-0.186378
2724.42	-0.179062
2730.33	-0.17558
2742.15	-0.16896
2753.97	-0.162794
2765.79	-0.15707
2771.7	-0.154371
2783.52	-0.149289
2795.34	-0.144618
2801.25	-0.142432
2813.07	-0.138349
2824.89	-0.134637
2830.8	-0.132915
2842.62	-0.129728
2854.44	-0.126869
2860.35	-0.125557
2872.17	-0.123155
2883.99	-0.121035
2895.81	-0.119178
2901.72	-0.118343
2913.54	-0.116846
2925.36	-0.115567
2931.27	-0.115003
2943.09	-0.114017
2954.91	-0.113203
2960.82	-0.112856
2972.64	-0.112271
2984.46	-0.111818
2990.37	-0.111636
3002.19	-0.111351
3014	-0.111161
3025.82	-0.111051
3031.73	-0.111021
3043.55	-0.111006
3055.37	-0.111039
3061.28	-0.111069
3073.1	-0.111152
3084.92	-0.111255
3090.83	-0.111311
3102.65	-0.111426
3114.47	-0.111537
3120.38	-0.111589
3132.2	-0.111681
3144.02	-0.111749
3155.84	-0.111789
3161.75	-0.111796
3173.57	-0.111781
3185.39	-0.111723
3191.3	-0.111676
3203.12	-0.111546
3214.94	-0.111363
3220.85	-0.111251
3232.67	-0.110982
3244.49	-0.110654
3250.4	-0.110468
3262.21	-0.110047
3274.03	-0.109562
3285.85	-0.109013
3291.76	-0.108714
3303.58	-0.108067
3315.4	-0.107355
3321.31	-0.106974
3333.13	-0.106165
3344.95	-0.105292
3350.86	-0.104832
3362.68	-0.103865
3374.5	-0.102838
3380.41	-0.102302
3392.23	-0.101185
3404.05	-0.100013
3415.87	-0.0987848
3421.78	-0.0981509
3433.6	-0.0968448
3445.42	-0.0954891
3451.33	-0.0947933
3463.14	-0.0933676
3474.96	-0.0918981
3480.87	-0.0911477
3492.69	-0.0896172
3504.51	-0.0880489
3510.42	-0.0872514
3522.24	-0.0856311
3534.06	-0.0839791
3545.88	-0.0822978
3551.79	-0.0814469
3563.61	-0.0797261
3575.43	-0.0779816
3581.34	-0.0771013
3593.16	-0.0753256
3604.98	-0.0735317
3610.89	-0.0726285
3622.7	-0.070811
3634.52	-0.0689801
3640.43	-0.0680602
3652.25	-0.0662125
3664.07	-0.0643558
3675.89	-0.0624914
3681.8	-0.0615569
3693.62	-0.0596838
3705.44	-0.0578066
3711.35	-0.0568669
3723.17	-0.0549856
3734.99	-0.053103
3740.9	-0.0521615
3752.72	-0.0502786
3764.54	-0.0483965
3770.44	-0.047456
3782.26	-0.0455764
3794.08	-0.0436994
3805.9	-0.0418253
3811.81	-0.0408895
3823.63	-0.0390206
3835.45	-0.0371557
3841.36	-0.0362249
3853.18	-0.0343664
3865	-0.0325125
3870.91	-0.0315873
3882.73	-0.0297405
3894.55	-0.0278985
3900.46	-0.0269793
3912.27	-0.0251446
3924.09	-0.0233148
3930	-0.0224018
3941.82	-0.0205794
3953.64	-0.0187618
3965.46	-0.0169489
3971.37	-0.0160443
3983.19	-0.0142386
3995.01	-0.0124376
4000.92	-0.0115388
4012.74	-0.00974477
4024.56	-0.0079553
4030.47	-0.00706228
4042.29	-0.0052797
4054.1	-0.00350174
4060.01	-0.0026145
4071.83	-0.000843548
4083.65	0.000922624
4095.47	0.00268391
4101.38	0.00356267
4113.2	0.00531635
4125.02	0.00706472
4130.93	0.00793685
4142.75	0.00967684
4154.57	0.0114109
4160.48	0.0122756
4172.3	0.0140002
4184.12	0.015718
4190.03	0.0165743
4201.84	0.0182812
4213.66	0.0199802
4225.48	0.021671
4231.39	0.0225131
4243.21	0.0241904
4255.03	0.025858
4260.94	0.026688
4272.76	0.0283399
4284.58	0.0299806
4290.49	0.0307966
4302.31	0.0324191
4314.13	0.0340287
4320.04	0.0348283
4331.86	0.036417
4343.68	0.0379907
4355.5	0.0395487
4361.41	0.0403216
4373.22	0.0418544
4385.04	0.0433694
4390.95	0.0441199
4402.77	0.0456065
4414.59	0.047073
4420.5	0.0477984
4432.32	0.049233
4444.14	0.0506453
4450.05	0.0513427
4461.87	0.0527195
4473.69	0.0540716
4485.51	0.0553978
4491.42	0.056051
4503.24	0.0573368
4515.06	0.0585944
4520.97	0.0592124
4532.79	0.0604258
4544.61	0.0616087
4550.52	0.0621883
4562.34	0.0633234
4574.16	0.0644255
4580.07	0.0649639
4591.89	0.0660147
4603.71	0.0670301
4615.52	0.0680093
4621.43	0.068485
4633.25	0.0694081
4645.07	0.0702929
4650.98	0.0707206
4662.8	0.0715462
4674.62	0.0723313
4680.53	0.0727085
4692.35	0.0734316
4704.17	0.0741125
4710.08	0.0744369
4721.9	0.0750532
4733.72	0.0756258
4745.54	0.0761539
4751.45	0.0764012
4763.27	0.0768618
4775.09	0.0772769
4781	0.0774672
4792.82	0.0778133
4804.64	0.0781129
4810.55	0.0782453
4822.37	0.0784748
4834.19	0.0786574
4840.1	0.0787311
4851.92	0.0788431
4863.74	0.078908
4875.56	0.0789259
4881.47	0.0789172
4893.29	0.0788648
4905.11	0.0787657
4911.02	0.0786987
4922.83	0.0785302
4934.65	0.0783158
4940.56	0.0781916
4952.38	0.0779093
4964.2	0.0775823
4970.11	0.0774023
4981.93	0.0770096
4993.75	0.0765739
5005.57	0.0760959
5011.48	0.0758413
5023.3	0.0753014
5035.12	0.0747215
5041.03	0.0744167
5052.85	0.0737784
5064.67	0.0731025
5070.58	0.0727508
5082.4	0.0720205
5094.22	0.0712555
5100.13	0.0708603
5111.95	0.0700453
5123.77	0.0691987
5135.59	0.0683218
5141.5	0.0678724
5153.32	0.0669525
5165.14	0.0660057
5171.05	0.0655226
5182.87	0.0645382
5194.69	0.0635305
5200.59	0.0630184
5212.41	0.0619786
5224.23	0.0609193
5230.14	0.0603829
5241.96	0.0592973
5253.78	0.058196
5265.6	0.0570807
5271.51	0.0565183
5283.33	0.0553848
5295.15	0.054241
5301.06	0.0536659
5312.88	0.0525098
5324.7	0.0513473
5330.61	0.0507642
5342.43	0.049595
5354.25	0.0484233
5360.16	0.0478369
5371.98	0.0466641
5383.8	0.0454922
5395.62	0.0443228
5401.53	0.0437395
5413.35	0.0425763
5425.17	0.0414189
5431.08	0.0408428
5442.9	0.0396964
5454.72	0.038559
5460.63	0.037994
5472.45	0.0368722
5484.27	0.0357621
5490.17	0.0352119
5501.99	0.0341214
5513.81	0.0330453
5525.63	0.0319845
5531.54	0.03146
5543.36	0.0304237
5555.18	0.0294047
5561.09	0.028902
5572.91	0.0279104
5584.73	0.026938
5590.64	0.0264591
5602.46	0.0255164
5614.28	0.0245941
5620.19	0.0241408
5632.01	0.0232501
5643.83	0.0223808
5655.65	0.0215333
5661.56	0.0211178
5673.38	0.0203034
5685.2	0.0195112
5691.11	0.0191235
5702.93	0.0183649
5714.75	0.0176286
5720.66	0.0172688
5732.48	0.0165659
5744.3	0.0158851
5750.21	0.0155529
5762.03	0.0149048
5773.85	0.0142783
5785.66	0.0136729
5791.57	0.013378
5803.39	0.0128036
5815.21	0.0122493
5821.12	0.0119796
5832.94	0.0114545
5844.76	0.0109482
5850.67	0.0107019
5862.49	0.0102227
5874.31	0.0097606
5880.22	0.00953579
5892.04	0.00909816
5903.86	0.00867591
5915.68	0.00826825
5921.59	0.00806963
5933.41	0.00768233
5945.23	0.00730755
5951.14	0.00712458
5962.96	0.00676696
5974.78	0.00641966
5980.69	0.00624959
5992.51	0.00591608
6004.33	0.00559061
6010.24	0.00543059
6022.06	0.00511544
6033.88	0.00480598
6045.7	0.0045013
6051.61	0.00435045
6063.43	0.00405116
6075.25	0.00375432
6081.16	0.00360652
6092.97	0.0033116
6104.79	0.00301684
6110.7	0.00286923
6122.52	0.00257304
6134.34	0.0022748
6140.25	0.00212465
6152.07	0.00182177
6163.89	0.00151477
6175.71	0.00120286
6181.62	0.00104482
6193.44	0.000724126
6205.26	0.000396665
6211.17	0.00023018
6222.99	-0.000108717
6234.81	-0.000456052
6240.72	-0.000633075
6252.54	-0.0009942
6264.36	-0.00136523
6270.27	-0.00155462
6282.09	-0.00194146
6293.91	-0.00233945
6305.73	-0.00274902
6311.64	-0.00295827
6323.46	-0.00338592
6335.28	-0.00382606
6341.19	-0.00405091
6353.01	-0.00451033
6364.83	-0.00498291
6370.74	-0.0052242
6382.56	-0.00571689
6394.38	-0.00622318
6400.28	-0.00648146
6412.1	-0.00700833
6423.92	-0.007549
6435.74	-0.00810348
6441.65	-0.0083859
6453.47	-0.00896106
6465.29	-0.00954991
6471.2	-0.00984945
6483.02	-0.0104587
6494.84	-0.0110812
6500.75	-0.0113975
6512.57	-0.0120398
6524.39	-0.012695
6530.3	-0.0130273
6542.12	-0.0137013
6553.94	-0.0143874
6565.76	-0.0150855
6571.67	-0.0154388
6583.49	-0.016154
6595.31	-0.0168801
6601.22	-0.0172471
6613.04	-0.0179889
6624.86	-0.0187407
6630.77	-0.0191201
6642.59	-0.0198859
6654.41	-0.0206605
6660.32	-0.021051
6672.14	-0.0218379
6683.96	-0.0226323
6695.78	-0.0234338
6701.69	-0.0238371
6713.51	-0.0246482
6725.32	-0.025465
6731.23	-0.0258755
6743.05	-0.0266999
6754.87	-0.0275287
6760.78	-0.0279446
6772.6	-0.028779
6784.42	-0.0296163
6790.33	-0.0300359
6802.15	-0.0308766
6813.97	-0.0317189
6825.79	-0.0325622
6831.7	-0.0329841
6843.52	-0.0338278
6855.34	-0.0346712
6861.25	-0.0350925
6873.07	-0.0359342
6884.89	-0.036774
6890.8	-0.0371931
6902.62	-0.0380291
6914.44	-0.038862
6920.35	-0.039277
6932.17	-0.040104
6943.99	-0.0409265
6955.81	-0.0417438
6961.72	-0.0421504
6973.54	-0.042959
6985.36	-0.0437613
6991.27	-0.0441598
7003.09	-0.0449514
7014.91	-0.0457353
7020.82	-0.0461242
7032.64	-0.0468956
7044.46	-0.047658
7050.37	-0.0480356
7062.18	-0.0487837
7074	-0.0495215
7085.82	-0.0502487
7091.73	-0.0506082
7103.55	-0.0513186
7115.37	-0.0520171
7121.28	-0.0523619
7133.1	-0.0530419
7144.92	-0.0537091
7150.83	-0.0540377
7162.65	-0.0546847
7174.47	-0.0553178
7180.38	-0.055629
7192.2	-0.0562404
7204.02	-0.0568369
7215.84	-0.057418
7221.75	-0.0577028
7233.57	-0.0582602
7245.39	-0.0588014
7251.3	-0.0590659
7263.12	-0.059582
7274.94	-0.0600811
7280.85	-0.0603242
7292.67	-0.060797
7304.49	-0.0612519
7310.4	-0.0614725
7322.22	-0.0619
7334.04	-0.0623088
7345.86	-0.0626987
7351.77	-0.0628865
7363.59	-0.0632476
7375.4	-0.0635891
7381.31	-0.0637524
7393.13	-0.0640642
7404.95	-0.0643558
7410.86	-0.0644941
7422.68	-0.0647552
7434.5	-0.0649957
7440.41	-0.0651082
7452.23	-0.0653175
7464.05	-0.0655059
7475.87	-0.0656731
7481.78	-0.0657488
7493.6	-0.0658841
7505.42	-0.0659981
7511.33	-0.0660471
7523.15	-0.0661288
7534.97	-0.066189
7540.88	-0.066211
7552.7	-0.0662388
7564.52	-0.0662449
7570.43	-0.0662398
7582.25	-0.0662135
7594.07	-0.0661655
7605.89	-0.0660959
7611.8	-0.066053
7623.62	-0.065951
7635.44	-0.0658277
7641.35	-0.0657579
7653.17	-0.0656025
7664.98	-0.0654259
7670.89	-0.0653296
7682.71	-0.0651214
7694.53	-0.0648923
7700.44	-0.0647699
7712.26	-0.0645097
7724.08	-0.0642291
7735.9	-0.0639281
7741.81	-0.0637701
7753.63	-0.0634391
7765.45	-0.0630884
7771.36	-0.0629057
7783.18	-0.0625258
7795	-0.0621268
7800.91	-0.0619202
7812.73	-0.061493
7824.55	-0.0610474
7830.46	-0.0608178
7842.28	-0.0603451
7854.1	-0.0598547
7860.01	-0.059603
7871.83	-0.0590867
7883.65	-0.0585536
7895.47	-0.058004
7901.38	-0.0577231
7913.2	-0.0571493
7925.02	-0.05656
7930.92	-0.0562596
7942.74	-0.0556475
7954.56	-0.0550207
7960.47	-0.054702
7972.29	-0.0540539
7984.11	-0.0533922
7990.02	-0.0530563
8001.84	-0.0523747
8013.66	-0.0516804
8025.48	-0.0509737
8031.39	-0.0506159
8043.21	-0.0498916
8055.03	-0.049156
8060.94	-0.0487841
8072.76	-0.0480323
8084.58	-0.0472703
8090.49	-0.0468855
8102.31	-0.0461089
8114.13	-0.045323
8120.04	-0.0449268
8131.86	-0.0441278
8143.68	-0.0433207
8155.5	-0.0425058
8161.41	-0.0420955
8173.23	-0.0412697
8185.05	-0.0404371
8190.96	-0.0400184
8202.77	-0.0391764
8214.59	-0.0383286
8220.5	-0.0379027
8232.32	-0.037047
8244.14	-0.0361866
8250.05	-0.0357547
8261.87	-0.0348878
8273.69	-0.0340172
8285.51	-0.033143
8291.42	-0.0327048
8303.24	-0.0318263
8315.06	-0.0309453
8320.97	-0.0305039
8332.79	-0.0296198
8344.61	-0.0287342
8350.52	-0.0282909
8362.34	-0.0274035
8374.16	-0.0265155
8380.07	-0.0260713
8391.89	-0.0251829
8403.71	-0.0242946
8415.53	-0.0234069
8421.44	-0.0229633
8433.26	-0.022077
8445.08	-0.0211921
8450.99	-0.0207502
8462.8	-0.0198679
8474.62	-0.0189877
8480.53	-0.0185485
8492.35	-0.0176722
8504.17	-0.0167989
8510.08	-0.0163634
8521.9	-0.0154951
8533.72	-0.0146305
8545.54	-0.0137699
8551.45	-0.0133412
8563.27	-0.0124873
8575.09	-0.0116382
8581	-0.0112155
8592.82	-0.0103741
8604.64	-0.00953818
8610.55	-0.0091224
8622.37	-0.00829534
8634.19	-0.00747453
8640.1	-0.00706655
8651.92	-0.00625563
8663.74	-0.00545166
8675.56	-0.00465492
8681.47	-0.00425934
8693.29	-0.00347394
8705.11	-0.00269646
8711.02	-0.00231076
8722.84	-0.00154564
8734.66	-0.000789084
8740.56	-0.000414105
8752.38	0.000329097
8764.2	0.00106308
8770.11	0.00142653
8781.93	0.0021462
8793.75	0.00285602
8805.57	0.00355574
8811.48	0.00390174
8823.3	0.00458586
8835.12	0.00525928
8841.03	0.00559191
8852.85	0.00624885
8864.67	0.00689453
8870.58	0.00721307
8882.4	0.00784142
8894.22	0.00845797
8900.13	0.00876174
8911.95	0.00936017
8923.77	0.00994628
8935.59	0.0105199
8941.5	0.0108019
8953.32	0.0113564
8965.14	0.0118978
8971.05	0.0121637
8982.87	0.0126854
8994.69	0.0131937
9000.6	0.0134427
9012.42	0.0139307
9024.23	0.0144048
9030.14	0.0146367
9041.96	0.01509
9053.78	0.0155292
9065.6	0.0159542
9071.51	0.0161613
9083.33	0.0165649
9095.15	0.016954
9101.06	0.0171431
9112.88	0.0175104
9124.7	0.0178632
9130.61	0.018034
9142.43	0.0183647
9154.25	0.0186807
9160.16	0.0188332
9171.98	0.0191271
9183.8	0.0194062
9195.62	0.0196706
9201.53	0.0197972
9213.35	0.0200395
9225.17	0.020267
9231.08	0.0203753
9242.9	0.0205809
9254.72	0.0207719
9260.63	0.0208619
9272.45	0.0210312
9284.27	0.0211861
9290.18	0.0212582
9302	0.0213917
9313.81	0.0215111
9325.63	0.0216165
9331.54	0.021664
9343.36	0.0217488
9355.18	0.0218199
9361.09	0.0218504
9372.91	0.0219014
9384.73	0.0219393
9390.64	0.0219534
9402.46	0.0219719
9414.28	0.0219778
9420.19	0.0219761
9432.01	0.0219634
9443.83	0.0219386
9455.65	0.0219021
9461.56	0.0218794
9473.38	0.0218256
9485.2	0.0217606
9491.11	0.021724
9502.93	0.0216428
9514.75	0.0215511
9520.66	0.0215014
9532.48	0.0213946
9544.3	0.0212781
9550.21	0.0212163
9562.03	0.0210858
9573.85	0.0209464
9585.67	0.0207985
9591.58	0.0207214
9603.39	0.0205611
9615.21	0.0203932
9621.12	0.0203064
9632.94	0.0201274
9644.76	0.0199416
9650.67	0.0198462
9662.49	0.0196506
9674.31	0.0194491
9680.22	0.0193462
9692.04	0.0191362
9703.86	0.0189212
9715.68	0.0187013
9721.59	0.0185897
9733.41	0.0183632
9745.23	0.0181329
9751.14	0.0180163
9762.96	0.0177807
9774.78	0.017542
9780.69	0.0174216
9792.51	0.0171788
9804.33	0.0169338
9810.24	0.0168106
9822.06	0.0165628
9833.88	0.0163135
9845.7	0.016063
9851.61	0.0159374
9863.43	0.0156858
9875.25	0.0154336
9881.16	0.0153075
9892.98	0.0150552
9904.8	0.0148032
9910.7	0.0146773
9922.52	0.0144261
9934.34	0.0141757
9940.25	0.0140509
9952.07	0.0138022
9963.89	0.0135549
9975.71	0.0133092
9981.62	0.0131871
9993.44	0.0129442
10005.3	0.0127033
10011.2	0.0125838
10023	0.0123463
10034.8	0.0121114
10040.7	0.0119949
10052.5	0.0117638
10064.4	0.0115356
10070.3	0.0114225
10082.1	0.0111986
10093.9	0.0109778
10105.7	0.01076
10111.6	0.0106523
10123.5	0.0104392
10135.3	0.0102294
10141.2	0.0101257
10153	0.00992076
10164.8	0.00971911
10170.7	0.00961951
10182.6	0.00942278
10194.4	0.00922931
10200.3	0.00913379
10212.1	0.00894517
10223.9	0.00875973
10235.7	0.00857743
10241.7	0.00848743
10253.5	0.0083097
10265.3	0.00813493
10271.2	0.00804862
10283	0.00787812
10294.8	0.00771035
10300.8	0.00762745
10312.6	0.00746356
10324.4	0.00730211
10330.3	0.00722226
10342.1	0.00706424
10353.9	0.00690833
10365.8	0.00675438
10371.7	0.0066781
10383.5	0.00652683
10395.3	0.00637715
10401.2	0.00630285
10413	0.00615524
10424.9	0.00600881
10430.8	0.00593598
10442.6	0.00579098
10454.4	0.00564673
10460.3	0.00557482
10472.1	0.00543135
10484	0.00528817
10495.8	0.0051451
10501.7	0.00507355
10513.5	0.00493032
10525.3	0.00478674
10531.2	0.00471477
10543.1	0.00457034
10554.9	0.00442512
10560.8	0.00435216
10572.6	0.00420543
10584.4	0.00405747
10590.3	0.00398297
10602.2	0.00383285
10614	0.00368107
10625.8	0.00352749
10631.7	0.00344997
10643.5	0.00329337
10655.3	0.00313457
10661.3	0.0030543
10673.1	0.00289193
10684.9	0.00272701
10690.8	0.00264355
10702.6	0.00247455
10714.4	0.00230267
10720.3	0.00221563
10732.2	0.00203923
10744	0.00185968
10755.8	0.00167688
10761.7	0.00158423
10773.5	0.00139638
10785.4	0.00120507
10791.3	0.00110809
10803.1	0.000911431
10814.9	0.000711139
10820.8	0.000609611
10832.6	0.000403762
10844.5	0.000194153
10850.4	8.79271e-05
10862.2	-0.000127384
10874	-0.000346526
10885.8	-0.000569513
10891.7	-0.000682452
10903.6	-0.000911218
10915.4	-0.00114383
10921.3	-0.00126158
10933.1	-0.00149993
10944.9	-0.00174209
10950.8	-0.00186458
10962.7	-0.00211237
10974.5	-0.00236387
10980.4	-0.00249099
10992.2	-0.00274794
11004	-0.00300845
11015.8	-0.00327245
11021.7	-0.00340574
11033.6	-0.00367483
11045.4	-0.00394721
11051.3	-0.0040846
11063.1	-0.00436173
11074.9	-0.00464191
11080.8	-0.0047831
11092.7	-0.00506763
11104.5	-0.00535492
11110.4	-0.00549956
11122.2	-0.00579075
11134	-0.00608439
11145.9	-0.00638034
11151.8	-0.00652913
11163.6	-0.00682827
11175.4	-0.00712936
11181.3	-0.00728059
11193.1	-0.00758432
11205	-0.00788962
11210.9	-0.0080428
11222.7	-0.00835015
11234.5	-0.00865865
11240.4	-0.00881329
11252.2	-0.00912322
11264.1	-0.0094339
11275.9	-0.00974514
11281.8	-0.00990092
11293.6	-0.0102127
11305.4	-0.0105246
11311.3	-0.0106805
11323.1	-0.0109923
11335	-0.0113038
11340.9	-0.0114593
11352.7	-0.0117699
11364.5	-0.0120798
11370.4	-0.0122344
11382.2	-0.0125428
11394.1	-0.01285
11405.9	-0.0131559
11411.8	-0.0133082
11423.6	-0.0136116
11435.4	-0.0139132
11441.3	-0.0140632
11453.2	-0.0143618
11465	-0.0146581
11470.9	-0.0148053
11482.7	-0.0150979
11494.5	-0.0153878
11500.4	-0.0155317
11512.3	-0.0158174
11524.1	-0.0161
11535.9	-0.0163793
11541.8	-0.0165178
11553.6	-0.016792
11565.5	-0.0170627
11571.4	-0.0171967
11583.2	-0.0174618
11595	-0.0177229
11600.9	-0.017852
11612.7	-0.018107
11624.6	-0.0183578
11630.5	-0.0184816
11642.3	-0.0187258
11654.1	-0.0189655
11660	-0.0190836
11671.8	-0.0193163
11683.6	-0.0195443
11695.5	-0.0197674
11701.4	-0.0198771
11713.2	-0.0200927
11725	-0.0203033
11730.9	-0.0204066
11742.7	-0.0206094
11754.6	-0.020807
11760.5	-0.0209038
11772.3	-0.0210934
11784.1	-0.0212777
11790	-0.0213678
11801.8	-0.0215439
11813.7	-0.0217145
11825.5	-0.0218796
11831.4	-0.0219601
11843.2	-0.0221169
11855	-0.0222682
11860.9	-0.0223418
11872.8	-0.0224847
11884.6	-0.0226221
11890.5	-0.0226887
11902.3	-0.0228178
11914.1	-0.0229414
11920	-0.0230011
11931.9	-0.0231165
11943.7	-0.0232264
11955.5	-0.0233308
11961.4	-0.023381
11973.2	-0.0234775
11985	-0.0235686
11991	-0.0236122
12002.8	-0.0236955
12014.6	-0.0237736
12020.5	-0.0238107
12032.3	-0.0238812
12044.1	-0.0239468
12050.1	-0.0239777
12061.9	-0.024036
12073.7	-0.0240894
12085.5	-0.0241382
12091.4	-0.0241609
12103.2	-0.0242028
12115.1	-0.0242403
12121	-0.0242575
12132.8	-0.0242885
12144.6	-0.0243154
12150.5	-0.0243273
12162.3	-0.0243482
12174.2	-0.0243651
12180.1	-0.0243721
12191.9	-0.0243835
12203.7	-0.0243912
12215.5	-0.0243955
12221.4	-0.0243964
12233.3	-0.0243957
12245.1	-0.0243918
12251	-0.0243887
12262.8	-0.0243804
12274.6	-0.0243692
12280.5	-0.0243625
12292.4	-0.0243473
12304.2	-0.0243296
12310.1	-0.0243198
12321.9	-0.0242985
12333.7	-0.024275
12345.5	-0.0242495
12351.5	-0.024236
12363.3	-0.0242076
12375.1	-0.0241774
12381	-0.0241617
12392.8	-0.0241291
12404.6	-0.024095
12410.6	-0.0240775
12422.4	-0.0240414
12434.2	-0.0240043
12440.1	-0.0239853
12451.9	-0.0239465
12463.7	-0.0239069
12475.6	-0.0238665
12481.5	-0.023846
12493.3	-0.0238046
12505.1	-0.0237627
12511	-0.0237415
12522.8	-0.0236989
12534.7	-0.023656
12540.6	-0.0236345
12552.4	-0.0235913
12564.2	-0.0235479
12570.1	-0.0235263
12581.9	-0.0234829
12593.8	-0.0234396
12605.6	-0.0233964
12611.5	-0.0233749
12623.3	-0.023332
12635.1	-0.0232894
12641	-0.0232683
12652.9	-0.0232261
12664.7	-0.0231844
12670.6	-0.0231637
12682.4	-0.0231226
12694.2	-0.0230819
12700.1	-0.0230618
12712	-0.0230218
12723.8	-0.0229824
12735.6	-0.0229435
12741.5	-0.0229243
12753.3	-0.0228862
12765.1	-0.0228487
12771.1	-0.0228301
12782.9	-0.0227934
12794.7	-0.0227571
12800.6	-0.0227392
12812.4	-0.0227038
12824.2	-0.0226688
12830.2	-0.0226515
12842	-0.0226172
12853.8	-0.0225833
12865.6	-0.0225499
12871.5	-0.0225332
12883.3	-0.0225003
12895.2	-0.0224676
12901.1	-0.0224514
12912.9	-0.022419
12924.7	-0.0223869
12930.6	-0.0223709
12942.4	-0.0223389
12954.3	-0.0223069
12960.2	-0.0222909
12972	-0.0222589
12983.8	-0.0222268
12995.6	-0.0221944
13001.5	-0.0221782
13013.4	-0.0221454
13025.2	-0.0221124
13031.1	-0.0220957
13042.9	-0.0220619
13054.7	-0.0220276
13060.6	-0.0220102
13072.5	-0.0219749
13084.3	-0.0219389
13090.2	-0.0219206
13102	-0.0218834
13113.8	-0.0218452
13125.6	-0.021806
13131.6	-0.021786
13143.4	-0.0217451
13155.2	-0.0217029
13161.1	-0.0216814
13172.9	-0.0216373
13184.7	-0.0215918
13190.6	-0.0215685
13202.5	-0.0215206
13214.3	-0.0214712
13220.2	-0.0214458
13232	-0.0213938
13243.8	-0.0213399
13255.7	-0.0212841
13261.6	-0.0212554
13273.4	-0.0211966
13285.2	-0.0211357
13291.1	-0.0211045
13302.9	-0.0210403
13314.8	-0.0209738
13320.7	-0.0209397
13332.5	-0.0208697
13344.3	-0.0207972
13350.2	-0.02076
13362	-0.0206837
13373.9	-0.0206048
13385.7	-0.0205232
13391.6	-0.0204814
13403.4	-0.0203957
13415.2	-0.0203072
13421.1	-0.0202619
13433	-0.020169
13444.8	-0.0200733
13450.7	-0.0200243
13462.5	-0.019924
13474.3	-0.0198207
13480.2	-0.0197679
13492.1	-0.0196599
13503.9	-0.0195488
13515.7	-0.0194345
13521.6	-0.0193762
13533.4	-0.0192572
13545.2	-0.0191349
13551.1	-0.0190725
13563	-0.0189453
13574.8	-0.0188148
13580.7	-0.0187484
13592.5	-0.018613
13604.3	-0.0184743
13610.2	-0.0184037
13622.1	-0.01826
13633.9	-0.0181131
13645.7	-0.0179628
13651.6	-0.0178865
13663.4	-0.0177313
13675.3	-0.0175728
13681.2	-0.0174923
13693	-0.017329
13704.8	-0.0171624
13710.7	-0.0170779
13722.5	-0.0169065
13734.4	-0.016732
13740.3	-0.0166435
13752.1	-0.0164643
13763.9	-0.016282
13775.7	-0.0160967
13781.6	-0.0160029
13793.5	-0.0158131
13805.3	-0.0156204
13811.2	-0.0155229
13823	-0.0153259
13834.8	-0.0151261
13840.7	-0.0150252
13852.5	-0.0148213
13864.4	-0.0146148
13870.3	-0.0145105
13882.1	-0.0143002
13893.9	-0.0140874
13905.7	-0.0138721
13911.6	-0.0137636
13923.5	-0.0135449
13935.3	-0.013324
13941.2	-0.0132128
13953	-0.0129887
13964.8	-0.0127626
13970.7	-0.0126489
13982.6	-0.0124199
13994.4	-0.0121892
14000.3	-0.0120732
14012.1	-0.0118399
14023.9	-0.0116051
14035.8	-0.0113688
14041.7	-0.0112502
14053.5	-0.0110118
14065.3	-0.0107723
14071.2	-0.0106521
14083	-0.0104109
14094.9	-0.0101687
14100.8	-0.0100472
14112.6	-0.00980372
14124.4	-0.00955949
14130.3	-0.00943713
14142.1	-0.00919199
14153.9	-0.00894637
14165.8	-0.00870038
14171.7	-0.00857728
14183.5	-0.00833092
14195.3	-0.00808445
14201.2	-0.0079612
14213	-0.00771475
14224.9	-0.00746844
14230.8	-0.00734537
14242.6	-0.00709946
14254.4	-0.00685396
14260.3	-0.00673139
14272.1	-0.00648667
14284	-0.00624261
14295.8	-0.0059993
14301.7	-0.00587795
14313.5	-0.00563595
14325.3	-0.00539494
14331.2	-0.00527484
14343.1	-0.0050355
14354.9	-0.00479739
14360.8	-0.00467883
14372.6	-0.00444274
14384.4	-0.00420811
14390.3	-0.00409137
14402.2	-0.00385909
14414	-0.00362849
14425.8	-0.00339964
14431.7	-0.00328591
14443.5	-0.00305985
14455.3	-0.00283575
14461.3	-0.00272446
14473.1	-0.00250344
14484.9	-0.00228457
14490.8	-0.00217596
14502.6	-0.00196043
14514.4	-0.00174722
14520.4	-0.0016415
14532.2	-0.00143189
14544	-0.00122475
14555.8	-0.00102014
14561.7	-0.000918805
14573.5	-0.0007181
14585.4	-0.000520062
14591.3	-0.000422059
14603.1	-0.000228115
14614.9	-3.69565e-05
14620.8	5.75641e-05
14632.6	0.000244463
14644.5	0.000428473
14650.4	0.000519384
14662.2	0.000698994
14674	0.00087563
14685.8	0.00104926
14691.7	0.00113494
14703.6	0.00130402
14715.4	0.00147003
14721.3	0.00155188
14733.1	0.00171326
14744.9	0.00187152
14750.8	0.00194948
14762.7	0.00210306
14774.5	0.00225349
14780.4	0.00232753
14792.2	0.00247323
14804	0.00261579
14815.8	0.00275519
14821.8	0.0028237
14833.6	0.00295837
14845.4	0.0030899
14851.3	0.00315448
14863.1	0.0032813
14874.9	0.00340499
14880.9	0.00346567
14892.7	0.00358469
14904.5	0.00370064
14910.4	0.00375745
14922.2	0.0038688
14934	0.0039771
14945.9	0.00408239
14951.8	0.00413391
14963.6	0.00423472
14975.4	0.00433258
14981.3	0.00438041
14993.1	0.0044739
15005	0.00456452
15010.9	0.00460877
15022.7	0.00469514
15034.5	0.00477873
15040.4	0.0048195
15052.2	0.00489898
15064.1	0.00497578
15075.9	0.00504993
15081.8	0.00508603
15093.6	0.00515629
15105.4	0.00522401
15111.3	0.00525694
15123.2	0.00532094
15135	0.00538252
15140.9	0.00541242
15152.7	0.00547046
15164.5	0.0055262
15170.4	0.00555322
15182.3	0.00560561
15194.1	0.00565582
15205.9	0.00570392
15211.8	0.00572719
15223.6	0.0057722
15235.4	0.00581523
15241.4	0.00583602
15253.2	0.00587618
15265	0.00591449
15270.9	0.00593297
15282.7	0.00596861
15294.5	0.00600255
15300.5	0.0060189
15312.3	0.00605038
15324.1	0.00608031
15330	0.0060947
15341.8	0.00612239
15353.6	0.00614866
15365.5	0.00617356
15371.4	0.00618553
15383.2	0.0062085
15395	0.00623026
15400.9	0.00624071
15412.7	0.00626076
15424.6	0.00627974
15430.5	0.00628884
15442.3	0.00630632
15454.1	0.00632288
15460	0.00633083
15471.8	0.00634611
15483.7	0.00636061
15495.5	0.00637438
15501.4	0.00638101
15513.2	0.0063938
15525	0.00640601
15530.9	0.00641191
15542.8	0.00642334
15554.6	0.00643432
15560.5	0.00643966
15572.3	0.00645008
15584.1	0.00646018
15590	0.00646513
15601.9	0.00647487
15613.7	0.00648442
15625.5	0.00649383
15631.4	0.00649851
15643.2	0.00650782
15655	0.00651713
15661	0.00652179
15672.8	0.00653117
15684.6	0.00654066
15690.5	0.00654546
15702.3	0.0065552
15714.1	0.00656516
15720	0.00657024
15731.9	0.00658061
15743.7	0.0065913
15755.5	0.00660237
15761.4	0.00660805
15773.2	0.00661973
15785.1	0.00663187
15791	0.00663813
15802.8	0.00665102
15814.6	0.00666446
15820.5	0.00667139
15832.3	0.00668571
15844.2	0.00670064
15850.1	0.00670835
15861.9	0.00672427
15873.7	0.00674087
15885.5	0.00675818
15891.4	0.00676711
15903.3	0.00678552
15915.1	0.00680469
15921	0.00681456
15932.8	0.0068349
15944.6	0.00685603
15950.5	0.0068669
15962.4	0.00688925
15974.2	0.00691242
15980.1	0.00692432
15991.9	0.00694873
16003.7	0.00697397
16015.5	0.00700005
16021.4	0.00701339
16033.3	0.00704071
16045.1	0.00706885
16051	0.00708323
16062.8	0.00711259
16074.6	0.00714275
16080.5	0.00715812
16092.4	0.00718944
16104.2	0.00722152
16110.1	0.00723784
16121.9	0.00727102
16133.7	0.00730489
16145.6	0.00733943
16151.5	0.00735695
16163.3	0.00739244
16175.1	0.00742852
16181	0.00744677
16192.8	0.00748365
16204.7	0.00752103
16210.6	0.00753989
16222.4	0.00757791
16234.2	0.00761631
16240.1	0.00763563
16251.9	0.00767448
16263.8	0.00771356
16275.6	0.00775281
16281.5	0.00777249
16293.3	0.00781188
16305.1	0.00785129
16311	0.00787098
16322.9	0.00791027
16334.7	0.00794939
16340.6	0.00796887
16352.4	0.00800759
16364.2	0.00804595
16370.1	0.00806497
16381.9	0.00810262
16393.8	0.00813969
16405.6	0.00817608
16411.5	0.008194
16423.3	0.00822922
16435.1	0.00826352
16441	0.0082803
16452.9	0.00831306
16464.7	0.00834465
16470.6	0.00835998
16482.4	0.00838963
16494.2	0.00841786
16500.1	0.00843141
16512	0.00845729
16523.8	0.00848148
16535.6	0.00850384
16541.5	0.00851431
16553.3	0.00853373
16565.2	0.00855105
16571.1	0.00855888
16582.9	0.00857281
16594.7	0.00858434
16600.6	0.00858917
16612.4	0.00859687
16624.3	0.00860186
16630.2	0.0086033
16642	0.008604
16653.8	0.0086017
16665.6	0.00859626
16671.5	0.00859233
16683.3	0.00858196
16695.2	0.00856816
16701.1	0.00855994
16712.9	0.00854076
16724.7	0.00851785
16730.6	0.00850496
16742.4	0.00847624
16754.3	0.00844349
16760.2	0.00842557
16772	0.00838658
16783.8	0.00834329
16795.6	0.00829559
16801.5	0.00827005
16813.4	0.00821555
16825.2	0.00815638
16831.1	0.00812501
16842.9	0.00805866
16854.7	0.00798741
16860.6	0.00794992
16872.5	0.00787114
16884.3	0.00778726
16890.2	0.00774337
16902	0.00765166
16913.8	0.00755465
16925.7	0.00745226
16931.6	0.00739904
16943.4	0.00728848
16955.2	0.00717241
16961.1	0.00711229
16972.9	0.00698785
16984.7	0.00685778
16990.7	0.00679062
17002.5	0.00665205
17014.3	0.00650777
17020.2	0.00643349
17032	0.00628063
17043.8	0.00612203
17055.7	0.00595769
17061.6	0.00587337
17073.4	0.00570043
17085.2	0.00552179
17091.1	0.00543033
17102.9	0.00524316
17114.8	0.00505035
17120.7	0.00495184
17132.5	0.00475065
17144.3	0.00454393
17150.2	0.00443852
17162	0.00422364
17173.9	0.0040034
17185.7	0.00377789
17191.6	0.00366318
17203.4	0.00342993
17215.2	0.00319163
17221.1	0.00307062
17233	0.00282497
17244.8	0.00257456
17250.7	0.00244762
17262.5	0.00219032
17274.3	0.0019286
17280.2	0.00179613
17292.1	0.00152806
17303.9	0.00125595
17315.7	0.000979968
17321.6	0.000840578
17333.4	0.000559112
17345.2	0.000274221
17351.2	0.000130549
17363	-0.000159122
17374.8	-0.000451729
17380.7	-0.000599069
17392.5	-0.00089569
17404.3	-0.00119472
17410.3	-0.00134506
17422.1	-0.00164727
17433.9	-0.00195132
17445.7	-0.00225697
17451.6	-0.00241032
17463.4	-0.00271791
17475.3	-0.00302649
17481.2	-0.00318106
17493	-0.00349064
17504.8	-0.00380056
17510.7	-0.00395556
17522.5	-0.00426549
17534.4	-0.0045751
17540.3	-0.0047297
17552.1	-0.00503831
17563.9	-0.00534591
17575.7	-0.00565223
17581.6	-0.00580482
17593.5	-0.00610869
17605.3	-0.00641057
17611.2	-0.00656068
17623	-0.00685906
17634.8	-0.00715475
17640.7	-0.00730149
17652.6	-0.00759262
17664.4	-0.00788036
17670.3	-0.00802286
17682.1	-0.00830499
17693.9	-0.00858303
17705.7	-0.00885671
17711.7	-0.00899183
17723.5	-0.00925846
17735.3	-0.00952005
17741.2	-0.00964888
17753	-0.00990243
17764.8	-0.0101503
17770.8	-0.010272
17782.6	-0.0105109
17794.4	-0.0107434
17800.3	-0.0108573
17812.1	-0.0110799
17823.9	-0.0112956
17835.8	-0.0115042
17841.7	-0.0116058
17853.5	-0.0118033
17865.3	-0.0119932
17871.2	-0.0120852
17883	-0.0122632
17894.9	-0.012433
17900.8	-0.0125148
17912.6	-0.0126721
17924.4	-0.0128208
17930.3	-0.0128919
17942.1	-0.0130274
17954	-0.013154
17965.8	-0.0132714
17971.7	-0.0133267
17983.5	-0.0134303
17995.3	-0.0135244
18001.2	-0.013568
18013.1	-0.0136478
18024.9	-0.0137181
18030.8	-0.0137495
18042.6	-0.0138052
18054.4	-0.013851
18060.3	-0.0138702
18072.2	-0.0139011
18084	-0.0139222
18095.8	-0.0139333
18101.7	-0.0139351
18113.5	-0.0139313
18125.3	-0.0139175
18131.3	-0.0139069
18143.1	-0.0138782
18154.9	-0.0138395
18160.8	-0.0138165
18172.6	-0.0137631
18184.4	-0.0136999
18190.4	-0.0136646
18202.2	-0.0135868
18214	-0.0134994
18225.8	-0.0134025
18231.7	-0.0133505
18243.5	-0.0132395
18255.4	-0.0131193
18261.3	-0.0130557
18273.1	-0.0129218
18284.9	-0.012779
18290.8	-0.0127043
18302.6	-0.0125483
18314.5	-0.0123838
18320.4	-0.0122985
18332.2	-0.0121215
18344	-0.0119364
18355.8	-0.0117435
18361.7	-0.0116441
18373.6	-0.0114396
18385.4	-0.0112277
18391.3	-0.0111191
18403.1	-0.0108965
18414.9	-0.0106671
18420.8	-0.0105498
18432.7	-0.0103105
18444.5	-0.0100649
18450.4	-0.00993985
18462.2	-0.00968529
18474	-0.00942507
18485.8	-0.00915943
18491.8	-0.00902467
18503.6	-0.0087514
18515.4	-0.00847337
18521.3	-0.00833265
18533.1	-0.00804797
18544.9	-0.0077592
18550.8	-0.00761337
18562.7	-0.00731897
18574.5	-0.00702116
18580.4	-0.00687106
18592.2	-0.00656865
18604	-0.00626352
18615.9	-0.00595595
18621.8	-0.00580133
18633.6	-0.00549061
18645.4	-0.00517814
18651.3	-0.00502133
18663.1	-0.00470675
18675	-0.0043911
18680.9	-0.00423297
18692.7	-0.00391623
18704.5	-0.00359911
18710.4	-0.00344049
18722.2	-0.00312329
18734.1	-0.00280636
18745.9	-0.00248997
18751.8	-0.00233206
18763.6	-0.00201695
18775.4	-0.00170301
18781.3	-0.00154656
18793.2	-0.00123484
18805	-0.000924907
18810.9	-0.00077068
18822.7	-0.000463855
18834.5	-0.000159393
18840.4	-8.11756e-06
18852.3	0.000292383
18864.1	0.000589971
18875.9	0.000884436
18881.8	0.00103043
18893.6	0.00131983
18905.4	0.00160561
18911.3	0.00174707
18923.2	0.00202706
18935	0.00230296
18940.9	0.00243932
18952.7	0.00270876
18964.5	0.00297369
18970.4	0.00310442
18982.3	0.00336229
18994.1	0.00361527
19005.9	0.00386322
19011.8	0.00398526
19023.6	0.00422541
19035.5	0.0044602
19041.4	0.00457555
19053.2	0.00480209
19065	0.00502299
19070.9	0.0051313
19082.7	0.00534357
19094.6	0.00554996
19100.5	0.00565093
19112.3	0.00584837
19124.1	0.00603974
19130	0.00613313
19141.8	0.00631529
19153.7	0.00649123
19165.5	0.0066609
19171.4	0.00674338
19183.2	0.00690358
19195	0.00705743
19200.9	0.00713197
19212.7	0.00727624
19224.6	0.0074141
19230.5	0.00748063
19242.3	0.00760886
19254.1	0.00773067
19260	0.00778917
19271.8	0.00790137
19283.7	0.00800716
19295.5	0.00810658
19301.4	0.0081539
19313.2	0.0082438
19325	0.00832739
19330.9	0.00836684
19342.8	0.00844104
19354.6	0.00850904
19360.5	0.00854073
19372.3	0.00859953
19384.1	0.00865225
19390	0.00867636
19401.9	0.0087201
19413.7	0.00875794
19425.5	0.00878994
19431.4	0.00880378
19443.2	0.00882717
19455.1	0.00884493
19461	0.00885172
19472.8	0.00886118
19484.6	0.00886523
19490.5	0.00886524
19502.3	0.00886134
19514.1	0.00885225
19520.1	0.00884579
19531.9	0.00882912
19543.7	0.00880753
19555.5	0.00878112
19561.4	0.00876614
19573.2	0.00873271
19585.1	0.00869473
19591	0.00867408
19602.8	0.0086295
19614.6	0.00858067
19620.5	0.0085547
19632.3	0.00849971
19644.2	0.00844077
19650.1	0.00840985
19661.9	0.0083452
19673.7	0.00827689
19685.5	0.00820505
19691.4	0.00816785
19703.3	0.00809095
19715.1	0.00801084
19721	0.00796961
19732.8	0.0078849
19744.6	0.00779729
19750.5	0.00775243
19762.4	0.0076607
19774.2	0.00756638
19780.1	0.00751829
19791.9	0.00742032
19803.7	0.00732007
19815.5	0.00721768
19821.5	0.00716571
19833.3	0.00706032
19845.1	0.0069531
19851	0.00689883
19862.8	0.00678908
19874.6	0.00667779
19880.6	0.0066216
19892.4	0.00650824
19904.2	0.00639364
19910.1	0.00633592
19921.9	0.0062197
19933.7	0.00610253
19945.6	0.00598454
19951.5	0.00592528
19963.3	0.00580627
19975.1	0.00568672
19981	0.00562678
19992.8	0.00550662
