0	0
14.7745	0
22.1618	0
36.9363	0
44.3236	0
51.7109	0
66.4854	0
73.8727	0
81.2599	0
96.0345	0
103.422	0
110.809	0
125.584	0
132.971	0
140.358	0
155.133	0
162.52	0
177.294	0
184.682	0
192.069	0
206.843	0
214.231	0
221.618	0
236.393	0
243.78	0
251.167	0
265.942	0
273.329	0
280.716	0
295.491	0
302.878	0
310.265	0
325.04	0
332.427	0
347.202	0
354.589	0
361.976	0
376.751	1.81899e-12
384.138	2.72848e-12
391.525	4.54747e-12
406.3	1.45519e-11
413.687	2.45564e-11
421.074	4.09273e-11
435.849	1.06411e-10
443.236	1.69166e-10
450.623	2.65572e-10
465.398	6.33918e-10
472.785	9.64064e-10
480.172	1.45155e-09
494.947	3.1996e-09
502.334	4.68481e-09
517.109	9.78525e-09
524.496	1.39662e-08
531.883	1.9777e-08
546.658	3.87627e-08
554.045	5.36756e-08
561.432	7.38064e-08
576.207	1.36759e-07
583.594	1.84362e-07
590.981	2.46994e-07
605.756	4.35441e-07
613.143	5.73198e-07
620.53	7.50376e-07
635.305	1.26559e-06
642.692	1.63104e-06
650.08	2.09168e-06
664.854	3.39134e-06
672.241	4.28877e-06
687.016	6.76971e-06
694.403	8.45183e-06
701.79	1.05093e-05
716.565	1.60596e-05
723.952	1.97408e-05
731.34	2.41781e-05
746.114	3.58902e-05
753.501	4.35067e-05
760.889	5.25682e-05
775.663	7.60265e-05
783.05	9.10144e-05
790.438	0.000108638
805.212	0.000153477
812.599	0.000181673
827.374	0.00025256
834.761	0.000296652
842.149	0.000347584
856.923	0.000473779
864.31	0.00055122
871.698	0.000639879
886.472	0.000856636
893.859	0.000988007
901.247	0.00113717
916.021	0.00149735
923.408	0.00171312
930.796	0.00195622
945.57	0.00253645
952.958	0.00288024
960.345	0.00326474
975.119	0.00417233
982.507	0.00470447
997.281	0.00595053
1004.67	0.00667555
1012.06	0.00747656
1026.83	0.00933282
1034.22	0.0104022
1041.6	0.0115757
1056.38	0.0142678
1063.77	0.0158036
1071.15	0.017478
1085.93	0.021281
1093.32	0.0234299
1100.7	0.0257576
1115.48	0.0309931
1122.86	0.0339235
1130.25	0.0370775
1145.03	0.0441037
1152.41	0.0479996
1167.19	0.0566166
1174.58	0.0613613
1181.96	0.0664124
1196.74	0.0774793
1204.12	0.083517
1211.51	0.0899048
1226.29	0.103769
1233.67	0.111264
1241.06	0.119144
1255.84	0.136089
1263.22	0.145165
1270.61	0.154649
1285.38	0.174852
1292.77	0.185573
1300.16	0.196707
1314.93	0.220201
1322.32	0.232553
1337.1	0.258431
1344.48	0.27194
1351.87	0.285812
1366.64	0.314594
1374.03	0.329472
1381.42	0.34465
1396.19	0.375822
1403.58	0.391771
1410.97	0.407928
1425.74	0.440758
1433.13	0.457372
1440.52	0.474077
1455.29	0.507628
1462.68	0.524405
1470.07	0.541134
1484.84	0.574299
1492.23	0.590658
1507	0.622731
1514.39	0.638364
1521.78	0.653674
1536.55	0.683163
1543.94	0.69726
1551.33	0.710873
1566.1	0.736484
1573.49	0.748406
1580.88	0.759689
1595.65	0.780193
1603.04	0.789345
1610.42	0.79772
1625.2	0.812021
1632.59	0.81789
1647.36	0.826939
1654.75	0.830075
1662.14	0.832259
1676.91	0.833708
1684.3	0.832946
1691.68	0.831181
1706.46	0.824612
1713.85	0.819802
1721.23	0.813976
1736.01	0.799287
1743.4	0.790438
1750.78	0.7806
1765.56	0.75801
1772.94	0.745291
1780.33	0.731649
1795.11	0.701688
1802.49	0.685419
1817.27	0.650447
1824.66	0.631807
1832.04	0.612441
1846.82	0.571677
1854.2	0.550352
1861.59	0.528452
1876.37	0.483085
1883.75	0.459701
1891.14	0.435907
1905.92	0.387263
1913.3	0.3625
1920.69	0.337502
1935.46	0.286978
1942.85	0.261539
1950.24	0.23604
1965.01	0.185036
1972.4	0.159614
1987.18	0.109138
1994.56	0.0841634
2001.95	0.0594151
2016.72	0.0107451
2024.11	-0.0131061
2031.5	-0.0365899
2046.27	-0.0823297
2053.66	-0.104526
2061.05	-0.126238
2075.82	-0.168101
2083.21	-0.188208
2090.6	-0.207735
2105.37	-0.24498
2112.76	-0.262664
2120.15	-0.279703
2134.92	-0.311799
2142.31	-0.326836
2157.08	-0.354852
2164.47	-0.367821
2171.86	-0.380093
2186.63	-0.402543
2194.02	-0.412724
2201.41	-0.422211
2216.18	-0.439128
2223.57	-0.44657
2230.95	-0.453344
2245.73	-0.464928
2253.12	-0.46976
2260.5	-0.473967
2275.28	-0.480562
2282.67	-0.482978
2290.05	-0.484826
2304.83	-0.486887
2312.21	-0.487132
2326.99	-0.486141
2334.38	-0.48494
2341.76	-0.483294
2356.54	-0.478742
2363.93	-0.475873
2371.31	-0.472636
2386.09	-0.46513
2393.47	-0.4609
2400.86	-0.456377
2415.64	-0.446529
2423.02	-0.44124
2430.41	-0.435734
2445.19	-0.424136
2452.57	-0.41808
2467.35	-0.405539
2474.73	-0.399086
2482.12	-0.392533
2496.9	-0.379186
2504.28	-0.372422
2511.67	-0.365614
2526.45	-0.351926
2533.83	-0.345069
2541.22	-0.33822
2555.99	-0.324589
2563.38	-0.317828
2570.77	-0.311116
2585.54	-0.297876
2592.93	-0.291365
2600.32	-0.284935
2615.09	-0.272352
2622.48	-0.26621
2637.25	-0.254254
2644.64	-0.24845
2652.03	-0.242767
2666.8	-0.231779
2674.19	-0.22648
2681.58	-0.221315
2696.35	-0.211394
2703.74	-0.206641
2711.13	-0.202027
2725.9	-0.193222
2733.29	-0.189031
2740.68	-0.18498
2755.45	-0.177297
2762.84	-0.173663
2770.23	-0.170167
2785	-0.163578
2792.39	-0.160482
2807.16	-0.154678
2814.55	-0.151965
2821.94	-0.149374
2836.71	-0.144551
2844.1	-0.142312
2851.49	-0.140184
2866.26	-0.136251
2873.65	-0.134439
2881.03	-0.132726
2895.81	-0.129583
2903.2	-0.128147
2910.58	-0.126796
2925.36	-0.124337
2932.74	-0.123223
2940.13	-0.122181
2954.91	-0.120299
2962.29	-0.119454
2977.07	-0.117936
2984.46	-0.117257
2991.84	-0.116628
3006.62	-0.115506
3014	-0.115007
3021.39	-0.114546
3036.17	-0.113725
3043.55	-0.11336
3050.94	-0.113021
3065.71	-0.112414
3073.1	-0.11214
3080.49	-0.111884
3095.26	-0.111413
3102.65	-0.111194
3110.04	-0.110984
3124.81	-0.110582
3132.2	-0.110386
3146.97	-0.109996
3154.36	-0.1098
3161.75	-0.109599
3176.52	-0.109184
3183.91	-0.108966
3191.3	-0.108739
3206.07	-0.108256
3213.46	-0.107998
3220.85	-0.107728
3235.62	-0.107147
3243.01	-0.106835
3250.39	-0.106507
3265.17	-0.105804
3272.56	-0.105428
3287.33	-0.104622
3294.72	-0.104193
3302.1	-0.103746
3316.88	-0.102795
3324.27	-0.102292
3331.65	-0.10177
3346.43	-0.100669
3353.81	-0.10009
3361.2	-0.0994928
3375.98	-0.098242
3383.36	-0.0975888
3390.75	-0.0969174
3405.52	-0.0955206
3412.91	-0.0947957
3420.3	-0.0940534
3435.07	-0.0925181
3442.46	-0.0917256
3457.23	-0.0900928
3464.62	-0.0892531
3472.01	-0.0883983
3486.78	-0.0866454
3494.17	-0.0857479
3501.56	-0.0848369
3516.33	-0.0829763
3523.72	-0.0820274
3531.1	-0.0810667
3545.88	-0.0791114
3553.27	-0.0781177
3560.65	-0.0771138
3575.43	-0.0750772
3582.81	-0.0740452
3590.2	-0.0730047
3604.98	-0.0708996
3612.36	-0.0698358
3627.14	-0.0676874
3634.52	-0.0666036
3641.91	-0.0655139
3656.68	-0.0633181
3664.07	-0.0622126
3671.46	-0.0611026
3686.23	-0.0588699
3693.62	-0.057748
3701.01	-0.0566226
3715.78	-0.0543627
3723.17	-0.0532287
3730.55	-0.0520924
3745.33	-0.0498137
3752.72	-0.0486717
3760.1	-0.0475283
3774.88	-0.045238
3782.26	-0.0440915
3797.04	-0.0417965
3804.42	-0.0406484
3811.81	-0.0395001
3826.59	-0.0372035
3833.97	-0.0360554
3841.36	-0.0349077
3856.13	-0.0326139
3863.52	-0.031468
3870.91	-0.0303228
3885.68	-0.0280353
3893.07	-0.0268931
3900.46	-0.0257521
3915.23	-0.0234738
3922.62	-0.0223367
3930	-0.021201
3944.78	-0.0189344
3952.16	-0.0178035
3966.94	-0.015547
3974.32	-0.0144215
3981.71	-0.0132978
3996.49	-0.0110564
4003.87	-0.00993878
4011.26	-0.00882325
4026.03	-0.00659879
4033.42	-0.00548996
4040.81	-0.00438348
4055.58	-0.00217781
4062.97	-0.00107875
4070.36	1.77146e-05
4085.13	0.00220257
4092.52	0.00329083
4107.29	0.00545862
4114.68	0.00653799
4122.06	0.00761425
4136.84	0.00975707
4144.23	0.0108234
4151.61	0.0118863
4166.39	0.0140013
4173.77	0.0150532
4181.16	0.0161012
4195.94	0.0181851
4203.32	0.0192207
4210.71	0.020252
4225.48	0.0223011
4232.87	0.0233186
4240.26	0.0243312
4255.03	0.0263413
4262.42	0.0273385
4277.19	0.0293164
4284.58	0.0302968
4291.97	0.0312713
4306.74	0.033202
4314.13	0.0341579
4321.52	0.0351072
4336.29	0.0369854
4343.68	0.037914
4351.06	0.0388353
4365.84	0.0406555
4373.23	0.041554
4380.61	0.0424445
4395.39	0.0442007
4402.77	0.0450661
4410.16	0.0459228
4424.94	0.0476091
4432.32	0.0484383
4447.1	0.0500681
4454.48	0.0508682
4461.87	0.0516582
4476.65	0.0532071
4484.03	0.0539655
4491.42	0.0547131
4506.19	0.0561749
4513.58	0.0568886
4520.97	0.0575907
4535.74	0.0589592
4543.13	0.0596251
4550.52	0.0602787
4565.29	0.0615478
4572.68	0.0621631
4580.07	0.0627652
4594.84	0.0639293
4602.23	0.064491
4617	0.0655728
4624.39	0.0660926
4631.78	0.0665982
4646.55	0.0675659
4653.94	0.0680278
4661.33	0.0684749
4676.1	0.069324
4683.49	0.0697259
4690.88	0.0701124
4705.65	0.070839
4713.04	0.071179
4720.43	0.0715032
4735.2	0.0721041
4742.59	0.0723807
4757.36	0.0728857
4764.75	0.0731141
4772.14	0.0733262
4786.91	0.0737018
4794.3	0.0738652
4801.68	0.0740123
4816.46	0.0742574
4823.85	0.0743556
4831.23	0.0744374
4846.01	0.0745521
4853.4	0.0745851
4860.78	0.0746019
4875.56	0.0745871
4882.94	0.0745556
4890.33	0.0745082
4905.11	0.0743657
4912.49	0.0742709
4927.27	0.0740345
4934.66	0.0738931
4942.04	0.0737365
4956.82	0.073378
4964.2	0.0731764
4971.59	0.0729601
4986.37	0.072484
4993.75	0.0722245
5001.14	0.0719511
5015.91	0.0713628
5023.3	0.0710484
5030.69	0.0707207
5045.46	0.0700265
5052.85	0.0696603
5060.24	0.0692819
5075.01	0.0684887
5082.4	0.0680745
5097.17	0.0672122
5104.56	0.0667646
5111.95	0.0663064
5126.72	0.0653591
5134.11	0.0648706
5141.5	0.0643726
5156.27	0.0633491
5163.66	0.0628241
5171.05	0.0622908
5185.82	0.0612002
5193.21	0.0606436
5200.6	0.0600797
5215.37	0.0589315
5222.76	0.0583478
5230.15	0.0577581
5244.92	0.0565621
5252.31	0.0559563
5267.08	0.0547307
5274.47	0.0541115
5281.86	0.0534885
5296.63	0.0522321
5304.02	0.0515994
5311.4	0.050964
5326.18	0.0496864
5333.57	0.0490449
5340.95	0.0484018
5355.73	0.0471125
5363.12	0.0464668
5370.5	0.0458207
5385.28	0.0445287
5392.66	0.0438833
5400.05	0.0432386
5414.83	0.0419524
5422.21	0.0413115
5436.99	0.0400351
5444.38	0.0394001
5451.76	0.0387675
5466.54	0.0375106
5473.92	0.0368868
5481.31	0.0362662
5496.09	0.0350358
5503.47	0.0344263
5510.86	0.0338209
5525.63	0.0326231
5533.02	0.032031
5540.41	0.0314436
5555.18	0.0302836
5562.57	0.0297114
5577.35	0.0285828
5584.73	0.0280268
5592.12	0.0274765
5606.89	0.0263931
5614.28	0.0258603
5621.67	0.0253334
5636.44	0.0242981
5643.83	0.0237898
5651.22	0.0232877
5665.99	0.0223024
5673.38	0.0218194
5680.77	0.0213427
5695.54	0.0204087
5702.93	0.0199513
5710.32	0.0195004
5725.09	0.0186178
5732.48	0.0181861
5747.25	0.0173418
5754.64	0.0169291
5762.03	0.0165226
5776.8	0.0157281
5784.19	0.0153401
5791.58	0.014958
5806.35	0.0142115
5813.74	0.0138469
5821.12	0.013488
5835.9	0.0127868
5843.29	0.0124444
5850.67	0.0121071
5865.45	0.011448
5872.84	0.0111259
5880.22	0.0108085
5895	0.0101876
5902.38	0.00988382
5917.16	0.00928884
5924.55	0.00899736
5931.93	0.0087097
5946.71	0.00814523
5954.1	0.00786812
5961.48	0.00759421
5976.26	0.0070554
5983.64	0.00679016
5991.03	0.0065275
6005.81	0.00600925
6013.19	0.00575333
6020.58	0.00549933
6035.36	0.00499643
6042.74	0.00474721
6050.13	0.00449925
6064.9	0.00400646
6072.29	0.00376132
6087.07	0.0032727
6094.45	0.00302892
6101.84	0.00278528
6116.62	0.00229777
6124	0.00205361
6131.39	0.00180897
6146.16	0.00131767
6153.55	0.00107072
6160.94	0.000822714
6175.71	0.000322972
6183.1	7.09686e-05
6190.49	-0.000182633
6205.26	-0.000695135
6212.65	-0.000954282
6220.04	-0.00121552
6234.81	-0.00174472
6242.2	-0.0020129
6256.97	-0.00255694
6264.36	-0.002833
6271.75	-0.00311188
6286.52	-0.00367845
6293.91	-0.0039663
6301.3	-0.00425731
6316.07	-0.00484907
6323.46	-0.00514996
6330.85	-0.00545426
6345.62	-0.00607337
6353.01	-0.00638827
6360.39	-0.00670679
6375.17	-0.00735487
6382.56	-0.00768449
6397.33	-0.00835506
6404.72	-0.00869604
6412.11	-0.00904084
6426.88	-0.00974196
6434.27	-0.0100983
6441.65	-0.0104585
6456.43	-0.0111903
6463.82	-0.011562
6471.2	-0.0119375
6485.98	-0.0126998
6493.37	-0.0130866
6500.75	-0.0134771
6515.53	-0.0142691
6522.91	-0.0146705
6530.3	-0.0150754
6545.08	-0.0158958
6552.46	-0.0163111
6567.24	-0.0171518
6574.63	-0.017577
6582.01	-0.0180053
6596.79	-0.0188713
6604.17	-0.0193087
6611.56	-0.019749
6626.34	-0.0206379
6633.72	-0.0210863
6641.11	-0.0215373
6655.89	-0.0224466
6663.27	-0.0229047
6670.66	-0.023365
6685.43	-0.0242918
6692.82	-0.024758
6700.21	-0.0252261
6714.98	-0.0261672
6722.37	-0.0266401
6737.15	-0.0275898
6744.53	-0.0280664
6751.92	-0.0285442
6766.69	-0.0295023
6774.08	-0.0299825
6781.47	-0.0304633
6796.24	-0.0314263
6803.63	-0.0319083
6811.02	-0.0323904
6825.79	-0.0333546
6833.18	-0.0338364
6840.57	-0.0343179
6855.34	-0.0352796
6862.73	-0.0357594
6870.12	-0.0362385
6884.89	-0.0371937
6892.28	-0.0376697
6907.05	-0.0386177
6914.44	-0.0390895
6921.83	-0.0395597
6936.6	-0.0404947
6943.99	-0.0409593
6951.38	-0.0414218
6966.15	-0.0423401
6973.54	-0.0427957
6980.93	-0.0432487
6995.7	-0.0441466
7003.09	-0.0445913
7010.48	-0.045033
7025.25	-0.0459068
7032.64	-0.0463388
7040.02	-0.0467674
7054.8	-0.0476138
7062.19	-0.0480313
7076.96	-0.0488548
7084.35	-0.0492605
7091.74	-0.049662
7106.51	-0.050452
7113.9	-0.0508404
7121.28	-0.0512241
7136.06	-0.0519776
7143.45	-0.0523471
7150.83	-0.0527116
7165.61	-0.0534254
7173	-0.0537745
7180.38	-0.0541184
7195.16	-0.0547897
7202.54	-0.0551171
7217.32	-0.0557547
7224.71	-0.0560649
7232.09	-0.0563692
7246.87	-0.0569598
7254.26	-0.057246
7261.64	-0.0575259
7276.42	-0.0580671
7283.8	-0.0583281
7291.19	-0.0585826
7305.97	-0.0590721
7313.35	-0.059307
7320.74	-0.0595351
7335.52	-0.059971
7342.9	-0.0601786
7350.29	-0.0603794
7365.06	-0.06076
7372.45	-0.0609397
7387.23	-0.0612777
7394.61	-0.061436
7402	-0.061587
7416.77	-0.0618672
7424.16	-0.0619963
7431.55	-0.062118
7446.32	-0.0623392
7453.71	-0.0624387
7461.1	-0.0625306
7475.87	-0.062692
7483.26	-0.0627614
7490.65	-0.0628232
7505.42	-0.0629241
7512.81	-0.0629632
7520.2	-0.0629947
7534.97	-0.0630347
7542.36	-0.0630433
7557.13	-0.0630376
7564.52	-0.0630233
7571.91	-0.0630015
7586.68	-0.0629348
7594.07	-0.0628901
7601.46	-0.0628378
7616.23	-0.0627106
7623.62	-0.0626356
7631	-0.0625531
7645.78	-0.0623657
7653.17	-0.0622609
7660.55	-0.0621486
7675.33	-0.0619018
7682.72	-0.0617674
7690.1	-0.0616258
7704.88	-0.0613206
7712.26	-0.0611573
7727.04	-0.0608092
7734.43	-0.0606245
7741.81	-0.0604329
7756.59	-0.0600287
7763.97	-0.0598162
7771.36	-0.059597
7786.14	-0.0591382
7793.52	-0.0588989
7800.91	-0.0586529
7815.69	-0.0581414
7823.07	-0.057876
7830.46	-0.0576042
7845.23	-0.0570418
7852.62	-0.0567514
7860.01	-0.0564548
7874.78	-0.0558437
7882.17	-0.0555293
7896.95	-0.0548831
7904.33	-0.0545515
7911.72	-0.0542143
7926.49	-0.0535234
7933.88	-0.0531698
7941.27	-0.052811
7956.04	-0.0520778
7963.43	-0.0517036
7970.82	-0.0513244
7985.59	-0.0505515
7992.98	-0.0501579
8000.37	-0.0497597
8015.14	-0.0489497
8022.53	-0.0485381
8037.3	-0.0477021
8044.69	-0.0472779
8052.08	-0.0468496
8066.85	-0.0459814
8074.24	-0.0455415
8081.63	-0.045098
8096.4	-0.0442003
8103.79	-0.0437462
8111.17	-0.0432889
8125.95	-0.0423645
8133.34	-0.0418977
8140.72	-0.0414279
8155.5	-0.0404798
8162.89	-0.0400017
8170.27	-0.0395209
8185.05	-0.0385519
8192.43	-0.0380638
8207.21	-0.037081
8214.6	-0.0365865
8221.98	-0.0360899
8236.76	-0.0350912
8244.14	-0.0345892
8251.53	-0.0340856
8266.31	-0.0330738
8273.69	-0.0325659
8281.08	-0.0320566
8295.86	-0.0310346
8303.24	-0.030522
8310.63	-0.0300084
8325.4	-0.0289789
8332.79	-0.0284631
8340.18	-0.0279467
8354.95	-0.0269124
8362.34	-0.0263947
8377.11	-0.0253586
8384.5	-0.0248404
8391.89	-0.0243221
8406.66	-0.0232859
8414.05	-0.0227681
8421.44	-0.0222507
8436.21	-0.021217
8443.6	-0.0207009
8450.99	-0.0201855
8465.76	-0.0191568
8473.15	-0.0186438
8480.54	-0.0181317
8495.31	-0.0171105
8502.7	-0.0166017
8510.08	-0.0160941
8524.86	-0.0150829
8532.25	-0.0145795
8547.02	-0.0135774
8554.41	-0.0130788
8561.8	-0.012582
8576.57	-0.0115939
8583.96	-0.0111028
8591.34	-0.0106137
8606.12	-0.00964189
8613.51	-0.00915933
8620.89	-0.00867907
8635.67	-0.00772576
8643.05	-0.00725283
8650.44	-0.00678248
8665.22	-0.00584976
8672.6	-0.00538751
8687.38	-0.00447157
8694.77	-0.00401799
8702.15	-0.00356743
8716.93	-0.00267558
8724.31	-0.00223441
8731.7	-0.00179649
8746.48	-0.000930617
8753.86	-0.000502782
8761.25	-7.84205e-05
8776.03	0.000759664
8783.41	0.00117328
8790.8	0.00158321
8805.57	0.0023918
8812.96	0.00279037
8820.35	0.00318504
8835.12	0.00396253
8842.51	0.00434526
8857.28	0.00509844
8864.67	0.0054688
8872.06	0.00583496
8886.83	0.00655448
8894.22	0.00690777
8901.61	0.00725668
8916.38	0.00794125
8923.77	0.00827683
8931.16	0.0086079
8945.93	0.00925634
8953.32	0.00957366
8960.71	0.00988633
8975.48	0.0104976
8982.87	0.0107962
8990.26	0.01109
9005.03	0.0116632
9012.42	0.0119425
9027.19	0.0124867
9034.58	0.0127514
9041.97	0.0130113
9056.74	0.0135161
9064.13	0.0137611
9071.51	0.0140012
9086.29	0.0144663
9093.68	0.0146913
9101.06	0.0149113
9115.84	0.0153363
9123.23	0.0155413
9130.61	0.0157412
9145.39	0.0161259
9152.77	0.0163108
9160.16	0.0164906
9174.94	0.0168351
9182.32	0.0169998
9197.1	0.0173142
9204.49	0.0174639
9211.87	0.0176087
9226.65	0.0178833
9234.03	0.0180132
9241.42	0.0181382
9256.2	0.0183735
9263.58	0.0184839
9270.97	0.0185894
9285.74	0.018786
9293.13	0.0188772
9300.52	0.0189636
9315.29	0.0191224
9322.68	0.0191948
9330.07	0.0192626
9344.84	0.0193845
9352.23	0.0194387
9367	0.0195337
9374.39	0.0195746
9381.78	0.0196111
9396.55	0.0196713
9403.94	0.0196951
9411.33	0.0197146
9426.1	0.0197414
9433.49	0.0197488
9440.88	0.0197521
9455.65	0.019747
9463.04	0.0197387
9470.43	0.0197266
9485.2	0.0196912
9492.59	0.0196681
9507.36	0.0196112
9514.75	0.0195776
9522.14	0.0195405
9536.91	0.0194564
9544.3	0.0194096
9551.69	0.0193595
9566.46	0.0192502
9573.85	0.019191
9581.23	0.0191289
9596.01	0.0189962
9603.4	0.0189258
9610.78	0.0188526
9625.56	0.0186986
9632.95	0.0186179
9640.33	0.0185347
9655.11	0.0183613
9662.49	0.0182713
9677.27	0.0180848
9684.66	0.0179884
9692.04	0.0178901
9706.82	0.0176878
9714.21	0.0175839
9721.59	0.0174783
9736.37	0.0172622
9743.75	0.0171518
9751.14	0.0170399
9765.92	0.0168119
9773.3	0.016696
9780.69	0.0165788
9795.47	0.0163409
9802.85	0.0162203
9810.24	0.0160987
9825.01	0.0158527
9832.4	0.0157284
9847.18	0.0154775
9854.56	0.015351
9861.95	0.0152238
9876.73	0.0149678
9884.11	0.014839
9891.5	0.0147098
9906.27	0.0144502
9913.66	0.0143199
9921.05	0.0141894
9935.82	0.0139277
9943.21	0.0137966
9950.6	0.0136655
9965.37	0.013403
9972.76	0.0132717
9980.15	0.0131405
9994.92	0.0128784
10002.3	0.0127475
10017.1	0.0124863
10024.5	0.0123561
10031.9	0.0122261
10046.6	0.011967
10054	0.0118379
10061.4	0.0117092
10076.2	0.0114528
10083.6	0.0113253
10091	0.0111982
10105.7	0.0109453
10113.1	0.0108195
10120.5	0.0106942
10135.3	0.0104452
10142.7	0.0103215
10150.1	0.0101982
10164.8	0.00995333
10172.2	0.00983169
10187	0.00959003
10194.4	0.00947001
10201.8	0.00935053
10216.5	0.00911319
10223.9	0.00899533
10231.3	0.00887799
10246.1	0.00864489
10253.5	0.00852911
10260.9	0.00841383
10275.6	0.00818474
10283	0.00807091
10290.4	0.00795754
10305.2	0.00773214
10312.6	0.00762008
10327.3	0.00739716
10334.7	0.00728626
10342.1	0.00717573
10356.9	0.00695566
10364.3	0.00684609
10371.7	0.0067368
10386.4	0.006519
10393.8	0.00641044
10401.2	0.00630208
10416	0.00608588
10423.4	0.005978
10430.8	0.00587022
10445.5	0.00565491
10452.9	0.00554732
10460.3	0.00543976
10475.1	0.00522458
10482.5	0.00511692
10497.3	0.00490132
10504.6	0.00479335
10512	0.00468521
10526.8	0.00446838
10534.2	0.00435963
10541.6	0.00425063
10556.4	0.00403176
10563.7	0.00392184
10571.1	0.00381158
10585.9	0.0035899
10593.3	0.00347843
10600.7	0.00336652
10615.5	0.00314127
10622.8	0.00302789
10630.2	0.00291397
10645	0.00268444
10652.4	0.00256878
10667.2	0.0023356
10674.5	0.00221803
10681.9	0.00209978
10696.7	0.00186119
10704.1	0.0017408
10711.5	0.00161968
10726.3	0.00137512
10733.6	0.00125166
10741	0.00112739
10755.8	0.000876392
10763.2	0.000749632
10770.6	0.000622016
10785.4	0.000364177
10792.7	0.000233934
10800.1	0.000102797
10814.9	-0.000162189
10822.3	-0.000296052
10837.1	-0.000566543
10844.5	-0.000703182
10851.8	-0.000840752
10866.6	-0.0011187
10874	-0.00125908
10881.4	-0.0014004
10896.2	-0.00168585
10903.6	-0.00182998
10910.9	-0.00197504
10925.7	-0.00226794
10933.1	-0.00241577
10940.5	-0.00256451
10955.3	-0.0028647
10962.7	-0.00301613
10970	-0.00316844
10984.8	-0.00347567
10992.2	-0.00363057
11007	-0.00394285
11014.4	-0.00410022
11021.8	-0.00425838
11036.5	-0.00457704
11043.9	-0.0047375
11051.3	-0.0048987
11066.1	-0.00522322
11073.5	-0.00538651
11080.8	-0.00555047
11095.6	-0.00588027
11103	-0.00604608
11110.4	-0.00621247
11125.2	-0.00654689
11132.6	-0.00671488
11147.3	-0.00705229
11154.7	-0.00722166
11162.1	-0.00739144
11176.9	-0.00773214
11184.3	-0.00790301
11191.7	-0.00807418
11206.4	-0.00841733
11213.8	-0.00858926
11221.2	-0.00876138
11236	-0.00910611
11243.4	-0.00927865
11250.8	-0.00945127
11265.5	-0.00979664
11272.9	-0.00996932
11280.3	-0.010142
11295.1	-0.010487
11302.5	-0.0106594
11317.2	-0.0110036
11324.6	-0.0111753
11332	-0.0113469
11346.8	-0.011689
11354.2	-0.0118596
11361.6	-0.0120298
11376.3	-0.0123689
11383.7	-0.0125378
11391.1	-0.0127062
11405.9	-0.0130413
11413.3	-0.013208
11420.7	-0.0133741
11435.4	-0.0137043
11442.8	-0.0138683
11450.2	-0.0140316
11465	-0.0143558
11472.4	-0.0145166
11487.1	-0.0148358
11494.5	-0.014994
11501.9	-0.0151513
11516.7	-0.0154629
11524.1	-0.0156172
11531.5	-0.0157704
11546.2	-0.0160737
11553.6	-0.0162236
11561	-0.0163724
11575.8	-0.0166664
11583.2	-0.0168116
11590.6	-0.0169556
11605.3	-0.0172397
11612.7	-0.0173797
11620.1	-0.0175185
11634.9	-0.0177919
11642.3	-0.0179266
11657.1	-0.0181916
11664.4	-0.018322
11671.8	-0.0184509
11686.6	-0.0187043
11694	-0.0188287
11701.4	-0.0189516
11716.2	-0.0191928
11723.5	-0.0193111
11730.9	-0.0194277
11745.7	-0.0196563
11753.1	-0.0197682
11760.5	-0.0198785
11775.3	-0.0200941
11782.6	-0.0201995
11790	-0.0203032
11804.8	-0.0205056
11812.2	-0.0206043
11827	-0.0207967
11834.4	-0.0208904
11841.7	-0.0209823
11856.5	-0.0211613
11863.9	-0.0212482
11871.3	-0.0213334
11886.1	-0.0214988
11893.4	-0.021579
11900.8	-0.0216575
11915.6	-0.0218094
11923	-0.0218828
11930.4	-0.0219546
11945.2	-0.0220931
11952.5	-0.0221599
11967.3	-0.0222886
11974.7	-0.0223504
11982.1	-0.0224107
11996.9	-0.0225263
12004.3	-0.0225817
12011.6	-0.0226356
12026.4	-0.0227385
12033.8	-0.0227876
12041.2	-0.0228352
12056	-0.0229258
12063.4	-0.0229689
12070.7	-0.0230104
12085.5	-0.0230891
12092.9	-0.0231263
12100.3	-0.0231621
12115.1	-0.0232293
12122.5	-0.0232609
12137.2	-0.0233199
12144.6	-0.0233474
12152	-0.0233736
12166.8	-0.0234221
12174.2	-0.0234445
12181.6	-0.0234656
12196.3	-0.0235042
12203.7	-0.0235217
12211.1	-0.0235381
12225.9	-0.0235673
12233.3	-0.0235803
12240.6	-0.0235922
12255.4	-0.0236127
12262.8	-0.0236215
12270.2	-0.0236292
12285	-0.0236417
12292.4	-0.0236465
12307.1	-0.0236534
12314.5	-0.0236555
12321.9	-0.0236567
12336.7	-0.0236566
12344.1	-0.0236553
12351.5	-0.0236533
12366.2	-0.0236469
12373.6	-0.0236426
12381	-0.0236376
12395.8	-0.0236255
12403.2	-0.0236184
12410.6	-0.0236108
12425.3	-0.0235936
12432.7	-0.0235841
12440.1	-0.023574
12454.9	-0.0235523
12462.3	-0.0235407
12477	-0.0235159
12484.4	-0.0235028
12491.8	-0.0234892
12506.6	-0.0234609
12514	-0.023446
12521.4	-0.0234308
12536.1	-0.0233993
12543.5	-0.023383
12550.9	-0.0233664
12565.7	-0.0233321
12573.1	-0.0233146
12580.5	-0.0232967
12595.2	-0.0232601
12602.6	-0.0232415
12610	-0.0232225
12624.8	-0.023184
12632.2	-0.0231643
12646.9	-0.0231245
12654.3	-0.0231042
12661.7	-0.0230838
12676.5	-0.0230424
12683.9	-0.0230214
12691.3	-0.0230002
12706	-0.0229575
12713.4	-0.0229358
12720.8	-0.022914
12735.6	-0.02287
12743	-0.0228478
12750.4	-0.0228254
12765.1	-0.0227803
12772.5	-0.0227575
12787.3	-0.0227115
12794.7	-0.0226882
12802.1	-0.0226649
12816.9	-0.0226177
12824.2	-0.0225939
12831.6	-0.0225699
12846.4	-0.0225216
12853.8	-0.0224971
12861.2	-0.0224725
12876	-0.0224228
12883.3	-0.0223977
12890.7	-0.0223724
12905.5	-0.0223212
12912.9	-0.0222952
12920.3	-0.0222691
12935.1	-0.0222162
12942.4	-0.0221894
12957.2	-0.0221351
12964.6	-0.0221075
12972	-0.0220797
12986.8	-0.0220232
12994.2	-0.0219945
13001.5	-0.0219656
13016.3	-0.0219066
13023.7	-0.0218767
13031.1	-0.0218464
13045.9	-0.0217847
13053.2	-0.0217533
13060.6	-0.0217215
13075.4	-0.0216567
13082.8	-0.0216236
13090.2	-0.0215902
13105	-0.0215219
13112.3	-0.0214871
13127.1	-0.0214159
13134.5	-0.0213796
13141.9	-0.0213428
13156.7	-0.0212675
13164.1	-0.021229
13171.4	-0.02119
13186.2	-0.0211102
13193.6	-0.0210694
13201	-0.0210279
13215.8	-0.0209432
13223.2	-0.0208999
13230.5	-0.0208559
13245.3	-0.0207659
13252.7	-0.0207198
13260.1	-0.020673
13274.9	-0.0205774
13282.3	-0.0205284
13297	-0.0204282
13304.4	-0.020377
13311.8	-0.020325
13326.6	-0.0202185
13334	-0.0201641
13341.4	-0.0201088
13356.1	-0.0199958
13363.5	-0.019938
13370.9	-0.0198793
13385.7	-0.0197594
13393.1	-0.0196981
13400.5	-0.0196359
13415.2	-0.0195089
13422.6	-0.0194439
13437.4	-0.0193114
13444.8	-0.0192437
13452.2	-0.019175
13466.9	-0.0190349
13474.3	-0.0189634
13481.7	-0.018891
13496.5	-0.0187432
13503.9	-0.0186678
13511.3	-0.0185915
13526	-0.0184358
13533.4	-0.0183565
13540.8	-0.0182762
13555.6	-0.0181127
13563	-0.0180294
13570.4	-0.0179452
13585.1	-0.0177737
13592.5	-0.0176865
13607.3	-0.017509
13614.7	-0.0174188
13622.1	-0.0173276
13636.8	-0.0171422
13644.2	-0.0170481
13651.6	-0.0169529
13666.4	-0.0167597
13673.8	-0.0166616
13681.2	-0.0165626
13695.9	-0.0163617
13703.3	-0.0162598
13710.7	-0.016157
13725.5	-0.0159485
13732.9	-0.0158429
13740.3	-0.0157363
13755	-0.0155205
13762.4	-0.0154113
13777.2	-0.0151902
13784.6	-0.0150783
13792	-0.0149656
13806.7	-0.0147376
13814.1	-0.0146224
13821.5	-0.0145063
13836.3	-0.0142718
13843.7	-0.0141534
13851.1	-0.0140342
13865.8	-0.0137936
13873.2	-0.0136721
13880.6	-0.01355
13895.4	-0.0133036
13902.8	-0.0131794
13910.2	-0.0130545
13924.9	-0.0128028
13932.3	-0.012676
13947.1	-0.0124206
13954.5	-0.012292
13961.9	-0.0121629
13976.7	-0.011903
13984	-0.0117723
13991.4	-0.0116411
14006.2	-0.0113773
14013.6	-0.0112447
14021	-0.0111117
14035.8	-0.0108445
14043.1	-0.0107103
14050.5	-0.0105758
14065.3	-0.0103057
14072.7	-0.0101702
14080.1	-0.0100344
14094.9	-0.00976206
14102.2	-0.00962553
14117	-0.00935184
14124.4	-0.00921473
14131.8	-0.00907746
14146.6	-0.00880253
14154	-0.0086649
14161.3	-0.00852719
14176.1	-0.00825161
14183.5	-0.00811377
14190.9	-0.00797593
14205.7	-0.0077003
14213	-0.00756255
14220.4	-0.00742486
14235.2	-0.00714978
14242.6	-0.00701242
14257.4	-0.00673814
14264.8	-0.00660126
14272.1	-0.00646458
14286.9	-0.00619188
14294.3	-0.00605591
14301.7	-0.0059202
14316.5	-0.00564966
14323.9	-0.00551487
14331.2	-0.00538042
14346	-0.0051126
14353.4	-0.00497927
14360.8	-0.00484635
14375.6	-0.0045818
14383	-0.00445021
14390.3	-0.00431908
14405.1	-0.00405832
14412.5	-0.00392871
14427.3	-0.00367112
14434.7	-0.00354317
14442.1	-0.00341579
14456.8	-0.00316285
14464.2	-0.0030373
14471.6	-0.00291239
14486.4	-0.00266454
14493.8	-0.00254163
14501.2	-0.0024194
14515.9	-0.00217708
14523.3	-0.002057
14530.7	-0.00193766
14545.5	-0.00170124
14552.9	-0.00158419
14560.3	-0.00146792
14575	-0.00123778
14582.4	-0.00112392
14597.2	-0.000898698
14604.6	-0.000787345
14612	-0.000676844
14626.7	-0.000458431
14634.1	-0.000350537
14641.5	-0.000243526
14656.3	-3.21893e-05
14663.7	7.21235e-05
14671.1	0.000175524
14685.8	0.000379561
14693.2	0.000480187
14700.6	0.000579877
14715.4	0.000776428
14722.8	0.00087328
14730.2	0.000969177
14744.9	0.00115809
14752.3	0.0012511
14767.1	0.00143421
14774.5	0.00152431
14781.9	0.00161343
14796.6	0.00178873
14804	0.00187491
14811.4	0.0019601
14826.2	0.00212754
14833.6	0.00220979
14841	0.00229105
14855.7	0.00245062
14863.1	0.00252893
14870.5	0.00260625
14885.3	0.00275797
14892.7	0.00283236
14900.1	0.00290578
14914.8	0.00304969
14922.2	0.0031202
14937	0.00325832
14944.4	0.00332594
14951.8	0.00339261
14966.6	0.00352311
14973.9	0.00358694
14981.3	0.00364983
14996.1	0.00377284
15003.5	0.00383296
15010.9	0.00389216
15025.6	0.00400784
15033	0.00406433
15040.4	0.00411993
15055.2	0.00422847
15062.6	0.00428144
15077.4	0.00438478
15084.7	0.00443517
15092.1	0.00448472
15106.9	0.00458132
15114.3	0.00462839
15121.7	0.00467465
15136.5	0.00476476
15143.8	0.00480864
15151.2	0.00485174
15166	0.00493564
15173.4	0.00497647
15180.8	0.00501655
15195.6	0.00509453
15202.9	0.00513245
15210.3	0.00516966
15225.1	0.00524203
15232.5	0.00527719
15247.3	0.00534555
15254.7	0.00537876
15262	0.00541133
15276.8	0.00547463
15284.2	0.00550537
15291.6	0.00553552
15306.4	0.00559408
15313.8	0.00562252
15321.1	0.00565041
15335.9	0.00570459
15343.3	0.0057309
15350.7	0.0057567
15365.5	0.00580684
15372.8	0.00583119
15380.2	0.00585508
15395	0.00590151
15402.4	0.00592407
15417.2	0.00596796
15424.6	0.00598929
15431.9	0.00601025
15446.7	0.00605103
15454.1	0.00607088
15461.5	0.00609039
15476.3	0.00612842
15483.7	0.00614695
15491	0.00616519
15505.8	0.00620079
15513.2	0.00621817
15520.6	0.0062353
15535.4	0.00626879
15542.8	0.00628519
15550.1	0.00630136
15564.9	0.00633307
15572.3	0.00634863
15587.1	0.00637921
15594.5	0.00639424
15601.9	0.00640911
15616.6	0.00643842
15624	0.00645287
15631.4	0.0064672
15646.2	0.00649551
15653.6	0.00650952
15661	0.00652343
15675.7	0.00655102
15683.1	0.0065647
15690.5	0.00657832
15705.3	0.00660541
15712.7	0.00661889
15720.1	0.00663234
15734.8	0.00665915
15742.2	0.00667252
15757	0.00669925
15764.4	0.00671261
15771.8	0.00672597
15786.5	0.00675274
15793.9	0.00676615
15801.3	0.00677958
15816.1	0.00680653
15823.5	0.00682005
15830.9	0.00683361
15845.6	0.00686086
15853	0.00687455
15860.4	0.00688829
15875.2	0.00691592
15882.6	0.00692982
15897.3	0.00695777
15904.7	0.00697184
15912.1	0.00698596
15926.9	0.00701437
15934.3	0.00702867
15941.7	0.00704302
15956.4	0.00707188
15963.8	0.00708639
15971.2	0.00710096
15986	0.00713023
15993.4	0.00714494
16000.8	0.00715968
16015.5	0.00718929
16022.9	0.00720414
16030.3	0.00721902
16045.1	0.00724884
16052.5	0.00726377
16067.3	0.00729366
16074.6	0.0073086
16082	0.00732353
16096.8	0.00735334
16104.2	0.0073682
16111.6	0.00738303
16126.4	0.00741254
16133.7	0.00742721
16141.1	0.00744181
16155.9	0.00747077
16163.3	0.00748511
16170.7	0.00749934
16185.4	0.00752746
16192.8	0.00754131
16200.2	0.00755502
16215	0.00758195
16222.4	0.00759515
16237.2	0.00762096
16244.5	0.00763354
16251.9	0.00764589
16266.7	0.00766986
16274.1	0.00768144
16281.5	0.00769274
16296.3	0.00771443
16303.6	0.0077248
16311	0.00773482
16325.8	0.00775379
16333.2	0.0077627
16340.6	0.00777121
16355.4	0.00778697
16362.7	0.00779418
16370.1	0.00780093
16384.9	0.00781296
16392.3	0.00781822
16407.1	0.00782712
16414.5	0.00783073
16421.8	0.00783376
16436.6	0.007838
16444	0.00783917
16451.4	0.00783969
16466.2	0.00783871
16473.6	0.00783717
16480.9	0.0078349
16495.7	0.00782812
16503.1	0.00782358
16510.5	0.00781823
16525.3	0.00780508
16532.7	0.00779724
16540	0.00778853
16554.8	0.00776842
16562.2	0.00775699
16577	0.0077313
16584.4	0.00771699
16591.7	0.00770169
16606.5	0.00766803
16613.9	0.00764964
16621.3	0.00763019
16636.1	0.00758802
16643.5	0.00756527
16650.8	0.00754139
16665.6	0.00749017
16673	0.00746279
16680.4	0.00743422
16695.2	0.00737343
16702.6	0.00734118
16717.3	0.00727289
16724.7	0.00723683
16732.1	0.00719947
16746.9	0.00712079
16754.3	0.00707946
16761.7	0.00703677
16776.4	0.00694729
16783.8	0.00690048
16791.2	0.00685227
16806	0.00675162
16813.4	0.00669917
16820.8	0.00664527
16835.5	0.00653314
16842.9	0.00647489
16850.3	0.00641517
16865.1	0.0062913
16872.5	0.00622714
16887.2	0.00609433
16894.6	0.00602568
16902	0.00595553
16916.8	0.0058107
16924.2	0.00573601
16931.6	0.00565982
16946.3	0.00550289
16953.7	0.00542216
16961.1	0.00533992
16975.9	0.00517091
16983.3	0.00508415
16990.7	0.00499588
17005.4	0.00481488
17012.8	0.00472215
17020.2	0.00462794
17035	0.00443511
17042.4	0.00433651
17057.1	0.00413499
17064.5	0.00403209
17071.9	0.00392777
17086.7	0.00371495
17094.1	0.00360647
17101.5	0.00349662
17116.2	0.00327291
17123.6	0.00315907
17131	0.00304394
17145.8	0.00280985
17153.2	0.00269093
17160.6	0.00257079
17175.3	0.00232691
17182.7	0.00220323
17190.1	0.0020784
17204.9	0.00182543
17212.3	0.00169733
17227.1	0.00143804
17234.4	0.0013069
17241.8	0.0011748
17256.6	0.00090782
17264	0.000773002
17271.4	0.000637336
17286.2	0.000363586
17293.5	0.000225564
17300.9	8.68198e-05
17315.7	-0.000192705
17323.1	-0.000333418
17330.5	-0.00047472
17345.2	-0.00075895
17352.6	-0.000901808
17360	-0.00104511
17374.8	-0.00133291
17382.2	-0.00147733
17397	-0.00176703
17404.3	-0.00191222
17411.7	-0.0020576
17426.5	-0.00234874
17433.9	-0.00249442
17441.3	-0.00264011
17456.1	-0.0029314
17463.4	-0.00307691
17470.8	-0.00322228
17485.6	-0.0035124
17493	-0.00365707
17500.4	-0.00380143
17515.2	-0.00408903
17522.5	-0.00423218
17537.3	-0.00451698
17544.7	-0.00465854
17552.1	-0.00479949
17566.9	-0.00507935
17574.3	-0.00521818
17581.6	-0.00535622
17596.4	-0.00562975
17603.8	-0.00576515
17611.2	-0.00589959
17626	-0.0061654
17633.4	-0.00629669
17640.7	-0.00642685
17655.5	-0.00668358
17662.9	-0.00681007
17670.3	-0.00693526
17685.1	-0.00718156
17692.5	-0.0073026
17707.2	-0.00754023
17714.6	-0.00765674
17722	-0.00777167
17736.8	-0.00799662
17744.2	-0.00810656
17751.5	-0.00821477
17766.3	-0.00842582
17773.7	-0.0085286
17781.1	-0.00862949
17795.9	-0.00882549
17803.3	-0.00892054
17810.6	-0.00901356
17825.4	-0.00919344
17832.8	-0.00928022
17840.2	-0.00936486
17855	-0.00952761
17862.4	-0.00960565
17877.1	-0.00975494
17884.5	-0.00982614
17891.9	-0.00989501
17906.7	-0.0100256
17914.1	-0.0100874
17921.5	-0.0101467
17936.2	-0.0102579
17943.6	-0.0103098
17951	-0.0103592
17965.8	-0.0104504
17973.2	-0.0104922
17980.6	-0.0105314
17995.3	-0.010602
18002.7	-0.0106334
18010.1	-0.0106622
18024.9	-0.0107119
18032.3	-0.0107328
18047	-0.0107666
18054.4	-0.0107795
18061.8	-0.0107897
18076.6	-0.0108022
18084	-0.0108044
18091.4	-0.0108039
18106.1	-0.0107949
18113.5	-0.0107863
18120.9	-0.0107751
18135.7	-0.0107447
18143.1	-0.0107255
18150.5	-0.0107037
18165.2	-0.0106521
18172.6	-0.0106223
18180	-0.01059
18194.8	-0.0105174
18202.2	-0.0104773
18216.9	-0.0103893
18224.3	-0.0103416
18231.7	-0.0102913
18246.5	-0.0101832
18253.9	-0.0101255
18261.3	-0.0100653
18276	-0.0099377
18283.4	-0.00987034
18290.8	-0.00980063
18305.6	-0.00965426
18313	-0.00957765
18320.4	-0.0094988
18335.1	-0.00933446
18342.5	-0.00924904
18357.3	-0.00907181
18364.7	-0.00898008
18372.1	-0.00888631
18386.9	-0.00869277
18394.2	-0.00859308
18401.6	-0.00849147
18416.4	-0.00828268
18423.8	-0.00817557
18431.2	-0.00806669
18446	-0.00784378
18453.3	-0.00772983
18460.7	-0.00761426
18475.5	-0.00737843
18482.9	-0.00725825
18490.3	-0.00713661
18505.1	-0.00688912
18512.4	-0.00676335
18527.2	-0.00650796
18534.6	-0.00637842
18542	-0.00624772
18556.8	-0.00598296
18564.1	-0.005849
18571.5	-0.00571404
18586.3	-0.00544129
18593.7	-0.00530358
18601.1	-0.00516505
18615.9	-0.00488568
18623.2	-0.00474493
18630.6	-0.00460352
18645.4	-0.00431892
18652.8	-0.00417582
18660.2	-0.00403224
18675	-0.00374381
18682.3	-0.00359905
18697.1	-0.00330866
18704.5	-0.00316312
18711.9	-0.0030174
18726.7	-0.0027256
18734.1	-0.00257961
18741.4	-0.00243361
18756.2	-0.00214176
18763.6	-0.00199599
18771	-0.00185038
18785.8	-0.00155981
18793.2	-0.00141492
18800.5	-0.00127035
18815.3	-0.000982329
18822.7	-0.000838956
18830.1	-0.000696059
18844.9	-0.000411841
18852.3	-0.000270596
18867	9.98491e-06
18874.4	0.000149249
18881.8	0.000287782
18896.6	0.000562514
18904	0.000698647
18911.4	0.000833912
18926.1	0.00110171
18933.5	0.00123418
18940.9	0.00136565
18955.7	0.0016255
18963.1	0.00175381
18970.4	0.00188101
18985.2	0.00213195
18992.6	0.00225564
19007.4	0.00249933
19014.8	0.00261928
19022.2	0.00273793
19036.9	0.00297125
19044.3	0.00308586
19051.7	0.00319909
19066.5	0.00342129
19073.9	0.00353022
19081.3	0.00363768
19096	0.00384812
19103.4	0.00395106
19110.8	0.00405245
19125.6	0.00425055
19133	0.00434723
19140.4	0.0044423
19155.1	0.00462758
19162.5	0.00471776
19177.3	0.00489316
19184.7	0.00497835
19192.1	0.00506185
19206.8	0.00522378
19214.2	0.00530218
19221.6	0.00537886
19236.4	0.00552706
19243.8	0.00559856
19251.2	0.00566832
19265.9	0.00580261
19273.3	0.00586713
19280.7	0.0059299
19295.5	0.00605019
19302.9	0.0061077
19310.3	0.00616346
19325	0.00626973
19332.4	0.00632023
19347.2	0.00641601
19354.6	0.00646129
19362	0.00650483
19376.7	0.00658672
19384.1	0.00662508
19391.5	0.00666173
19406.3	0.00672992
19413.7	0.00676147
19421.1	0.00679133
19435.8	0.00684605
19443.2	0.00687092
19450.6	0.00689414
19465.4	0.00693568
19472.8	0.00695403
19480.2	0.00697077
19494.9	0.00699951
19502.3	0.00701152
19517.1	0.00703091
19524.5	0.00703832
19531.9	0.00704421
19546.7	0.00705154
19554	0.007053
19561.4	0.00705302
19576.2	0.00704877
19583.6	0.00704454
19591	0.00703894
19605.8	0.00702365
19613.1	0.00701401
19620.5	0.00700306
19635.3	0.0069773
19642.7	0.00696253
19650.1	0.00694652
19664.9	0.00691089
19672.2	0.00689129
19687	0.00684866
19694.4	0.00682566
19701.8	0.00680156
19716.6	0.00675016
19723.9	0.0067229
19731.3	0.00669463
19746.1	0.00663512
19753.5	0.00660394
19760.9	0.00657182
19775.7	0.00650489
19783	0.00647011
19790.4	0.0064345
19805.2	0.00636083
19812.6	0.00632281
19827.4	0.00624454
19834.8	0.00620433
19842.1	0.00616342
19856.9	0.00607963
19864.3	0.00603678
19871.7	0.00599333
19886.5	0.00590472
19893.9	0.00585959
19901.2	0.00581395
19916	0.0057212
19923.4	0.00567413
19930.8	0.00562664
19945.6	0.00553045
19953	0.0054818
19960.3	0.0054328
19975.1	0.00533384
19982.5	0.00528393
19997.3	0.00518334
