0	0
11.0308	0
22.0616	0
30.8863	0
41.9171	0
50.7417	0
61.7725	0
70.5972	0
81.628	0
90.4526	0
101.483	0
110.308	0
121.339	0
130.164	0
141.194	0
150.019	0
161.05	0
172.081	0
180.905	0
191.936	0
200.761	0
211.792	0
220.616	0
231.647	0
240.472	0
251.502	0
260.327	0
271.358	0
280.183	0
291.213	0
300.038	0
311.069	0
322.1	0
330.924	0
341.955	0
350.78	0
361.811	0
370.635	0
381.666	0
390.491	0
401.521	0
410.346	0
421.377	0
430.202	0
441.232	0
450.057	0
461.088	0
472.119	0
480.943	0
491.974	0
500.799	0
511.83	0
520.654	0
531.685	0
540.51	0
551.54	0
560.365	0
571.396	0
580.221	0
591.251	0
600.076	0
611.107	0
622.138	0
630.962	0
641.993	0
650.818	0
661.849	0
670.673	0
681.704	0
690.529	0
701.559	0
710.384	0
721.415	0
730.24	0
741.27	0
750.095	0
761.126	0
772.157	0
780.981	0
792.012	0
800.837	0
811.868	0
820.692	0
831.723	0
840.548	0
851.578	9.09495e-13
860.403	3.63798e-12
871.434	1.27329e-11
880.259	2.91038e-11
891.289	8.36735e-11
900.114	1.88265e-10
911.145	4.95675e-10
922.176	1.26147e-09
931	2.59752e-09
942.031	6.20912e-09
950.856	1.21727e-08
961.887	2.74249e-08
970.711	5.13401e-08
981.742	1.09351e-07
990.567	1.95953e-07
1001.6	3.95757e-07
1010.42	6.80409e-07
1021.45	1.30662e-06
1030.28	2.15988e-06
1041.31	3.95395e-06
1050.13	6.29671e-06
1061.16	1.1015e-05
1072.19	1.8807e-05
1081.02	2.83666e-05
1092.05	4.6444e-05
1100.87	6.77975e-05
1111.91	0.000106668
1120.73	0.000150951
1131.76	0.000228687
1140.59	0.000314237
1151.62	0.000459313
1160.44	0.000613794
1171.47	0.000867316
1180.3	0.00112896
1191.33	0.00154526
1200.15	0.00196241
1211.18	0.00260722
1220.01	0.0032359
1231.04	0.00418221
1242.07	0.00532852
1250.89	0.00640512
1261.92	0.00796953
1270.75	0.00941035
1281.78	0.0114679
1290.6	0.0133349
1301.64	0.0159694
1310.46	0.0183388
1321.49	0.0216637
1330.32	0.0246475
1341.35	0.0288396
1350.17	0.0326172
1361.2	0.0379607
1370.03	0.0428166
1381.06	0.0497502
1392.09	0.057827
1400.91	0.0652659
1411.94	0.0760086
1420.77	0.0859432
1431.8	0.10031
1440.62	0.113581
1451.65	0.132698
1460.48	0.150249
1471.51	0.175323
1480.33	0.198114
1491.37	0.230296
1500.19	0.259178
1511.22	0.299398
1520.05	0.334971
1531.08	0.383757
1542.11	0.437327
1550.93	0.48355
1561.96	0.545343
1570.79	0.597775
1581.82	0.666681
1590.64	0.724146
1601.67	0.79835
1610.5	0.859142
1621.53	0.936221
1630.35	0.998202
1641.38	1.07529
1650.21	1.13606
1661.24	1.21006
1670.06	1.2671
1681.1	1.33493
1692.13	1.39806
1700.95	1.44462
1711.98	1.49726
1720.81	1.5345
1731.84	1.57444
1740.66	1.60078
1751.69	1.62633
1760.52	1.64066
1771.55	1.65069
1780.37	1.65231
1791.4	1.64622
1800.23	1.63484
1811.26	1.61249
1820.08	1.58818
1831.11	1.54987
1842.15	1.50295
1850.97	1.45939
1862	1.39768
1870.83	1.34273
1881.86	1.26741
1890.68	1.20214
1901.71	1.11473
1910.54	1.04048
1921.57	0.94281
1930.39	0.861187
1941.42	0.755389
1950.25	0.668204
1961.28	0.556697
1970.1	0.465978
1981.13	0.351391
1992.16	0.236282
2000.99	0.144398
2012.02	0.0305195
2020.84	-0.0592707
2031.87	-0.169171
2040.7	-0.25472
2051.73	-0.358052
2060.56	-0.437389
2071.59	-0.531845
2080.41	-0.603265
2091.44	-0.686913
2100.27	-0.749048
2111.3	-0.820417
2120.12	-0.872288
2131.15	-0.930415
2142.18	-0.980964
2151.01	-1.01592
2162.04	-1.05277
2170.86	-1.07686
2181.89	-1.10037
2190.72	-1.11405
2201.75	-1.125
2210.57	-1.12906
2221.6	-1.12858
2230.43	-1.12402
2241.46	-1.1135
2250.28	-1.10151
2261.32	-1.08249
2270.14	-1.06434
2281.17	-1.0384
2292.2	-1.0093
2301.03	-0.98407
2312.06	-0.950456
2320.88	-0.922176
2331.91	-0.885428
2340.74	-0.855147
2351.77	-0.816485
2360.59	-0.785107
2371.62	-0.74557
2380.45	-0.713854
2391.48	-0.674303
2400.3	-0.642871
2411.33	-0.604004
2420.16	-0.573355
2431.19	-0.535726
2440.01	-0.506251
2451.05	-0.470293
2462.08	-0.435416
2470.9	-0.408353
2481.93	-0.375638
2490.76	-0.350399
2501.79	-0.320068
2510.61	-0.296808
2521.64	-0.269025
2530.47	-0.247853
2541.5	-0.222731
2550.32	-0.20372
2561.35	-0.181326
2570.18	-0.164512
2581.21	-0.144872
2590.03	-0.130257
2601.06	-0.113352
2612.1	-0.0979459
2620.92	-0.0866839
2631.95	-0.073911
2640.78	-0.0647152
2651.81	-0.0544656
2660.63	-0.0472351
2671.66	-0.0393686
2680.49	-0.0339808
2691.52	-0.0283321
2700.34	-0.0246462
2711.37	-0.0210302
2720.2	-0.018892
2731.23	-0.0171093
2740.05	-0.0163549
2751.08	-0.0161966
2762.11	-0.0168488
2770.94	-0.0179096
2781.97	-0.019854
2790.79	-0.0218634
2801.83	-0.0248881
2810.65	-0.0276785
2821.68	-0.0315772
2830.51	-0.0349866
2841.54	-0.0395614
2850.36	-0.0434357
2861.39	-0.0485
2870.22	-0.0526951
2881.25	-0.0580756
2890.07	-0.0624589
2901.1	-0.0679978
2912.13	-0.0735628
2920.96	-0.0780063
2931.99	-0.0835185
2940.81	-0.0878731
2951.84	-0.0932207
2960.67	-0.0974044
2971.7	-0.102495
2980.52	-0.106442
2991.55	-0.111202
3000.38	-0.114861
3011.41	-0.119238
3020.23	-0.122573
3031.26	-0.126529
3040.09	-0.129519
3051.12	-0.133035
3062.15	-0.136303
3070.98	-0.138739
3082.01	-0.141563
3090.83	-0.143646
3101.86	-0.146035
3110.69	-0.147778
3121.72	-0.149749
3130.54	-0.151165
3141.57	-0.152739
3150.4	-0.153846
3161.43	-0.155044
3170.25	-0.155858
3181.28	-0.156701
3190.11	-0.157237
3201.14	-0.157741
3212.17	-0.158062
3220.99	-0.158189
3232.02	-0.158189
3240.85	-0.158062
3251.88	-0.157745
3260.7	-0.157366
3271.73	-0.156735
3280.56	-0.156104
3291.59	-0.155156
3300.41	-0.15427
3311.44	-0.153002
3320.27	-0.151858
3331.3	-0.150266
3340.12	-0.148861
3351.15	-0.146943
3362.18	-0.144842
3371.01	-0.143033
3382.04	-0.14061
3390.86	-0.138545
3401.89	-0.135808
3410.72	-0.133497
3421.75	-0.130462
3430.57	-0.127921
3441.6	-0.124609
3450.43	-0.121857
3461.46	-0.118297
3470.28	-0.11536
3481.31	-0.111587
3490.14	-0.108495
3501.17	-0.104549
3512.2	-0.100526
3521.02	-0.0972606
3532.05	-0.0931339
3540.88	-0.0898054
3551.91	-0.0856231
3560.73	-0.0822693
3571.76	-0.0780796
3580.59	-0.0747388
3591.62	-0.0705887
3600.44	-0.067298
3611.47	-0.0632327
3620.3	-0.0600269
3631.33	-0.0560883
3640.15	-0.0529995
3651.18	-0.0492256
3660	-0.0462827
3671.03	-0.0427073
3682.07	-0.0392551
3690.89	-0.0365875
3701.92	-0.0333769
3710.74	-0.0309117
3721.77	-0.0279643
3730.6	-0.0257168
3741.63	-0.0230493
3750.45	-0.021031
3761.48	-0.0186554
3770.31	-0.016874
3781.34	-0.0147976
3790.16	-0.0132572
3801.19	-0.0114827
3810.02	-0.0101838
3821.05	-0.00870974
3832.08	-0.00740031
3840.9	-0.00646957
3851.93	-0.00544946
3860.76	-0.00474562
3871.79	-0.00400239
3880.61	-0.00351389
3891.64	-0.00303111
3900.47	-0.00274328
3911.5	-0.00250079
3920.32	-0.00239607
3931.35	-0.00237021
3940.18	-0.00242841
3951.21	-0.00259247
3960.03	-0.00279112
3971.06	-0.0031158
3982.09	-0.00351627
3990.92	-0.00388455
4001.95	-0.00439628
4010.77	-0.00484038
4021.8	-0.00543027
4030.62	-0.00592355
4041.66	-0.0065583
4050.48	-0.00707429
4061.51	-0.00772121
4070.33	-0.00823422
4081.36	-0.00886196
4090.19	-0.00934769
4101.22	-0.00992698
4110.04	-0.010363
4121.07	-0.0108672
4132.11	-0.0113194
4140.93	-0.0116391
4151.96	-0.0119811
4160.79	-0.0122051
4171.82	-0.0124189
4180.64	-0.0125341
4191.67	-0.012605
4200.5	-0.012601
4211.53	-0.0125177
4220.35	-0.0123869
4231.38	-0.0121412
4240.21	-0.0118778
4251.24	-0.011464
4260.06	-0.0110644
4271.09	-0.0104787
4282.12	-0.00979635
4290.95	-0.00918058
4301.98	-0.00832309
4310.8	-0.00756664
4321.83	-0.00653272
4330.66	-0.00563466
4341.69	-0.00442309
4350.51	-0.00338238
4361.54	-0.00199174
4370.37	-0.000807066
4381.4	0.000764511
4390.22	0.0020948
4401.26	0.00384957
4410.08	0.00532741
4421.11	0.00726787
4432.14	0.00931253
4440.97	0.0110237
4452	0.0132575
4460.82	0.0151207
4471.85	0.0175448
4480.68	0.0195601
4491.71	0.022174
4500.53	0.0243404
4511.56	0.0271414
4520.39	0.0294554
4531.42	0.0324376
4540.24	0.0348933
4551.27	0.0380471
4560.1	0.040635
4571.13	0.0439467
4582.16	0.0473384
4590.98	0.0501049
4602.01	0.0536233
4610.84	0.0564812
4621.87	0.0600999
4630.69	0.063026
4641.72	0.0667137
4650.55	0.069681
4661.58	0.0734017
4670.4	0.0763798
4681.44	0.0800934
4690.26	0.0830487
4701.29	0.0867119
4710.12	0.0896089
4721.15	0.093176
4732.18	0.0966696
4741	0.0994017
4752.03	0.102726
4760.86	0.105305
4771.89	0.108414
4780.71	0.110802
4791.74	0.113652
4800.57	0.115815
4811.6	0.118363
4820.42	0.120271
4831.45	0.122481
4840.28	0.124104
4851.31	0.125943
4860.13	0.127258
4871.16	0.128699
4882.19	0.129911
4891.02	0.130711
4902.05	0.131495
4910.87	0.131948
4921.91	0.132294
4930.73	0.132395
4941.76	0.132299
4950.58	0.132045
4961.62	0.13151
4970.44	0.130907
4981.47	0.129939
4990.3	0.128996
5001.33	0.127609
5010.15	0.126338
5021.18	0.124553
5030.01	0.122972
5041.04	0.120811
5052.07	0.118454
5060.89	0.116432
5071.92	0.113744
5080.75	0.111472
5091.78	0.108487
5100.6	0.105992
5111.63	0.102746
5120.46	0.100058
5131.49	0.0965906
5140.31	0.0937401
5151.34	0.0900916
5160.17	0.0871124
5171.2	0.0833237
5180.02	0.0802493
5191.06	0.0763628
5202.09	0.0724401
5210.91	0.0692848
5221.94	0.0653299
5230.77	0.0621653
5241.8	0.0582195
5250.62	0.0550785
5261.65	0.0511818
5270.48	0.0480957
5281.51	0.0442865
5290.33	0.0412849
5301.36	0.037599
5310.19	0.0347097
5321.22	0.0311802
5330.04	0.0284283
5341.07	0.025085
5352.1	0.0218566
5360.93	0.0193617
5371.96	0.0163582
5380.78	0.0140513
5391.81	0.0112922
5400.64	0.00918743
5411.67	0.00668779
5420.49	0.00479521
5431.53	0.0025655
5440.35	0.00089168
5451.38	-0.00106224
5460.21	-0.00251443
5471.24	-0.00419121
5480.06	-0.00542244
5491.09	-0.00682502
5502.12	-0.00807804
5510.95	-0.00897459
5521.98	-0.00996575
5530.8	-0.0106574
5541.83	-0.011399
5550.66	-0.0118967
5561.69	-0.0124036
5570.51	-0.0127203
5581.54	-0.0130097
5590.37	-0.0131597
5601.4	-0.0132503
5610.22	-0.0132491
5621.25	-0.0131603
5630.08	-0.0130235
5641.11	-0.0127753
5652.14	-0.0124469
5660.96	-0.0121305
5672	-0.0116726
5680.82	-0.0112599
5691.85	-0.0106906
5700.68	-0.0101957
5711.71	-0.00953167
5720.53	-0.00896712
5731.56	-0.0082234
5740.39	-0.00760056
5751.42	-0.00679036
5760.24	-0.00611906
5771.27	-0.00525372
5780.1	-0.00454231
5791.13	-0.00363137
5802.16	-0.00269861
5810.98	-0.00193815
5822.01	-0.000971383
5830.84	-0.000186113
5841.87	0.000808971
5850.69	0.00161495
5861.72	0.00263373
5870.55	0.00345706
5881.58	0.00449568
5890.4	0.0053335
5901.43	0.00638859
5910.26	0.0072383
5921.29	0.00830669
5930.11	0.00916579
5941.15	0.0102443
5952.18	0.0113269
5961	0.0121953
5972.03	0.0132826
5980.86	0.0141532
5991.89	0.0152411
6000.71	0.0161105
6011.74	0.0171947
6020.57	0.0180592
6031.6	0.0191348
6040.42	0.0199903
6051.45	0.0210521
6060.28	0.0218944
6071.31	0.0229369
6080.13	0.0237616
6091.16	0.0247793
6102.19	0.0257808
6111.02	0.0265692
6122.05	0.0275373
6130.87	0.0282969
6141.91	0.0292264
6150.73	0.0299531
6161.76	0.0308392
6170.59	0.0315294
6181.62	0.0323678
6190.44	0.0330183
6201.47	0.0338053
6210.3	0.0344133
6221.33	0.0351458
6230.15	0.0357092
6241.18	0.0363847
6250.01	0.0369018
6261.04	0.0375187
6272.07	0.0381025
6280.89	0.0385454
6291.92	0.039069
6300.75	0.0394637
6311.78	0.0399268
6320.6	0.0402732
6331.63	0.0406761
6340.46	0.0409745
6351.49	0.0413178
6360.31	0.0415689
6371.35	0.0418534
6380.17	0.0420579
6391.2	0.0422849
6400.03	0.0424439
6411.06	0.0426146
6422.09	0.0427547
6430.91	0.042845
6441.94	0.0429312
6450.77	0.0429789
6461.8	0.0430125
6470.62	0.0430188
6481.65	0.0430013
6490.48	0.0429673
6501.51	0.0429002
6510.33	0.042827
6521.36	0.0427116
6530.19	0.0426002
6541.22	0.0424374
6550.04	0.0422887
6561.07	0.0420796
6572.11	0.0418452
6580.93	0.0416396
6591.96	0.0413599
6600.79	0.0411181
6611.82	0.0407934
6620.64	0.0405156
6631.67	0.0401457
6640.5	0.0398317
6651.53	0.0394162
6660.35	0.0390653
6671.38	0.0386033
6680.21	0.0382147
6691.24	0.0377048
6700.06	0.0372771
6711.09	0.0367173
6722.12	0.0361289
6730.95	0.0356369
6741.98	0.0349947
6750.8	0.0344585
6761.83	0.0337593
6770.66	0.0331761
6781.69	0.0324163
6790.51	0.0317831
6801.55	0.0309587
6810.37	0.0302719
6821.4	0.0293784
6830.23	0.0286346
6841.26	0.0276674
6850.08	0.0268626
6861.11	0.0258168
6872.14	0.0247252
6880.97	0.023818
6892	0.0226404
6900.82	0.0216625
6911.85	0.0203942
6920.68	0.019342
6931.71	0.0179788
6940.53	0.016849
6951.56	0.0153871
6960.39	0.014177
6971.42	0.0126132
6980.24	0.0113206
6991.27	0.00965247
7000.1	0.0082758
7011.13	0.00650197
7022.16	0.00466914
7030.99	0.00316041
7042.02	0.0012216
7050.84	-0.000371531
7061.87	-0.00241506
7070.7	-0.0040911
7081.73	-0.00623688
7090.55	-0.00799339
7101.58	-0.0102378
7110.41	-0.0120713
7121.44	-0.0144094
7130.26	-0.0163156
7141.29	-0.0187413
7150.12	-0.0207149
7161.15	-0.023221
7172.18	-0.0257683
7181	-0.0278339
7192.03	-0.0304482
7200.86	-0.0325637
7211.89	-0.0352352
7220.71	-0.0373923
7231.75	-0.0401105
7240.57	-0.0423003
7251.6	-0.0450537
7260.43	-0.0472671
7271.46	-0.0500438
7280.28	-0.0522709
7291.31	-0.0550586
7300.14	-0.0572895
7311.17	-0.0600755
7322.2	-0.0628551
7331.02	-0.0650715
7342.05	-0.0678296
7350.88	-0.0700237
7361.91	-0.0727476
7370.73	-0.0749094
7381.76	-0.0775867
7390.59	-0.0797063
7401.62	-0.0823251
7410.44	-0.0843932
7421.47	-0.0869419
7430.3	-0.0889497
7441.33	-0.0914176
7450.15	-0.0933566
7461.18	-0.0957338
7470.01	-0.0975965
7481.04	-0.0998738
7492.07	-0.102092
7500.89	-0.103823
7511.93	-0.105929
7520.75	-0.107567
7531.78	-0.109555
7540.61	-0.111096
7551.64	-0.11296
7560.46	-0.1144
7571.49	-0.116136
7580.32	-0.117472
7591.35	-0.119076
7600.17	-0.120307
7611.2	-0.121777
7620.03	-0.1229
7631.06	-0.124237
7642.09	-0.125498
7650.91	-0.126454
7661.94	-0.127581
7670.77	-0.128429
7681.8	-0.129423
7690.62	-0.130166
7701.65	-0.131029
7710.48	-0.131668
7721.51	-0.132403
7730.33	-0.13294
7741.36	-0.13355
7750.19	-0.133989
7761.22	-0.134477
7770.04	-0.13482
7781.07	-0.135192
7792.1	-0.1355
7800.93	-0.135702
7811.96	-0.1359
7820.78	-0.136015
7831.82	-0.136108
7840.64	-0.136141
7851.67	-0.136133
7860.5	-0.136087
7871.53	-0.135983
7880.35	-0.135863
7891.38	-0.135667
7900.21	-0.135475
7911.24	-0.135193
7920.06	-0.134933
7931.09	-0.134568
7942.12	-0.134159
7950.95	-0.1338
7961.98	-0.133314
7970.8	-0.132896
7981.83	-0.132337
7990.66	-0.131862
8001.69	-0.131234
8010.51	-0.130704
8021.54	-0.130009
8030.37	-0.129427
8041.4	-0.128668
8050.22	-0.128037
8061.25	-0.127216
8070.08	-0.126537
8081.11	-0.125658
8092.14	-0.124747
8100.96	-0.123996
8112	-0.123029
8120.82	-0.122235
8131.85	-0.121215
8140.68	-0.120378
8151.71	-0.119306
8160.53	-0.118429
8171.56	-0.117308
8180.39	-0.116392
8191.42	-0.115223
8200.24	-0.114269
8211.27	-0.113055
8220.1	-0.112065
8231.13	-0.110807
8242.16	-0.109526
8250.98	-0.108484
8262.01	-0.107163
8270.84	-0.10609
8281.87	-0.104729
8290.69	-0.103626
8301.72	-0.10223
8310.55	-0.101099
8321.58	-0.0996672
8330.4	-0.0985088
8341.43	-0.0970443
8350.26	-0.0958599
8361.29	-0.0943635
8370.11	-0.0931539
8381.15	-0.0916264
8392.18	-0.0900818
8401	-0.0888339
8412.03	-0.0872586
8420.86	-0.0859859
8431.89	-0.0843795
8440.71	-0.0830816
8451.74	-0.081443
8460.57	-0.0801189
8471.6	-0.0784467
8480.42	-0.0770949
8491.45	-0.075387
8500.28	-0.0740057
8511.31	-0.0722597
8520.13	-0.0708467
8531.16	-0.0690597
8542.2	-0.0672485
8551.02	-0.0657815
8562.05	-0.0639244
8570.88	-0.0624194
8581.91	-0.0605131
8590.73	-0.0589674
8601.76	-0.0570088
8610.59	-0.0554201
8621.62	-0.0534064
8630.44	-0.0517725
8641.47	-0.0497012
8650.3	-0.0480206
8661.33	-0.0458899
8670.15	-0.0441613
8681.18	-0.0419704
8690.01	-0.0401934
8701.04	-0.037942
8712.07	-0.0356574
8720.89	-0.0338062
8731.92	-0.0314631
8740.75	-0.029566
8751.78	-0.0271671
8760.6	-0.0252267
8771.64	-0.0227758
8780.46	-0.0207957
8791.49	-0.0182977
8800.32	-0.0162822
8811.35	-0.0137433
8820.17	-0.0116977
8831.2	-0.00912486
8840.03	-0.00705535
8851.06	-0.00445662
8862.09	-0.0018473
8870.91	0.000245862
8881.94	0.00286698
8890.77	0.00496571
8901.8	0.00758881
8910.62	0.00968507
8921.65	0.0122999
8930.48	0.0143854
8941.51	0.0169815
8950.33	0.0190478
8961.36	0.0216147
8970.19	0.0236533
8981.22	0.0261804
8990.04	0.0281831
9001.08	0.0306603
9012.11	0.0331053
9020.93	0.0350363
9031.96	0.0374163
9040.79	0.0392915
9051.82	0.0415973
9060.64	0.0434098
9071.67	0.0456332
9080.5	0.0473766
9091.53	0.0495098
9100.35	0.0511782
9111.38	0.0532144
9120.21	0.0548027
9131.24	0.0567359
9140.06	0.0582395
9151.09	0.0600644
9162.13	0.061827
9170.95	0.0631916
9181.98	0.0648394
9190.81	0.0661108
9201.84	0.0676405
9210.66	0.0688163
9221.69	0.0702254
9230.52	0.0713039
9241.55	0.0725907
9250.37	0.0735707
9261.4	0.0747338
9270.23	0.0756145
9281.26	0.0766533
9290.08	0.0774344
9301.11	0.0783486
9312.14	0.0791936
9320.97	0.0798199
9332	0.0805408
9340.82	0.081068
9351.85	0.0816653
9360.68	0.082094
9371.71	0.0825687
9380.53	0.0828997
9391.57	0.0832527
9400.39	0.0834869
9411.42	0.0837195
9420.25	0.0838578
9431.28	0.0839713
9440.1	0.0840148
9451.13	0.0840104
9462.16	0.0839412
9470.99	0.0838393
9482.02	0.0836544
9490.84	0.0834607
9501.87	0.0831616
9510.7	0.0828771
9521.73	0.0824655
9530.55	0.0820916
9541.58	0.081569
9550.41	0.0811072
9561.44	0.0804756
9570.26	0.0799274
9581.29	0.079189
9590.12	0.0785561
9601.15	0.0777131
9612.18	0.0768132
9621.01	0.0760529
9632.04	0.0750529
9640.86	0.0742138
9651.89	0.0731171
9660.72	0.0722021
9671.75	0.0710125
9680.57	0.070025
9691.6	0.068747
9700.43	0.0676908
9711.46	0.0663294
9720.28	0.0652087
9731.31	0.0637698
9740.14	0.0625894
9751.17	0.0610792
9762.2	0.0595323
9771.02	0.05827
9782.06	0.056663
9790.88	0.0553557
9801.91	0.0536967
9810.74	0.0523511
9821.77	0.0506486
9830.59	0.0492718
9841.62	0.0475349
9850.45	0.0461345
9861.48	0.0443729
9870.3	0.0429567
9881.33	0.0411803
9890.16	0.0397565
9901.19	0.0379757
9910.01	0.0365525
9921.04	0.0347779
9932.07	0.0330112
9940.9	0.0316059
9951.93	0.0298618
9960.75	0.0284786
9971.78	0.0267675
9980.61	0.0254149
9991.64	0.0237471
10000.5	0.0224332
10011.5	0.0208186
10020.3	0.019551
10031.4	0.0179991
10040.2	0.0167854
10051.2	0.0153051
10060	0.014152
10071.1	0.0127515
10082.1	0.0113988
10090.9	0.0103524
10101.9	0.0090909
10110.8	0.00812007
10121.8	0.006956
10130.6	0.00606534
10141.7	0.005004
10150.5	0.00419733
10161.5	0.003243
10170.3	0.00252337
10181.4	0.00167933
10190.2	0.00104892
10201.2	0.000317379
10210	-0.000222457
10221.1	-0.000840344
10232.1	-0.00139499
10240.9	-0.00179326
10252	-0.00223457
10260.8	-0.00254268
10271.8	-0.00287219
10280.6	-0.00309177
10291.7	-0.003312
10300.5	-0.00344545
10311.5	-0.00355986
10320.4	-0.00361029
10331.4	-0.00362321
10340.2	-0.00359442
10351.2	-0.00351094
10360.1	-0.00340729
10371.1	-0.00323323
10382.1	-0.00301155
10391	-0.0028013
10402	-0.00249915
10410.8	-0.0022273
10421.8	-0.0018517
10430.7	-0.001524
10441.7	-0.00108227
10450.5	-0.000704637
10461.6	-0.000204233
10470.4	0.000217338
10481.4	0.000768925
10490.2	0.00122847
10501.3	0.00182383
10510.1	0.00231547
10521.1	0.00294739
10532.1	0.00359659
10541	0.00412698
10552	0.00480207
10560.8	0.00535058
10571.9	0.00604518
10580.7	0.00660687
10591.7	0.00731502
10600.5	0.0078853
10611.6	0.00860149
10620.4	0.00917615
10631.4	0.00989536
10640.2	0.0104705
10651.3	0.0111882
10660.1	0.0117604
10671.1	0.0124722
10682.2	0.0131793
10691	0.0137406
10702	0.0144361
10710.8	0.014987
10721.9	0.0156677
10730.7	0.0162054
10741.7	0.0168683
10750.6	0.0173905
10761.6	0.0180326
10770.4	0.0185372
10781.4	0.0191558
10790.3	0.0196404
10801.3	0.0202327
10810.1	0.0206953
10821.2	0.0212587
10832.2	0.0218048
10841	0.0222287
10852	0.0227417
10860.9	0.0231379
10871.9	0.0236149
10880.7	0.0239812
10891.8	0.0244194
10900.6	0.0247536
10911.6	0.0251501
10920.4	0.0254498
10931.5	0.0258019
10940.3	0.0260649
10951.3	0.0263698
10960.1	0.026594
10971.2	0.026849
10982.2	0.0270752
10991	0.0272349
11002.1	0.0274075
11010.9	0.0275235
11021.9	0.0276404
11030.7	0.0277111
11041.8	0.0277706
11050.6	0.0277949
11061.6	0.0277958
11070.4	0.0277728
11081.5	0.0277142
11090.3	0.0276435
11101.3	0.0275252
11110.2	0.0274067
11121.2	0.027229
11130	0.0270632
11141	0.0268269
11152.1	0.0265587
11160.9	0.0263214
11171.9	0.0259971
11180.8	0.0257158
11191.8	0.0253377
11200.6	0.0250146
11211.6	0.0245856
11220.5	0.024223
11231.5	0.0237465
11240.3	0.0233474
11251.4	0.022827
11260.2	0.0223944
11271.2	0.0218344
11280	0.0213717
11291.1	0.0207762
11302.1	0.0201629
11310.9	0.0196605
11322	0.0190188
11330.8	0.0184954
11341.8	0.0178297
11350.6	0.0172889
11361.7	0.0166037
11370.5	0.0160489
11381.5	0.0153483
11390.3	0.0147829
11401.4	0.0140709
11410.2	0.0134979
11421.2	0.012778
11430.1	0.0122
11441.1	0.0114755
11452.1	0.0107496
11460.9	0.0101683
11472	0.00944173
11480.8	0.00886076
11491.8	0.00813539
11500.6	0.00755602
11511.7	0.00683329
11520.5	0.00625645
11531.5	0.00553727
11540.4	0.00496351
11551.4	0.00424835
11560.2	0.00367785
11571.2	0.00296674
11580.1	0.0023994
11591.1	0.00169203
11602.1	0.000986502
11611	0.000423261
11622	-0.000279518
11630.8	-0.000840883
11641.8	-0.00154174
11650.7	-0.00210192
11661.7	-0.00280173
11670.5	-0.0033614
11681.6	-0.00406095
11690.4	-0.00462069
11701.4	-0.00532062
11710.2	-0.00588084
11721.3	-0.00658152
11730.1	-0.00714239
11741.1	-0.00784384
11752.2	-0.00854559
11761	-0.00910706
11772	-0.00980876
11780.8	-0.0103698
11791.9	-0.0110703
11800.7	-0.0116298
11811.7	-0.0123274
11820.5	-0.0128837
11831.6	-0.0135762
11840.4	-0.0141273
11851.4	-0.014812
11860.3	-0.0153555
11871.3	-0.016029
11880.1	-0.0165622
11891.1	-0.0172208
11902.2	-0.0178694
11911	-0.0183802
11922	-0.0190074
11930.8	-0.0194994
11941.9	-0.0201008
11950.7	-0.0205702
11961.7	-0.0211412
11970.6	-0.0215845
11981.6	-0.0221205
11990.4	-0.0225339
12001.4	-0.0230304
12010.3	-0.0234105
12021.3	-0.0238632
12030.1	-0.0242068
12041.2	-0.0246119
12052.2	-0.0249892
12061	-0.0252703
12072	-0.025595
12080.9	-0.025833
12091.9	-0.0261028
12100.7	-0.0262961
12111.8	-0.0265092
12120.6	-0.0266568
12131.6	-0.0268124
12140.4	-0.0269139
12151.5	-0.027012
12160.3	-0.0270676
12171.3	-0.027109
12180.1	-0.0271199
12191.2	-0.0271064
12202.2	-0.0270633
12211	-0.0270082
12222.1	-0.0269145
12230.9	-0.0268203
12241.9	-0.0266798
12250.7	-0.0265501
12261.8	-0.0263674
12270.6	-0.026206
12281.6	-0.0259865
12290.5	-0.0257978
12301.5	-0.0255473
12310.3	-0.0253364
12321.3	-0.0250614
12330.2	-0.0248335
12341.2	-0.0245407
12350	-0.0243014
12361	-0.0239979
12372.1	-0.0236917
12380.9	-0.0234462
12391.9	-0.0231407
12400.8	-0.0228988
12411.8	-0.0226014
12420.6	-0.0223689
12431.6	-0.0220869
12440.5	-0.0218695
12451.5	-0.0216099
12460.3	-0.0214133
12471.4	-0.0211829
12480.2	-0.0210123
12491.2	-0.0208175
12500	-0.0206778
12511.1	-0.0205245
12522.1	-0.0203967
12530.9	-0.0203137
12542	-0.0202353
12550.8	-0.0201938
12561.8	-0.0201692
12570.6	-0.0201722
12581.7	-0.020205
12590.5	-0.020255
12601.5	-0.020348
12610.3	-0.0204471
12621.4	-0.0206022
12630.2	-0.0207516
12641.2	-0.02097
12650.1	-0.0211702
12661.1	-0.0214523
12672.1	-0.0217695
12680.9	-0.0220485
12692	-0.0224282
12700.8	-0.0227564
12711.8	-0.0231968
12720.7	-0.0235726
12731.7	-0.0240711
12740.5	-0.0244921
12751.5	-0.0250454
12760.4	-0.0255088
12771.4	-0.0261128
12780.2	-0.0266151
12791.2	-0.0272654
12800.1	-0.0278026
12811.1	-0.0284941
12822.1	-0.029206
12831	-0.0297891
12842	-0.0305334
12850.8	-0.03114
12861.8	-0.0319106
12870.7	-0.0325358
12881.7	-0.0333265
12890.5	-0.0339652
12901.6	-0.0347696
12910.4	-0.0354168
12921.4	-0.0362287
12930.2	-0.0368794
12941.3	-0.0376926
12950.1	-0.0383419
12961.1	-0.0391505
12972.2	-0.0399539
12981	-0.0405919
12992	-0.0413821
13000.8	-0.0420075
13011.9	-0.0427794
13020.7	-0.0433883
13031.7	-0.0441375
13040.5	-0.0447265
13051.6	-0.0454491
13060.4	-0.0460155
13071.4	-0.0467082
13080.3	-0.0472496
13091.3	-0.0479099
13100.1	-0.0484245
13111.1	-0.0490504
13122.2	-0.0496565
13131	-0.0501271
13142	-0.0506973
13150.9	-0.051139
13161.9	-0.051673
13170.7	-0.0520858
13181.7	-0.052584
13190.6	-0.0529686
13201.6	-0.0534322
13210.4	-0.0537895
13221.4	-0.0542199
13230.3	-0.0545515
13241.3	-0.0549507
13250.1	-0.0552583
13261.2	-0.0556287
13272.2	-0.0559843
13281	-0.0562587
13292	-0.0565898
13300.9	-0.0568458
13311.9	-0.0571554
13320.7	-0.0573954
13331.8	-0.0576865
13340.6	-0.057913
13351.6	-0.0581886
13360.4	-0.0584038
13371.5	-0.0586669
13380.3	-0.0588731
13391.3	-0.0591263
13400.1	-0.0593256
13411.2	-0.0595712
13420	-0.0597653
13431	-0.0600055
13442.1	-0.0602433
13450.9	-0.0604322
13461.9	-0.0606669
13470.7	-0.0608536
13481.8	-0.061086
13490.6	-0.0612711
13501.6	-0.0615015
13510.5	-0.0616851
13521.5	-0.0619134
13530.3	-0.0620951
13541.3	-0.0623206
13550.2	-0.0624996
13561.2	-0.0627211
13570	-0.0628963
13581.1	-0.0631121
13592.1	-0.0633238
13600.9	-0.0634897
13611.9	-0.0636922
13620.8	-0.0638496
13631.8	-0.06404
13640.6	-0.0641866
13651.6	-0.0643618
13660.5	-0.064495
13671.5	-0.0646518
13680.3	-0.0647688
13691.4	-0.0649036
13700.2	-0.0650015
13711.2	-0.0651108
13720	-0.0651869
13731.1	-0.0652669
13742.1	-0.0653293
13750.9	-0.0653657
13762	-0.0653934
13770.8	-0.0654008
13781.8	-0.0653906
13790.6	-0.0653664
13801.7	-0.0653153
13810.5	-0.0652573
13821.5	-0.0651625
13830.3	-0.0650685
13841.4	-0.0649277
13850.2	-0.064796
13861.2	-0.0646071
13870.1	-0.0644362
13881.1	-0.0641977
13892.1	-0.063931
13900.9	-0.0636972
13912	-0.0633792
13920.8	-0.0631042
13931.8	-0.0627345
13940.7	-0.062418
13951.7	-0.0619965
13960.5	-0.0616387
13971.5	-0.0611658
13980.4	-0.0607671
13991.4	-0.0602436
14000.2	-0.0598049
14011.3	-0.0592319
14020.1	-0.0587542
14031.1	-0.0581333
14042.1	-0.0574865
14051	-0.0569508
14062	-0.0562589
14070.8	-0.055688
14081.9	-0.0549532
14090.7	-0.0543489
14101.7	-0.0535736
14110.5	-0.0529378
14121.6	-0.0521245
14130.4	-0.0514594
14141.4	-0.0506108
14150.2	-0.0499185
14161.3	-0.0490372
14170.1	-0.0483199
14181.1	-0.0474088
14192.2	-0.0464823
14201	-0.0457307
14212	-0.0447787
14220.8	-0.0440079
14231.9	-0.0430334
14240.7	-0.0422456
14251.7	-0.0412513
14260.5	-0.0404488
14271.6	-0.0394375
14280.4	-0.0386225
14291.4	-0.0375971
14300.3	-0.0367718
14311.3	-0.0357349
14320.1	-0.0349015
14331.1	-0.0338558
14342.2	-0.0328064
14351	-0.0319647
14362	-0.0309106
14370.9	-0.0300663
14381.9	-0.0290101
14390.7	-0.0281652
14401.7	-0.0271096
14410.6	-0.0262661
14421.6	-0.0252135
14430.4	-0.0243734
14441.5	-0.0233264
14450.3	-0.0224918
14461.3	-0.0214528
14470.1	-0.0206255
14481.2	-0.0195969
14492.2	-0.018575
14501	-0.0177629
14512.1	-0.0167551
14520.9	-0.0159551
14531.9	-0.0149635
14540.7	-0.0141773
14551.8	-0.013204
14560.6	-0.0124333
14571.6	-0.0114804
14580.4	-0.0107268
14591.5	-0.00979612
14600.3	-0.00906105
14611.3	-0.00815445
14620.2	-0.00743928
14631.2	-0.00655835
14640	-0.00586432
14651	-0.00501053
14662.1	-0.00417239
14670.9	-0.0035134
14681.9	-0.00270434
14690.8	-0.00206903
14701.8	-0.00129006
14710.6	-0.000679186
14721.6	6.88538e-05
14730.5	0.000654716
14741.5	0.00137119
14750.3	0.0019316
14761.3	0.00261605
14770.2	0.00315072
14781.2	0.00380288
14790	0.00431165
14801.1	0.00493143
14812.1	0.00553323
14820.9	0.00600176
14831.9	0.00657136
14840.8	0.00701423
14851.8	0.00755192
14860.6	0.00796945
14871.7	0.00847569
14880.5	0.00886826
14891.5	0.00934362
14900.3	0.00971175
14911.4	0.0101569
14920.2	0.0105012
14931.2	0.0109169
14940	0.011238
14951.1	0.0116252
14962.1	0.0119969
14970.9	0.0122833
14982	0.0126279
14990.8	0.0128931
15001.8	0.0132117
15010.6	0.0134565
15021.7	0.0137501
15030.5	0.0139753
15041.5	0.0142451
15050.4	0.0144518
15061.4	0.0146989
15070.2	0.0148879
15081.2	0.0151136
15090.1	0.015286
15101.1	0.0154914
15112.1	0.0156862
15121	0.0158347
15132	0.0160113
15140.8	0.0161457
15151.8	0.0163054
15160.7	0.0164268
15171.7	0.016571
15180.5	0.0166806
15191.5	0.0168106
15200.4	0.0169094
15211.4	0.0170268
15220.2	0.0171159
15231.3	0.0172219
15240.1	0.0173026
15251.1	0.0173987
15262.1	0.0174899
15271	0.0175597
15282	0.0176432
15290.8	0.0177074
15301.9	0.0177847
15310.7	0.0178444
15321.7	0.0179167
15330.5	0.017973
15341.6	0.0180418
15350.4	0.0180957
15361.4	0.0181621
15370.2	0.0182147
15381.3	0.0182799
15390.1	0.018332
15401.1	0.0183971
15412.2	0.0184626
15421	0.0185154
15432	0.0185822
15440.8	0.0186364
15451.9	0.0187052
15460.7	0.0187613
15471.7	0.0188327
15480.6	0.018891
15491.6	0.0189655
15500.4	0.0190263
15511.4	0.0191039
15520.3	0.0191673
15531.3	0.0192482
15540.1	0.0193141
15551.2	0.019398
15562.2	0.0194835
15571	0.0195529
15582	0.0196409
15590.9	0.0197121
15601.9	0.0198018
15610.7	0.0198742
15621.7	0.0199651
15630.6	0.0200381
15641.6	0.0201293
15650.4	0.020202
15661.5	0.0202926
15670.3	0.0203645
15681.3	0.0204534
15690.1	0.0205236
15701.2	0.02061
15712.2	0.0206946
15721	0.0207607
15732.1	0.0208413
15740.9	0.020904
15751.9	0.0209799
15760.7	0.0210386
15771.8	0.0211092
15780.6	0.0211634
15791.6	0.0212283
15800.4	0.0212779
15811.5	0.0213369
15820.3	0.0213817
15831.3	0.0214348
15840.2	0.021475
15851.2	0.0215225
15860	0.0215583
15871	0.0216007
15882.1	0.0216406
15890.9	0.0216708
15901.9	0.0217068
15910.8	0.0217344
15921.8	0.0217677
15930.6	0.0217935
15941.6	0.0218252
15950.5	0.0218504
15961.5	0.0218821
15970.3	0.0219078
15981.4	0.0219409
15990.2	0.0219684
16001.2	0.0220046
16010	0.0220352
16021.1	0.0220761
16032.1	0.0221203
16040.9	0.0221585
16051.9	0.0222101
16060.8	0.0222547
16071.8	0.0223153
16080.6	0.0223678
16091.7	0.0224389
16100.5	0.0225004
16111.5	0.0225836
16120.3	0.0226553
16131.4	0.0227518
16140.2	0.0228347
16151.2	0.0229458
16160.1	0.0230408
16171.1	0.0231674
16182.1	0.0233031
16190.9	0.0234184
16202	0.0235708
16210.8	0.0236997
16221.8	0.0238694
16230.6	0.0240121
16241.7	0.0241993
16250.5	0.0243561
16261.5	0.0245607
16270.4	0.0247312
16281.4	0.0249529
16290.2	0.0251369
16301.2	0.0253751
16310.1	0.0255719
16321.1	0.0258256
16332.1	0.0260875
16341	0.0263025
16352	0.026578
16360.8	0.0268033
16371.8	0.0270906
16380.7	0.0273248
16391.7	0.0276222
16400.5	0.0278635
16411.6	0.0281689
16420.4	0.0284156
16431.4	0.0287266
16440.2	0.0289768
16451.3	0.0292908
16460.1	0.0295425
16471.1	0.0298569
16482.2	0.0301704
16491	0.03042
16502	0.0307296
16510.8	0.030975
16521.9	0.031278
16530.7	0.031517
16541.7	0.0318106
16550.5	0.032041
16561.6	0.0323226
16570.4	0.0325424
16581.4	0.0328094
16590.3	0.0330166
16601.3	0.0332668
16610.1	0.0334595
16621.1	0.0336907
16632.2	0.0339106
16641	0.034078
16652	0.0342761
16660.8	0.0344256
16671.9	0.0346007
16680.7	0.0347313
16691.7	0.0348824
16700.6	0.0349935
16711.6	0.03512
16720.4	0.0352112
16731.4	0.0353128
16740.3	0.0353841
16751.3	0.0354609
16760.1	0.0355125
16771.2	0.0355649
16782.2	0.0356041
16791	0.0356262
16802	0.0356424
16810.9	0.0356465
16821.9	0.0356409
16830.7	0.0356282
16841.8	0.0356024
16850.6	0.035574
16861.6	0.0355295
16870.4	0.035487
16881.5	0.0354255
16890.3	0.0353702
16901.3	0.0352937
16910.1	0.035227
16921.2	0.0351373
16930	0.0350607
16941	0.0349595
16952.1	0.0348525
16960.9	0.0347632
16971.9	0.0346472
16980.7	0.0345511
16991.8	0.0344271
17000.6	0.0343252
17011.6	0.0341943
17020.5	0.034087
17031.5	0.0339497
17040.3	0.0338373
17051.3	0.0336936
17060.2	0.033576
17071.2	0.0334256
17080	0.0333023
17091	0.0331441
17102.1	0.0329811
17110.9	0.0328467
17121.9	0.0326733
17130.8	0.0325297
17141.8	0.0323435
17150.6	0.0321885
17161.6	0.0319864
17170.5	0.0318173
17181.5	0.0315956
17190.3	0.0314092
17201.4	0.0311637
17210.2	0.0309563
17221.2	0.0306821
17230	0.0304497
17241.1	0.0301414
17252.1	0.0298118
17260.9	0.0295314
17272	0.0291585
17280.8	0.028841
17291.8	0.0284185
17300.6	0.0280586
17311.7	0.0275799
17320.5	0.0271723
17331.5	0.0266305
17340.3	0.0261698
17351.4	0.0255582
17360.2	0.0250389
17371.2	0.0243506
17380.1	0.0237674
17391.1	0.022996
17402.1	0.0221757
17410.9	0.021483
17422	0.0205702
17430.8	0.0198012
17441.8	0.0187903
17450.7	0.0179409
17461.7	0.0168272
17470.5	0.015894
17481.5	0.0146736
17490.4	0.0136536
17501.4	0.0123235
17510.2	0.0112149
17521.3	0.00977301
17530.1	0.00857455
17541.1	0.00702016
17552.1	0.00540335
17561	0.00406518
17572	0.00233703
17580.8	0.000910644
17591.8	-0.000926345
17600.7	-0.00243839
17611.7	-0.00438032
17620.5	-0.00597433
17631.6	-0.00801584
17640.4	-0.00968695
17651.4	-0.0118213
17660.2	-0.0135634
17671.3	-0.0157823
17680.1	-0.0175884
17691.1	-0.0198821
17702.2	-0.0222127
17711	-0.0241014
17722	-0.0264891
17730.8	-0.0284184
17741.9	-0.0308503
17750.7	-0.0328094
17761.7	-0.0352713
17770.5	-0.0372484
17781.6	-0.0397251
17790.4	-0.0417078
17801.4	-0.0441834
17810.3	-0.0461586
17821.3	-0.0486164
17830.1	-0.0505704
17841.1	-0.0529931
17852.2	-0.0553887
17861	-0.0572821
17872	-0.0596153
17880.9	-0.0614516
17891.9	-0.0637047
17900.7	-0.0654698
17911.7	-0.0676252
17920.6	-0.0693053
17931.6	-0.0713459
17940.4	-0.0729275
17951.5	-0.0748367
17960.3	-0.0763069
17971.3	-0.0780691
17980.1	-0.0794155
17991.2	-0.0810159
18002.2	-0.0825204
18011	-0.0836522
18022	-0.0849743
18030.9	-0.0859555
18041.9	-0.0870837
18050.7	-0.0879056
18061.8	-0.08883
18070.6	-0.0894855
18081.6	-0.0901978
18090.4	-0.0906809
18101.5	-0.0911748
18110.3	-0.091481
18121.3	-0.0917518
18130.2	-0.0918783
18141.2	-0.0919233
18150	-0.0918686
18161	-0.091687
18172.1	-0.0913799
18180.9	-0.0910443
18191.9	-0.0905132
18200.7	-0.0899999
18211.8	-0.0892489
18220.6	-0.0885618
18231.6	-0.0875967
18240.5	-0.0867412
18251.5	-0.0855698
18260.3	-0.0845527
18271.3	-0.0831841
18280.2	-0.0820135
18291.2	-0.0804585
18300	-0.0791434
18311.1	-0.0774141
18322.1	-0.0755936
18330.9	-0.0740745
18341.9	-0.0721008
18350.8	-0.070465
18361.8	-0.0683531
18370.6	-0.0666128
18381.7	-0.0643782
18390.5	-0.0625462
18401.5	-0.060205
18410.3	-0.0582944
18421.4	-0.0558633
18430.2	-0.0538874
18441.2	-0.0513832
18450	-0.0493555
18461.1	-0.0467949
18472.1	-0.0442101
18480.9	-0.0421284
18492	-0.039513
18500.8	-0.0374132
18511.8	-0.0347832
18520.6	-0.032678
18531.7	-0.030049
18540.5	-0.0279505
18551.5	-0.0253372
18560.4	-0.0232569
18571.4	-0.0206732
18580.2	-0.0186221
18591.2	-0.016081
18600.1	-0.0140689
18611.1	-0.0115826
18622.1	-0.00913139
18630.9	-0.00719788
18642	-0.00481782
18650.8	-0.00294495
18661.8	-0.000645063
18670.7	0.00116039
18681.7	0.00337226
18690.5	0.00510453
18701.5	0.00722176
18710.4	0.00887605
18721.4	0.0108933
18730.2	0.0124658
18741.3	0.0143788
18750.1	0.0158667
18761.1	0.0176726
18772.1	0.0194182
18781	0.0207709
18792	0.022407
18800.8	0.0236719
18811.9	0.0251983
18820.7	0.0263758
18831.7	0.0277933
18840.5	0.0288843
18851.6	0.0301948
18860.4	0.0312011
18871.4	0.032407
18880.2	0.0333309
18891.3	0.0344356
18900.1	0.03528
18911.1	0.0362873
18922.2	0.0372425
18931	0.03797
18942	0.038835
18950.8	0.0394924
18961.9	0.0402722
18970.7	0.0408637
18981.7	0.0415638
18990.6	0.0420937
19001.6	0.0427198
19010.4	0.0431927
19021.4	0.0437503
19030.3	0.0441708
19041.3	0.0446658
19050.1	0.0450384
19061.2	0.0454765
19072.2	0.0458853
19081	0.0461924
19092	0.0465527
19100.9	0.0468232
19111.9	0.0471404
19120.7	0.0473783
19131.7	0.0476572
19140.6	0.0478664
19151.6	0.0481117
19160.4	0.0482958
19171.5	0.0485117
19180.3	0.0486739
19191.3	0.0488643
19200.1	0.0490075
19211.2	0.0491759
19222.2	0.0493333
19231	0.049452
19242.1	0.0495919
19250.9	0.0496975
19261.9	0.0498222
19270.7	0.0499165
19281.8	0.0500279
19290.6	0.0501121
19301.6	0.0502117
19310.4	0.050287
19321.5	0.0503759
19330.3	0.0504429
19341.3	0.0505217
19350.2	0.0505808
19361.2	0.0506498
19370	0.0507012
19381	0.0507605
19392.1	0.0508144
19400.9	0.0508533
19411.9	0.0508968
19420.8	0.0509272
19431.8	0.0509596
19440.6	0.0509808
19451.6	0.0510012
19460.5	0.0510124
19471.5	0.0510197
19480.3	0.05102
19491.4	0.0510129
19500.2	0.0510011
19511.2	0.0509783
19520	0.0509534
19531.1	0.0509135
19542.1	0.0508634
19550.9	0.0508158
19561.9	0.0507463
19570.8	0.0506825
19581.8	0.0505922
19590.6	0.0505112
19601.7	0.0503986
19610.5	0.0502992
19621.5	0.050163
19630.3	0.0500443
19641.4	0.0498833
19650.2	0.0497443
19661.2	0.0495574
19670	0.0493973
19681.1	0.0491835
19692.1	0.0489544
19700.9	0.04876
19712	0.0485029
19720.8	0.0482858
19731.8	0.0480001
19740.6	0.0477599
19751.7	0.0474452
19760.5	0.0471818
19771.5	0.0468379
19780.4	0.0465512
19791.4	0.0461783
19800.2	0.0458683
19811.2	0.0454665
19820.1	0.0451336
19831.1	0.0447033
19842.1	0.0442574
19851	0.0438897
19862	0.0434164
19870.8	0.0430271
19881.8	0.0425273
19890.7	0.0421172
19901.7	0.041592
19910.5	0.041162
19921.6	0.0406126
19930.4	0.0401638
19941.4	0.0395916
19950.2	0.0391252
19961.3	0.0385318
19970.1	0.0380491
19981.1	0.0374362
19992.1	0.0368132
