0	0
37.4816	0
74.9633	0
112.445	0
149.927	0
187.408	0
224.89	0
262.372	0
299.853	0
337.335	0
374.816	0
412.298	0
449.78	0
487.261	0
524.743	0
562.225	0
599.706	0
637.188	0
674.67	0
712.151	0
749.633	0
787.115	0
824.596	0
862.078	0
899.559	0
937.041	0
974.523	0
1012	0
1049.49	0
1086.97	0
1124.45	-9.09495e-13
1161.93	-1.00044e-11
1199.41	-6.45741e-11
1236.89	-3.18323e-10
1274.38	-1.32331e-09
1311.86	-4.77667e-09
1349.34	-1.52968e-08
1386.82	-4.41914e-08
1424.3	-1.16715e-07
1461.78	-2.84896e-07
1499.27	-6.485e-07
1536.75	-1.38686e-06
1574.23	-2.80399e-06
1611.71	-5.38819e-06
1649.19	-9.88517e-06
1686.67	-1.73807e-05
1724.16	-2.93838e-05
1761.64	-4.78976e-05
1799.12	-7.54579e-05
1836.6	-0.000115116
1874.08	-0.000170337
1911.56	-0.000244783
1949.05	-0.000341957
1986.53	-0.000464671
2024.01	-0.000614342
2061.49	-0.000790098
2098.97	-0.000987706
2136.45	-0.00119837
2173.94	-0.00140747
2211.42	-0.0015932
2248.9	-0.00172541
2286.38	-0.00176457
2323.86	-0.00166101
2361.34	-0.00135459
2398.82	-0.000774945
2436.31	0.000157771
2473.79	0.0015314
2511.27	0.00343964
2548.75	0.00597919
2586.23	0.0092463
2623.71	0.0133328
2661.19	0.0183214
2698.68	0.0242817
2736.16	0.0312646
2773.64	0.0392984
2811.12	0.0483845
2848.6	0.058494
2886.08	0.0695648
2923.56	0.0815004
2961.04	0.0941691
2998.52	0.107405
3036	0.121011
3073.49	0.134761
3110.97	0.148406
3148.45	0.16168
3185.93	0.174305
3223.41	0.186003
3260.89	0.1965
3298.37	0.205537
3335.85	0.212876
3373.33	0.21831
3410.81	0.221669
3448.29	0.222825
3485.77	0.221698
3523.25	0.218257
3560.73	0.212523
3598.21	0.204569
3635.69	0.194517
3673.17	0.182534
3710.65	0.168828
3748.13	0.153642
3785.61	0.137246
3823.09	0.119931
3860.57	0.101996
3898.06	0.083747
3935.54	0.0654823
3973.02	0.0474889
4010.5	0.0300338
4047.98	0.0133591
4085.46	-0.00232349
4122.94	-0.0168358
4160.42	-0.030036
4197.91	-0.0418191
4235.39	-0.0521177
4272.87	-0.0609
4310.35	-0.0681683
4347.83	-0.0739559
4385.31	-0.0783231
4422.8	-0.0813538
4460.28	-0.0831506
4497.76	-0.0838307
4535.24	-0.083521
4572.72	-0.0823545
4610.2	-0.0804659
4647.69	-0.077988
4685.17	-0.0750491
4722.65	-0.0717698
4760.13	-0.0682616
4797.61	-0.0646248
4835.09	-0.0609478
4872.57	-0.0573065
4910.06	-0.0537643
4947.54	-0.0503721
4985.02	-0.0471691
5022.5	-0.0441834
5059.98	-0.0414331
5097.46	-0.0389276
5134.95	-0.0366684
5172.43	-0.0346507
5209.91	-0.0328643
5247.39	-0.0312951
5284.87	-0.0299258
5322.35	-0.028737
5359.84	-0.0277082
5397.32	-0.0268185
5434.8	-0.026047
5472.28	-0.0253736
5509.76	-0.0247792
5547.24	-0.0242463
5584.72	-0.0237585
5622.21	-0.0233015
5659.69	-0.0228625
5697.17	-0.0224306
5734.65	-0.0219964
5772.13	-0.0215521
5809.61	-0.0210915
5847.1	-0.0206097
5884.58	-0.020103
5922.06	-0.0195691
5959.54	-0.0190062
5997.02	-0.0184139
6034.5	-0.0177924
6071.99	-0.0171424
6109.47	-0.0164656
6146.95	-0.0157641
6184.43	-0.0150404
6221.91	-0.0142976
6259.39	-0.0135393
6296.87	-0.0127693
6334.36	-0.0119917
6371.84	-0.0112112
6409.32	-0.0104325
6446.8	-0.00966073
6484.28	-0.00890102
6521.76	-0.00815878
6559.25	-0.00743948
6596.73	-0.00674863
6634.21	-0.0060917
6671.69	-0.00547412
6709.17	-0.00490115
6746.65	-0.00437784
6784.13	-0.00390898
6821.62	-0.00349902
6859.1	-0.00315201
6896.58	-0.00287157
6934.06	-0.00266081
6971.54	-0.00252228
7009.02	-0.00245799
7046.51	-0.00246932
7083.99	-0.00255705
7121.47	-0.0027213
7158.95	-0.0029616
7196.43	-0.00327682
7233.91	-0.00366525
7271.4	-0.00412459
7308.88	-0.004652
7346.36	-0.00524413
7383.84	-0.00589717
7421.32	-0.00660689
7458.8	-0.00736869
7496.29	-0.00817768
7533.77	-0.00902869
7571.25	-0.00991637
7608.73	-0.0108352
7646.21	-0.0117796
7683.69	-0.0127439
7721.18	-0.0137225
7758.66	-0.0147098
7796.14	-0.0157003
7833.62	-0.0166885
7871.1	-0.0176693
7908.58	-0.0186376
7946.06	-0.0195884
7983.55	-0.0205172
8021.03	-0.0214194
8058.51	-0.022291
8095.99	-0.0231278
8133.47	-0.0239264
8170.95	-0.0246831
8208.43	-0.0253947
8245.92	-0.0260584
8283.4	-0.0266713
8320.88	-0.027231
8358.36	-0.0277352
8395.84	-0.0281819
8433.32	-0.0285694
8470.8	-0.0288959
8508.29	-0.0291602
8545.77	-0.0293611
8583.25	-0.0294976
8620.73	-0.029569
8658.21	-0.0295749
8695.69	-0.0295148
8733.18	-0.0293886
8770.66	-0.0291966
8808.14	-0.028939
8845.62	-0.0286164
8883.1	-0.0282295
8920.58	-0.0277793
8958.06	-0.0272671
8995.55	-0.0266942
9033.03	-0.0260625
9070.51	-0.0253739
9107.99	-0.0246304
9145.47	-0.0238345
9182.95	-0.0229888
9220.43	-0.0220962
9257.92	-0.0211598
9295.4	-0.0201828
9332.88	-0.0191688
9370.36	-0.0181216
9407.84	-0.0170449
9445.32	-0.0159428
9482.81	-0.0148196
9520.29	-0.0136796
9557.77	-0.0125274
9595.25	-0.0113673
9632.73	-0.0102041
9670.21	-0.00904238
9707.69	-0.00788684
9745.18	-0.00674214
9782.66	-0.00561287
9820.14	-0.00450357
9857.62	-0.00341867
9895.1	-0.00236246
9932.58	-0.00133909
9970.07	-0.00035248
10007.5	0.000593634
10045	0.00149578
10082.5	0.00235075
10120	0.00315564
10157.5	0.00390784
10195	0.00460509
10232.4	0.00524547
10269.9	0.00582741
10307.4	0.00634972
10344.9	0.0068116
10382.4	0.00721261
10419.8	0.0075527
10457.3	0.00783219
10494.8	0.00805178
10532.3	0.00821253
10569.8	0.00831585
10607.3	0.00836349
10644.7	0.0083575
10682.2	0.00830026
10719.7	0.00819438
10757.2	0.00804276
10794.7	0.0078485
10832.1	0.00761489
10869.6	0.00734541
10907.1	0.00704363
10944.6	0.00671326
10982.1	0.00635806
11019.6	0.00598184
11057	0.0055884
11094.5	0.00518153
11132	0.00476494
11169.5	0.0043423
11207	0.00391711
11244.4	0.00349278
11281.9	0.00307252
11319.4	0.00265937
11356.9	0.00225617
11394.4	0.00186551
11431.8	0.00148975
11469.3	0.00113101
11506.8	0.00079112
11544.3	0.000471644
11581.8	0.000173868
11619.3	-0.000101208
11656.7	-0.00035287
11694.2	-0.000580683
11731.7	-0.000784495
11769.2	-0.000964423
11806.7	-0.00112085
11844.1	-0.00125441
11881.6	-0.00136598
11919.1	-0.00145666
11956.6	-0.00152776
11994.1	-0.00158078
12031.6	-0.0016174
12069	-0.00163946
12106.5	-0.00164891
12144	-0.00164784
12181.5	-0.0016384
12219	-0.00162283
12256.4	-0.0016034
12293.9	-0.00158241
12331.4	-0.00156215
12368.9	-0.0015449
12406.4	-0.00153286
12443.9	-0.00152821
12481.3	-0.001533
12518.8	-0.0015492
12556.3	-0.00157863
12593.8	-0.00162299
12631.3	-0.00168381
12668.7	-0.00176243
12706.2	-0.00186003
12743.7	-0.00197758
12781.2	-0.00211584
12818.7	-0.00227537
12856.2	-0.0024565
12893.6	-0.00265933
12931.1	-0.00288377
12968.6	-0.00312948
13006.1	-0.0033959
13043.6	-0.0036823
13081	-0.00398769
13118.5	-0.00431093
13156	-0.00465068
13193.5	-0.00500544
13231	-0.00537355
13268.4	-0.0057532
13305.9	-0.00614251
13343.4	-0.00653945
13380.9	-0.00694194
13418.4	-0.00734785
13455.9	-0.00775499
13493.3	-0.00816118
13530.8	-0.00856425
13568.3	-0.00896205
13605.8	-0.00935249
13643.3	-0.00973356
13680.7	-0.0101033
13718.2	-0.01046
13755.7	-0.010802
13793.2	-0.0111276
13830.7	-0.0114356
13868.2	-0.0117247
13905.6	-0.011994
13943.1	-0.0122426
13980.6	-0.0124698
14018.1	-0.0126754
14055.6	-0.012859
14093	-0.0130206
14130.5	-0.0131603
14168	-0.0132786
14205.5	-0.0133759
14243	-0.0134529
14280.5	-0.0135104
14317.9	-0.0135494
14355.4	-0.0135711
14392.9	-0.0135765
14430.4	-0.013567
14467.9	-0.0135438
14505.3	-0.0135084
14542.8	-0.0134622
14580.3	-0.0134065
14617.8	-0.0133427
14655.3	-0.0132721
14692.8	-0.013196
14730.2	-0.0131156
14767.7	-0.0130319
14805.2	-0.012946
14842.7	-0.0128587
14880.2	-0.0127707
14917.6	-0.0126825
14955.1	-0.0125946
14992.6	-0.0125072
15030.1	-0.0124204
15067.6	-0.0123342
15105	-0.0122482
15142.5	-0.0121622
15180	-0.0120754
15217.5	-0.0119874
15255	-0.0118971
15292.5	-0.0118038
15329.9	-0.0117063
15367.4	-0.0116035
15404.9	-0.0114943
15442.4	-0.0113773
15479.9	-0.0112512
15517.3	-0.0111148
15554.8	-0.0109668
15592.3	-0.0108058
15629.8	-0.0106306
15667.3	-0.0104401
15704.8	-0.0102332
15742.2	-0.0100088
15779.7	-0.00976598
15817.2	-0.0095041
15854.7	-0.00922247
15892.2	-0.00892061
15929.6	-0.00859822
15967.1	-0.00825514
16004.6	-0.0078914
16042.1	-0.00750718
16079.6	-0.00710287
16117.1	-0.00667901
16154.5	-0.00623635
16192	-0.00577576
16229.5	-0.00529832
16267	-0.00480525
16304.5	-0.0042979
16341.9	-0.00377779
16379.4	-0.00324653
16416.9	-0.00270587
16454.4	-0.00215763
16491.9	-0.00160375
16529.4	-0.00104619
16566.8	-0.000486988
16604.3	7.17819e-05
16641.8	0.000628038
16679.3	0.00117969
16716.8	0.00172467
16754.2	0.00226094
16791.7	0.00278648
16829.2	0.00329937
16866.7	0.00379774
16904.2	0.0042798
16941.6	0.00474386
16979.1	0.00518835
17016.6	0.0056118
17054.1	0.00601288
17091.6	0.00639038
17129.1	0.00674322
17166.5	0.00707049
17204	0.0073714
17241.5	0.00764533
17279	0.00789178
17316.5	0.00811043
17353.9	0.0083011
17391.4	0.00846374
17428.9	0.00859846
17466.4	0.00870551
17503.9	0.00878528
17541.4	0.00883826
17578.8	0.0088651
17616.3	0.00886654
17653.8	0.00884345
17691.3	0.00879679
17728.8	0.00872762
17766.2	0.00863707
17803.7	0.00852636
17841.2	0.00839677
17878.7	0.00824965
17916.2	0.00808638
17953.7	0.0079084
17991.1	0.00771717
18028.6	0.00751416
18066.1	0.00730087
18103.6	0.0070788
18141.1	0.00684944
18178.5	0.00661427
18216	0.00637474
18253.5	0.0061323
18291	0.00588832
18328.5	0.00564416
18366	0.00540113
18403.4	0.00516046
18440.9	0.00492334
18478.4	0.00469089
18515.9	0.00446416
18553.4	0.00424413
18590.8	0.00403169
18628.3	0.00382766
18665.8	0.00363277
18703.3	0.00344768
18740.8	0.00327293
18778.2	0.00310902
18815.7	0.00295632
18853.2	0.00281515
18890.7	0.0026857
18928.2	0.00256813
18965.7	0.00246246
19003.1	0.00236867
19040.6	0.00228665
19078.1	0.00221621
19115.6	0.00215708
19153.1	0.00210895
19190.5	0.00207142
19228	0.00204404
19265.5	0.00202629
19303	0.00201764
19340.5	0.00201746
19378	0.00202513
19415.4	0.00203996
19452.9	0.00206124
19490.4	0.00208825
19527.9	0.00212023
19565.4	0.00215642
19602.8	0.00219606
19640.3	0.00223835
19677.8	0.00228254
19715.3	0.00232785
19752.8	0.00237353
19790.3	0.00241884
19827.7	0.00246307
19865.2	0.00250551
19902.7	0.0025455
19940.2	0.00258241
19977.7	0.00261563
