0	0
20.6843	0
41.3687	0
62.053	0
82.7374	0
103.422	0
124.106	0
144.79	0
165.475	0
186.159	0
206.843	0
227.528	0
248.212	0
268.897	0
289.581	0
310.265	0
330.95	0
351.634	0
372.318	0
393.003	0
413.687	0
434.371	0
455.056	0
475.74	0
496.424	0
517.109	0
537.793	0
558.477	0
579.162	0
599.846	0
620.53	0
641.215	0
661.899	0
682.584	0
703.268	0
723.952	0
744.637	0
765.321	0
785.791	0
805.793	0
825.097	0
843.411	0
860.509	0
872.714	0
879.587	0
886.654	0
895.72	0
907.422	0
920.881	0
935.604	0
951.374	0
968.021	0
985.262	0
1002.58	0
1019.93	0
1037.34	0
1054.84	0
1072.42	0
1090.08	0
1107.81	0
1125.56	0
1143.25	0
1160.85	0
1178.36	0
1195.79	0
1213.09	0
1230.16	0
1246.97	0
1263.4	0
1279.4	0
1294.9	0
1309.82	0
1324.27	0
1338.77	0
1353.7	0
1368.96	0
1384.59	0
1400.52	0
1416.69	0
1432.98	0
1449.38	0
1465.85	0
1482.38	0
1498.95	0
1515.52	0
1532.06	0
1548.55	0
1564.97	0
1581.15	0
1596.96	0
1612.41	0
1627.78	0
1643.23	0
1658.65	0
1674.02	0
1689.39	0
1704.88	0
1720.54	0
1736.37	0
1752.34	0
1768.46	0
1784.69	0
1801.01	0
1817.49	0
1834.05	0
1850.64	9.09495e-13
1867.17	9.09495e-13
1883.61	1.81899e-12
1899.97	2.72848e-12
1916.11	3.63798e-12
1932.11	6.36646e-12
1947.97	1.09139e-11
1963.71	1.72804e-11
1979.31	2.63753e-11
1994.76	4.09273e-11
2010.04	6.18456e-11
2025.19	9.3678e-11
2040.24	1.39153e-10
2055.23	2.03727e-10
2070.18	2.95586e-10
2085.14	4.26553e-10
2100.17	6.1209e-10
2115.28	8.73115e-10
2130.49	1.24055e-09
2145.83	1.75532e-09
2161.31	2.47383e-09
2176.81	3.46427e-09
2192.39	4.8276e-09
2208.06	6.69115e-09
2223.82	9.23228e-09
2239.72	1.26884e-08
2255.72	1.73577e-08
2271.8	2.36278e-08
2287.96	3.20015e-08
2304.19	4.31246e-08
2320.5	5.78266e-08
2336.89	7.71606e-08
2353.34	1.02452e-07
2369.86	1.35361e-07
2386.45	1.77957e-07
2403.1	2.32802e-07
2419.8	3.03039e-07
2436.53	3.9241e-07
2453.26	5.0527e-07
2469.99	6.46925e-07
2486.7	8.23678e-07
2503.4	1.04294e-06
2520.07	1.31341e-06
2536.72	1.64516e-06
2553.34	2.04983e-06
2569.94	2.54079e-06
2586.49	3.13324e-06
2603.01	3.84439e-06
2619.48	4.69359e-06
2635.81	5.69614e-06
2652.04	6.87575e-06
2668.08	8.24992e-06
2683.83	9.82993e-06
2699.28	1.1632e-05
2714.43	1.3675e-05
2729.7	1.60473e-05
2745.12	1.88005e-05
2760.57	2.19641e-05
2776.02	2.55818e-05
2791.48	2.97158e-05
2806.99	3.44352e-05
2822.55	3.98123e-05
2838.15	4.59273e-05
2853.8	5.28693e-05
2869.48	6.07372e-05
2885.21	6.96418e-05
2900.98	7.97065e-05
2916.8	9.1081e-05
2932.68	0.000103935
2948.61	0.000118454
2964.61	0.000134847
2980.64	0.00015335
2996.72	0.000174231
3012.84	0.000197802
3028.99	0.000224421
3045.17	0.000254502
3061.36	0.000288506
3077.54	0.000326897
3093.68	0.000370254
3109.71	0.000419011
3125.65	0.000473927
3141.52	0.000535911
3157.33	0.000605961
3173.09	0.000685216
3188.86	0.000775317
3204.75	0.000878613
3220.6	0.000996051
3236.45	0.00112977
3252.29	0.00128218
3268.15	0.00145618
3284.04	0.001655
3299.97	0.00188219
3315.92	0.00214172
3331.99	0.00243967
3348.08	0.00277986
3364.08	0.00316504
3380.01	0.00360077
3395.97	0.00409608
3411.9	0.00465612
3427.79	0.00528799
3443.73	0.00600401
3459.82	0.006819
3475.91	0.00773751
3492	0.00877053
3508.01	0.00992376
3523.96	0.0112098
3539.96	0.0126503
3555.97	0.0142594
3572	0.0160526
3587.96	0.0180363
3603.97	0.0202423
3620	0.0226893
3636.05	0.0253979
3652.03	0.0283746
3668.04	0.0316595
3684.01	0.0352663
3699.93	0.0392177
3715.82	0.0435441
3731.67	0.048273
3747.47	0.0534339
3763.23	0.0590609
3778.95	0.0651925
3794.67	0.0718861
3810.37	0.0791797
3826.1	0.0871477
3841.87	0.0958626
3857.66	0.105383
3873.48	0.115779
3889.32	0.127129
3905.17	0.139523
3921.02	0.153031
3936.88	0.167774
3952.77	0.183866
3968.65	0.201405
3984.52	0.220508
4000.39	0.24131
4016.25	0.263946
4032.12	0.288572
4047.99	0.315352
4063.92	0.344563
4079.9	0.376345
4095.85	0.410759
4111.81	0.448007
4127.76	0.488266
4143.72	0.531707
4159.68	0.578515
4175.6	0.628678
4191.55	0.682569
4207.47	0.740107
4223.43	0.801656
4239.47	0.867506
4255.58	0.937738
4271.7	1.01212
4287.78	1.09047
4303.84	1.17277
4319.94	1.25924
4336.05	1.34962
4352.17	1.44379
4368.29	1.54142
4384.43	1.64232
4400.56	1.74605
4416.69	1.85222
4432.84	1.9605
4448.98	2.07031
4465.13	2.18108
4481.29	2.29232
4497.45	2.40331
4513.61	2.51332
4529.77	2.62164
4545.94	2.72764
4562.12	2.83045
4578.29	2.92926
4594.46	3.02329
4610.62	3.11176
4626.78	3.19391
4642.96	3.26909
4659.13	3.3365
4675.31	3.39546
4691.47	3.44533
4707.62	3.48558
4723.77	3.51573
4739.91	3.53537
4756.04	3.54418
4772.16	3.54192
4788.27	3.52846
4804.38	3.50373
4820.47	3.46779
4836.55	3.42078
4852.62	3.36294
4868.67	3.29461
4884.71	3.21621
4900.74	3.12826
4916.75	3.03132
4932.75	2.92604
4948.7	2.81341
4964.6	2.69431
4980.51	2.569
4996.43	2.43842
5012.29	2.30402
5028.16	2.16604
5044.1	2.02497
5060.03	1.88236
5075.96	1.73914
5091.88	1.59619
5107.75	1.45489
5123.63	1.31545
5139.58	1.1783
5155.57	1.04438
5171.56	0.914867
5187.57	0.790366
5203.59	0.671487
5219.63	0.558792
5235.69	0.452781
5251.77	0.353889
5267.87	0.262479
5283.99	0.178839
5300.13	0.103177
5316.29	0.0356228
5332.5	-0.0238599
5348.74	-0.0752359
5365.01	-0.118584
5381.3	-0.154077
5397.62	-0.181967
5413.95	-0.202581
5430.31	-0.216315
5446.68	-0.223626
5463.05	-0.225026
5479.42	-0.221096
5495.75	-0.21247
5512.06	-0.199805
5528.3	-0.18383
5544.47	-0.165231
5560.6	-0.144688
5576.68	-0.122874
5592.8	-0.100314
5608.92	-0.0776946
5625.02	-0.0556933
5641	-0.035002
5656.96	-0.0160497
5672.82	0.000580413
5688.6	0.0144796
5704.33	0.0252938
5720.12	0.032702
5735.92	0.0363364
5751.74	0.0359008
5767.52	0.0311761
5783.3	0.0219982
5799.08	0.00825057
5814.86	-0.0101283
5830.63	-0.0330997
5846.33	-0.0605156
5862.06	-0.0924086
5877.82	-0.128615
5893.61	-0.168941
5909.44	-0.213176
5925.33	-0.261036
5941.27	-0.312172
5957.29	-0.366246
5973.36	-0.422748
5989.47	-0.481145
6005.64	-0.540876
6021.84	-0.601377
6038.1	-0.662033
6054.39	-0.722192
6070.73	-0.781194
6087.1	-0.838375
6103.5	-0.89307
6119.92	-0.944583
6136.35	-0.992282
6152.79	-1.03558
6169.23	-1.07395
6185.66	-1.10687
6202.1	-1.13393
6218.5	-1.1547
6234.88	-1.16894
6251.22	-1.17643
6267.47	-1.17704
6283.64	-1.17081
6299.71	-1.15782
6315.78	-1.13811
6331.69	-1.11208
6347.46	-1.08007
6363.12	-1.04238
6378.69	-0.999403
6394.16	-0.951563
6409.53	-0.899353
6424.79	-0.843319
6439.95	-0.783956
6455.02	-0.721745
6470.02	-0.657165
6484.96	-0.590696
6499.91	-0.52255
6514.91	-0.45309
6530.04	-0.382452
6545.28	-0.311283
6560.59	-0.240385
6575.96	-0.170314
6591.41	-0.10163
6606.93	-0.0349023
6622.52	0.0293062
6638.18	0.0904498
6653.93	0.148047
6669.76	0.201579
6685.67	0.25057
6701.68	0.294647
6717.76	0.333338
6733.91	0.366309
6750.11	0.393288
6766.38	0.414059
6782.71	0.428483
6799.1	0.436475
6815.55	0.43801
6832.06	0.433124
6848.63	0.421916
6865.26	0.404544
6881.95	0.381222
6898.7	0.352221
6915.5	0.317863
6932.36	0.278519
6949.26	0.234601
6966.19	0.186598
6983.12	0.135114
7000.03	0.08066
7016.94	0.0237495
7033.84	-0.0351058
7050.74	-0.0954027
7067.63	-0.156652
7084.51	-0.21838
7101.38	-0.280127
7118.24	-0.341469
7134.96	-0.401571
7151.52	-0.460008
7167.91	-0.516497
7184.13	-0.570814
7200.05	-0.622403
7215.73	-0.671321
7231.19	-0.717594
7246.43	-0.761233
7261.39	-0.802056
7276.09	-0.840188
7290.52	-0.875676
7304.7	-0.908668
7318.67	-0.939386
7332.5	-0.968035
7346.22	-0.994795
7359.93	-1.01993
7373.72	-1.04362
7387.69	-1.06611
7401.75	-1.08724
7415.91	-1.10712
7430.16	-1.12579
7444.51	-1.14334
7458.95	-1.15986
7473.52	-1.17545
7488.2	-1.19023
7503.01	-1.20427
7517.94	-1.21769
7532.98	-1.23056
7548.1	-1.24298
7563.32	-1.25505
7578.63	-1.26685
7594.03	-1.27849
7609.52	-1.29002
7625.09	-1.30153
7640.74	-1.31306
7656.48	-1.32465
7672.3	-1.33633
7688.19	-1.34812
7704.17	-1.36
7720.21	-1.37194
7736.33	-1.38392
7752.52	-1.39586
7768.76	-1.40769
7785.07	-1.4193
7801.42	-1.43059
7817.83	-1.44144
7834.3	-1.45171
7850.82	-1.46124
7867.39	-1.46989
7884.02	-1.47747
7900.7	-1.48382
7917.45	-1.48875
7934.25	-1.49207
7951.11	-1.4936
7968.02	-1.49316
7984.97	-1.49058
8001.94	-1.48568
8018.93	-1.47834
8035.95	-1.4684
8052.99	-1.45576
8070.06	-1.44031
8087.16	-1.42196
8104.28	-1.40065
8121.43	-1.37633
8138.61	-1.34898
8155.82	-1.3186
8173.06	-1.28523
8190.33	-1.2489
8207.62	-1.20971
8224.95	-1.16775
8242.3	-1.12315
8259.68	-1.07605
8277.08	-1.02667
8294.5	-0.975183
8311.94	-0.921829
8329.39	-0.866848
8346.86	-0.810502
8364.33	-0.75307
8381.82	-0.694839
8399.3	-0.63611
8416.79	-0.577189
8434.22	-0.518583
8451.58	-0.460606
8468.86	-0.403549
8486.07	-0.347705
8503.08	-0.29371
8519.79	-0.242082
8535.92	-0.193782
8551.18	-0.149658
8565.33	-0.110254
8577.74	-0.0769763
8589.58	-0.0464028
8601.4	-0.0171369
8613.05	0.0104823
8624.76	0.0369605
8636.69	0.0625459
8648.84	0.0871326
8661.16	0.110512
8673.7	0.13266
8686.51	0.153543
8699.49	0.172883
8712.62	0.190579
8725.97	0.206617
8739.56	0.220928
8753.39	0.233407
8767.5	0.244005
8781.81	0.252568
8796.31	0.259055
8805.5	0.262051
8820.36	0.265098
8835.38	0.266002
8850.57	0.264782
8864.78	0.261791
8876.63	0.258005
8886.8	0.253859
8902.49	0.245924
8918.26	0.236201
8934.13	0.224814
8950.07	0.211909
8966.09	0.197645
8982.17	0.182186
8998.31	0.165704
9014.47	0.148392
9030.69	0.13041
9046.95	0.111923
9063.25	0.0930951
9077.43	0.0766235
9077.61	0.0764221
9077.75	0.0762599
9077.89	0.0760972
9078.02	0.0759377
9078.16	0.0757776
9078.3	0.0756169
9078.44	0.0754543
9078.58	0.0752919
9078.72	0.0751294
9078.86	0.0749668
9079	0.0748041
9079.14	0.0746414
9079.28	0.0744785
9079.42	0.0743156
9079.56	0.0741526
9079.7	0.0739895
9079.84	0.0738264
9079.98	0.0736631
9080.12	0.0734998
9080.26	0.0733364
9080.41	0.073173
9080.55	0.0730095
9080.69	0.0728459
9080.83	0.0726823
9080.97	0.0725185
9081.11	0.0723548
9081.25	0.072191
9081.39	0.0720272
9081.53	0.0718633
9081.67	0.0716994
9081.82	0.0715355
9081.96	0.0713715
9082.1	0.0712075
9082.24	0.0710434
9082.38	0.0708793
9082.52	0.0707152
9082.66	0.0705511
9082.81	0.0703869
9082.95	0.0702228
9083.09	0.0700585
9083.23	0.0698943
9083.37	0.06973
9083.51	0.0695658
9083.65	0.0694015
9083.8	0.0692372
9083.94	0.0690728
9084.08	0.0689085
9084.22	0.0687441
9084.36	0.0685797
9084.5	0.0684154
9084.65	0.068251
9084.79	0.0680865
9084.93	0.0679221
9085.07	0.0677577
9085.21	0.0675932
9085.36	0.0674287
9085.5	0.0672643
9085.64	0.0670998
9085.78	0.0669353
9085.92	0.0667708
9086.06	0.0666063
9086.21	0.0664418
9086.35	0.0662773
9086.49	0.0661128
9086.63	0.0659482
9086.77	0.0657837
9086.92	0.0656191
9087.06	0.0654546
9087.2	0.06529
9087.34	0.0651255
9087.48	0.0649609
9087.63	0.0647964
9087.77	0.0646318
9087.91	0.0644672
9088.05	0.0643025
9088.19	0.0641379
9088.34	0.0639732
9088.48	0.0638084
9088.62	0.0636435
9088.76	0.0634786
9088.9	0.0633135
9089.05	0.0631483
9089.19	0.062983
9089.33	0.0628175
9089.48	0.0626519
9089.62	0.0624862
9089.76	0.0623205
9089.91	0.0621547
9090.05	0.0619888
9090.19	0.0618228
9090.34	0.0616567
9090.48	0.0614904
9090.62	0.061324
9090.77	0.0611573
9090.91	0.0609904
9091.06	0.0608232
9091.2	0.0606557
9091.35	0.0604878
9091.49	0.0603195
9091.64	0.0601507
9091.78	0.0599813
9091.93	0.0598112
9092.08	0.0596405
9092.23	0.0594689
9092.37	0.0592963
9092.52	0.0591227
9092.68	0.0589478
9092.83	0.0587717
9092.98	0.058597
9093.13	0.0584178
9093.29	0.0582363
9093.44	0.058063
9093.6	0.0578735
9093.77	0.0576811
9093.94	0.0574859
9094.11	0.0572878
9094.29	0.0570783
9094.47	0.0568748
9094.65	0.0566685
9094.83	0.0564593
9095.01	0.0562471
9095.2	0.0560316
9095.39	0.055805
9095.59	0.0555833
9095.78	0.055359
9095.93	0.055182
9096.12	0.0549685
9096.31	0.054752
9096.51	0.0545152
9096.74	0.0542515
9097.02	0.0539316
9097.27	0.0536422
9097.47	0.0534143
9097.65	0.0531958
9097.81	0.053014
9098	0.052796
9098.19	0.0525774
9098.38	0.052363
9098.53	0.0521831
9098.73	0.051951
9098.93	0.0517305
9099.15	0.0514678
9099.32	0.0512791
9099.51	0.0510526
9099.68	0.0508638
9099.84	0.0506754
9100.01	0.0504858
9100.17	0.0502978
9100.33	0.0501079
9100.5	0.0499217
9100.66	0.0497333
9100.83	0.0495413
9100.99	0.0493532
9101.16	0.0491591
9101.32	0.0489718
9101.52	0.0487479
9101.68	0.0485623
9101.85	0.0483584
9102.02	0.0481642
9102.19	0.0479726
9102.36	0.0477792
9102.52	0.0475871
9102.69	0.0473982
9102.85	0.0472077
9103.02	0.047019
9103.19	0.0468233
9103.36	0.0466291
9103.58	0.0463745
9103.79	0.046136
9104.04	0.0458421
9104.33	0.0455176
9104.61	0.0451871
9104.91	0.0448493
9105.18	0.0445329
9105.44	0.0442333
9105.71	0.0439285
9105.9	0.0437165
9106.11	0.0434708
9106.29	0.0432623
9106.47	0.0430533
9106.66	0.0428439
9106.87	0.0425957
9107.06	0.042386
9107.24	0.0421756
9107.42	0.0419652
9107.6	0.0417575
9107.78	0.0415531
9107.95	0.0413563
9108.13	0.0411542
9108.32	0.0409401
9108.49	0.0407399
9108.69	0.040518
9108.9	0.0402805
9109.12	0.0400231
9109.33	0.0397859
9109.69	0.0393666
9110	0.0390179
9110.29	0.0386905
9110.51	0.0384346
9110.72	0.0381924
9110.96	0.0379171
9111.2	0.0376476
9111.4	0.0374167
9111.64	0.037148
9111.84	0.0369216
9112.04	0.0366911
9112.24	0.0364633
9112.43	0.0362403
9112.62	0.0360226
9112.82	0.0358014
9113.01	0.0355848
9113.19	0.0353732
9113.38	0.0351584
9113.57	0.0349495
9113.75	0.0347375
9113.94	0.0345234
9114.13	0.0343081
9114.36	0.0340428
9114.64	0.0337284
9114.94	0.0333842
9115.29	0.0329891
9115.65	0.0325822
9115.98	0.0322103
9116.33	0.031804
9116.63	0.0314618
9116.92	0.0311422
9117.2	0.0308183
9117.48	0.0305052
9117.75	0.0301916
9118.03	0.0298747
9118.27	0.0296024
9118.53	0.0293091
9118.78	0.0290321
9119	0.0287863
9119.26	0.0284923
9119.47	0.0282459
9119.68	0.0280089
9119.9	0.0277656
9120.11	0.0275279
9120.3	0.0273138
9120.48	0.0271068
9120.67	0.0268929
9120.88	0.0266594
9121.12	0.0263853
9121.38	0.0260867
9121.65	0.0257892
9121.91	0.0254891
9122.18	0.0251858
9122.46	0.0248783
9122.7	0.0246062
9122.93	0.0243497
9123.16	0.0240826
9123.4	0.0238163
9123.6	0.0235856
9123.84	0.0233227
9124.06	0.0230688
9124.28	0.0228242
9124.5	0.0225736
9124.72	0.0223302
9124.99	0.022025
9125.3	0.0216808
9125.59	0.0213519
9125.84	0.0210756
9126.13	0.0207436
9126.39	0.020462
9126.63	0.0201878
9126.88	0.0199077
9127.12	0.0196361
9127.36	0.0193754
9127.59	0.0191081
9127.82	0.0188522
9128.06	0.0185914
9128.34	0.0182714
9128.87	0.0176793
9129.42	0.0170718
9129.74	0.016709
9130.08	0.0163288
9130.4	0.0159767
9130.74	0.0155949
9131.01	0.0152932
9131.33	0.0149415
9131.63	0.0146045
9131.89	0.0143196
9132.19	0.0139831
9132.44	0.013705
9132.75	0.0133582
9133.09	0.0129838
9133.38	0.0126567
9133.72	0.0122775
9134.05	0.0119145
9134.33	0.0116068
9134.66	0.0112453
9134.98	0.0108884
9135.75	0.0100392
9136.36	0.00935981
9136.82	0.00885831
9137.3	0.00832247
9137.71	0.00786915
9138.07	0.00747161
9138.45	0.00705725
9138.79	0.00667971
9139.14	0.00629462
9139.5	0.00590806
9139.85	0.00551735
9140.2	0.00513855
9140.55	0.00475569
9140.9	0.00436637
9141.25	0.00398204
9141.58	0.00362474
9141.91	0.0032612
9142.25	0.00289148
9142.68	0.00241543
9143.1	0.00196529
9143.44	0.00158448
9143.9	0.00109201
9144.32	0.000626689
9144.69	0.000231538
9145.17	-0.000299627
9145.51	-0.000667488
9145.85	-0.00103488
9146.23	-0.00144392
9146.61	-0.00186263
9147.04	-0.00232205
9147.38	-0.00269417
9147.73	-0.00306805
9148.22	-0.00360737
9148.69	-0.00410798
9149.12	-0.00457176
9149.56	-0.00504936
9150.06	-0.00559161
9150.52	-0.00608089
9151.04	-0.00664914
9151.57	-0.00721435
9152.13	-0.00781596
9152.62	-0.00834488
9153.05	-0.00880286
9153.51	-0.00929508
9153.99	-0.00980276
9154.53	-0.0103819
9155.05	-0.0109365
9155.58	-0.0114998
9156.11	-0.0120719
9156.65	-0.0126423
9157.17	-0.0131905
9157.38	-0.0134157
9157.62	-0.0136747
9157.82	-0.0138866
9158.03	-0.0141025
9158.25	-0.0143391
9158.47	-0.0145727
9158.7	-0.0148133
9158.99	-0.0151213
9159.26	-0.0154121
9159.6	-0.0157635
9160.28	-0.0164845
9170.07	-0.0266951
9180.01	-0.0368161
9190.01	-0.0467253
9200.06	-0.0563993
9210.03	-0.0657051
9220.09	-0.0747765
9230.1	-0.0834893
9240.07	-0.0918441
9250.04	-0.0998661
9260	-0.10756
9270.01	-0.114951
9280.02	-0.122007
9290.02	-0.128729
9300.04	-0.135132
9310.08	-0.141231
9320.1	-0.146999
9330.06	-0.152423
9340.18	-0.157636
9350.18	-0.162502
9360.15	-0.167081
9370.14	-0.171408
9380.05	-0.175454
9390.03	-0.1793
9400.28	-0.18302
9410.35	-0.18647
9420.08	-0.18962
9430.09	-0.192694
9440.35	-0.19568
9450.35	-0.198446
9460.42	-0.201106
9470.46	-0.203647
9480.42	-0.206073
9490.21	-0.208376
9500.34	-0.210692
9510.25	-0.212902
9520.52	-0.215145
9530.52	-0.217298
9540.23	-0.219365
9550.28	-0.22149
9560	-0.22354
9570.08	-0.225667
9580.57	-0.227885
9590.67	-0.230034
9600.29	-0.232093
9610.19	-0.23423
9620.42	-0.236453
9630.08	-0.238572
9640.03	-0.240771
9650.29	-0.243054
9660.87	-0.245422
9670.76	-0.247643
9680.91	-0.249927
9690.27	-0.252031
9700.93	-0.254418
9710.76	-0.256605
9720.82	-0.258821
9731.1	-0.261059
9740.44	-0.263058
9751.04	-0.265278
9760.74	-0.267261
9770.67	-0.269236
9780.8	-0.271183
9791.13	-0.273093
9800.32	-0.274723
9811.02	-0.276532
9820.54	-0.278059
9830.22	-0.279526
9840.06	-0.280928
9850.06	-0.282259
9860.23	-0.283516
9870.57	-0.284694
9881.07	-0.285792
9890.22	-0.28667
9901.06	-0.287623
9910.5	-0.288383
9920.09	-0.289094
9931.45	-0.289874
9941.35	-0.29051
9951.41	-0.291129
9961.62	-0.291745
9970.25	-0.292271
9980.75	-0.292935
9991.4	-0.29366
10000.4	-0.294332
10011.4	-0.295248
10020.7	-0.296131
10030.1	-0.297148
10041.5	-0.298588
10051.2	-0.300006
10061.1	-0.301662
10071.1	-0.303593
10081.2	-0.305841
10091.5	-0.308449
10102	-0.311465
10110.4	-0.314204
10121.1	-0.318083
10132	-0.32252
10140.8	-0.326512
10152	-0.332111
10161	-0.337113
10170.1	-0.342615
10181.7	-0.350248
10191.1	-0.357002
10200.6	-0.364372
10210.2	-0.372396
10222.3	-0.383407
10232.1	-0.393051
10242.1	-0.403486
10252.1	-0.41476
10262.3	-0.426927
10272.6	-0.440047
10280.4	-0.450554
10290.9	-0.465518
10301.5	-0.48166
10312.2	-0.499097
10320.4	-0.513111
10331.3	-0.533185
10342.4	-0.555051
10350.8	-0.57279
10362.1	-0.598504
10370.7	-0.619568
10382.3	-0.650449
10391	-0.67606
10402.8	-0.714119
10411.7	-0.746135
10420.7	-0.781682
10432.9	-0.835628
10442.1	-0.881948
10451.3	-0.934262
10460.7	-0.993608
10470.1	-1.0612
10482.8	-1.16663
10492.5	-1.25936
10502.2	-1.366
10512	-1.48883
10521.9	-1.63048
10531.2	-1.78308
10541.3	-1.97014
10551.4	-2.18607
10561.6	-2.43522
10571.9	-2.72247
10582.4	-3.05328
10592.9	-3.43375
10603.4	-3.87062
10610.6	-4.19687
10621.3	-4.7447
10632.1	-5.3705
10643.1	-6.08395
10650.4	-6.61321
10661.5	-7.49561
10672.7	-8.4946
10680.2	-9.2315
10691.6	-10.4529
10703	-11.826
10710.7	-12.8327
10722.3	-14.4912
10730.1	-15.7025
10741.9	-17.6898
10753.7	-19.8958
10761.7	-21.4963
10773.8	-24.1045
10780	-25.553
10790.7	-28.1918
10800.8	-30.8483
10810.7	-33.6427
10820.7	-36.6543
10832.4	-40.4324
10840.3	-43.113
10852.2	-47.4086
10862.1	-51.19
10872.8	-55.5049
10880.4	-58.7497
10892.6	-64.1698
10900.9	-68.0619
10913.9	-74.4338
10922.8	-78.9953
10931.8	-83.7622
10940.7	-88.7389
10954.4	-96.6105
10963.5	-102.143
10972.8	-107.914
10982.2	-113.935
10991.6	-120.219
11001.2	-126.781
11011	-133.636
11020	-140.213
11031	-148.36
11040.5	-155.679
11050.8	-163.811
11061.2	-172.223
11071	-180.296
11082.2	-189.791
11091.5	-197.919
11101.3	-206.602
11111.3	-215.719
11121.7	-225.3
11132.5	-235.566
11140	-242.782
11150	-252.586
11160	-262.554
11170	-272.707
11180.1	-283.081
11190.2	-293.726
11200.1	-304.247
11210.3	-315.351
11220	-326.016
11230.4	-337.575
11240.1	-348.657
11250.1	-360.057
11260.1	-371.763
11270.3	-383.765
11280.2	-395.626
11290.2	-407.654
11300.2	-419.939
11310.4	-432.562
11320.2	-444.847
11330	-457.286
11340.4	-470.526
11350.1	-483.095
11360.3	-496.39
11370.3	-509.606
11380.1	-522.65
11390.3	-536.361
11400.2	-549.792
11410.5	-563.866
11420.4	-577.54
11430.6	-591.826
11440.5	-605.584
11450.6	-619.918
11460.2	-633.591
11470.1	-647.803
11480.2	-662.586
11490.7	-677.98
11500.5	-692.544
11510.6	-707.693
11520	-721.968
11530	-737.405
11540.1	-753.223
11550	-769.148
11560.2	-785.704
11570.2	-802.321
11580.3	-819.627
11590.1	-836.751
11600.2	-855.004
11610.4	-873.818
11620.1	-892.392
11630.2	-912.199
11640.2	-932.444
11650	-952.968
11660.1	-974.758
11670.4	-997.622
11680.7	-1021.26
11690.1	-1043.39
11700.8	-1069.43
11710.3	-1093.25
11720.2	-1118.83
11730.7	-1146.34
11740.6	-1173.18
11751	-1201.92
11760.7	-1229.55
11770.9	-1259.02
11780.4	-1286.88
11790.3	-1316.41
11800.6	-1347.72
11811.3	-1380.92
11821.1	-1411.59
11831.3	-1443.84
11840.3	-1472.78
11851.2	-1508.11
11860.9	-1539.77
11870.9	-1572.73
11881.3	-1607.02
11890.2	-1636.63
11901.1	-1673.42
11910.5	-1705.12
11920.2	-1737.78
11930.1	-1771.41
11940.3	-1806.04
11950.8	-1841.68
11961.5	-1878.33
11970.3	-1908.39
11981.6	-1946.87
11990.9	-1978.4
12000.3	-2010.47
12012.2	-2051.01
12021.8	-2083.77
12031.6	-2116.82
12041.4	-2150.14
12051.4	-2183.73
12061.5	-2217.57
12071.7	-2251.65
12082	-2285.95
12092.4	-2320.43
12100.3	-2346.37
12110.9	-2381.03
12121.5	-2415.75
12132.2	-2450.52
12140.3	-2476.63
12151.2	-2511.47
12162.2	-2546.31
12170.5	-2572.45
12181.6	-2607.29
12192.8	-2642.11
12201.3	-2668.21
12212.6	-2702.98
12221.2	-2729.03
12232.8	-2763.72
12241.5	-2789.68
12250.2	-2815.6
12262	-2850.08
12270.9	-2875.87
12282.8	-2910.16
12291.9	-2935.79
12300.9	-2961.32
12310.1	-2986.75
12322.3	-3020.49
12331.5	-3045.66
12340.8	-3070.71
12350.1	-3095.64
12362.7	-3128.69
12372.1	-3153.33
12381.6	-3177.83
12391.2	-3202.2
12400.2	-3224.78
12413.1	-3256.88
12422.8	-3280.79
12432.6	-3304.54
12442.5	-3328.15
12452.4	-3351.6
12462.3	-3374.9
12472.4	-3398.05
12482.5	-3421.06
12492.6	-3443.91
12502.9	-3466.61
12513.1	-3489.16
12520	-3504.09
12530.3	-3526.03
12540.4	-3547.39
12550.3	-3568.19
12560.2	-3588.47
12573.1	-3614.72
12582.7	-3633.84
12592.2	-3652.5
12601.5	-3670.71
12610.8	-3688.49
12622.9	-3711.57
12632	-3728.42
12640.9	-3744.89
12652.7	-3766.29
12661.4	-3781.93
12670	-3797.24
12681.4	-3817.15
12692.6	-3836.51
12701	-3850.69
12712	-3869.15
12720.2	-3882.68
12731	-3900.31
12741.7	-3917.49
12752.2	-3934.24
12760.1	-3946.53
12770.5	-3962.58
12780.7	-3978.23
12790.9	-3993.52
12801	-4008.46
12811	-4023.05
12820.9	-4037.32
12830.7	-4051.27
12840.4	-4064.91
12850	-4078.27
12862	-4094.57
12871.4	-4107.31
12880.8	-4119.79
12890.1	-4132.02
12900	-4144.82
12910.1	-4157.72
12920.3	-4170.58
12930.1	-4182.85
12940	-4195.01
12950.3	-4207.49
12960.2	-4219.38
12970.2	-4231.09
12980.2	-4242.87
12990.8	-4255.03
13001.1	-4266.7
13011.3	-4278.16
13021.4	-4289.37
13031.1	-4300
13040	-4309.62
13051.8	-4322.14
13060.3	-4331.1
13071.8	-4343.04
13081.7	-4353.21
13092.2	-4363.95
13100.7	-4372.4
13112.6	-4384.21
13122.1	-4393.49
13132.1	-4403.15
13142.6	-4413.19
13153.6	-4423.62
13161.3	-4430.8
13171.1	-4439.84
13183.7	-4451.32
13192.4	-4459.2
13201.4	-4467.16
13210.3	-4475.03
13223.7	-4486.77
13232.9	-4494.66
13242.5	-4502.87
13250.8	-4509.84
13262	-4519.22
13272.4	-4527.8
13280.4	-4534.28
13290.8	-4542.68
13301	-4550.83
13315.4	-4562.19
13322.1	-4567.43
13332.4	-4575.39
13344.9	-4585
13351.7	-4590.13
13365.3	-4600.31
13375.3	-4607.65
13381.8	-4612.47
13395.9	-4622.69
13403	-4627.76
13410.1	-4632.81
13426.5	-4644.34
13433.7	-4649.35
13444.2	-4656.58
13450.1	-4660.66
13460.1	-4667.43
13470.4	-4674.33
13480	-4680.74
13490.1	-4687.36
13500.1	-4693.95
13510	-4700.32
13520.2	-4706.81
13530.7	-4713.46
13540.7	-4719.77
13551.6	-4726.52
13561.1	-4732.37
13571.7	-4738.79
13580.3	-4744
13590.1	-4749.84
13600.3	-4755.91
13611	-4762.14
13620.3	-4767.6
13631.7	-4774.14
13640.9	-4779.39
13651	-4785.07
13661.2	-4790.78
13672	-4796.76
13680.9	-4801.68
13692.9	-4808.18
13702.3	-4813.23
13710.1	-4817.41
13720.1	-4822.73
13730.1	-4827.94
13740.1	-4833.14
13750.5	-4838.5
13761.3	-4844.06
13771.3	-4849.12
13781.1	-4854
13790.8	-4858.87
13800	-4863.41
13811.1	-4868.84
13824.8	-4875.44
13834.6	-4880.15
13844.1	-4884.67
13854.9	-4889.77
13860.4	-4892.34
13871.2	-4897.35
13880.7	-4901.73
13891.5	-4906.66
13903.5	-4912.12
13914.6	-4917.11
13921	-4919.94
13936.1	-4926.63
13940.7	-4928.65
13950.2	-4932.8
13961	-4937.45
13970.7	-4941.61
13981.5	-4946.21
13993.3	-4951.21
14004.9	-4956.07
14010.5	-4958.41
14023.4	-4963.71
14030.3	-4966.54
14040.5	-4970.73
14050	-4974.58
14060.8	-4978.91
14070.5	-4982.77
14080.7	-4986.8
14090	-4990.48
14100.5	-4994.55
14110.5	-4998.44
14121.7	-5002.77
14130	-5005.94
14141.4	-5010.27
14151.4	-5014.02
14162.1	-5018.04
14170.7	-5021.25
14183.1	-5025.84
14193.1	-5029.49
14203.5	-5033.3
14210.8	-5035.95
14222.1	-5040
14230	-5042.84
14242	-5047.1
14250.6	-5050.15
14262	-5054.17
14270.2	-5057.03
14283.3	-5061.58
14290.2	-5063.97
14303.4	-5068.5
14312.3	-5071.55
14320	-5074.16
14330	-5077.55
14340	-5080.91
14350	-5084.26
14360	-5087.58
14370.6	-5091.1
14380.2	-5094.24
14390.5	-5097.62
14400.8	-5100.97
14410.2	-5104
14420.5	-5107.32
14430.6	-5110.56
14440.1	-5113.59
14450.1	-5116.76
14460.3	-5119.97
14470.5	-5123.19
14480.9	-5126.44
14490	-5129.28
14500.6	-5132.54
14511.2	-5135.81
14520.4	-5138.63
14530.6	-5141.76
14540.9	-5144.89
14550.1	-5147.66
14560.8	-5150.87
14570.4	-5153.74
14580.2	-5156.67
14590.3	-5159.65
14600.6	-5162.71
14611.3	-5165.85
14620.7	-5168.6
14630.4	-5171.43
14640.4	-5174.32
14650.7	-5177.28
14661.3	-5180.33
14670.5	-5182.94
14681.8	-5186.16
14691.5	-5188.91
14701.6	-5191.74
14712	-5194.65
14720.5	-5197.03
14731.5	-5200.07
14740.5	-5202.56
14752.1	-5205.75
14761.6	-5208.35
14771.3	-5211
14781.3	-5213.7
14791.5	-5216.45
14802	-5219.25
14812.6	-5222.09
14820.8	-5224.26
14831.9	-5227.18
14840.3	-5229.41
14851.9	-5232.42
14860.6	-5234.7
14872.6	-5237.79
14881.7	-5240.13
14891	-5242.5
14900.4	-5244.9
14913.2	-5248.13
14922.9	-5250.59
14932.8	-5253.07
14942.9	-5255.58
14953.2	-5258.11
14960.1	-5259.82
14970.4	-5262.35
14981.1	-5264.96
14992	-5267.58
15003	-5270.24
15010.5	-5272.03
15021.9	-5274.73
15033.4	-5277.46
15041.2	-5279.29
15053	-5282.04
15060.9	-5283.88
15072.9	-5286.65
15081	-5288.5
15093.3	-5291.29
15101.5	-5293.16
15114	-5295.96
15122.4	-5297.83
15130.9	-5299.71
15143.7	-5302.53
15152.3	-5304.42
15161	-5306.3
15174.1	-5309.13
15183	-5311.02
15191.9	-5312.91
15200.9	-5314.81
15210.1	-5316.72
15223.9	-5319.6
15233.3	-5321.52
15242.7	-5323.44
15252.2	-5325.37
15261.8	-5327.31
15271.6	-5329.27
15281.6	-5331.26
15291.8	-5333.26
15302.1	-5335.27
15312.5	-5337.29
15323	-5339.31
15333.7	-5341.35
15344.5	-5343.4
15355.5	-5345.46
15361	-5346.49
15371.8	-5348.48
15383.3	-5350.6
15393.5	-5352.45
15405.4	-5354.58
15411.3	-5355.64
15420.5	-5357.27
15430.8	-5359.09
15440.1	-5360.71
15455	-5363.27
15461.4	-5364.36
15470.8	-5365.96
15481.8	-5367.8
15491.1	-5369.35
15502.3	-5371.19
15513.9	-5373.08
15526.2	-5375.05
15533	-5376.13
15540.3	-5377.28
15555	-5379.58
15562.4	-5380.73
15577.3	-5382.99
15584.7	-5384.11
15592	-5385.2
15606.7	-5387.36
15614	-5388.43
15621.3	-5389.46
15635.8	-5391.54
15643.2	-5392.56
15653.2	-5393.96
15664.2	-5395.47
15671.8	-5396.49
15681.6	-5397.8
15697.4	-5399.87
15706.1	-5401
15714.8	-5402.12
15723.6	-5403.22
15731.5	-5404.2
15740.3	-5405.28
15758	-5407.41
15766.8	-5408.46
15775.7	-5409.49
15784.6	-5410.51
15794.4	-5411.61
15800.9	-5412.33
15816.3	-5414.02
15825.3	-5414.99
15836.1	-5416.12
15845.3	-5417.07
15854.5	-5418.01
15863.8	-5418.93
15873.2	-5419.85
15882.5	-5420.75
15892	-5421.64
15901.5	-5422.52
15911	-5423.38
15920	-5424.18
15939.3	-5425.84
15949	-5426.65
15958.8	-5427.45
15968.6	-5428.23
15978.5	-5428.99
15988.1	-5429.72
15990.8	-5429.92
16000.8	-5430.65
16010.8	-5431.36
16020.8	-5432.05
16030.9	-5432.73
16046.9	-5433.78
16057.1	-5434.41
16064.3	-5434.85
16073.5	-5435.39
16080.4	-5435.79
16090.5	-5436.36
16100.5	-5436.9
16110.6	-5437.43
16120.1	-5437.91
16130.2	-5438.41
16140.2	-5438.89
16150.3	-5439.35
16168.2	-5440.12
16179.9	-5440.59
16191.6	-5441.05
16203.4	-5441.48
16204.2	-5441.51
16210.4	-5441.74
16220	-5442.06
16230.2	-5442.39
16240.3	-5442.71
16250.4	-5443.01
16260	-5443.28
16270.1	-5443.56
16280.5	-5443.82
16290.4	-5444.06
16305.7	-5444.41
16313.8	-5444.58
16323.5	-5444.77
16331.1	-5444.92
16349.5	-5445.24
16360.6	-5445.42
16363.4	-5445.47
16374.2	-5445.63
16384.9	-5445.77
16397	-5445.92
16409.1	-5446.07
16421.1	-5446.19
16433.2	-5446.31
16445.3	-5446.42
16457.4	-5446.52
16469.5	-5446.61
16481.6	-5446.7
16493.6	-5446.77
16505.7	-5446.84
16517.8	-5446.91
16529.9	-5446.97
16542	-5447.03
16554.1	-5447.09
16554.1	-5447.09
16554.2	-5447.09
16554.2	-5447.09
16560	-5447.12
16576	-5447.19
16588.1	-5447.24
16600.2	-5447.3
16612.2	-5447.35
16616.7	-5447.38
16623.9	-5447.41
16630.7	-5447.45
16648.1	-5447.54
16658.2	-5447.6
16669.9	-5447.67
16682	-5447.75
16694.1	-5447.84
16706.1	-5447.93
16718.2	-5448.04
16730.3	-5448.15
16742.4	-5448.27
16754.5	-5448.4
16766.6	-5448.54
16778.6	-5448.7
16778.7	-5448.7
16778.9	-5448.7
16780.1	-5448.72
16790.2	-5448.86
16800.6	-5449.01
16810.5	-5449.16
16820.5	-5449.32
16831.1	-5449.51
16841.2	-5449.69
16851.5	-5449.89
16860.4	-5450.07
16870.4	-5450.28
16881.2	-5450.52
16892.8	-5450.8
16902.3	-5451.03
16912.2	-5451.28
16922.8	-5451.57
16930.1	-5451.77
16941.5	-5452.1
16950	-5452.36
16964.2	-5452.8
16973.3	-5453.1
16982.6	-5453.41
16992.6	-5453.76
17002.8	-5454.13
17013.3	-5454.53
17024.5	-5454.96
17030.2	-5455.19
17041.7	-5455.66
17053.8	-5456.17
17060.2	-5456.45
17073.1	-5457.02
17086.3	-5457.64
17093	-5457.96
17106.5	-5458.61
17113.4	-5458.96
17120.4	-5459.31
17134.9	-5460.07
17142.2	-5460.46
17157.1	-5461.27
17164.8	-5461.7
17174.9	-5462.27
17183	-5462.74
17191.3	-5463.23
17208.5	-5464.26
17217.3	-5464.8
17226.4	-5465.37
17235.8	-5465.96
17245.4	-5466.58
17255.3	-5467.22
17265.3	-5467.89
17275.6	-5468.58
17286.1	-5469.29
17296.6	-5470.02
17307.4	-5470.77
17318.4	-5471.55
17329.7	-5472.35
17341.2	-5473.18
17352.9	-5474.04
17364.9	-5474.93
17377	-5475.83
17389	-5476.75
17401.1	-5477.67
17413.2	-5478.6
17425.3	-5479.54
17437.3	-5480.48
17437.4	-5480.49
17437.4	-5480.49
17440	-5480.7
17450	-5481.49
17460.1	-5482.29
17470.2	-5483.1
17480.1	-5483.9
17490.3	-5484.72
17500.3	-5485.54
17510.3	-5486.35
17520	-5487.15
17530.5	-5488.01
17540.2	-5488.82
17550.2	-5489.65
17560.1	-5490.48
17570.1	-5491.31
17580.2	-5492.16
17590.7	-5493.05
17600.5	-5493.88
17610	-5494.68
17620	-5495.54
17630	-5496.39
17640	-5497.24
17650	-5498.1
17660.2	-5498.98
17670.3	-5499.85
17680	-5500.69
17690.9	-5501.63
17701	-5502.51
17711.2	-5503.39
17720.3	-5504.18
17730.6	-5505.08
17740.5	-5505.94
17751.3	-5506.89
17760.9	-5507.73
17770.9	-5508.61
17780.2	-5509.42
17790	-5510.29
17800.7	-5511.22
17810.2	-5512.06
17820.1	-5512.93
17830	-5513.8
17840.8	-5514.76
17853.9	-5515.91
17864.4	-5516.84
17875.4	-5517.81
17881	-5518.31
17893.5	-5519.41
17905.5	-5520.47
17911.7	-5521.01
17924.2	-5522.12
17930.6	-5522.69
17944.1	-5523.88
17951.2	-5524.5
17965.6	-5525.77
17972.9	-5526.42
17980.3	-5527.07
17995.3	-5528.39
18002.9	-5529.06
18010.7	-5529.74
18026.6	-5531.15
18034.7	-5531.86
18042.9	-5532.57
18051.2	-5533.3
18068	-5534.77
18076.5	-5535.51
18085.1	-5536.26
18093.7	-5537.01
18102.5	-5537.78
18111.4	-5538.55
18120.6	-5539.35
18139.9	-5541.03
18150.2	-5541.91
18150.3	-5541.93
18160.7	-5542.83
18170.2	-5543.65
18181.8	-5544.64
18190.8	-5545.41
18200	-5546.2
18213.5	-5547.36
18223.4	-5548.2
18233.3	-5549.04
18240.1	-5549.62
18253.8	-5550.79
18263.2	-5551.58
18274.5	-5552.53
18286.6	-5553.55
18298.6	-5554.56
18310.7	-5555.57
18322.8	-5556.58
18334.9	-5557.58
18347	-5558.58
18359.1	-5559.58
18371.1	-5560.58
18383.2	-5561.57
18395.3	-5562.56
18407.4	-5563.54
18419.5	-5564.52
18431.6	-5565.5
18443.6	-5566.47
18455.7	-5567.44
18467.8	-5568.41
18468.3	-5568.45
18468.7	-5568.48
18469.1	-5568.51
18470.3	-5568.61
18480	-5569.39
18490.4	-5570.21
18500.6	-5571.02
18510.1	-5571.77
18521.9	-5572.7
18531.2	-5573.42
18541.5	-5574.23
18550.1	-5574.9
18560.5	-5575.71
18570.7	-5576.5
18580	-5577.22
18590.1	-5577.99
18600.2	-5578.77
18610	-5579.52
18620.6	-5580.33
18630.4	-5581.07
18640.4	-5581.83
18651.1	-5582.64
18661.1	-5583.39
18671	-5584.13
18680.5	-5584.83
18690.9	-5585.61
18700.5	-5586.32
18711	-5587.09
18720	-5587.76
18732.3	-5588.66
18740.3	-5589.24
18751.6	-5590.06
18760.6	-5590.71
18770.2	-5591.41
18780.4	-5592.14
18791.2	-5592.92
18802.7	-5593.74
18810.8	-5594.31
18823.4	-5595.21
18832	-5595.81
18840.7	-5596.42
18854	-5597.36
18863	-5597.98
18872.1	-5598.62
18881.5	-5599.27
18891.4	-5599.96
18902	-5600.68
18913.3	-5601.46
18924.6	-5602.24
18930.2	-5602.61
18941	-5603.35
18951.8	-5604.08
18962.7	-5604.81
18973.9	-5605.56
18985.4	-5606.33
18991.3	-5606.73
19003.5	-5607.53
19016.1	-5608.36
19022.5	-5608.79
19035.7	-5609.65
19042.5	-5610.09
19056.3	-5610.99
19063.4	-5611.45
19070.6	-5611.92
19085.4	-5612.87
19093.1	-5613.37
19101.1	-5613.88
19117.6	-5614.93
19126.2	-5615.47
19135.1	-5616.03
19144.2	-5616.6
19153.6	-5617.19
19163.3	-5617.8
19173.2	-5618.42
19183.5	-5619.06
19194.2	-5619.72
19205.2	-5620.4
19216.6	-5621.09
19228.3	-5621.81
19236.6	-5622.32
19248.7	-5623.05
19260.8	-5623.78
19272.9	-5624.51
19284.9	-5625.23
19297	-5625.96
19309.1	-5626.68
19321.2	-5627.39
19333.3	-5628.11
19345.4	-5628.82
19357.4	-5629.52
19369.5	-5630.23
19381.6	-5630.93
19393.7	-5631.63
19405.8	-5632.33
19417.8	-5633.03
19429.9	-5633.72
19442	-5634.41
19454.1	-5635.1
19466.2	-5635.78
19478.3	-5636.47
19490.3	-5637.15
19502.4	-5637.83
19514.5	-5638.5
19526.6	-5639.18
19538.7	-5639.85
19550.8	-5640.52
19562.8	-5641.18
19574.9	-5641.85
19587	-5642.51
19599.1	-5643.17
19611.2	-5643.83
19623.3	-5644.48
19635.3	-5645.14
19647.4	-5645.79
19659.5	-5646.44
19671.6	-5647.08
19683.7	-5647.73
19695.7	-5648.37
19707.8	-5649.01
19719.9	-5649.64
19732	-5650.28
19744.1	-5650.91
19756.2	-5651.54
19767.6	-5652.13
19779.7	-5652.76
19791.8	-5653.38
19803.8	-5654
19815.9	-5654.62
19828	-5655.23
19840.1	-5655.85
19852.2	-5656.45
19864.2	-5657.06
19876.3	-5657.67
19888.4	-5658.27
19900.5	-5658.87
19912.6	-5659.46
19924.7	-5660.05
19936.7	-5660.64
19948.8	-5661.23
19960.9	-5661.82
19973	-5662.4
19985.1	-5662.98
19997.2	-5663.55
