0	0
59.5073	0
119.015	0
178.522	0
238.029	0
297.537	0
357.044	1.07915e-06
416.551	1.03145e-05
476.058	5.87096e-05
535.566	0.000272268
595.073	0.00103929
654.58	0.00328995
714.088	0.00875627
773.595	0.0201791
833.102	0.0410428
892.61	0.074783
952.117	0.12361
1011.62	0.187482
1071.13	0.263663
1130.64	0.347021
1190.15	0.430881
1249.65	0.50805
1309.16	0.571695
1368.67	0.615958
1428.18	0.636338
1487.68	0.629962
1547.19	0.595802
1606.7	0.534813
1666.2	0.449943
1725.71	0.345959
1785.22	0.229064
1844.72	0.106357
1904.23	-0.0148304
1963.73	-0.127613
2023.24	-0.226179
2082.74	-0.306283
2142.25	-0.365521
2201.75	-0.403389
2261.26	-0.421095
2320.76	-0.421195
2380.27	-0.407119
2439.77	-0.382662
2499.28	-0.351536
2558.78	-0.317019
2618.29	-0.281748
2677.79	-0.247643
2737.3	-0.215939
2796.8	-0.187297
2856.31	-0.161954
2915.81	-0.139864
2975.32	-0.120823
3034.82	-0.104551
3094.33	-0.0907392
3153.84	-0.0790697
3213.34	-0.0692174
3272.85	-0.0608472
3332.36	-0.0536175
3391.87	-0.0471901
3451.37	-0.0412484
3510.88	-0.0355192
3570.39	-0.0297917
3629.89	-0.0239299
3689.4	-0.0178752
3748.91	-0.0116385
3808.42	-0.00528483
3867.92	0.00108719
3927.43	0.00736616
3986.94	0.0134453
4046.44	0.0192342
4105.95	0.0246645
4165.46	0.0296894
4224.97	0.034279
4284.47	0.0384143
4343.98	0.042081
4403.49	0.0452652
4462.99	0.0479513
4522.5	0.0501228
4582.01	0.0517647
4641.51	0.0528661
4701.02	0.0534239
4760.53	0.0534444
4820.04	0.0529439
4879.54	0.0519485
4939.05	0.050492
4998.56	0.0486138
5058.07	0.0463565
5117.57	0.0437639
5177.08	0.04088
5236.59	0.0377477
5296.09	0.034409
5355.6	0.030905
5415.11	0.0272758
5474.62	0.0235611
5534.12	0.0197996
5593.63	0.0160285
5653.14	0.0122835
5712.65	0.0085973
5772.15	0.00499968
5831.66	0.00151679
5891.17	-0.00182894
5950.67	-0.00501872
6010.18	-0.00803704
6069.69	-0.0108713
6129.2	-0.0135113
6188.7	-0.0159487
6248.21	-0.0181767
6307.72	-0.0201902
6367.22	-0.0219849
6426.73	-0.0235584
6486.24	-0.0249094
6545.75	-0.0260384
6605.25	-0.0269476
6664.76	-0.0276413
6724.27	-0.0281254
6783.77	-0.0284079
6843.28	-0.0284984
6902.79	-0.0284082
6962.3	-0.02815
7021.8	-0.0277378
7081.31	-0.0271864
7140.82	-0.0265116
7200.32	-0.0257296
7259.83	-0.0248571
7319.34	-0.0239108
7378.84	-0.0229073
7438.35	-0.021863
7497.86	-0.0207936
7557.36	-0.019714
7616.87	-0.0186384
7676.38	-0.0175795
7735.88	-0.0165491
7795.39	-0.0155575
7854.9	-0.0146136
7914.4	-0.0137251
7973.91	-0.0128981
8033.42	-0.0121379
8092.93	-0.0114482
8152.43	-0.010832
8211.94	-0.0102915
8271.45	-0.00982783
8330.95	-0.00944181
8390.46	-0.00913354
8449.97	-0.00890269
8509.47	-0.0087485
8568.98	-0.00866985
8628.49	-0.00866524
8688	-0.00873284
8747.5	-0.00887049
8807.01	-0.00907572
8866.52	-0.0093457
8926.02	-0.00967732
8985.53	-0.0100671
9045.04	-0.0105113
9104.55	-0.0110059
9164.05	-0.0115464
9223.56	-0.0121284
9283.07	-0.012747
9342.57	-0.0133972
9402.08	-0.0140738
9461.59	-0.0147716
9521.1	-0.0154854
9580.6	-0.0162099
9640.11	-0.01694
9699.62	-0.0176706
9759.13	-0.018397
9818.63	-0.0191144
9878.14	-0.0198184
9937.65	-0.0205048
9997.16	-0.0211696
10056.7	-0.0218091
10116.2	-0.0224196
10175.7	-0.0229978
10235.2	-0.0235403
10294.7	-0.0240442
10354.2	-0.0245064
10413.7	-0.0249239
10473.2	-0.0252941
10532.7	-0.0256143
10592.2	-0.0258819
10651.7	-0.0260943
10711.2	-0.0262493
10770.8	-0.0263447
10830.3	-0.0263786
10889.8	-0.026349
10949.3	-0.0262546
11008.8	-0.0260942
11068.3	-0.0258668
11127.8	-0.0255719
11187.3	-0.0252094
11246.8	-0.0247797
11306.3	-0.0242834
11365.8	-0.0237218
11425.3	-0.0230966
11484.8	-0.0224098
11544.3	-0.021664
11603.9	-0.0208622
11663.4	-0.0200078
11722.9	-0.0191045
11782.4	-0.0181565
11841.9	-0.017168
11901.4	-0.0161437
11960.9	-0.0150885
12020.4	-0.0140072
12079.9	-0.0129051
12139.4	-0.0117872
12198.9	-0.0106587
12258.4	-0.00952468
12317.9	-0.00839034
12377.4	-0.0072606
12437	-0.00614031
12496.5	-0.00503416
12556	-0.00394663
12615.5	-0.002882
12675	-0.00184434
12734.5	-0.00083745
12794	0.000135131
12853.5	0.00107013
12913	0.00196454
12972.5	0.00281567
13032	0.0036211
13091.5	0.00437871
13151	0.00508668
13210.5	0.00574352
13270.1	0.00634801
13329.6	0.00689925
13389.1	0.00739664
13448.6	0.00783991
13508.1	0.00822905
13567.6	0.00856438
13627.1	0.00884652
13686.6	0.00907635
13746.1	0.00925507
13805.6	0.00938411
13865.1	0.0094652
13924.6	0.00950031
13984.1	0.00949162
14043.7	0.00944156
14103.2	0.00935274
14162.7	0.00922795
14222.2	0.00907013
14281.7	0.00888234
14341.2	0.00866776
14400.7	0.00842964
14460.2	0.00817126
14519.7	0.00789592
14579.2	0.00760692
14638.7	0.00730748
14698.2	0.00700077
14757.7	0.00668984
14817.2	0.00637762
14876.8	0.00606686
14936.3	0.00576012
14995.8	0.00545975
15055.3	0.00516787
15114.8	0.00488635
15174.3	0.00461677
15233.8	0.00436046
15293.3	0.00411845
15352.8	0.00389147
15412.3	0.00367996
15471.8	0.0034841
15531.3	0.00330375
15590.8	0.00313856
15650.3	0.00298788
15709.9	0.00285088
15769.4	0.0027265
15828.9	0.00261354
15888.4	0.00251065
15947.9	0.00241636
16007.4	0.00232915
16066.9	0.00224746
16126.4	0.00216974
16185.9	0.00209447
16245.4	0.00202022
16304.9	0.00194563
16364.4	0.00186951
16423.9	0.00179082
16483.4	0.00170869
16543	0.00162247
16602.5	0.00153169
16662	0.00143613
16721.5	0.00133578
16781	0.00123083
16840.5	0.00112171
16900	0.001009
16959.5	0.000893505
17019	0.000776143
17078.5	0.000657981
17138	0.000540181
17197.5	0.000423972
17257	0.000310622
17316.6	0.000201405
17376.1	9.7567e-05
17435.6	2.98521e-07
17495.1	-8.92961e-05
17554.6	-0.000170224
17614.1	-0.000241627
17673.6	-0.000302802
17733.1	-0.000353214
17792.6	-0.000392509
17852.1	-0.000420524
17911.6	-0.000437282
17971.1	-0.000442995
18030.6	-0.00043806
18090.1	-0.000423042
18149.7	-0.000398665
18209.2	-0.000365795
18268.7	-0.000325419
18328.2	-0.000278624
18387.7	-0.000226573
18447.2	-0.000170482
18506.7	-0.000111597
18566.2	-5.11643e-05
18625.7	9.58633e-06
18685.2	6.94688e-05
18744.7	0.000127359
18804.2	0.000182215
18863.7	0.00023309
18923.2	0.000279151
18982.8	0.000319684
19042.3	0.000354106
19101.8	0.000381966
19161.3	0.000402951
19220.8	0.000416882
19280.3	0.00042371
19339.8	0.000423515
19399.3	0.000416488
19458.8	0.000402932
19518.3	0.000383241
19577.8	0.000357892
19637.3	0.000327429
19696.8	0.000292449
19756.3	0.000253587
19815.9	0.000211502
19875.4	0.000166861
19934.9	0.000120325
19994.4	7.254e-05
