0	0
14.7745	0
22.1618	0
36.9363	0
44.3236	0
51.7109	0
66.4854	0
73.8727	0
81.2599	0
96.0345	0
103.422	0
110.809	0
125.584	0
132.971	0
140.358	0
155.133	0
162.52	0
177.294	0
184.682	0
192.069	0
206.843	0
214.231	0
221.618	0
236.393	0
243.78	0
251.167	0
265.942	0
273.329	0
280.716	0
295.491	0
302.878	0
310.265	0
325.04	0
332.427	0
347.202	0
354.589	0
361.976	0
376.751	0
384.138	0
391.525	0
406.3	0
413.687	0
421.074	0
435.849	0
443.236	0
450.623	0
465.398	0
472.785	0
480.172	0
494.947	0
502.334	0
517.109	0
524.496	0
531.883	0
546.658	0
554.045	0
561.432	0
576.207	0
583.594	0
590.981	0
605.756	0
613.143	0
620.53	0
635.305	0
642.692	0
650.08	0
664.854	0
672.241	0
687.016	0
694.403	0
701.79	0
716.565	0
723.952	0
731.34	0
746.114	0
753.501	0
760.889	0
775.663	0
783.05	0
790.438	0
805.212	0
812.599	0
827.374	0
834.761	0
842.149	0
856.923	0
864.31	0
871.698	0
886.472	0
893.859	0
901.247	0
916.021	0
923.408	0
930.796	0
945.57	0
952.958	0
960.345	0
975.119	0
982.507	0
997.281	0
1004.67	0
1012.06	0
1026.83	0
1034.22	0
1041.6	0
1056.38	0
1063.77	0
1071.15	0
1085.93	0
1093.32	0
1100.7	0
1115.48	0
1122.86	0
1130.25	0
1145.03	0
1152.41	0
1167.19	0
1174.58	0
1181.96	0
1196.74	0
1204.12	0
1211.51	0
1226.29	0
1233.67	0
1241.06	0
1255.84	0
1263.22	0
1270.61	0
1285.38	0
1292.77	0
1300.16	0
1314.93	0
1322.32	0
1337.1	0
1344.48	0
1351.87	0
1366.64	0
1374.03	0
1381.42	0
1396.19	0
1403.58	0
1410.97	0
1425.74	0
1433.13	0
1440.52	0
1455.29	0
1462.68	0
1470.07	0
1484.84	0
1492.23	0
1507	0
1514.39	0
1521.78	0
1536.55	0
1543.94	0
1551.33	0
1566.1	0
1573.49	0
1580.88	0
1595.65	0
1603.04	0
1610.42	0
1625.2	0
1632.59	0
1647.36	0
1654.75	0
1662.14	0
1676.91	0
1684.3	0
1691.68	0
1706.46	0
1713.85	0
1721.23	0
1736.01	0
1743.4	0
1750.78	0
1765.56	0
1772.94	0
1780.33	0
1795.11	0
1802.49	0
1817.27	0
1824.66	0
1832.04	0
1846.82	0
1854.2	0
1861.59	0
1876.37	0
1883.75	0
1891.14	0
1905.92	0
1913.3	0
1920.69	0
1935.46	0
1942.85	0
1950.24	0
1965.01	0
1972.4	0
1987.18	0
1994.56	0
2001.95	0
2016.72	0
2024.11	0
2031.5	0
2046.27	0
2053.66	0
2061.05	0
2075.82	0
2083.21	0
2090.6	0
2105.37	0
2112.76	0
2120.15	0
2134.92	0
2142.31	0
2157.08	0
2164.47	-9.09495e-13
2171.86	-1.81899e-12
2186.63	-3.63798e-12
2194.02	-4.54747e-12
2201.41	-5.45697e-12
2216.18	-7.27596e-12
2223.57	-8.18545e-12
2230.95	-1.00044e-11
2245.73	-1.36424e-11
2253.12	-1.63709e-11
2260.5	-1.90994e-11
2275.28	-2.72848e-11
2282.67	-3.27418e-11
2290.05	-3.91083e-11
2304.83	-5.54792e-11
2312.21	-6.63931e-11
2326.99	-9.45874e-11
2334.38	-1.11868e-10
2341.76	-1.32786e-10
2356.54	-1.86446e-10
2363.93	-2.21007e-10
2371.31	-2.61025e-10
2386.09	-3.63798e-10
2393.47	-4.28372e-10
2400.86	-5.0386e-10
2415.64	-6.94854e-10
2423.02	-8.14907e-10
2430.41	-9.5406e-10
2445.19	-1.30331e-09
2452.57	-1.52068e-09
2467.35	-2.06364e-09
2474.73	-2.39925e-09
2482.12	-2.78669e-09
2496.9	-3.74712e-09
2504.28	-4.33829e-09
2511.67	-5.01677e-09
2526.45	-6.6857e-09
2533.83	-7.70524e-09
2541.22	-8.87121e-09
2555.99	-1.17216e-08
2563.38	-1.34523e-08
2570.77	-1.54223e-08
2585.54	-2.02072e-08
2592.93	-2.30948e-08
2600.32	-2.63672e-08
2615.09	-3.42652e-08
2622.48	-3.90028e-08
2637.25	-5.03842e-08
2644.64	-5.71818e-08
2652.03	-6.48333e-08
2666.8	-8.31051e-08
2674.19	-9.39544e-08
2681.58	-1.0612e-07
2696.35	-1.35e-07
2703.74	-1.52053e-07
2711.13	-1.71103e-07
2725.9	-2.1607e-07
2733.29	-2.42479e-07
2740.68	-2.71873e-07
2755.45	-3.40871e-07
2762.84	-3.81179e-07
2770.23	-4.25883e-07
2785	-5.30255e-07
2792.39	-5.90915e-07
2807.16	-7.31985e-07
2814.55	-8.13662e-07
2821.94	-9.037e-07
2836.71	-1.11202e-06
2844.1	-1.23203e-06
2851.49	-1.3639e-06
2866.26	-1.66745e-06
2873.65	-1.84149e-06
2881.03	-2.0321e-06
2895.81	-2.46874e-06
2903.2	-2.7179e-06
2910.58	-2.98992e-06
2925.36	-3.61009e-06
2932.74	-3.96236e-06
2940.13	-4.34575e-06
2954.91	-5.21576e-06
2962.29	-5.70773e-06
2977.07	-6.82032e-06
2984.46	-7.44739e-06
2991.84	-8.12627e-06
3006.62	-9.65468e-06
3014	-1.05124e-05
3021.39	-1.14382e-05
3036.17	-1.35136e-05
3043.55	-1.46732e-05
3050.94	-1.59215e-05
3065.71	-1.87075e-05
3073.1	-2.02577e-05
3080.49	-2.19217e-05
3095.26	-2.56199e-05
3102.65	-2.76693e-05
3110.04	-2.98631e-05
3124.81	-3.47184e-05
3132.2	-3.73981e-05
3146.97	-4.33106e-05
3154.36	-4.65641e-05
3161.75	-5.00303e-05
3176.52	-5.76469e-05
3183.91	-6.18215e-05
3191.3	-6.62571e-05
3206.07	-7.59646e-05
3213.46	-8.12642e-05
3220.85	-8.68803e-05
3235.62	-9.9122e-05
3243.01	-0.000105779
3250.39	-0.000112815
3265.17	-0.00012809
3272.56	-0.000136363
3287.33	-0.000154272
3294.72	-0.000163943
3302.1	-0.000174117
3316.88	-0.00019605
3324.27	-0.000207848
3331.65	-0.000220225
3346.43	-0.000246799
3353.81	-0.000261035
3361.2	-0.00027593
3375.98	-0.000307775
3383.36	-0.000324763
3390.75	-0.000342488
3405.52	-0.000380221
3412.91	-0.000400265
3420.3	-0.000421116
3435.07	-0.000465305
3442.46	-0.000488673
3457.23	-0.000538024
3464.62	-0.00056403
3472.01	-0.000590937
3486.78	-0.000647481
3494.17	-0.000677129
3501.56	-0.0007077
3516.33	-0.000771605
3523.72	-0.000804933
3531.1	-0.000839169
3545.88	-0.000910324
3553.27	-0.000947213
3560.65	-0.00098495
3575.43	-0.00106287
3582.81	-0.001103
3590.2	-0.00114386
3604.98	-0.00122759
3612.36	-0.00127038
3627.14	-0.0013575
3634.52	-0.00140171
3641.91	-0.00144626
3656.68	-0.00153603
3664.07	-0.00158108
3671.46	-0.00162611
3686.23	-0.00171565
3693.62	-0.00175993
3701.01	-0.00180371
3715.78	-0.0018892
3723.17	-0.0019306
3730.55	-0.00197089
3745.33	-0.0020474
3752.72	-0.00208324
3760.1	-0.0021172
3774.88	-0.0021786
3782.26	-0.00220557
3797.04	-0.0022508
3804.42	-0.00226852
3811.81	-0.00228261
3826.59	-0.00229867
3833.97	-0.00230002
3841.36	-0.00229647
3856.13	-0.0022733
3863.52	-0.00225294
3870.91	-0.00222623
3885.68	-0.00215216
3893.07	-0.00210397
3900.46	-0.00204778
3915.23	-0.00190957
3922.62	-0.00182663
3930	-0.00173383
3944.78	-0.00151667
3952.16	-0.00139129
3966.94	-0.00110431
3974.32	-0.000941622
3981.71	-0.000765399
3996.49	-0.000370075
4003.87	-0.000149817
4011.26	8.62895e-05
4026.03	0.000608445
4033.42	0.000895709
4040.81	0.00120125
4055.58	0.00186964
4062.97	0.00223375
4070.36	0.00261863
4085.13	0.00345325
4092.52	0.00390426
4107.29	0.00487679
4114.68	0.00539957
4122.06	0.00594752
4136.84	0.00712139
4144.23	0.00774852
4151.61	0.00840323
4166.39	0.00979773
4173.77	0.0105386
4181.16	0.0113094
4195.94	0.0129425
4203.32	0.0138059
4210.71	0.0147012
4225.48	0.016589
4232.87	0.0175825
4240.26	0.0186096
4255.03	0.0207658
4262.42	0.0218956
4277.19	0.0242601
4284.58	0.0254952
4291.97	0.0267659
4306.74	0.0294145
4314.13	0.0307926
4321.52	0.0322066
4336.29	0.0351425
4343.68	0.0366643
4351.06	0.0382218
4365.84	0.0414435
4373.23	0.0431073
4380.61	0.0448059
4395.39	0.0483065
4402.77	0.0501077
4410.16	0.0519422
4424.94	0.0557091
4432.32	0.0576403
4447.1	0.061595
4454.48	0.0636169
4461.87	0.0656677
4476.65	0.0698518
4484.03	0.0719834
4491.42	0.07414
4506.19	0.078524
4513.58	0.0807493
4520.97	0.0829951
4535.74	0.0875435
4543.13	0.0898435
4550.52	0.0921588
4565.29	0.0968301
4572.68	0.099183
4580.07	0.101545
4594.84	0.106293
4602.23	0.108674
4617	0.113445
4624.39	0.11583
4631.78	0.118214
4646.55	0.122967
4653.94	0.125333
4661.33	0.12769
4676.1	0.132368
4683.49	0.134685
4690.88	0.136986
4705.65	0.141528
4713.04	0.143766
4720.43	0.145979
4735.2	0.150323
4742.59	0.15245
4757.36	0.156606
4764.75	0.15863
4772.14	0.160616
4786.91	0.164465
4794.3	0.166325
4801.68	0.168139
4816.46	0.171624
4823.85	0.17329
4831.23	0.174904
4846.01	0.177967
4853.4	0.179413
4860.78	0.1808
4875.56	0.18339
4882.94	0.18459
4890.33	0.185725
4905.11	0.187796
4912.49	0.188729
4927.27	0.190384
4934.66	0.191103
4942.04	0.19175
4956.82	0.192821
4964.2	0.193243
4971.59	0.193589
4986.37	0.194049
4993.75	0.194163
5001.14	0.194197
5015.91	0.19403
5023.3	0.193827
5030.69	0.193544
5045.46	0.19274
5052.85	0.192218
5060.24	0.191617
5075.01	0.190176
5082.4	0.189338
5097.17	0.187426
5104.56	0.186354
5111.95	0.185205
5126.72	0.182681
5134.11	0.181306
5141.5	0.179858
5156.27	0.176746
5163.66	0.175084
5171.05	0.173352
5185.82	0.169686
5193.21	0.167754
5200.6	0.165758
5215.37	0.161579
5222.76	0.1594
5230.15	0.157162
5244.92	0.152519
5252.31	0.150117
5267.08	0.145161
5274.47	0.142611
5281.86	0.140014
5296.63	0.134692
5304.02	0.131969
5311.4	0.129209
5326.18	0.123581
5333.57	0.120718
5340.95	0.117825
5355.73	0.111957
5363.12	0.108986
5370.5	0.105993
5385.28	0.0999501
5392.66	0.0969041
5400.05	0.0938445
5414.83	0.0876928
5422.21	0.0846047
5436.99	0.0784144
5444.38	0.0753162
5451.76	0.0722185
5466.54	0.0660325
5473.92	0.0629481
5481.31	0.0598719
5496.09	0.0537516
5503.47	0.050711
5510.86	0.0476858
5525.63	0.0416884
5533.02	0.0387196
5540.41	0.0357728
5555.18	0.0299515
5562.57	0.0270799
5577.35	0.0214222
5584.73	0.0186388
5592.12	0.0158874
5606.89	0.0104856
5614.28	0.00783745
5621.67	0.00522602
5636.44	0.000117342
5643.83	-0.00237797
5651.22	-0.00483272
5665.99	-0.00961724
5673.38	-0.0119455
5680.77	-0.0142301
5695.54	-0.018666
5702.93	-0.0208162
5710.32	-0.0229205
5725.09	-0.0269899
5732.48	-0.0289542
5747.25	-0.0327408
5754.64	-0.0345626
5762.03	-0.0363366
5776.8	-0.0397406
5784.19	-0.0413706
5791.58	-0.0429525
5806.35	-0.0459729
5813.74	-0.0474116
5821.12	-0.0488028
5835.9	-0.051444
5843.29	-0.0526945
5850.67	-0.0538988
5865.45	-0.0561701
5872.84	-0.057238
5880.22	-0.0582614
5895	-0.0601766
5902.38	-0.0610695
5917.16	-0.0627288
5924.55	-0.0634964
5931.93	-0.0642236
5946.71	-0.0655592
5954.1	-0.066169
5961.48	-0.0667411
5976.26	-0.0677753
5983.64	-0.0682389
5991.03	-0.0686678
6005.81	-0.0694248
6013.19	-0.0697545
6020.58	-0.0700527
6035.36	-0.070558
6042.74	-0.0707668
6050.13	-0.0709473
6064.9	-0.071227
6072.29	-0.0713279
6087.07	-0.0714557
6094.45	-0.0714842
6101.84	-0.0714903
6116.62	-0.0714383
6124	-0.0713817
6131.39	-0.0713059
6146.16	-0.0710993
6153.55	-0.07097
6160.94	-0.0708245
6175.71	-0.0704875
6183.1	-0.0702974
6190.49	-0.0700938
6205.26	-0.069649
6212.65	-0.0694091
6220.04	-0.0691584
6234.81	-0.0686269
6242.2	-0.0683473
6256.97	-0.0677633
6264.36	-0.06746
6271.75	-0.0671499
6286.52	-0.0665112
6293.91	-0.0661836
6301.3	-0.0658511
6316.07	-0.0651731
6323.46	-0.0648285
6330.85	-0.0644807
6345.62	-0.0637768
6353.01	-0.0634215
6360.39	-0.0630643
6375.17	-0.0623458
6382.56	-0.0619849
6397.33	-0.0612615
6404.72	-0.0608994
6412.11	-0.0605374
6426.88	-0.0598141
6434.27	-0.0594533
6441.65	-0.0590933
6456.43	-0.0583763
6463.82	-0.0580195
6471.2	-0.057664
6485.98	-0.0569574
6493.37	-0.0566064
6500.75	-0.0562571
6515.53	-0.0555638
6522.91	-0.0552198
6530.3	-0.0548778
6545.08	-0.0541992
6552.46	-0.0538628
6567.24	-0.0531958
6574.63	-0.0528651
6582.01	-0.0525363
6596.79	-0.0518842
6604.17	-0.0515609
6611.56	-0.0512393
6626.34	-0.0506013
6633.72	-0.0502847
6641.11	-0.0499696
6655.89	-0.049344
6663.27	-0.0490333
6670.66	-0.0487239
6685.43	-0.0481087
6692.82	-0.0478028
6700.21	-0.0474979
6714.98	-0.046891
6722.37	-0.0465889
6737.15	-0.0459867
6744.53	-0.0456866
6751.92	-0.045387
6766.69	-0.0447892
6774.08	-0.0444908
6781.47	-0.0441927
6796.24	-0.0435971
6803.63	-0.0432995
6811.02	-0.043002
6825.79	-0.0424068
6833.18	-0.042109
6840.57	-0.0418111
6855.34	-0.0412148
6862.73	-0.0409162
6870.12	-0.0406173
6884.89	-0.0400186
6892.28	-0.0397186
6907.05	-0.0391176
6914.44	-0.0388164
6921.83	-0.0385148
6936.6	-0.0379104
6943.99	-0.0376075
6951.38	-0.0373041
6966.15	-0.0366963
6973.54	-0.0363917
6980.93	-0.0360868
6995.7	-0.035476
7003.09	-0.0351701
7010.48	-0.034864
7025.25	-0.0342511
7032.64	-0.0339444
7040.02	-0.0336376
7054.8	-0.033024
7062.19	-0.0327173
7076.96	-0.0321042
7084.35	-0.0317979
7091.74	-0.031492
7106.51	-0.0308813
7113.9	-0.0305767
7121.28	-0.0302727
7136.06	-0.0296667
7143.45	-0.0293648
7150.83	-0.0290639
7165.61	-0.028465
7173	-0.0281672
7180.38	-0.0278706
7195.16	-0.0272815
7202.54	-0.0269891
7217.32	-0.026409
7224.71	-0.0261216
7232.09	-0.025836
7246.87	-0.0252706
7254.26	-0.024991
7261.64	-0.0247136
7276.42	-0.0241657
7283.8	-0.0238954
7291.19	-0.0236275
7305.97	-0.0230998
7313.35	-0.0228401
7320.74	-0.0225833
7335.52	-0.0220784
7342.9	-0.0218306
7350.29	-0.021586
7365.06	-0.0211065
7372.45	-0.0208718
7387.23	-0.0204129
7394.61	-0.0201888
7402	-0.0199683
7416.77	-0.0195385
7424.16	-0.0193293
7431.55	-0.019124
7446.32	-0.0187252
7453.71	-0.0185318
7461.1	-0.0183424
7475.87	-0.017976
7483.26	-0.017799
7490.65	-0.0176262
7505.42	-0.0172932
7512.81	-0.0171332
7520.2	-0.0169773
7534.97	-0.0166786
7542.36	-0.0165357
7557.13	-0.0162629
7564.52	-0.0161329
7571.91	-0.0160073
7586.68	-0.0157689
7594.07	-0.0156562
7601.46	-0.0155477
7616.23	-0.0153434
7623.62	-0.0152476
7631	-0.015156
7645.78	-0.014985
7653.17	-0.0149057
7660.55	-0.0148303
7675.33	-0.0146915
7682.72	-0.014628
7690.1	-0.0145682
7704.88	-0.01446
7712.26	-0.0144114
7727.04	-0.0143249
7734.43	-0.0142869
7741.81	-0.0142522
7756.59	-0.0141927
7763.97	-0.0141678
7771.36	-0.0141459
7786.14	-0.014111
7793.52	-0.0140978
7800.91	-0.0140874
7815.69	-0.0140744
7823.07	-0.0140716
7830.46	-0.0140713
7845.23	-0.0140772
7852.62	-0.0140833
7860.01	-0.0140915
7874.78	-0.0141132
7882.17	-0.0141267
7896.95	-0.0141582
7904.33	-0.014176
7911.72	-0.0141951
7926.49	-0.0142367
7933.88	-0.0142589
7941.27	-0.014282
7956.04	-0.0143302
7963.43	-0.0143551
7970.82	-0.0143804
7985.59	-0.0144319
7992.98	-0.0144578
8000.37	-0.0144836
8015.14	-0.0145349
8022.53	-0.0145601
8037.3	-0.0146091
8044.69	-0.0146326
8052.08	-0.0146555
8066.85	-0.0146985
8074.24	-0.0147186
8081.63	-0.0147375
8096.4	-0.0147715
8103.79	-0.0147864
8111.17	-0.0147999
8125.95	-0.0148219
8133.34	-0.0148304
8140.72	-0.014837
8155.5	-0.0148444
8162.89	-0.014845
8170.27	-0.0148434
8185.05	-0.0148336
8192.43	-0.0148252
8207.21	-0.014801
8214.6	-0.0147851
8221.98	-0.0147666
8236.76	-0.0147214
8244.14	-0.0146947
8251.53	-0.0146652
8266.31	-0.0145974
8273.69	-0.0145591
8281.08	-0.0145177
8295.86	-0.0144258
8303.24	-0.0143752
8310.63	-0.0143215
8325.4	-0.0142044
8332.79	-0.014141
8340.18	-0.0140744
8354.95	-0.0139314
8362.34	-0.0138549
8377.11	-0.013692
8384.5	-0.0136056
8391.89	-0.0135158
8406.66	-0.0133264
8414.05	-0.0132266
8421.44	-0.0131236
8436.21	-0.0129076
8443.6	-0.0127947
8450.99	-0.0126785
8465.76	-0.0124364
8473.15	-0.0123106
8480.54	-0.0121815
8495.31	-0.011914
8502.7	-0.0117756
8510.08	-0.0116341
8524.86	-0.0113422
8532.25	-0.0111917
8547.02	-0.0108822
8554.41	-0.0107232
8561.8	-0.0105614
8576.57	-0.0102298
8583.96	-0.01006
8591.34	-0.00988761
8606.12	-0.00953542
8613.51	-0.0093557
8620.89	-0.00917365
8635.67	-0.00880277
8643.05	-0.00861408
8650.44	-0.00842329
8665.22	-0.00803573
8672.6	-0.00783909
8687.38	-0.00744042
8694.77	-0.00723853
8702.15	-0.00703504
8716.93	-0.00662354
8724.31	-0.00641567
8731.7	-0.0062065
8746.48	-0.00578451
8753.86	-0.00557185
8761.25	-0.00535818
8776.03	-0.00492813
8783.41	-0.00471191
8790.8	-0.00449498
8805.57	-0.00405935
8812.96	-0.0038408
8820.35	-0.00362186
8835.12	-0.00318315
8842.51	-0.00296352
8857.28	-0.00252414
8864.67	-0.00230453
8872.06	-0.00208508
8886.83	-0.00164697
8894.22	-0.00142846
8901.61	-0.00121042
8916.38	-0.000776032
8923.77	-0.000559836
8931.16	-0.000344404
8945.93	8.38786e-05
8953.32	0.000296584
8960.71	0.000508239
8975.48	0.000928112
8982.87	0.00113619
8990.26	0.00134295
9005.03	0.0017522
9012.42	0.00195458
9027.19	0.00235449
9034.58	0.00255191
9041.97	0.00274755
9056.74	0.00313327
9064.13	0.00332323
9071.51	0.00351119
9086.29	0.00388084
9093.68	0.00406244
9101.06	0.00424181
9115.84	0.00459368
9123.23	0.00476609
9130.61	0.00493607
9145.39	0.00526859
9152.77	0.00543104
9160.16	0.00559089
9174.94	0.00590265
9182.32	0.00605447
9197.1	0.00634982
9204.49	0.00649328
9211.87	0.00663388
9226.65	0.00690638
9234.03	0.00703823
9241.42	0.00716709
9256.2	0.00741579
9263.58	0.00753556
9270.97	0.00765226
9285.74	0.00787634
9293.13	0.00798367
9300.52	0.00808785
9315.29	0.00828666
9322.68	0.00838127
9330.07	0.00847265
9344.84	0.00864571
9352.23	0.00872736
9367	0.00888087
9374.39	0.00895271
9381.78	0.00902127
9396.55	0.00914852
9403.94	0.0092072
9411.33	0.00926259
9426.1	0.00936347
9433.49	0.00940896
9440.88	0.00945117
9455.65	0.00952571
9463.04	0.00955806
9470.43	0.00958713
9485.2	0.00963548
9492.59	0.00965477
9507.36	0.00968363
9514.75	0.00969322
9522.14	0.0096996
9536.91	0.00970277
9544.3	0.0096996
9551.69	0.00969326
9566.46	0.00967117
9573.85	0.00965545
9581.23	0.00963663
9596.01	0.00958978
9603.4	0.00956178
9610.78	0.00953076
9625.56	0.00945972
9632.95	0.00941974
9640.33	0.00937682
9655.11	0.00928223
9662.49	0.00923061
9677.27	0.00911881
9684.66	0.00905868
9692.04	0.00899577
9706.82	0.00886167
9714.21	0.00879054
9721.59	0.00871671
9736.37	0.00856108
9743.75	0.00847933
9751.14	0.00839498
9765.92	0.00821862
9773.3	0.00812666
9780.69	0.00803221
9795.47	0.00783595
9802.85	0.0077342
9810.24	0.00763006
9825.01	0.00741475
9832.4	0.00730364
9847.18	0.00707461
9854.56	0.00695676
9861.95	0.00683672
9876.73	0.00659017
9884.11	0.00646371
9891.5	0.00633518
9906.27	0.00607199
9913.66	0.00593739
9921.05	0.00580081
9935.82	0.00552187
9943.21	0.00537955
9950.6	0.00523537
9965.37	0.00494156
9972.76	0.00479198
9980.15	0.00464065
9994.92	0.00433286
10002.3	0.00417645
10017.1	0.00385876
10024.5	0.00369753
10031.9	0.00353474
10046.6	0.00320462
10054	0.00303734
10061.4	0.00286861
10076.2	0.00252694
10083.6	0.00235404
10091	0.00217981
10105.7	0.00182746
10113.1	0.00164939
10120.5	0.00147009
10135.3	0.00110792
10142.7	0.000925103
10150.1	0.000741166
10164.8	0.000370041
10172.2	0.000182905
10187	-0.000194378
10194.4	-0.000384474
10201.8	-0.000575503
10216.5	-0.000960259
10223.9	-0.00115393
10231.3	-0.00134844
10246.1	-0.00173983
10253.5	-0.00193667
10260.9	-0.00213423
10275.6	-0.00253143
10283	-0.00273102
10290.4	-0.00293123
10305.2	-0.00333342
10312.6	-0.00353535
10327.3	-0.00394076
10334.7	-0.00414418
10342.1	-0.00434805
10356.9	-0.00475704
10364.3	-0.00496211
10371.7	-0.00516753
10386.4	-0.00557932
10393.8	-0.00578564
10401.2	-0.00599221
10416	-0.00640602
10423.4	-0.00661321
10430.8	-0.00682056
10445.5	-0.00723563
10452.9	-0.0074433
10460.3	-0.00765104
10475.1	-0.00806662
10482.5	-0.00827442
10497.3	-0.0086899
10504.6	-0.00889754
10512	-0.00910509
10526.8	-0.00951981
10534.2	-0.00972694
10541.6	-0.00993388
10556.4	-0.0103471
10563.7	-0.0105534
10571.1	-0.0107594
10585.9	-0.0111705
10593.3	-0.0113755
10600.7	-0.0115802
10615.5	-0.0119885
10622.8	-0.012192
10630.2	-0.0123951
10645	-0.0127999
10652.4	-0.0130016
10667.2	-0.0134033
10674.5	-0.0136034
10681.9	-0.0138028
10696.7	-0.0142
10704.1	-0.0143977
10711.5	-0.0145947
10726.3	-0.0149866
10733.6	-0.0151816
10741	-0.0153758
10755.8	-0.015762
10763.2	-0.0159539
10770.6	-0.0161451
10785.4	-0.0165249
10792.7	-0.0167135
10800.1	-0.0169013
10814.9	-0.0172743
10822.3	-0.0174594
10837.1	-0.0178267
10844.5	-0.018009
10851.8	-0.0181902
10866.6	-0.0185497
10874	-0.018728
10881.4	-0.0189051
10896.2	-0.0192562
10903.6	-0.0194302
10910.9	-0.019603
10925.7	-0.0199452
10933.1	-0.0201145
10940.5	-0.0202827
10955.3	-0.0206155
10962.7	-0.0207801
10970	-0.0209434
10984.8	-0.0212662
10992.2	-0.0214257
11007	-0.0217408
11014.4	-0.0218964
11021.8	-0.0220505
11036.5	-0.0223548
11043.9	-0.0225048
11051.3	-0.0226535
11066.1	-0.0229464
11073.5	-0.0230907
11080.8	-0.0232335
11095.6	-0.0235146
11103	-0.0236528
11110.4	-0.0237896
11125.2	-0.0240583
11132.6	-0.0241903
11147.3	-0.0244495
11154.7	-0.0245766
11162.1	-0.024702
11176.9	-0.0249479
11184.3	-0.0250683
11191.7	-0.025187
11206.4	-0.0254191
11213.8	-0.0255325
11221.2	-0.0256441
11236	-0.0258618
11243.4	-0.0259679
11250.8	-0.0260722
11265.5	-0.0262751
11272.9	-0.0263736
11280.3	-0.0264703
11295.1	-0.0266577
11302.5	-0.0267485
11317.2	-0.0269239
11324.6	-0.0270086
11332	-0.0270912
11346.8	-0.0272503
11354.2	-0.0273266
11361.6	-0.0274009
11376.3	-0.0275429
11383.7	-0.0276106
11391.1	-0.0276762
11405.9	-0.0278006
11413.3	-0.0278594
11420.7	-0.027916
11435.4	-0.0280223
11442.8	-0.0280719
11450.2	-0.0281192
11465	-0.0282067
11472.4	-0.0282469
11487.1	-0.02832
11494.5	-0.0283529
11501.9	-0.0283833
11516.7	-0.0284366
11524.1	-0.0284595
11531.5	-0.0284799
11546.2	-0.0285129
11553.6	-0.0285256
11561	-0.0285356
11575.8	-0.0285479
11583.2	-0.02855
11590.6	-0.0285495
11605.3	-0.0285404
11612.7	-0.0285317
11620.1	-0.0285204
11634.9	-0.0284894
11642.3	-0.0284698
11657.1	-0.0284222
11664.4	-0.0283942
11671.8	-0.0283633
11686.6	-0.028293
11694	-0.0282536
11701.4	-0.0282113
11716.2	-0.0281181
11723.5	-0.0280671
11730.9	-0.0280131
11745.7	-0.0278965
11753.1	-0.0278337
11760.5	-0.027768
11775.3	-0.0276277
11782.6	-0.027553
11790	-0.0274754
11804.8	-0.027311
11812.2	-0.0272244
11827	-0.0270419
11834.4	-0.0269462
11841.7	-0.0268474
11856.5	-0.0266407
11863.9	-0.0265327
11871.3	-0.0264218
11886.1	-0.0261906
11893.4	-0.0260705
11900.8	-0.0259473
11915.6	-0.0256918
11923	-0.0255594
11930.4	-0.025424
11945.2	-0.025144
11952.5	-0.0249995
11967.3	-0.0247012
11974.7	-0.0245476
11982.1	-0.0243909
11996.9	-0.0240684
12004.3	-0.0239027
12011.6	-0.023734
12026.4	-0.0233875
12033.8	-0.0232098
12041.2	-0.0230292
12056	-0.0226591
12063.4	-0.0224696
12070.7	-0.0222772
12085.5	-0.0218838
12092.9	-0.0216827
12100.3	-0.0214788
12115.1	-0.0210625
12122.5	-0.0208501
12137.2	-0.0204169
12144.6	-0.0201962
12152	-0.0199727
12166.8	-0.0195176
12174.2	-0.0192861
12181.6	-0.0190518
12196.3	-0.0185755
12203.7	-0.0183334
12211.1	-0.0180888
12225.9	-0.0175919
12233.3	-0.0173397
12240.6	-0.017085
12255.4	-0.0165684
12262.8	-0.0163064
12270.2	-0.0160422
12285	-0.0155067
12292.4	-0.0152355
12307.1	-0.0146865
12314.5	-0.0144087
12321.9	-0.0141287
12336.7	-0.0135625
12344.1	-0.0132764
12351.5	-0.0129882
12366.2	-0.0124058
12373.6	-0.0121118
12381	-0.0118159
12395.8	-0.0112186
12403.2	-0.0109173
12410.6	-0.0106143
12425.3	-0.0100032
12432.7	-0.00969521
12440.1	-0.00938566
12454.9	-0.008762
12462.3	-0.00844798
12477	-0.00781576
12484.4	-0.00749763
12491.8	-0.00717823
12506.6	-0.00653573
12514	-0.00621273
12521.4	-0.00588862
12536.1	-0.00523723
12543.5	-0.00491005
12550.9	-0.00458193
12565.7	-0.00392307
12573.1	-0.00359242
12580.5	-0.00326102
12595.2	-0.00259614
12602.6	-0.00226276
12610	-0.00192881
12624.8	-0.0012594
12632.2	-0.000924036
12646.9	-0.000252224
12654.3	8.41277e-05
12661.7	0.000420711
12676.5	0.00109438
12683.9	0.00143137
12691.3	0.0017684
12706	0.00244237
12713.4	0.00277922
12720.8	0.00311591
12735.6	0.00378861
12743	0.00412452
12750.4	0.00446008
12765.1	0.00512993
12772.5	0.00546412
12787.3	0.00613078
12794.7	0.00646315
12802.1	0.00679481
12816.9	0.00745583
12824.2	0.00778508
12831.6	0.00811343
12846.4	0.00876721
12853.8	0.00909255
12861.2	0.00941678
12876	0.0100617
12883.3	0.0103824
12890.7	0.0107017
12905.5	0.0113363
12912.9	0.0116514
12920.3	0.011965
12935.1	0.0125876
12942.4	0.0128965
12957.2	0.0135091
12964.6	0.0138128
12972	0.0141146
12986.8	0.0147126
12994.2	0.0150086
13001.5	0.0153027
13016.3	0.0158845
13023.7	0.0161722
13031.1	0.0164577
13045.9	0.0170219
13053.2	0.0173005
13060.6	0.0175768
13075.4	0.018122
13082.8	0.0183908
13090.2	0.0186571
13105	0.0191818
13112.3	0.0194402
13127.1	0.0199487
13134.5	0.0201988
13141.9	0.020446
13156.7	0.0209317
13164.1	0.0211702
13171.4	0.0214056
13186.2	0.0218673
13193.6	0.0220935
13201	0.0223165
13215.8	0.0227529
13223.2	0.0229662
13230.5	0.0231762
13245.3	0.0235862
13252.7	0.0237861
13260.1	0.0239826
13274.9	0.024365
13282.3	0.0245509
13297	0.024912
13304.4	0.0250871
13311.8	0.0252586
13326.6	0.0255903
13334	0.0257506
13341.4	0.0259071
13356.1	0.0262086
13363.5	0.0263535
13370.9	0.0264946
13385.7	0.026765
13393.1	0.0268943
13400.5	0.0270195
13415.2	0.027258
13422.6	0.0273711
13437.4	0.0275852
13444.8	0.027686
13452.2	0.0277827
13466.9	0.0279636
13474.3	0.0280478
13481.7	0.0281278
13496.5	0.028275
13503.9	0.0283422
13511.3	0.0284051
13526	0.0285181
13533.4	0.0285681
13540.8	0.0286138
13555.6	0.0286921
13563	0.0287247
13570.4	0.028753
13585.1	0.0287963
13592.5	0.0288114
13607.3	0.0288283
13614.7	0.0288301
13622.1	0.0288275
13636.8	0.0288091
13644.2	0.0287932
13651.6	0.0287729
13666.4	0.0287189
13673.8	0.0286853
13681.2	0.0286472
13695.9	0.0285578
13703.3	0.0285064
13710.7	0.0284507
13725.5	0.0283258
13732.9	0.0282568
13740.3	0.0281833
13755	0.0280232
13762.4	0.0279366
13777.2	0.0277502
13784.6	0.0276505
13792	0.0275465
13806.7	0.0273254
13814.1	0.0272084
13821.5	0.0270871
13836.3	0.0268318
13843.7	0.0266977
13851.1	0.0265595
13865.8	0.0262704
13873.2	0.0261196
13880.6	0.0259646
13895.4	0.0256424
13902.8	0.0254752
13910.2	0.0253039
13924.9	0.0249493
13932.3	0.024766
13947.1	0.0243876
13954.5	0.0241926
13961.9	0.0239937
13976.7	0.0235844
13984	0.0233741
13991.4	0.02316
14006.2	0.0227209
14013.6	0.0224958
14021	0.0222671
14035.8	0.0217991
14043.1	0.0215599
14050.5	0.0213172
14065.3	0.0208215
14072.7	0.0205687
14080.1	0.0203126
14094.9	0.0197906
14102.2	0.0195248
14117	0.0189839
14124.4	0.0187089
14131.8	0.0184309
14146.6	0.0178661
14154	0.0175795
14161.3	0.01729
14176.1	0.0167028
14183.5	0.0164052
14190.9	0.016105
14205.7	0.015497
14213	0.0151893
14220.4	0.0148792
14235.2	0.0142521
14242.6	0.0139352
14257.4	0.0132948
14264.8	0.0129716
14272.1	0.0126463
14286.9	0.0119899
14294.3	0.011659
14301.7	0.0113262
14316.5	0.0106557
14323.9	0.0103181
14331.2	0.00997885
14346	0.00929609
14353.4	0.00895266
14360.8	0.00860795
14375.6	0.00791492
14383	0.00756673
14390.3	0.00721751
14405.1	0.00651623
14412.5	0.00616429
14427.3	0.00545817
14434.7	0.0051041
14442.1	0.00474946
14456.8	0.00403869
14464.2	0.00368269
14471.6	0.00332638
14486.4	0.00261307
14493.8	0.0022562
14501.2	0.00189927
14515.9	0.00118552
14523.3	0.000828832
14530.7	0.00047235
14545.5	-0.000239718
14552.9	-0.000595173
14560.3	-0.000950154
14575	-0.00165843
14582.4	-0.0020116
14597.2	-0.00271566
14604.6	-0.00306642
14612	-0.00341625
14626.7	-0.00411287
14634.1	-0.00445953
14641.5	-0.004805
14656.3	-0.00549214
14663.7	-0.00583367
14671.1	-0.00617377
14685.8	-0.00684942
14693.2	-0.00718484
14700.6	-0.00751858
14715.4	-0.00818078
14722.8	-0.00850913
14730.2	-0.00883556
14744.9	-0.00948243
14752.3	-0.00980276
14767.1	-0.0104369
14774.5	-0.0107507
14781.9	-0.0110621
14796.6	-0.0116778
14804	-0.011982
14811.4	-0.0122837
14826.2	-0.0128793
14833.6	-0.0131731
14841	-0.0134642
14855.7	-0.0140381
14863.1	-0.0143208
14870.5	-0.0146006
14885.3	-0.0151513
14892.7	-0.0154221
14900.1	-0.0156899
14914.8	-0.0162161
14922.2	-0.0164744
14937	-0.0169814
14944.4	-0.01723
14951.8	-0.0174752
14966.6	-0.0179555
14973.9	-0.0181906
14981.3	-0.0184222
14996.1	-0.0188749
15003.5	-0.0190959
15010.9	-0.0193134
15025.6	-0.0197375
15033	-0.0199442
15040.4	-0.0201472
15055.2	-0.020542
15062.6	-0.0207339
15077.4	-0.0211064
15084.7	-0.021287
15092.1	-0.0214639
15106.9	-0.0218061
15114.3	-0.0219715
15121.7	-0.0221331
15136.5	-0.0224447
15143.8	-0.0225948
15151.2	-0.022741
15166	-0.0230217
15173.4	-0.0231563
15180.8	-0.0232871
15195.6	-0.0235369
15202.9	-0.0236561
15210.3	-0.0237713
15225.1	-0.0239903
15232.5	-0.024094
15247.3	-0.02429
15254.7	-0.0243822
15262	-0.0244706
15276.8	-0.0246361
15284.2	-0.0247132
15291.6	-0.0247865
15306.4	-0.024922
15313.8	-0.0249841
15321.1	-0.0250426
15335.9	-0.0251485
15343.3	-0.025196
15350.7	-0.02524
15365.5	-0.025317
15372.8	-0.0253503
15380.2	-0.02538
15395	-0.025429
15402.4	-0.0254483
15417.2	-0.0254768
15424.6	-0.025486
15431.9	-0.0254918
15446.7	-0.0254938
15454.1	-0.0254899
15461.5	-0.0254828
15476.3	-0.0254592
15483.7	-0.0254428
15491	-0.0254233
15505.8	-0.0253752
15513.2	-0.0253468
15520.6	-0.0253154
15535.4	-0.0252441
15542.8	-0.0252042
15550.1	-0.0251616
15564.9	-0.0250682
15572.3	-0.0250175
15587.1	-0.0249083
15594.5	-0.0248499
15601.9	-0.024789
15616.6	-0.02466
15624	-0.0245919
15631.4	-0.0245215
15646.2	-0.0243739
15653.6	-0.0242967
15661	-0.0242174
15675.7	-0.0240525
15683.1	-0.023967
15690.5	-0.0238795
15705.3	-0.0236987
15712.7	-0.0236054
15720.1	-0.0235104
15734.8	-0.0233149
15742.2	-0.0232146
15757	-0.0230091
15764.4	-0.0229039
15771.8	-0.0227972
15786.5	-0.0225793
15793.9	-0.0224682
15801.3	-0.0223557
15816.1	-0.0221267
15823.5	-0.0220103
15830.9	-0.0218926
15845.6	-0.0216538
15853	-0.0215327
15860.4	-0.0214105
15875.2	-0.021163
15882.6	-0.0210378
15897.3	-0.0207846
15904.7	-0.0206567
15912.1	-0.0205279
15926.9	-0.020268
15934.3	-0.020137
15941.7	-0.0200052
15956.4	-0.0197397
15963.8	-0.019606
15971.2	-0.0194717
15986	-0.0192016
15993.4	-0.0190657
16000.8	-0.0189294
16015.5	-0.0186556
16022.9	-0.018518
16030.3	-0.0183802
16045.1	-0.0181034
16052.5	-0.0179646
16067.3	-0.0176863
16074.6	-0.0175468
16082	-0.0174071
16096.8	-0.0171272
16104.2	-0.0169871
16111.6	-0.0168469
16126.4	-0.0165662
16133.7	-0.0164258
16141.1	-0.0162853
16155.9	-0.0160044
16163.3	-0.015864
16170.7	-0.0157236
16185.4	-0.015443
16192.8	-0.0153028
16200.2	-0.0151627
16215	-0.0148829
16222.4	-0.0147432
16237.2	-0.0144643
16244.5	-0.0143251
16251.9	-0.0141861
16266.7	-0.0139086
16274.1	-0.0137702
16281.5	-0.013632
16296.3	-0.0133564
16303.6	-0.0132189
16311	-0.0130817
16325.8	-0.0128081
16333.2	-0.0126717
16340.6	-0.0125356
16355.4	-0.0122643
16362.7	-0.0121291
16370.1	-0.0119942
16384.9	-0.0117253
16392.3	-0.0115913
16407.1	-0.0113243
16414.5	-0.0111913
16421.8	-0.0110586
16436.6	-0.0107943
16444	-0.0106626
16451.4	-0.0105312
16466.2	-0.0102696
16473.6	-0.0101393
16480.9	-0.0100093
16495.7	-0.00975039
16503.1	-0.00962145
16510.5	-0.00949285
16525.3	-0.0092367
16532.7	-0.00910913
16540	-0.00898192
16554.8	-0.00872852
16562.2	-0.00860234
16577	-0.008351
16584.4	-0.00822585
16591.7	-0.00810103
16606.5	-0.00785242
16613.9	-0.00772863
16621.3	-0.00760517
16636.1	-0.00735926
16643.5	-0.00723681
16650.8	-0.00711469
16665.6	-0.00687146
16673	-0.00675033
16680.4	-0.00662954
16695.2	-0.00638895
16702.6	-0.00626915
16717.3	-0.00603052
16724.7	-0.00591169
16732.1	-0.00579319
16746.9	-0.00555717
16754.3	-0.00543964
16761.7	-0.00532244
16776.4	-0.00508901
16783.8	-0.00497278
16791.2	-0.00485688
16806	-0.00462604
16813.4	-0.00451111
16820.8	-0.00439651
16835.5	-0.00416828
16842.9	-0.00405466
16850.3	-0.00394137
16865.1	-0.00371578
16872.5	-0.00360349
16887.2	-0.0033799
16894.6	-0.00326862
16902	-0.00315767
16916.8	-0.00293681
16924.2	-0.0028269
16931.6	-0.00271734
16946.3	-0.00249928
16953.7	-0.00239079
16961.1	-0.00228265
16975.9	-0.00206748
16983.3	-0.00196045
16990.7	-0.00185379
17005.4	-0.00164161
17012.8	-0.0015361
17020.2	-0.00143097
17035	-0.00122191
17042.4	-0.00111798
17057.1	-0.00091134
17064.5	-0.000808644
17071.9	-0.000706368
17086.7	-0.000503098
17094.1	-0.000402114
17101.5	-0.000301571
17116.2	-0.00010183
17123.6	-2.64211e-06
17131	9.60827e-05
17145.8	0.000292121
17153.2	0.000389424
17160.6	0.00048624
17175.3	0.000678392
17182.7	0.000773715
17190.1	0.000868528
17204.9	0.0010566
17212.3	0.00114985
17227.1	0.00133473
17234.4	0.00142635
17241.8	0.00151742
17256.6	0.00169786
17264	0.00178723
17271.4	0.00187602
17286.2	0.00205182
17293.5	0.00213883
17300.9	0.00222523
17315.7	0.00239619
17323.1	0.00248073
17330.5	0.00256464
17345.2	0.00273054
17352.6	0.00281251
17360	0.00289383
17374.8	0.00305446
17382.2	0.00313377
17397	0.00329032
17404.3	0.00336756
17411.7	0.00344409
17426.5	0.00359503
17433.9	0.00366943
17441.3	0.0037431
17456.1	0.00388824
17463.4	0.00395969
17470.8	0.0040304
17485.6	0.00416956
17493	0.004238
17500.4	0.00430566
17515.2	0.00443867
17522.5	0.004504
17537.3	0.00463229
17544.7	0.00469524
17552.1	0.00475739
17566.9	0.00487927
17574.3	0.00493899
17581.6	0.00499789
17596.4	0.00511322
17603.8	0.00516965
17611.2	0.00522524
17626	0.00533391
17633.4	0.00538699
17640.7	0.00543922
17655.5	0.00554114
17662.9	0.00559083
17670.3	0.00563966
17685.1	0.00573474
17692.5	0.005781
17707.2	0.00587092
17714.6	0.00591459
17722	0.00595739
17736.8	0.00604039
17744.2	0.00608059
17751.5	0.00611992
17766.3	0.00619597
17773.7	0.00623269
17781.1	0.00626854
17795.9	0.00633764
17803.3	0.00637089
17810.6	0.00640327
17825.4	0.00646543
17832.8	0.00649521
17840.2	0.00652414
17855	0.00657939
17862.4	0.00660574
17877.1	0.00665586
17884.5	0.00667964
17891.9	0.00670257
17906.7	0.0067459
17914.1	0.0067663
17921.5	0.00678586
17936.2	0.00682249
17943.6	0.00683956
17951	0.00685581
17965.8	0.00688584
17973.2	0.00689964
17980.6	0.00691263
17995.3	0.0069362
18002.7	0.00694679
18010.1	0.00695659
18024.9	0.00697384
18032.3	0.00698131
18047	0.00699392
18054.4	0.00699909
18061.8	0.0070035
18076.6	0.00701009
18084	0.00701228
18091.4	0.00701374
18106.1	0.00701449
18113.5	0.0070138
18120.9	0.0070124
18135.7	0.00700751
18143.1	0.00700404
18150.5	0.00699988
18165.2	0.00698957
18172.6	0.00698342
18180	0.00697663
18194.8	0.00696111
18202.2	0.00695241
18216.9	0.00693315
18224.3	0.00692261
18231.7	0.00691146
18246.5	0.00688742
18253.9	0.00687452
18261.3	0.00686107
18276	0.00683248
18283.4	0.00681736
18290.8	0.00680171
18305.6	0.00676883
18313	0.00675162
18320.4	0.00673391
18335.1	0.006697
18342.5	0.00667782
18357.3	0.00663805
18364.7	0.00661748
18372.1	0.00659646
18386.9	0.00655311
18394.2	0.0065308
18401.6	0.00650807
18416.4	0.0064614
18423.8	0.00643747
18431.2	0.00641316
18446	0.00636342
18453.3	0.006338
18460.7	0.00631224
18475.5	0.00625968
18482.9	0.0062329
18490.3	0.00620581
18505.1	0.00615068
18512.4	0.00612266
18527.2	0.00606577
18534.6	0.0060369
18542	0.00600777
18556.8	0.00594871
18564.1	0.00591881
18571.5	0.00588867
18586.3	0.00582769
18593.7	0.00579686
18601.1	0.00576582
18615.9	0.00570312
18623.2	0.00567148
18630.6	0.00563965
18645.4	0.00557543
18652.8	0.00554307
18660.2	0.00551054
18675	0.005445
18682.3	0.00541201
18697.1	0.0053456
18704.5	0.00531219
18711.9	0.00527865
18726.7	0.00521121
18734.1	0.00517732
18741.4	0.00514332
18756.2	0.00507501
18763.6	0.0050407
18771	0.00500631
18785.8	0.00493725
18793.2	0.0049026
18800.5	0.00486787
18815.3	0.00479818
18822.7	0.00476324
18830.1	0.00472822
18844.9	0.00465801
18852.3	0.00462282
18867	0.00455227
18874.4	0.00451691
18881.8	0.00448151
18896.6	0.00441056
18904	0.00437502
18911.4	0.00433944
18926.1	0.00426814
18933.5	0.00423244
18940.9	0.00419669
18955.7	0.00412508
18963.1	0.00408922
18970.4	0.00405333
18985.2	0.00398142
18992.6	0.00394541
19007.4	0.00387329
19014.8	0.00383716
19022.2	0.003801
19036.9	0.00372856
19044.3	0.00369228
19051.7	0.00365596
19066.5	0.00358317
19073.9	0.00354671
19081.3	0.0035102
19096	0.00343703
19103.4	0.00340036
19110.8	0.00336364
19125.6	0.00329001
19133	0.00325311
19140.4	0.00321614
19155.1	0.00314199
19162.5	0.0031048
19177.3	0.0030302
19184.7	0.00299278
19192.1	0.00295527
19206.8	0.00287999
19214.2	0.00284221
19221.6	0.00280432
19236.4	0.00272825
19243.8	0.00269005
19251.2	0.00265174
19265.9	0.00257476
19273.3	0.00253608
19280.7	0.00249728
19295.5	0.00241927
19302.9	0.00238006
19310.3	0.0023407
19325	0.00226154
19332.4	0.00222173
19347.2	0.00214161
19354.6	0.0021013
19362	0.00206082
19376.7	0.00197932
19384.1	0.0019383
19391.5	0.00189708
19406.3	0.00181406
19413.7	0.00177225
19421.1	0.00173023
19435.8	0.00164555
19443.2	0.00160289
19450.6	0.00156
19465.4	0.00147354
19472.8	0.00142996
19480.2	0.00138614
19494.9	0.00129776
19502.3	0.0012532
19517.1	0.00116331
19524.5	0.00111798
19531.9	0.00107238
19546.7	0.000980371
19554	0.000933957
19561.4	0.000887264
19576.2	0.000793031
19583.6	0.000745485
19591	0.000697649
19605.8	0.000601095
19613.1	0.000552372
19620.5	0.000503348
19635.3	0.00040439
19642.7	0.000354451
19650.1	0.000304202
19664.9	0.00020277
19672.2	0.000151582
19687	4.82577e-05
19694.4	-3.88233e-06
19701.8	-5.63423e-05
19716.6	-0.000162226
19723.9	-0.000215651
19731.3	-0.0002694
19746.1	-0.000377867
19753.5	-0.000432587
19760.9	-0.000487631
19775.7	-0.000598689
19783	-0.000654704
19790.4	-0.00071104
19805.2	-0.000824677
19812.6	-0.000881976
19827.4	-0.000997526
19834.8	-0.00105578
19842.1	-0.00111434
19856.9	-0.0012324
19864.3	-0.00129189
19871.7	-0.00135169
19886.5	-0.00147218
19893.9	-0.00153288
19901.2	-0.00159387
19916	-0.00171671
19923.4	-0.00177856
19930.8	-0.00184069
19945.6	-0.00196577
19953	-0.00202872
19960.3	-0.00209193
19975.1	-0.00221911
19982.5	-0.00228308
19997.3	-0.00241174
