0	0
10.3422	0
20.6843	0
31.0265	0
41.3687	0
51.7109	0
62.053	0
72.3952	0
82.7374	0
93.0796	0
103.422	0
113.764	0
124.106	0
134.448	0
144.79	0
155.133	0
165.475	0
175.817	0
186.159	0
196.501	0
206.843	0
217.186	0
227.528	0
237.87	0
248.212	0
258.554	0
268.897	0
279.239	0
289.581	0
299.923	0
310.265	0
320.607	0
330.95	0
341.292	0
351.634	0
361.976	0
372.318	0
382.66	0
393.003	0
403.345	0
413.687	0
424.029	0
434.371	0
444.714	0
455.056	0
465.398	0
475.74	0
486.082	0
496.424	0
506.767	0
517.109	9.09495e-13
527.451	2.72848e-12
537.793	7.27596e-12
548.135	1.81899e-11
558.477	4.18368e-11
568.82	9.3678e-11
579.162	2.02817e-10
589.504	4.24734e-10
599.846	8.6402e-10
610.188	1.70985e-09
620.53	3.29419e-09
630.873	6.19093e-09
641.215	1.13605e-08
651.557	2.038e-08
661.899	3.57768e-08
672.241	6.15219e-08
682.584	1.0373e-07
692.926	1.71639e-07
703.268	2.78952e-07
713.61	4.4565e-07
723.952	7.00385e-07
734.294	1.0836e-06
744.637	1.65155e-06
754.979	2.48133e-06
765.321	3.67718e-06
775.663	5.37827e-06
786.005	7.76805e-06
796.347	1.10856e-05
806.69	1.5639e-05
817.032	2.18212e-05
827.374	3.01283e-05
837.716	4.11812e-05
848.058	5.575e-05
858.401	7.4782e-05
868.743	9.94343e-05
879.085	0.00013111
889.427	0.000171498
899.769	0.000222624
910.111	0.000286899
920.454	0.000367179
930.796	0.000466835
941.138	0.000589825
951.48	0.000740779
961.822	0.000925094
972.164	0.00114904
982.507	0.00141986
992.849	0.00174593
1003.19	0.00213685
1013.53	0.00260365
1023.88	0.00315889
1034.22	0.00381688
1044.56	0.00459382
1054.9	0.00550802
1065.24	0.00658003
1075.59	0.00783286
1085.93	0.00929217
1096.27	0.0109864
1106.61	0.0129468
1116.95	0.0152079
1127.3	0.0178072
1137.64	0.0207854
1147.98	0.0241864
1158.32	0.0280571
1168.67	0.0324475
1179.01	0.0374104
1189.35	0.0430011
1199.69	0.049277
1210.03	0.0562973
1220.38	0.0641225
1230.72	0.0728136
1241.06	0.0824315
1251.4	0.0930364
1261.75	0.104687
1272.09	0.117438
1282.43	0.131343
1292.77	0.146449
1303.11	0.162798
1313.46	0.180426
1323.8	0.199359
1334.14	0.219617
1344.48	0.241208
1354.82	0.264132
1365.17	0.288374
1375.51	0.313909
1385.85	0.340698
1396.19	0.368689
1406.54	0.397815
1416.88	0.427996
1427.22	0.459136
1437.56	0.491127
1447.9	0.523845
1458.25	0.557154
1468.59	0.590904
1478.93	0.624935
1489.27	0.659073
1499.62	0.693136
1509.96	0.726932
1520.3	0.760265
1530.64	0.792929
1540.98	0.824717
1551.33	0.855418
1561.67	0.884822
1572.01	0.912719
1582.35	0.938903
1592.69	0.963173
1603.04	0.985336
1613.38	1.00521
1623.72	1.02261
1634.06	1.03738
1644.41	1.04937
1654.75	1.05845
1665.09	1.0645
1675.43	1.06742
1685.77	1.06712
1696.12	1.06356
1706.46	1.05668
1716.8	1.04646
1727.14	1.03291
1737.49	1.01604
1747.83	0.99589
1758.17	0.972527
1768.51	0.94603
1778.85	0.916499
1789.2	0.884051
1799.54	0.848822
1809.88	0.810965
1820.22	0.770647
1830.56	0.728048
1840.91	0.683361
1851.25	0.63679
1861.59	0.588548
1871.93	0.538855
1882.28	0.487938
1892.62	0.436025
1902.96	0.38335
1913.3	0.330146
1923.64	0.276645
1933.99	0.223076
1944.33	0.169667
1954.67	0.116637
1965.01	0.0642005
1975.36	0.0125621
1985.7	-0.038082
1996.04	-0.087546
2006.38	-0.135655
2016.72	-0.182248
2027.07	-0.227173
2037.41	-0.270295
2047.75	-0.311492
2058.09	-0.350655
2068.43	-0.38769
2078.78	-0.422517
2089.12	-0.455071
2099.46	-0.4853
2109.8	-0.513168
2120.15	-0.538651
2130.49	-0.561738
2140.83	-0.582432
2151.17	-0.600747
2161.51	-0.616709
2171.86	-0.630355
2182.2	-0.641731
2192.54	-0.650893
2202.88	-0.657906
2213.23	-0.662842
2223.57	-0.66578
2233.91	-0.666806
2244.25	-0.666008
2254.59	-0.663483
2264.94	-0.659328
2275.28	-0.653644
2285.62	-0.646534
2295.96	-0.638104
2306.3	-0.628458
2316.65	-0.617702
2326.99	-0.60594
2337.33	-0.593275
2347.67	-0.579811
2358.02	-0.565647
2368.36	-0.550879
2378.7	-0.535604
2389.04	-0.519911
2399.38	-0.503888
2409.73	-0.48762
2420.07	-0.471186
2430.41	-0.454663
2440.75	-0.43812
2451.1	-0.421625
2461.44	-0.405242
2471.78	-0.389027
2482.12	-0.373034
2492.46	-0.357312
2502.81	-0.341905
2513.15	-0.326855
2523.49	-0.312196
2533.83	-0.297961
2544.17	-0.284176
2554.52	-0.270866
2564.86	-0.258052
2575.2	-0.245748
2585.54	-0.233968
2595.89	-0.222723
2606.23	-0.212018
2616.57	-0.201857
2626.91	-0.192242
2637.25	-0.183172
2647.6	-0.174641
2657.94	-0.166645
2668.28	-0.159175
2678.62	-0.152223
2688.97	-0.145776
2699.31	-0.139822
2709.65	-0.134347
2719.99	-0.129336
2730.33	-0.124774
2740.68	-0.120642
2751.02	-0.116924
2761.36	-0.113601
2771.7	-0.110655
2782.04	-0.108067
2792.39	-0.105818
2802.73	-0.103889
2813.07	-0.102261
2823.41	-0.100914
2833.76	-0.0998302
2844.1	-0.0989903
2854.44	-0.098376
2864.78	-0.0979693
2875.12	-0.0977526
2885.47	-0.0977086
2895.81	-0.0978207
2906.15	-0.0980728
2916.49	-0.0984492
2926.84	-0.0989349
2937.18	-0.0995155
2947.52	-0.100177
2957.86	-0.100907
2968.2	-0.101692
2978.55	-0.10252
2988.89	-0.103381
2999.23	-0.104264
3009.57	-0.105158
3019.91	-0.106054
3030.26	-0.106944
3040.6	-0.10782
3050.94	-0.108673
3061.28	-0.109497
3071.62	-0.110286
3081.97	-0.111034
3092.31	-0.111735
3102.65	-0.112385
3112.99	-0.112979
3123.34	-0.113514
3133.68	-0.113986
3144.02	-0.114392
3154.36	-0.11473
3164.7	-0.114997
3175.05	-0.115193
3185.39	-0.115315
3195.73	-0.115362
3206.07	-0.115334
3216.41	-0.115231
3226.76	-0.115052
3237.1	-0.114798
3247.44	-0.114468
3257.78	-0.114064
3268.12	-0.113587
3278.47	-0.113037
3288.81	-0.112416
3299.15	-0.111725
3309.49	-0.110966
3319.83	-0.110141
3330.18	-0.109252
3340.52	-0.1083
3350.86	-0.107288
3361.2	-0.106218
3371.54	-0.105092
3381.89	-0.103913
3392.23	-0.102683
3402.57	-0.101405
3412.91	-0.10008
3423.25	-0.098712
3433.6	-0.0973029
3443.94	-0.0958554
3454.28	-0.094372
3464.62	-0.0928551
3474.96	-0.0913072
3485.31	-0.0897309
3495.65	-0.0881284
3505.99	-0.0865021
3516.33	-0.0848543
3526.67	-0.0831873
3537.01	-0.0815032
3547.36	-0.0798041
3557.7	-0.0780919
3568.04	-0.0763686
3578.38	-0.0746361
3588.72	-0.072896
3599.07	-0.0711501
3609.41	-0.0693998
3619.75	-0.0676467
3630.09	-0.0658921
3640.43	-0.0641372
3650.77	-0.0623832
3661.12	-0.0606312
3671.46	-0.0588821
3681.8	-0.0571368
3692.14	-0.0553961
3702.48	-0.0536606
3712.83	-0.0519309
3723.17	-0.0502075
3733.51	-0.0484909
3743.85	-0.0467814
3754.19	-0.0450792
3764.53	-0.0433845
3774.88	-0.0416975
3785.22	-0.0400181
3795.56	-0.0383464
3805.9	-0.0366823
3816.24	-0.0350257
3826.58	-0.0333765
3836.93	-0.0317344
3847.27	-0.0300993
3857.61	-0.0284708
3867.95	-0.0268487
3878.29	-0.0252326
3888.64	-0.0236224
3898.98	-0.0220175
3909.32	-0.0204178
3919.66	-0.0188228
3930	-0.0172323
3940.34	-0.0156458
3950.69	-0.0140631
3961.03	-0.0124839
3971.37	-0.0109079
3981.71	-0.00933485
3992.05	-0.00776445
4002.39	-0.0061965
4012.74	-0.00463081
4023.08	-0.00306722
4033.42	-0.00150559
4043.76	5.41902e-05
4054.1	0.00161219
4064.44	0.00316844
4074.79	0.00472296
4085.13	0.0062757
4095.47	0.00782662
4105.81	0.00937561
4116.15	0.0109225
4126.5	0.0124673
4136.84	0.0140095
4147.18	0.0155492
4157.52	0.0170859
4167.86	0.0186194
4178.2	0.0201494
4188.55	0.0216755
4198.89	0.0231973
4209.23	0.0247144
4219.57	0.0262265
4229.91	0.027733
4240.26	0.0292335
4250.6	0.0307275
4260.94	0.0322144
4271.28	0.0336938
4281.62	0.035165
4291.96	0.0366275
4302.31	0.0380807
4312.65	0.0395241
4322.99	0.0409569
4333.33	0.0423785
4343.67	0.0437884
4354.02	0.0451858
4364.36	0.0465702
4374.7	0.0479407
4385.04	0.0492968
4395.38	0.0506377
4405.73	0.0519628
4416.07	0.0532713
4426.41	0.0545625
4436.75	0.0558357
4447.09	0.0570901
4457.44	0.0583251
4467.78	0.0595398
4478.12	0.0607335
4488.46	0.0619056
4498.81	0.0630551
4509.15	0.0641815
4519.49	0.0652838
4529.83	0.0663614
4540.17	0.0674134
4550.52	0.0684392
4560.86	0.069438
4571.2	0.070409
4581.54	0.0713514
4591.88	0.0722645
4602.23	0.0731477
4612.57	0.0740001
4622.91	0.074821
4633.25	0.0756098
4643.6	0.0763656
4653.94	0.077088
4664.28	0.0777761
4674.62	0.0784294
4684.96	0.0790472
4695.31	0.0796289
4705.65	0.0801739
4715.99	0.0806818
4726.33	0.0811519
4736.67	0.0815838
4747.02	0.081977
4757.36	0.0823311
4767.7	0.0826457
4778.04	0.0829205
4788.39	0.083155
4798.73	0.0833492
4809.07	0.0835027
4819.41	0.0836153
4829.75	0.083687
4840.1	0.0837176
4850.44	0.083707
4860.78	0.0836553
4871.12	0.0835625
4881.46	0.0834288
4891.81	0.0832543
4902.15	0.0830391
4912.49	0.0827836
4922.83	0.0824881
4933.18	0.0821529
4943.52	0.0817785
4953.86	0.0813652
4964.2	0.0809137
4974.54	0.0804245
4984.89	0.0798982
4995.23	0.0793354
5005.57	0.078737
5015.91	0.0781036
5026.25	0.0774361
5036.6	0.0767353
5046.94	0.0760021
5057.28	0.0752374
5067.62	0.0744423
5077.97	0.0736176
5088.31	0.0727646
5098.65	0.0718841
5108.99	0.0709775
5119.33	0.0700457
5129.68	0.0690899
5140.02	0.0681114
5150.36	0.0671113
5160.7	0.0660909
5171.04	0.0650515
5181.39	0.0639942
5191.73	0.0629203
5202.07	0.0618312
5212.41	0.0607281
5222.76	0.0596124
5233.1	0.0584852
5243.44	0.057348
5253.78	0.056202
5264.12	0.0550486
5274.47	0.0538889
5284.81	0.0527243
5295.15	0.0515561
5305.49	0.0503855
5315.83	0.0492137
5326.18	0.048042
5336.52	0.0468717
5346.86	0.0457038
5357.2	0.0445396
5367.55	0.0433801
5377.89	0.0422266
5388.23	0.0410801
5398.57	0.0399417
5408.91	0.0388124
5419.26	0.0376932
5429.6	0.0365851
5439.94	0.0354891
5450.28	0.034406
5460.62	0.0333366
5470.97	0.032282
5481.31	0.0312427
5491.65	0.0302197
5501.99	0.0292136
5512.34	0.028225
5522.68	0.0272547
5533.02	0.0263032
5543.36	0.0253711
5553.7	0.0244588
5564.05	0.0235669
5574.39	0.0226958
5584.73	0.0218458
5595.07	0.0210173
5605.41	0.0202106
5615.76	0.0194259
5626.1	0.0186634
5636.44	0.0179233
5646.78	0.0172057
5657.13	0.0165107
5667.47	0.0158382
5677.81	0.0151883
5688.15	0.0145609
5698.49	0.0139559
5708.84	0.0133731
5719.18	0.0128124
5729.52	0.0122735
5739.86	0.0117561
5750.2	0.0112599
5760.55	0.0107846
5770.89	0.0103298
5781.23	0.00989506
5791.57	0.00947987
5801.92	0.00908376
5812.26	0.00870619
5822.6	0.00834659
5832.94	0.00800438
5843.28	0.00767891
5853.63	0.00736953
5863.97	0.00707557
5874.31	0.0067963
5884.65	0.00653101
5894.99	0.00627894
5905.34	0.0060393
5915.68	0.00581133
5926.02	0.0055942
5936.36	0.00538709
5946.71	0.00518918
5957.05	0.00499961
5967.39	0.00481754
5977.73	0.0046421
5988.07	0.00447243
5998.42	0.00430767
6008.76	0.00414694
6019.1	0.00398939
6029.44	0.00383414
6039.79	0.00368035
6050.13	0.00352716
6060.47	0.00337373
6070.81	0.00321923
6081.15	0.00306284
6091.5	0.00290376
6101.84	0.0027412
6112.18	0.0025744
6122.52	0.0024026
6132.86	0.00222507
6143.21	0.00204111
6153.55	0.00185003
6163.89	0.00165117
6174.23	0.0014439
6184.58	0.00122762
6194.92	0.00100175
6205.26	0.000765741
6215.6	0.000519071
6225.94	0.000261255
6236.29	-8.1634e-06
6246.63	-0.000289609
6256.97	-0.000583473
6267.31	-0.000890115
6277.65	-0.00120986
6288	-0.00154301
6298.34	-0.00188981
6308.68	-0.00225049
6319.02	-0.00262526
6329.37	-0.00301426
6339.71	-0.00341763
6350.05	-0.00383547
6360.39	-0.00426783
6370.73	-0.00471475
6381.08	-0.00517623
6391.42	-0.00565224
6401.76	-0.00614274
6412.1	-0.00664762
6422.45	-0.00716677
6432.79	-0.00770007
6443.13	-0.00824733
6453.47	-0.00880837
6463.81	-0.00938297
6474.16	-0.0099709
6484.5	-0.0105719
6494.84	-0.0111857
6505.18	-0.0118119
6515.52	-0.0124503
6525.87	-0.0131006
6536.21	-0.0137623
6546.55	-0.0144351
6556.89	-0.0151187
6567.24	-0.0158126
6577.58	-0.0165164
6587.92	-0.0172298
6598.26	-0.0179522
6608.6	-0.0186833
6618.95	-0.0194226
6629.29	-0.0201696
6639.63	-0.020924
6649.97	-0.0216852
6660.32	-0.0224529
6670.66	-0.0232264
6681	-0.0240055
6691.34	-0.0247895
6701.68	-0.0255781
6712.03	-0.0263707
6722.37	-0.027167
6732.71	-0.0279664
6743.05	-0.0287684
6753.4	-0.0295727
6763.74	-0.0303788
6774.08	-0.0311862
6784.42	-0.0319945
6794.76	-0.0328031
6805.11	-0.0336118
6815.45	-0.03442
6825.79	-0.0352274
6836.13	-0.0360335
6846.47	-0.0368378
6856.82	-0.03764
6867.16	-0.0384397
6877.5	-0.0392365
6887.84	-0.0400299
6898.19	-0.0408196
6908.53	-0.0416052
6918.87	-0.0423863
6929.21	-0.0431626
6939.55	-0.0439337
6949.9	-0.0446991
6960.24	-0.0454587
6970.58	-0.0462119
6980.92	-0.0469585
6991.27	-0.0476981
7001.61	-0.0484304
7011.95	-0.049155
7022.29	-0.0498717
7032.63	-0.05058
7042.98	-0.0512798
7053.32	-0.0519705
7063.66	-0.0526521
7074	-0.053324
7084.35	-0.0539861
7094.69	-0.054638
7105.03	-0.0552795
7115.37	-0.0559102
7125.71	-0.0565298
7136.06	-0.0571381
7146.4	-0.0577348
7156.74	-0.0583196
7167.08	-0.0588921
7177.42	-0.0594523
7187.77	-0.0599997
7198.11	-0.0605341
7208.45	-0.0610552
7218.79	-0.0615629
7229.14	-0.0620567
7239.48	-0.0625366
7249.82	-0.0630021
7260.16	-0.0634532
7270.5	-0.0638896
7280.85	-0.0643109
7291.19	-0.0647171
7301.53	-0.0651078
7311.87	-0.0654829
7322.22	-0.0658422
7332.56	-0.0661854
7342.9	-0.0665123
7353.24	-0.0668228
7363.58	-0.0671167
7373.93	-0.0673939
7384.27	-0.067654
7394.61	-0.067897
7404.95	-0.0681228
7415.29	-0.0683311
7425.64	-0.0685219
7435.98	-0.068695
7446.32	-0.0688503
7456.66	-0.0689877
7467.01	-0.0691071
7477.35	-0.0692085
7487.69	-0.0692917
7498.03	-0.0693566
7508.37	-0.0694033
7518.72	-0.0694316
7529.06	-0.0694416
7539.4	-0.0694332
7549.74	-0.0694064
7560.08	-0.0693613
7570.43	-0.0692977
7580.77	-0.0692158
7591.11	-0.0691155
7601.45	-0.068997
7611.79	-0.0688603
7622.14	-0.0687054
7632.48	-0.0685324
7642.82	-0.0683415
7653.16	-0.0681327
7663.51	-0.0679061
7673.85	-0.0676619
7684.19	-0.0674002
7694.53	-0.0671212
7704.87	-0.066825
7715.22	-0.0665117
7725.56	-0.0661816
7735.9	-0.0658349
7746.24	-0.0654717
7756.58	-0.0650923
7766.93	-0.0646969
7777.27	-0.0642857
7787.61	-0.0638589
7797.95	-0.0634168
7808.3	-0.0629596
7818.64	-0.0624877
7828.98	-0.0620012
7839.32	-0.0615005
7849.66	-0.0609857
7860.01	-0.0604573
7870.35	-0.0599155
7880.69	-0.0593606
7891.03	-0.0587928
7901.37	-0.0582126
7911.72	-0.0576202
7922.06	-0.0570159
7932.4	-0.0564001
7942.74	-0.055773
7953.08	-0.0551351
7963.43	-0.0544865
7973.77	-0.0538277
7984.11	-0.0531589
7994.45	-0.0524806
8004.8	-0.051793
8015.14	-0.0510964
8025.48	-0.0503912
8035.82	-0.0496777
8046.16	-0.0489563
8056.51	-0.0482272
8066.85	-0.0474908
8077.19	-0.0467474
8087.53	-0.0459973
8097.87	-0.0452409
8108.22	-0.0444785
8118.56	-0.0437103
8128.9	-0.0429367
8139.24	-0.042158
8149.58	-0.0413745
8159.93	-0.0405865
8170.27	-0.0397942
8180.61	-0.0389981
8190.95	-0.0381983
8201.3	-0.0373952
8211.64	-0.036589
8221.98	-0.0357799
8232.32	-0.0349684
8242.66	-0.0341546
8253.01	-0.0333388
8263.35	-0.0325212
8273.69	-0.0317022
8284.03	-0.0308819
8294.37	-0.0300607
8304.72	-0.0292386
8315.06	-0.0284161
8325.4	-0.0275932
8335.74	-0.0267703
8346.08	-0.0259476
8356.43	-0.0251253
8366.77	-0.0243035
8377.11	-0.0234826
8387.45	-0.0226627
8397.8	-0.0218441
8408.14	-0.0210269
8418.48	-0.0202113
8428.82	-0.0193976
8439.16	-0.0185859
8449.51	-0.0177765
8459.85	-0.0169695
8470.19	-0.0161651
8480.53	-0.0153635
8490.87	-0.0145649
8501.22	-0.0137695
8511.56	-0.0129775
8521.9	-0.0121891
8532.24	-0.0114043
8542.58	-0.0106235
8552.93	-0.00984684
8563.27	-0.00907443
8573.61	-0.00830648
8583.95	-0.00754318
8594.3	-0.00678471
8604.64	-0.00603124
8614.98	-0.00528297
8625.32	-0.00454007
8635.66	-0.00380271
8646.01	-0.0030711
8656.35	-0.0023454
8666.69	-0.00162579
8677.03	-0.000912468
8687.37	-0.000205606
8697.72	0.00049461
8708.06	0.001188
8718.4	0.00187437
8728.74	0.00255355
8739.09	0.00322534
8749.43	0.00388957
8759.77	0.00454606
8770.11	0.00519461
8780.45	0.00583505
8790.8	0.00646718
8801.14	0.00709084
8811.48	0.00770583
8821.82	0.00831198
8832.16	0.00890911
8842.51	0.00949703
8852.85	0.0100756
8863.19	0.0106446
8873.53	0.0112038
8883.88	0.0117532
8894.22	0.0122925
8904.56	0.0128215
8914.9	0.0133402
8925.24	0.0138483
8935.59	0.0143457
8945.93	0.0148322
8956.27	0.0153076
8966.61	0.0157719
8976.95	0.0162249
8987.3	0.0166665
8997.64	0.0170965
9007.98	0.0175147
9018.32	0.0179211
9028.67	0.0183156
9039.01	0.018698
9049.35	0.0190683
9059.69	0.0194263
9070.03	0.0197719
9080.38	0.0201051
9090.72	0.0204258
9101.06	0.0207338
9111.4	0.0210293
9121.74	0.021312
9132.09	0.0215819
9142.43	0.0218391
9152.77	0.0220834
9163.11	0.0223149
9173.46	0.0225335
9183.8	0.0227392
9194.14	0.022932
9204.48	0.023112
9214.82	0.0232791
9225.17	0.0234334
9235.51	0.023575
9245.85	0.0237037
9256.19	0.0238199
9266.53	0.0239234
9276.88	0.0240143
9287.22	0.0240928
9297.56	0.024159
9307.9	0.0242129
9318.25	0.0242546
9328.59	0.0242843
9338.93	0.0243021
9349.27	0.0243082
9359.61	0.0243027
9369.96	0.0242857
9380.3	0.0242574
9390.64	0.024218
9400.98	0.0241677
9411.32	0.0241066
9421.67	0.024035
9432.01	0.0239531
9442.35	0.0238611
9452.69	0.0237591
9463.04	0.0236475
9473.38	0.0235265
9483.72	0.0233963
9494.06	0.0232572
9504.4	0.0231094
9514.75	0.0229532
9525.09	0.0227888
9535.43	0.0226166
9545.77	0.0224368
9556.11	0.0222497
9566.46	0.0220555
9576.8	0.0218547
9587.14	0.0216474
9597.48	0.0214339
9607.83	0.0212147
9618.17	0.0209899
9628.51	0.0207599
9638.85	0.020525
9649.19	0.0202854
9659.54	0.0200416
9669.88	0.0197938
9680.22	0.0195423
9690.56	0.0192875
9700.9	0.0190296
9711.25	0.018769
9721.59	0.0185059
9731.93	0.0182407
9742.27	0.0179737
9752.62	0.0177051
9762.96	0.0174353
9773.3	0.0171645
9783.64	0.0168931
9793.98	0.0166213
9804.33	0.0163495
9814.67	0.0160778
9825.01	0.0158065
9835.35	0.015536
9845.7	0.0152664
9856.04	0.014998
9866.38	0.0147311
9876.72	0.0144659
9887.06	0.0142026
9897.41	0.0139414
9907.75	0.0136825
9918.09	0.0134262
9928.43	0.0131726
9938.77	0.012922
9949.12	0.0126744
9959.46	0.0124301
9969.8	0.0121892
9980.14	0.0119518
9990.49	0.0117181
10000.8	0.0114883
10011.2	0.0112623
10021.5	0.0110404
10031.9	0.0108226
10042.2	0.010609
10052.5	0.0103996
10062.9	0.0101946
10073.2	0.00999401
10083.6	0.0097978
10093.9	0.00960604
10104.2	0.00941874
10114.6	0.00923591
10124.9	0.00905755
10135.3	0.00888365
10145.6	0.00871417
10156	0.0085491
10166.3	0.00838838
10176.6	0.00823196
10187	0.00807977
10197.3	0.00793176
10207.7	0.00778782
10218	0.00764789
10228.4	0.00751185
10238.7	0.0073796
10249	0.00725103
10259.4	0.00712601
10269.7	0.00700442
10280.1	0.00688612
10290.4	0.00677096
10300.8	0.00665881
10311.1	0.00654949
10321.4	0.00644287
10331.8	0.00633875
10342.1	0.00623699
10352.5	0.0061374
10362.8	0.00603981
10373.1	0.00594403
10383.5	0.00584988
10393.8	0.00575716
10404.2	0.0056657
10414.5	0.0055753
10424.9	0.00548576
10435.2	0.00539689
10445.5	0.0053085
10455.9	0.00522038
10466.2	0.00513235
10476.6	0.00504421
10486.9	0.00495576
10497.3	0.0048668
10507.6	0.00477716
10517.9	0.00468663
10528.3	0.00459503
10538.6	0.00450218
10549	0.0044079
10559.3	0.00431199
10569.6	0.0042143
10580	0.00411464
10590.3	0.00401286
10600.7	0.00390879
10611	0.00380226
10621.4	0.00369313
10631.7	0.00358126
10642	0.00346649
10652.4	0.00334869
10662.7	0.00322773
10673.1	0.00310349
10683.4	0.00297584
10693.8	0.00284468
10704.1	0.0027099
10714.4	0.00257139
10724.8	0.00242908
10735.1	0.00228286
10745.5	0.00213267
10755.8	0.00197842
10766.1	0.00182007
10776.5	0.00165754
10786.8	0.00149079
10797.2	0.00131977
10807.5	0.00114445
10817.9	0.000964797
10828.2	0.000780792
10838.5	0.000592417
10848.9	0.000399666
10859.2	0.000202537
10869.6	1.03601e-06
10879.9	-0.000204825
10890.3	-0.000415026
10900.6	-0.000629542
10910.9	-0.00084834
10921.3	-0.00107138
10931.6	-0.00129862
10942	-0.00153001
10952.3	-0.00176548
10962.6	-0.00200498
10973	-0.00224844
10983.3	-0.00249578
10993.7	-0.00274692
11004	-0.00300179
11014.4	-0.00326027
11024.7	-0.00352229
11035	-0.00378775
11045.4	-0.00405653
11055.7	-0.00432853
11066.1	-0.00460363
11076.4	-0.00488172
11086.8	-0.00516269
11097.1	-0.00544639
11107.4	-0.00573271
11117.8	-0.00602152
11128.1	-0.00631268
11138.5	-0.00660605
11148.8	-0.00690149
11159.2	-0.00719887
11169.5	-0.00749804
11179.8	-0.00779884
11190.2	-0.00810114
11200.5	-0.00840479
11210.9	-0.00870962
11221.2	-0.00901549
11231.5	-0.00932225
11241.9	-0.00962973
11252.2	-0.00993779
11262.6	-0.0102463
11272.9	-0.010555
11283.3	-0.0108638
11293.6	-0.0111726
11303.9	-0.0114812
11314.3	-0.0117894
11324.6	-0.012097
11335	-0.012404
11345.3	-0.0127101
11355.7	-0.0130153
11366	-0.0133192
11376.3	-0.0136219
11386.7	-0.0139231
11397	-0.0142227
11407.4	-0.0145206
11417.7	-0.0148165
11428	-0.0151104
11438.4	-0.0154021
11448.7	-0.0156915
11459.1	-0.0159783
11469.4	-0.0162626
11479.8	-0.0165441
11490.1	-0.0168227
11500.4	-0.0170982
11510.8	-0.0173707
11521.1	-0.0176398
11531.5	-0.0179055
11541.8	-0.0181678
11552.2	-0.0184264
11562.5	-0.0186812
11572.8	-0.0189322
11583.2	-0.0191792
11593.5	-0.0194221
11603.9	-0.0196609
11614.2	-0.0198954
11624.5	-0.0201255
11634.9	-0.0203511
11645.2	-0.0205723
11655.6	-0.0207888
11665.9	-0.0210006
11676.3	-0.0212076
11686.6	-0.0214098
11696.9	-0.0216071
11707.3	-0.0217994
11717.6	-0.0219867
11728	-0.0221689
11738.3	-0.0223459
11748.7	-0.0225178
11759	-0.0226845
11769.3	-0.022846
11779.7	-0.0230022
11790	-0.023153
11800.4	-0.0232986
11810.7	-0.0234388
11821	-0.0235737
11831.4	-0.0237032
11841.7	-0.0238274
11852.1	-0.0239462
11862.4	-0.0240597
11872.8	-0.0241679
11883.1	-0.0242707
11893.4	-0.0243682
11903.8	-0.0244605
11914.1	-0.0245476
11924.5	-0.0246295
11934.8	-0.0247062
11945.2	-0.0247778
11955.5	-0.0248443
11965.8	-0.0249058
11976.2	-0.0249624
11986.5	-0.0250142
11996.9	-0.0250611
12007.2	-0.0251032
12017.6	-0.0251407
12027.9	-0.0251736
12038.2	-0.025202
12048.6	-0.025226
12058.9	-0.0252456
12069.3	-0.025261
12079.6	-0.0252723
12089.9	-0.0252795
12100.3	-0.0252828
12110.6	-0.0252823
12121	-0.0252781
12131.3	-0.0252702
12141.7	-0.0252589
12152	-0.0252441
12162.3	-0.0252262
12172.7	-0.025205
12183	-0.0251809
12193.4	-0.0251538
12203.7	-0.025124
12214.1	-0.0250915
12224.4	-0.0250566
12234.7	-0.0250192
12245.1	-0.0249795
12255.4	-0.0249377
12265.8	-0.0248939
12276.1	-0.0248483
12286.4	-0.0248008
12296.8	-0.0247518
12307.1	-0.0247012
12317.5	-0.0246493
12327.8	-0.0245961
12338.2	-0.0245418
12348.5	-0.0244865
12358.8	-0.0244302
12369.2	-0.0243733
12379.5	-0.0243157
12389.9	-0.0242575
12400.2	-0.0241989
12410.6	-0.0241401
12420.9	-0.024081
12431.2	-0.0240218
12441.6	-0.0239626
12451.9	-0.0239035
12462.3	-0.0238446
12472.6	-0.023786
12482.9	-0.0237278
12493.3	-0.02367
12503.6	-0.0236128
12514	-0.0235562
12524.3	-0.0235003
12534.7	-0.0234452
12545	-0.0233909
12555.3	-0.0233375
12565.7	-0.0232851
12576	-0.0232337
12586.4	-0.0231833
12596.7	-0.023134
12607.1	-0.0230859
12617.4	-0.023039
12627.7	-0.0229932
12638.1	-0.0229488
12648.4	-0.0229055
12658.8	-0.0228636
12669.1	-0.022823
12679.4	-0.0227837
12689.8	-0.0227458
12700.1	-0.0227091
12710.5	-0.0226738
12720.8	-0.0226398
12731.2	-0.0226071
12741.5	-0.0225758
12751.8	-0.0225457
12762.2	-0.0225168
12772.5	-0.0224893
12782.9	-0.0224629
12793.2	-0.0224377
12803.6	-0.0224137
12813.9	-0.0223908
12824.2	-0.0223689
12834.6	-0.0223481
12844.9	-0.0223283
12855.3	-0.0223094
12865.6	-0.0222914
12876	-0.0222742
12886.3	-0.0222578
12896.6	-0.0222421
12907	-0.022227
12917.3	-0.0222125
12927.7	-0.0221985
12938	-0.022185
12948.3	-0.0221719
12958.7	-0.0221591
12969	-0.0221465
12979.4	-0.0221341
12989.7	-0.0221217
13000.1	-0.0221094
13010.4	-0.022097
13020.7	-0.0220845
13031.1	-0.0220717
13041.4	-0.0220586
13051.8	-0.0220452
13062.1	-0.0220313
13072.5	-0.0220168
13082.8	-0.0220017
13093.1	-0.0219859
13103.5	-0.0219693
13113.8	-0.0219519
13124.2	-0.0219335
13134.5	-0.021914
13144.8	-0.0218935
13155.2	-0.0218718
13165.5	-0.0218488
13175.9	-0.0218244
13186.2	-0.0217987
13196.6	-0.0217714
13206.9	-0.0217425
13217.2	-0.021712
13227.6	-0.0216798
13237.9	-0.0216458
13248.3	-0.0216099
13258.6	-0.0215721
13269	-0.0215323
13279.3	-0.0214904
13289.6	-0.0214463
13300	-0.0214001
13310.3	-0.0213516
13320.7	-0.0213008
13331	-0.0212476
13341.3	-0.021192
13351.7	-0.0211338
13362	-0.0210732
13372.4	-0.0210099
13382.7	-0.020944
13393.1	-0.0208753
13403.4	-0.020804
13413.7	-0.0207298
13424.1	-0.0206529
13434.4	-0.020573
13444.8	-0.0204903
13455.1	-0.0204046
13465.5	-0.020316
13475.8	-0.0202243
13486.1	-0.0201297
13496.5	-0.0200319
13506.8	-0.0199311
13517.2	-0.0198273
13527.5	-0.0197202
13537.8	-0.0196101
13548.2	-0.0194968
13558.5	-0.0193804
13568.9	-0.0192607
13579.2	-0.0191379
13589.6	-0.019012
13599.9	-0.0188828
13610.2	-0.0187505
13620.6	-0.018615
13630.9	-0.0184763
13641.3	-0.0183344
13651.6	-0.0181895
13662	-0.0180413
13672.3	-0.0178901
13682.6	-0.0177357
13693	-0.0175782
13703.3	-0.0174177
13713.7	-0.0172542
13724	-0.0170876
13734.4	-0.0169181
13744.7	-0.0167456
13755	-0.0165702
13765.4	-0.0163919
13775.7	-0.0162108
13786.1	-0.0160269
13796.4	-0.0158403
13806.7	-0.0156509
13817.1	-0.015459
13827.4	-0.0152644
13837.8	-0.0150672
13848.1	-0.0148676
13858.5	-0.0146655
13868.8	-0.0144611
13879.1	-0.0142543
13889.5	-0.0140454
13899.8	-0.0138342
13910.2	-0.0136209
13920.5	-0.0134055
13930.9	-0.0131882
13941.2	-0.012969
13951.5	-0.012748
13961.9	-0.0125252
13972.2	-0.0123007
13982.6	-0.0120747
13992.9	-0.0118471
14003.2	-0.0116181
14013.6	-0.0113877
14023.9	-0.0111561
14034.3	-0.0109233
14044.6	-0.0106894
14055	-0.0104545
14065.3	-0.0102187
14075.6	-0.00998203
14086	-0.00974463
14096.3	-0.00950658
14106.7	-0.00926796
14117	-0.00902888
14127.4	-0.00878941
14137.7	-0.00854965
14148	-0.00830969
14158.4	-0.00806963
14168.7	-0.00782955
14179.1	-0.00758954
14189.4	-0.0073497
14199.7	-0.00711012
14210.1	-0.00687089
14220.4	-0.00663209
14230.8	-0.00639382
14241.1	-0.00615616
14251.5	-0.00591921
14261.8	-0.00568305
14272.1	-0.00544777
14282.5	-0.00521345
14292.8	-0.00498017
14303.2	-0.00474803
14313.5	-0.00451709
14323.9	-0.00428745
14334.2	-0.00405918
14344.5	-0.00383236
14354.9	-0.00360706
14365.2	-0.00338337
14375.6	-0.00316135
14385.9	-0.00294108
14396.2	-0.00272262
14406.6	-0.00250605
14416.9	-0.00229143
14427.3	-0.00207882
14437.6	-0.00186829
14448	-0.0016599
14458.3	-0.0014537
14468.6	-0.00124976
14479	-0.00104813
14489.3	-0.000848858
14499.7	-0.000651996
14510	-0.000457593
14520.4	-0.000265695
14530.7	-7.63448e-05
14541	0.000110415
14551.4	0.000294545
14561.7	0.000476009
14572.1	0.000654772
14582.4	0.000830801
14592.8	0.00100407
14603.1	0.00117454
14613.4	0.00134219
14623.8	0.001507
14634.1	0.00166895
14644.5	0.00182802
14654.8	0.00198419
14665.1	0.00213744
14675.5	0.00228777
14685.8	0.00243516
14696.2	0.00257961
14706.5	0.0027211
14716.9	0.00285963
14727.2	0.00299521
14737.5	0.00312783
14747.9	0.00325749
14758.2	0.0033842
14768.6	0.00350797
14778.9	0.00362879
14789.3	0.00374668
14799.6	0.00386165
14809.9	0.00397371
14820.3	0.00408288
14830.6	0.00418917
14841	0.0042926
14851.3	0.0043932
14861.6	0.00449097
14872	0.00458594
14882.3	0.00467814
14892.7	0.00476759
14903	0.00485432
14913.4	0.00493835
14923.7	0.00501972
14934	0.00509844
14944.4	0.00517456
14954.7	0.0052481
14965.1	0.0053191
14975.4	0.0053876
14985.8	0.00545362
14996.1	0.0055172
15006.4	0.00557838
15016.8	0.0056372
15027.1	0.00569369
15037.5	0.00574789
15047.8	0.00579984
15058.1	0.00584959
15068.5	0.00589717
15078.8	0.00594263
15089.2	0.005986
15099.5	0.00602732
15109.9	0.00606665
15120.2	0.00610402
15130.5	0.00613948
15140.9	0.00617306
15151.2	0.00620483
15161.6	0.0062348
15171.9	0.00626304
15182.3	0.00628959
15192.6	0.00631449
15202.9	0.00633778
15213.3	0.00635952
15223.6	0.00637974
15234	0.0063985
15244.3	0.00641583
15254.6	0.00643178
15265	0.0064464
15275.3	0.00645974
15285.7	0.00647183
15296	0.00648273
15306.4	0.00649247
15316.7	0.00650111
15327	0.00650869
15337.4	0.00651526
15347.7	0.00652085
15358.1	0.00652551
15368.4	0.0065293
15378.8	0.00653225
15389.1	0.0065344
15399.4	0.00653581
15409.8	0.00653651
15420.1	0.00653656
15430.5	0.00653598
15440.8	0.00653484
15451.2	0.00653316
15461.5	0.006531
15471.8	0.0065284
15482.2	0.0065254
15492.5	0.00652203
15502.9	0.00651836
15513.2	0.00651441
15523.5	0.00651022
15533.9	0.00650585
15544.2	0.00650133
15554.6	0.0064967
15564.9	0.006492
15575.3	0.00648728
15585.6	0.00648257
15595.9	0.00647791
15606.3	0.00647335
15616.6	0.00646892
15627	0.00646466
15637.3	0.00646061
15647.7	0.0064568
15658	0.00645328
15668.3	0.00645008
15678.7	0.00644724
15689	0.0064448
15699.4	0.00644278
15709.7	0.00644124
15720	0.00644019
15730.4	0.00643968
15740.7	0.00643973
15751.1	0.00644039
15761.4	0.00644169
15771.8	0.00644365
15782.1	0.00644631
15792.4	0.00644969
15802.8	0.00645384
15813.1	0.00645877
15823.5	0.00646452
15833.8	0.00647112
15844.2	0.00647858
15854.5	0.00648694
15864.8	0.00649622
15875.2	0.00650645
15885.5	0.00651765
15895.9	0.00652983
15906.2	0.00654303
15916.5	0.00655726
15926.9	0.00657254
15937.2	0.00658889
15947.6	0.00660632
15957.9	0.00662485
15968.3	0.0066445
15978.6	0.00666527
15988.9	0.00668719
15999.3	0.00671024
16009.6	0.00673446
16020	0.00675984
16030.3	0.00678638
16040.7	0.0068141
16051	0.006843
16061.3	0.00687307
16071.7	0.00690431
16082	0.00693672
16092.4	0.0069703
16102.7	0.00700504
16113	0.00704093
16123.4	0.00707796
16133.7	0.00711612
16144.1	0.00715539
16154.4	0.00719576
16164.8	0.0072372
16175.1	0.00727971
16185.4	0.00732325
16195.8	0.0073678
16206.1	0.00741333
16216.5	0.00745981
16226.8	0.00750722
16237.2	0.00755551
16247.5	0.00760465
16257.8	0.00765461
16268.2	0.00770533
16278.5	0.00775677
16288.9	0.0078089
16299.2	0.00786165
16309.6	0.00791499
16319.9	0.00796884
16330.2	0.00802317
16340.6	0.0080779
16350.9	0.00813298
16361.3	0.00818834
16371.6	0.00824391
16381.9	0.00829964
16392.3	0.00835543
16402.6	0.00841123
16413	0.00846694
16423.3	0.0085225
16433.7	0.00857783
16444	0.00863282
16454.3	0.00868741
16464.7	0.0087415
16475	0.00879499
16485.4	0.0088478
16495.7	0.00889982
16506.1	0.00895096
16516.4	0.00900112
16526.7	0.0090502
16537.1	0.00909808
16547.4	0.00914467
16557.8	0.00918985
16568.1	0.00923352
16578.4	0.00927555
16588.8	0.00931584
16599.1	0.00935427
16609.5	0.00939072
16619.8	0.00942508
16630.2	0.00945722
16640.5	0.00948702
16650.8	0.00951437
16661.2	0.00953913
16671.5	0.00956119
16681.9	0.00958042
16692.2	0.00959669
16702.6	0.00960989
16712.9	0.00961988
16723.2	0.00962653
16733.6	0.00962973
16743.9	0.00962935
16754.3	0.00962527
16764.6	0.00961735
16774.9	0.00960548
16785.3	0.00958953
16795.6	0.00956939
16806	0.00954493
16816.3	0.00951603
16826.7	0.00948258
16837	0.00944447
16847.3	0.00940157
16857.7	0.00935378
16868	0.009301
16878.4	0.00924311
16888.7	0.00918001
16899.1	0.00911161
16909.4	0.00903781
16919.7	0.00895851
16930.1	0.00887362
16940.4	0.00878307
16950.8	0.00868677
16961.1	0.00858464
16971.4	0.00847661
16981.8	0.00836261
16992.1	0.00824258
17002.5	0.00811646
17012.8	0.00798421
17023.2	0.00784576
17033.5	0.00770109
17043.8	0.00755015
17054.2	0.00739291
17064.5	0.00722935
17074.9	0.00705946
17085.2	0.00688322
17095.6	0.00670062
17105.9	0.00651167
17116.2	0.00631638
17126.6	0.00611477
17136.9	0.00590685
17147.3	0.00569265
17157.6	0.00547222
17168	0.00524559
17178.3	0.00501283
17188.6	0.00477398
17199	0.00452912
17209.3	0.00427832
17219.7	0.00402167
17230	0.00375924
17240.3	0.00349115
17250.7	0.00321749
17261	0.00293838
17271.4	0.00265394
17281.7	0.00236431
17292.1	0.0020696
17302.4	0.00176997
17312.7	0.00146558
17323.1	0.00115657
17333.4	0.000843117
17343.8	0.000525392
17354.1	0.000203576
17364.5	-0.000122144
17374.8	-0.000451573
17385.1	-0.000784509
17395.5	-0.00112075
17405.8	-0.00146007
17416.2	-0.00180225
17426.5	-0.00214708
17436.8	-0.00249431
17447.2	-0.00284371
17457.5	-0.00319503
17467.9	-0.00354803
17478.2	-0.00390245
17488.6	-0.00425803
17498.9	-0.00461451
17509.2	-0.00497163
17519.6	-0.00532911
17529.9	-0.00568667
17540.3	-0.00604405
17550.6	-0.00640096
17561	-0.00675711
17571.3	-0.00711222
17581.6	-0.00746601
17592	-0.00781818
17602.3	-0.00816845
17612.7	-0.00851652
17623	-0.0088621
17633.3	-0.00920489
17643.7	-0.00954462
17654	-0.00988097
17664.4	-0.0102137
17674.7	-0.0105424
17685.1	-0.0108669
17695.4	-0.0111869
17705.7	-0.0115021
17716.1	-0.0118122
17726.4	-0.012117
17736.8	-0.0124161
17747.1	-0.0127093
17757.5	-0.0129963
17767.8	-0.0132768
17778.1	-0.0135507
17788.5	-0.0138176
17798.8	-0.0140773
17809.2	-0.0143296
17819.5	-0.0145742
17829.9	-0.0148109
17840.2	-0.0150394
17850.5	-0.0152596
17860.9	-0.0154713
17871.2	-0.0156742
17881.6	-0.0158681
17891.9	-0.0160529
17902.2	-0.0162284
17912.6	-0.0163944
17922.9	-0.0165507
17933.3	-0.0166973
17943.6	-0.0168339
17954	-0.0169605
17964.3	-0.0170769
17974.6	-0.0171829
17985	-0.0172786
17995.3	-0.0173637
18005.7	-0.0174383
18016	-0.0175022
18026.4	-0.0175554
18036.7	-0.0175978
18047	-0.0176294
18057.4	-0.0176501
18067.7	-0.0176599
18078.1	-0.0176589
18088.4	-0.017647
18098.7	-0.0176242
18109.1	-0.0175906
18119.4	-0.0175461
18129.8	-0.0174908
18140.1	-0.0174248
18150.5	-0.0173481
18160.8	-0.0172608
18171.1	-0.017163
18181.5	-0.0170548
18191.8	-0.0169362
18202.2	-0.0168074
18212.5	-0.0166685
18222.9	-0.0165196
18233.2	-0.0163609
18243.5	-0.0161924
18253.9	-0.0160145
18264.2	-0.0158271
18274.6	-0.0156306
18284.9	-0.015425
18295.2	-0.0152106
18305.6	-0.0149876
18315.9	-0.0147561
18326.3	-0.0145163
18336.6	-0.0142686
18347	-0.014013
18357.3	-0.0137499
18367.6	-0.0134794
18378	-0.0132018
18388.3	-0.0129174
18398.7	-0.0126264
18409	-0.012329
18419.4	-0.0120255
18429.7	-0.0117161
18440	-0.0114012
18450.4	-0.011081
18460.7	-0.0107558
18471.1	-0.0104257
18481.4	-0.0100912
18491.7	-0.00975249
18502.1	-0.00940983
18512.4	-0.00906352
18522.8	-0.00871384
18533.1	-0.00836106
18543.5	-0.00800547
18553.8	-0.00764736
18564.1	-0.007287
18574.5	-0.00692467
18584.8	-0.00656066
18595.2	-0.00619525
18605.5	-0.0058287
18615.9	-0.0054613
18626.2	-0.00509332
18636.5	-0.00472503
18646.9	-0.0043567
18657.2	-0.0039886
18667.6	-0.00362099
18677.9	-0.00325413
18688.3	-0.00288827
18698.6	-0.00252366
18708.9	-0.00216056
18719.3	-0.00179921
18729.6	-0.00143985
18740	-0.00108271
18750.3	-0.000728026
18760.6	-0.000376019
18771	-2.69111e-05
18781.3	0.000319083
18791.7	0.000661754
18802	0.0010009
18812.4	0.00133631
18822.7	0.00166781
18833	0.00199521
18843.4	0.00231832
18853.7	0.00263697
18864.1	0.00295099
18874.4	0.00326023
18884.8	0.00356451
18895.1	0.0038637
18905.4	0.00415766
18915.8	0.00444624
18926.1	0.00472931
18936.5	0.00500676
18946.8	0.00527846
18957.1	0.0055443
18967.5	0.00580418
18977.8	0.00605801
18988.2	0.00630569
18998.5	0.00654713
19008.9	0.00678227
19019.2	0.00701102
19029.5	0.00723332
19039.9	0.00744911
19050.2	0.00765835
19060.6	0.00786097
19070.9	0.00805694
19081.3	0.00824624
19091.6	0.00842881
19101.9	0.00860466
19112.3	0.00877375
19122.6	0.00893607
19133	0.00909162
19143.3	0.00924041
19153.6	0.00938242
19164	0.00951768
19174.3	0.00964619
19184.7	0.00976798
19195	0.00988307
19205.4	0.00999149
19215.7	0.0100933
19226	0.0101885
19236.4	0.0102771
19246.7	0.0103592
19257.1	0.0104349
19267.4	0.0105042
19277.8	0.0105671
19288.1	0.0106238
19298.4	0.0106742
19308.8	0.0107185
19319.1	0.0107567
19329.5	0.0107889
19339.8	0.0108152
19350.1	0.0108357
19360.5	0.0108504
19370.8	0.0108595
19381.2	0.010863
19391.5	0.010861
19401.9	0.0108536
19412.2	0.0108409
19422.5	0.0108231
19432.9	0.0108001
19443.2	0.0107721
19453.6	0.0107393
19463.9	0.0107016
19474.3	0.0106593
19484.6	0.0106124
19494.9	0.0105611
19505.3	0.0105054
19515.6	0.0104454
19526	0.0103814
19536.3	0.0103133
19546.7	0.0102412
19557	0.0101654
19567.3	0.0100859
19577.7	0.0100029
19588	0.00991634
19598.4	0.00982647
19608.7	0.00973338
19619	0.00963716
19629.4	0.00953795
19639.7	0.00943584
19650.1	0.00933096
19660.4	0.00922342
19670.8	0.00911332
19681.1	0.00900078
19691.4	0.00888592
19701.8	0.00876884
19712.1	0.00864965
19722.5	0.00852846
19732.8	0.00840538
19743.2	0.00828052
19753.5	0.00815398
19763.8	0.00802587
19774.2	0.00789629
19784.5	0.00776536
19794.9	0.00763316
19805.2	0.00749981
19815.5	0.0073654
19825.9	0.00723003
19836.2	0.00709381
19846.6	0.00695682
19856.9	0.00681916
19867.3	0.00668093
19877.6	0.00654222
19887.9	0.00640313
19898.3	0.00626373
19908.6	0.00612413
19919	0.00598441
19929.3	0.00584466
19939.7	0.00570496
19950	0.00556539
19960.3	0.00542604
19970.7	0.00528699
19981	0.00514831
19991.4	0.00501009
