0	0
75.9842	0
151.968	0
227.953	0
303.937	0
379.921	0
455.905	0
531.889	0
607.874	0
683.858	0
759.842	0
835.826	0
911.81	0
987.794	0
1063.78	0
1139.76	-1.71603e-08
1215.75	-1.97223e-07
1291.73	-1.1861e-06
1367.72	-4.834e-06
1443.7	-1.48697e-05
1519.68	-3.62525e-05
1595.67	-7.14534e-05
1671.65	-0.00011257
1747.63	-0.000129828
1823.62	-5.8764e-05
1899.6	0.000210501
1975.58	0.000838368
2051.56	0.0020324
2127.55	0.00403399
2203.53	0.00709538
2279.51	0.0114492
2355.49	0.0172749
2431.48	0.0246658
2507.46	0.0336041
2583.44	0.0439447
2659.42	0.0554135
2735.41	0.0676181
2811.39	0.0800713
2887.37	0.0922236
2963.36	0.103502
3039.34	0.113348
3115.32	0.12126
3191.31	0.126819
3267.29	0.129721
3343.27	0.129786
3419.26	0.126968
3495.24	0.12135
3571.23	0.113137
3647.21	0.102635
3723.2	0.0902331
3799.18	0.0763788
3875.16	0.0615522
3951.15	0.0462425
4027.13	0.0309247
4103.12	0.01604
4179.1	0.00197829
4255.08	-0.0109338
4331.07	-0.022442
4407.05	-0.0323681
4483.04	-0.04061
4559.02	-0.0471383
4635	-0.0519887
4710.99	-0.0552532
4786.97	-0.0570688
4862.96	-0.0576057
4938.94	-0.0570553
5014.92	-0.0556197
5090.91	-0.0535009
5166.89	-0.050893
5242.88	-0.0479754
5318.86	-0.0449076
5394.85	-0.0418266
5470.83	-0.0388448
5546.81	-0.0360498
5622.8	-0.033505
5698.78	-0.031251
5774.77	-0.0293079
5850.75	-0.0276775
5926.73	-0.0263463
6002.72	-0.0252882
6078.7	-0.0244675
6154.69	-0.0238419
6230.67	-0.0233649
6306.65	-0.0229886
6382.64	-0.0226659
6458.62	-0.0223525
6534.61	-0.022008
6610.59	-0.0215977
6686.57	-0.0210929
6762.56	-0.0204716
6838.54	-0.0197184
6914.53	-0.0188246
6990.51	-0.0177874
7066.49	-0.01661
7142.48	-0.0153003
7218.46	-0.0138705
7294.44	-0.0123363
7370.43	-0.010716
7446.41	-0.00903017
7522.4	-0.00730031
7598.38	-0.00554868
7674.36	-0.00379748
7750.35	-0.00206827
7826.33	-0.000381567
7902.32	0.00124364
7978.3	0.0027902
8054.28	0.00424304
8130.27	0.00558932
8206.25	0.00681855
8282.23	0.00792255
8358.22	0.00889538
8434.2	0.00973326
8510.19	0.0104343
8586.17	0.0109986
8662.15	0.0114274
8738.14	0.0117235
8814.12	0.0118909
8890.11	0.0119343
8966.09	0.011859
9042.08	0.011671
9118.06	0.0113765
9194.04	0.0109821
9270.03	0.0104943
9346.01	0.00991986
9422	0.00926548
9497.98	0.00853785
9573.96	0.0077436
9649.95	0.00688941
9725.93	0.00598191
9801.92	0.0050278
9877.9	0.00403384
9953.89	0.00300687
10029.9	0.00195386
10105.9	0.000881928
10181.8	-0.000201682
10257.8	-0.00128958
10333.8	-0.00237428
10409.8	-0.0034482
10485.8	-0.00450375
10561.8	-0.0055334
10637.7	-0.00652973
10713.7	-0.00748552
10789.7	-0.0083939
10865.7	-0.00924837
10941.7	-0.0100429
11017.7	-0.0107723
11093.6	-0.0114316
11169.6	-0.0120172
11245.6	-0.0125258
11321.6	-0.0129553
11397.6	-0.0133046
11473.6	-0.0135733
11549.6	-0.0137621
11625.5	-0.0138726
11701.5	-0.0139073
11777.5	-0.0138695
11853.5	-0.0137632
11929.5	-0.0135932
12005.5	-0.0133646
12081.4	-0.0130832
12157.4	-0.012755
12233.4	-0.0123862
12309.4	-0.011983
12385.4	-0.0115519
12461.4	-0.0110988
12537.3	-0.01063
12613.3	-0.0101509
12689.3	-0.00966687
12765.3	-0.00918292
12841.3	-0.00870347
12917.3	-0.0082325
12993.3	-0.00777354
13069.2	-0.00732957
13145.2	-0.00690314
13221.2	-0.00649628
13297.2	-0.00611059
13373.2	-0.00574725
13449.2	-0.00540704
13525.1	-0.00509035
13601.1	-0.00479726
13677.1	-0.00452755
13753.1	-0.00428072
13829.1	-0.00405602
13905.1	-0.00385248
13981	-0.00366896
14057	-0.00350412
14133	-0.00335649
14209	-0.00322447
14285	-0.00310633
14361	-0.00300028
14437	-0.00290443
14512.9	-0.00281687
14588.9	-0.00273564
14664.9	-0.0026588
14740.9	-0.00258443
14816.9	-0.00251064
14892.9	-0.00243564
14968.8	-0.00235775
15044.8	-0.00227542
15120.8	-0.00218725
15196.8	-0.00209205
15272.8	-0.00198882
15348.8	-0.00187682
15424.7	-0.00175554
15500.7	-0.00162472
15576.7	-0.0014844
15652.7	-0.00133485
15728.7	-0.00117664
15804.7	-0.00101058
15880.7	-0.000837711
15956.6	-0.000659302
16032.6	-0.000476814
16108.6	-0.000291866
16184.6	-0.000106209
16260.6	7.83179e-05
16336.6	0.000259821
16412.5	0.000436393
16488.5	0.000606156
16564.5	0.000767294
16640.5	0.000918097
16716.5	0.00105699
16792.5	0.00118256
16868.4	0.00129359
16944.4	0.00138909
17020.4	0.00146828
17096.4	0.00153065
17172.4	0.00157591
17248.4	0.00160404
17324.3	0.00161526
17400.3	0.00161002
17476.3	0.00158901
17552.3	0.00155309
17628.3	0.00150332
17704.3	0.00144092
17780.3	0.00136724
17856.2	0.0012837
17932.2	0.00119183
18008.2	0.00109318
18084.2	0.00098931
18160.2	0.000881768
18236.2	0.000772064
18312.1	0.000661636
18388.1	0.000551841
18464.1	0.000443925
18540.1	0.000339018
18616.1	0.000238116
18692.1	0.000142073
18768	5.15997e-05
18844	-3.27409e-05
18920	-0.000110532
18996	-0.000181499
19072	-0.000245501
19148	-0.000302524
19224	-0.000352667
19299.9	-0.000396133
19375.9	-0.000433212
19451.9	-0.00046427
19527.9	-0.000489729
19603.9	-0.000510058
19679.9	-0.000525755
19755.8	-0.000537333
19831.8	-0.000545309
19907.8	-0.00055019
19983.8	-0.000552463
