0	0
13.2971	0
26.5942	0
39.8912	0
53.1883	0
66.4854	0
79.7825	0
93.0796	0
106.377	0
119.674	0
132.971	0
146.268	0
159.565	0
172.862	0
186.159	0
199.456	0
212.753	0
226.05	0
239.347	0
252.645	0
265.942	0
279.239	0
292.536	0
305.833	0
319.13	0
332.427	0
345.724	0
359.021	0
372.318	0
385.615	0
398.912	0
412.21	0
425.507	0
438.804	0
452.101	0
465.398	0
478.695	0
491.992	0
505.289	0
518.586	0
531.883	0
545.18	0
558.477	0
571.775	0
585.072	0
598.369	0
611.666	0
624.963	0
638.26	0
651.557	0
664.854	0
678.151	0
691.448	0
704.745	0
718.042	0
731.34	0
744.637	0
757.934	0
771.231	0
784.528	0
797.825	0
811.122	0
824.419	0
837.716	0
851.013	0
864.31	0
877.607	0
890.904	0
904.202	0
917.499	0
930.796	0
944.093	0
957.39	0
970.687	0
983.984	0
997.281	0
1010.58	0
1023.88	0
1037.17	0
1050.47	0
1063.77	0
1077.06	0
1090.36	0
1103.66	0
1116.95	0
1130.25	0
1143.55	0
1156.85	0
1170.14	0
1183.44	0
1196.74	0
1210.03	0
1223.33	0
1236.63	0
1249.93	0
1263.22	0
1276.52	0
1289.82	0
1303.11	0
1316.41	0
1329.71	0
1343.01	0
1356.3	0
1369.6	0
1382.9	0
1396.19	0
1409.49	0
1422.79	0
1436.08	0
1449.38	0
1462.68	0
1475.98	0
1489.27	0
1502.57	0
1515.87	0
1529.16	0
1542.46	0
1555.76	0
1569.06	0
1582.35	0
1595.65	0
1608.95	0
1622.24	-9.09495e-13
1635.54	-1.81899e-12
1648.84	-4.54747e-12
1662.14	-8.18545e-12
1675.43	-1.54614e-11
1688.73	-2.81943e-11
1702.03	-5.09317e-11
1715.32	-9.004e-11
1728.62	-1.55524e-10
1741.92	-2.66482e-10
1755.21	-4.502e-10
1768.51	-7.49424e-10
1781.81	-1.23146e-09
1795.11	-1.99907e-09
1808.4	-3.20688e-09
1821.7	-5.08408e-09
1835	-7.9699e-09
1848.29	-1.23555e-08
1861.59	-1.89493e-08
1874.89	-2.87582e-08
1888.19	-4.31992e-08
1901.48	-6.42476e-08
1914.78	-9.46284e-08
1928.08	-1.3806e-07
1941.37	-1.99573e-07
1954.67	-2.85902e-07
1967.97	-4.05989e-07
1981.27	-5.71586e-07
1994.56	-7.98007e-07
2007.86	-1.10504e-06
2021.16	-1.51801e-06
2034.45	-2.06909e-06
2047.75	-2.79878e-06
2061.05	-3.75766e-06
2074.34	-5.00838e-06
2087.64	-6.62796e-06
2100.94	-8.71028e-06
2114.24	-1.1369e-05
2127.53	-1.47405e-05
2140.83	-1.89874e-05
2154.13	-2.43021e-05
2167.42	-3.09104e-05
2180.72	-3.90756e-05
2194.02	-4.91026e-05
2207.32	-6.13413e-05
2220.61	-7.61913e-05
2233.91	-9.41051e-05
2247.21	-0.000115591
2260.5	-0.000141218
2273.8	-0.000171616
2287.1	-0.000207478
2300.4	-0.000249561
2313.69	-0.000298686
2326.99	-0.000355738
2340.29	-0.00042166
2353.58	-0.000497452
2366.88	-0.000584161
2380.18	-0.000682879
2393.47	-0.000794731
2406.77	-0.000920859
2420.07	-0.00106242
2433.37	-0.00122055
2446.66	-0.00139638
2459.96	-0.00159097
2473.26	-0.00180533
2486.55	-0.00204037
2499.85	-0.00229687
2513.15	-0.00257546
2526.45	-0.00287661
2539.74	-0.00320052
2553.04	-0.00354717
2566.34	-0.00391624
2579.63	-0.00430705
2592.93	-0.00471854
2606.23	-0.00514923
2619.53	-0.00559713
2632.82	-0.00605975
2646.12	-0.00653399
2659.42	-0.00701613
2672.71	-0.00750174
2686.01	-0.00798568
2699.31	-0.008462
2712.6	-0.00892389
2725.9	-0.0093637
2739.2	-0.00977281
2752.5	-0.0101417
2765.79	-0.0104597
2779.09	-0.0107153
2792.39	-0.010896
2805.68	-0.010988
2818.98	-0.0109767
2832.28	-0.0108465
2845.58	-0.0105807
2858.87	-0.0101618
2872.17	-0.00957141
2885.47	-0.00879047
2898.76	-0.00779916
2912.06	-0.00657717
2925.36	-0.00510379
2938.65	-0.0033581
2951.95	-0.00131909
2965.25	0.00103411
2978.55	0.00372203
2991.84	0.00676465
3005.14	0.0101811
3018.44	0.0139897
3031.73	0.0182072
3045.03	0.0228489
3058.33	0.0279286
3071.63	0.0334576
3084.92	0.0394453
3098.22	0.0458984
3111.52	0.0528208
3124.81	0.0602137
3138.11	0.0680749
3151.41	0.076399
3164.7	0.0851769
3178	0.0943963
3191.3	0.104041
3204.59	0.114091
3217.89	0.124522
3231.19	0.135308
3244.49	0.146416
3257.78	0.157812
3271.08	0.169458
3284.38	0.181313
3297.67	0.19333
3310.97	0.205462
3324.27	0.217659
3337.56	0.229868
3350.86	0.242034
3364.16	0.2541
3377.45	0.266008
3390.75	0.277699
3404.05	0.289112
3417.34	0.300189
3430.64	0.310869
3443.94	0.321093
3457.23	0.330803
3470.53	0.339942
3483.83	0.348456
3497.12	0.356293
3510.42	0.363402
3523.72	0.369736
3537.01	0.375252
3550.31	0.379911
3563.61	0.383676
3576.9	0.386516
3590.2	0.388403
3603.5	0.389316
3616.79	0.389235
3630.09	0.388149
3643.39	0.38605
3656.68	0.382935
3669.98	0.378806
3683.28	0.373672
3696.57	0.367544
3709.87	0.36044
3723.17	0.352384
3736.46	0.343401
3749.76	0.333525
3763.06	0.322791
3776.35	0.31124
3789.65	0.298916
3802.95	0.285867
3816.24	0.272144
3829.54	0.257802
3842.84	0.242897
3856.13	0.227489
3869.43	0.211639
3882.72	0.195411
3896.02	0.178868
3909.32	0.162075
3922.61	0.145099
3935.91	0.128005
3949.21	0.110859
3962.5	0.0937261
3975.8	0.0766698
3989.1	0.0597532
4002.39	0.0430377
4015.69	0.0265823
4028.99	0.0104443
4042.28	-0.00532196
4055.58	-0.0206647
4068.88	-0.0355351
4082.17	-0.0498877
4095.47	-0.0636806
4108.76	-0.0768751
4122.06	-0.0894365
4135.36	-0.101334
4148.65	-0.112541
4161.95	-0.123033
4175.25	-0.132793
4188.54	-0.141805
4201.84	-0.150058
4215.14	-0.157545
4228.43	-0.164263
4241.73	-0.170213
4255.03	-0.175399
4268.32	-0.179828
4281.62	-0.183513
4294.92	-0.186466
4308.21	-0.188707
4321.51	-0.190253
4334.81	-0.19113
4348.11	-0.19136
4361.4	-0.190972
4374.7	-0.189994
4388	-0.188457
4401.29	-0.186394
4414.59	-0.183836
4427.89	-0.180819
4441.18	-0.177377
4454.48	-0.173546
4467.78	-0.16936
4481.07	-0.164855
4494.37	-0.160068
4507.67	-0.155031
4520.97	-0.149781
4534.26	-0.144351
4547.56	-0.138773
4560.86	-0.13308
4574.15	-0.127302
4587.45	-0.12147
4600.75	-0.115611
4614.05	-0.109752
4627.34	-0.103919
4640.64	-0.0981362
4653.94	-0.0924251
4667.23	-0.0868069
4680.53	-0.0813009
4693.83	-0.0759246
4707.12	-0.0706941
4720.42	-0.0656237
4733.72	-0.0607264
4747.02	-0.0560135
4760.31	-0.0514947
4773.61	-0.0471784
4786.91	-0.0430715
4800.2	-0.0391797
4813.5	-0.0355073
4826.8	-0.0320572
4840.09	-0.0288313
4853.39	-0.0258305
4866.69	-0.0230545
4879.99	-0.020502
4893.28	-0.0181709
4906.58	-0.0160582
4919.88	-0.0141603
4933.17	-0.0124726
4946.47	-0.0109902
4959.77	-0.00970735
4973.07	-0.00861805
4986.36	-0.00771571
4999.66	-0.00699339
5012.96	-0.00644386
5026.25	-0.00605958
5039.55	-0.00583283
5052.85	-0.00575568
5066.14	-0.00582011
5079.44	-0.006018
5092.74	-0.00634118
5106.04	-0.0067815
5119.33	-0.00733081
5132.63	-0.00798103
5145.93	-0.00872417
5159.22	-0.00955233
5172.52	-0.0104578
5185.82	-0.0114329
5199.11	-0.0124702
5212.41	-0.0135626
5225.71	-0.0147029
5239.01	-0.0158844
5252.3	-0.0171004
5265.6	-0.0183445
5278.9	-0.0196106
5292.19	-0.0208928
5305.49	-0.0221854
5318.79	-0.0234831
5332.08	-0.0247805
5345.38	-0.0260729
5358.68	-0.0273556
5371.98	-0.028624
5385.27	-0.029874
5398.57	-0.0311018
5411.87	-0.0323034
5425.16	-0.0334756
5438.46	-0.034615
5451.76	-0.0357187
5465.06	-0.0367838
5478.35	-0.0378079
5491.65	-0.0387884
5504.95	-0.0397234
5518.24	-0.040611
5531.54	-0.0414492
5544.84	-0.0422368
5558.13	-0.0429723
5571.43	-0.0436547
5584.73	-0.0442829
5598.03	-0.0448563
5611.32	-0.0453742
5624.62	-0.0458363
5637.92	-0.0462423
5651.21	-0.0465922
5664.51	-0.046886
5677.81	-0.0471241
5691.11	-0.0473067
5704.4	-0.0474344
5717.7	-0.047508
5731	-0.0475281
5744.29	-0.0474957
5757.59	-0.0474119
5770.89	-0.0472779
5784.18	-0.0470948
5797.48	-0.0468641
5810.78	-0.0465871
5824.08	-0.0462654
5837.37	-0.0459007
5850.67	-0.0454945
5863.97	-0.0450487
5877.26	-0.0445649
5890.56	-0.0440451
5903.86	-0.043491
5917.16	-0.0429046
5930.45	-0.0422879
5943.75	-0.0416426
5957.05	-0.0409708
5970.34	-0.0402745
5983.64	-0.0395554
5996.94	-0.0388157
6010.23	-0.038057
6023.53	-0.0372814
6036.83	-0.0364907
6050.13	-0.0356866
6063.42	-0.0348709
6076.72	-0.0340454
6090.02	-0.0332116
6103.31	-0.0323713
6116.61	-0.0315258
6129.91	-0.0306768
6143.21	-0.0298255
6156.5	-0.0289734
6169.8	-0.0281216
6183.1	-0.0272714
6196.39	-0.0264239
6209.69	-0.0255802
6222.99	-0.024741
6236.29	-0.0239074
6249.58	-0.0230801
6262.88	-0.0222599
6276.18	-0.0214473
6289.47	-0.0206429
6302.77	-0.0198472
6316.07	-0.0190606
6329.36	-0.0182834
6342.66	-0.0175159
6355.96	-0.0167583
6369.26	-0.0160107
6382.55	-0.0152732
6395.85	-0.0145458
6409.15	-0.0138284
6422.44	-0.013121
6435.74	-0.0124233
6449.04	-0.0117353
6462.34	-0.0110566
6475.63	-0.0103871
6488.93	-0.00972645
6502.23	-0.00907431
6515.52	-0.00843035
6528.82	-0.00779424
6542.12	-0.0071656
6555.41	-0.00654406
6568.71	-0.00592926
6582.01	-0.00532082
6595.31	-0.00471838
6608.6	-0.00412157
6621.9	-0.00353006
6635.2	-0.00294353
6648.49	-0.00236166
6661.79	-0.00178418
6675.09	-0.00121083
6688.39	-0.000641406
6701.68	-7.571e-05
6714.98	0.000486409
6728.28	0.00104506
6741.57	0.00160033
6754.87	0.00215224
6768.17	0.00270079
6781.47	0.00324593
6794.76	0.00378756
6808.06	0.00432554
6821.36	0.00485969
6834.65	0.00538979
6847.95	0.00591557
6861.25	0.00643672
6874.55	0.0069529
6887.84	0.00746371
6901.14	0.00796873
6914.44	0.00846751
6927.73	0.00895955
6941.03	0.00944434
6954.33	0.00992133
6967.62	0.01039
6980.92	0.0108496
6994.22	0.0112997
7007.52	0.0117396
7020.81	0.0121687
7034.11	0.0125863
7047.41	0.0129917
7060.7	0.0133845
7074	0.0137638
7087.3	0.0141291
7100.6	0.0144797
7113.89	0.0148151
7127.19	0.0151345
7140.49	0.0154375
7153.78	0.0157236
7167.08	0.015992
7180.38	0.0162424
7193.68	0.0164743
7206.97	0.0166873
7220.27	0.0168808
7233.57	0.0170547
7246.86	0.0172084
7260.16	0.0173418
7273.46	0.0174545
7286.76	0.0175463
7300.05	0.0176171
7313.35	0.0176668
7326.65	0.0176952
7339.94	0.0177022
7353.24	0.0176878
7366.54	0.0176522
7379.83	0.0175952
7393.13	0.0175171
7406.43	0.0174179
7419.73	0.0172978
7433.02	0.017157
7446.32	0.0169957
7459.62	0.0168142
7472.91	0.0166127
7486.21	0.0163916
7499.51	0.0161512
7512.8	0.0158918
7526.1	0.0156138
7539.4	0.0153176
7552.7	0.0150036
7565.99	0.0146721
7579.29	0.0143236
7592.59	0.0139585
7605.88	0.0135773
7619.18	0.0131803
7632.48	0.0127679
7645.77	0.0123407
7659.07	0.011899
7672.37	0.0114433
7685.67	0.0109739
7698.96	0.0104913
7712.26	0.00999584
7725.56	0.00948797
7738.85	0.00896806
7752.15	0.00843647
7765.45	0.00789357
7778.74	0.00733971
7792.04	0.00677523
7805.34	0.00620047
7818.64	0.00561575
7831.93	0.00502138
7845.23	0.00441766
7858.53	0.00380489
7871.82	0.00318336
7885.12	0.00255334
7898.42	0.00191511
7911.71	0.00126893
7925.01	0.000615074
7938.31	-4.62035e-05
7951.61	-0.000714643
7964.9	-0.00138999
7978.2	-0.00207198
7991.5	-0.00276035
8004.79	-0.00345485
8018.09	-0.00415521
8031.39	-0.00486114
8044.68	-0.00557238
8057.98	-0.00628864
8071.28	-0.00700962
8084.58	-0.00773502
8097.87	-0.00846452
8111.17	-0.00919779
8124.47	-0.0099345
8137.76	-0.0106743
8151.06	-0.0114168
8164.36	-0.0121617
8177.65	-0.0129085
8190.95	-0.0136568
8204.25	-0.0144063
8217.55	-0.0151565
8230.84	-0.0159069
8244.14	-0.0166571
8257.44	-0.0174066
8270.73	-0.018155
8284.03	-0.0189016
8297.33	-0.0196461
8310.62	-0.0203879
8323.92	-0.0211264
8337.22	-0.0218612
8350.52	-0.0225916
8363.81	-0.0233171
8377.11	-0.0240373
8390.41	-0.0247514
8403.7	-0.0254589
8417	-0.0261593
8430.3	-0.026852
8443.59	-0.0275365
8456.89	-0.0282121
8470.19	-0.0288783
8483.49	-0.0295346
8496.78	-0.0301804
8510.08	-0.0308151
8523.38	-0.0314383
8536.67	-0.0320493
8549.97	-0.0326478
8563.27	-0.0332332
8576.56	-0.033805
8589.86	-0.0343627
8603.16	-0.0349059
8616.46	-0.0354342
8629.75	-0.0359471
8643.05	-0.0364442
8656.35	-0.0369252
8669.64	-0.0373896
8682.94	-0.0378373
8696.24	-0.0382677
8709.53	-0.0386806
8722.83	-0.0390758
8736.13	-0.0394529
8749.43	-0.0398117
8762.72	-0.0401521
8776.02	-0.0404738
8789.32	-0.0407766
8802.61	-0.0410603
8815.91	-0.0413249
8829.21	-0.0415702
8842.51	-0.0417961
8855.8	-0.0420026
8869.1	-0.0421895
8882.4	-0.0423569
8895.69	-0.0425047
8908.99	-0.0426328
8922.29	-0.0427414
8935.58	-0.0428304
8948.88	-0.0428999
8962.18	-0.0429499
8975.48	-0.0429805
8988.77	-0.0429918
9002.07	-0.0429839
9015.37	-0.0429569
9028.66	-0.0429108
9041.96	-0.0428459
9055.26	-0.0427623
9068.55	-0.0426601
9081.85	-0.0425394
9095.15	-0.0424006
9108.45	-0.0422437
9121.74	-0.0420689
9135.04	-0.0418764
9148.34	-0.0416664
9161.63	-0.0414392
9174.93	-0.041195
9188.23	-0.0409339
9201.53	-0.0406562
9214.82	-0.0403622
9228.12	-0.0400521
9241.42	-0.0397262
9254.71	-0.0393846
9268.01	-0.0390278
9281.31	-0.0386558
9294.6	-0.0382692
9307.9	-0.037868
9321.2	-0.0374526
9334.5	-0.0370233
9347.79	-0.0365805
9361.09	-0.0361243
9374.39	-0.0356552
9387.68	-0.0351734
9400.98	-0.0346793
9414.28	-0.0341733
9427.57	-0.0336556
9440.87	-0.0331266
9454.17	-0.0325867
9467.47	-0.0320363
9480.76	-0.0314757
9494.06	-0.0309052
9507.36	-0.0303254
9520.65	-0.0297365
9533.95	-0.029139
9547.25	-0.0285333
9560.55	-0.0279197
9573.84	-0.0272988
9587.14	-0.026671
9600.44	-0.0260366
9613.73	-0.0253962
9627.03	-0.0247501
9640.33	-0.0240988
9653.62	-0.0234429
9666.92	-0.0227827
9680.22	-0.0221187
9693.52	-0.0214514
9706.81	-0.0207812
9720.11	-0.0201088
9733.41	-0.0194345
9746.7	-0.0187588
9760	-0.0180822
9773.3	-0.0174053
9786.6	-0.0167285
9799.89	-0.0160524
9813.19	-0.0153774
9826.49	-0.014704
9839.78	-0.0140328
9853.08	-0.0133643
9866.38	-0.0126989
9879.67	-0.0120372
9892.97	-0.0113796
9906.27	-0.0107267
9919.57	-0.010079
9932.86	-0.00943688
9946.16	-0.00880096
9959.46	-0.00817166
9972.75	-0.00754948
9986.05	-0.00693489
9999.35	-0.00632836
10012.6	-0.00573034
10025.9	-0.00514129
10039.2	-0.00456167
10052.5	-0.00399189
10065.8	-0.00343239
10079.1	-0.0028836
10092.4	-0.0023459
10105.7	-0.00181971
10119	-0.00130539
10132.3	-0.000803333
10145.6	-0.000313886
10158.9	0.000162604
10172.2	0.000625807
10185.5	0.0010754
10198.8	0.0015111
10212.1	0.00193259
10225.4	0.00233963
10238.7	0.00273195
10252	0.0031093
10265.3	0.00347148
10278.6	0.00381828
10291.9	0.0041495
10305.2	0.00446499
10318.5	0.00476457
10331.8	0.00504813
10345.1	0.00531555
10358.4	0.00556672
10371.7	0.00580156
10385	0.00602001
10398.3	0.00622203
10411.6	0.00640759
10424.9	0.00657669
10438.2	0.00672932
10451.4	0.00686551
10464.7	0.00698532
10478	0.00708879
10491.3	0.00717601
10504.6	0.00724708
10517.9	0.00730209
10531.2	0.00734118
10544.5	0.00736449
10557.8	0.00737218
10571.1	0.00736442
10584.4	0.0073414
10597.7	0.00730331
10611	0.00725038
10624.3	0.00718283
10637.6	0.0071009
10650.9	0.00700485
10664.2	0.00689495
10677.5	0.00677147
10690.8	0.0066347
10704.1	0.00648494
10717.4	0.00632251
10730.7	0.00614773
10744	0.00596093
10757.3	0.00576245
10770.6	0.00555265
10783.9	0.00533188
10797.2	0.00510052
10810.5	0.00485895
10823.8	0.00460754
10837.1	0.00434671
10850.4	0.00407684
10863.7	0.00379836
10877	0.00351168
10890.3	0.00321723
10903.5	0.00291544
10916.8	0.00260675
10930.1	0.0022916
10943.4	0.00197047
10956.7	0.00164379
10970	0.00131205
10983.3	0.00097571
10996.6	0.000635253
11009.9	0.000291163
11023.2	-5.60688e-05
11036.5	-0.000405948
11049.8	-0.000757974
11063.1	-0.00111164
11076.4	-0.00146644
11089.7	-0.00182186
11103	-0.00217739
11116.3	-0.0025325
11129.6	-0.00288666
11142.9	-0.00323937
11156.2	-0.00359008
11169.5	-0.00393828
11182.8	-0.00428343
11196.1	-0.00462501
11209.4	-0.00496249
11222.7	-0.00529534
11236	-0.00562304
11249.3	-0.00594508
11262.6	-0.00626092
11275.9	-0.00657008
11289.2	-0.00687203
11302.5	-0.00716627
11315.8	-0.00745233
11329.1	-0.0077297
11342.4	-0.00799792
11355.7	-0.00825653
11368.9	-0.00850506
11382.2	-0.00874309
11395.5	-0.00897017
11408.8	-0.0091859
11422.1	-0.00938989
11435.4	-0.00958173
11448.7	-0.00976108
11462	-0.00992759
11475.3	-0.0100809
11488.6	-0.0102208
11501.9	-0.0103468
11515.2	-0.0104589
11528.5	-0.0105566
11541.8	-0.0106398
11555.1	-0.0107084
11568.4	-0.010762
11581.7	-0.0108006
11595	-0.010824
11608.3	-0.0108322
11621.6	-0.010825
11634.9	-0.0108024
11648.2	-0.0107645
11661.5	-0.0107111
11674.8	-0.0106423
11688.1	-0.0105581
11701.4	-0.0104587
11714.7	-0.0103442
11728	-0.0102146
11741.3	-0.0100701
11754.6	-0.009911
11767.9	-0.00973737
11781.2	-0.00954948
11794.5	-0.00934757
11807.8	-0.00913193
11821	-0.00890283
11834.3	-0.0086606
11847.6	-0.00840557
11860.9	-0.0081381
11874.2	-0.00785854
11887.5	-0.0075673
11900.8	-0.00726477
11914.1	-0.00695137
11927.4	-0.00662753
11940.7	-0.0062937
11954	-0.00595033
11967.3	-0.00559789
11980.6	-0.00523685
11993.9	-0.0048677
12007.2	-0.00449092
12020.5	-0.004107
12033.8	-0.00371646
12047.1	-0.00331978
12060.4	-0.00291747
12073.7	-0.00251003
12087	-0.00209797
12100.3	-0.00168179
12113.6	-0.00126199
12126.9	-0.000839063
12140.2	-0.000413501
12153.5	1.42113e-05
12166.8	0.000443595
12180.1	0.000874179
12193.4	0.0013055
12206.7	0.0017371
12220	0.00216854
12233.3	0.00259938
12246.6	0.00302921
12259.9	0.0034576
12273.1	0.00388415
12286.4	0.00430848
12299.7	0.00473022
12313	0.00514899
12326.3	0.00556444
12339.6	0.00597625
12352.9	0.00638408
12366.2	0.00678762
12379.5	0.00718657
12392.8	0.00758066
12406.1	0.00796959
12419.4	0.00835312
12432.7	0.00873099
12446	0.00910297
12459.3	0.00946883
12472.6	0.00982835
12485.9	0.0101813
12499.2	0.0105276
12512.5	0.0108669
12525.8	0.0111991
12539.1	0.0115241
12552.4	0.0118416
12565.7	0.0121515
12579	0.0124537
12592.3	0.012748
12605.6	0.0130343
12618.9	0.0133125
12632.2	0.0135823
12645.5	0.0138437
12658.8	0.0140965
12672.1	0.0143407
12685.4	0.014576
12698.7	0.0148024
12712	0.0150197
12725.2	0.0152278
12738.5	0.0154266
12751.8	0.0156158
12765.1	0.0157955
12778.4	0.0159653
12791.7	0.0161253
12805	0.0162751
12818.3	0.0164148
12831.6	0.016544
12844.9	0.0166626
12858.2	0.0167705
12871.5	0.0168675
12884.8	0.0169534
12898.1	0.0170281
12911.4	0.0170912
12924.7	0.0171427
12938	0.0171823
12951.3	0.0172098
12964.6	0.017225
12977.9	0.0172278
12991.2	0.0172179
13004.5	0.017195
13017.8	0.0171591
13031.1	0.0171098
13044.4	0.0170471
13057.7	0.0169706
13071	0.0168802
13084.3	0.0167757
13097.6	0.0166569
13110.9	0.0165237
13124.2	0.0163758
13137.5	0.0162131
13150.8	0.0160355
13164.1	0.0158428
13177.3	0.015635
13190.6	0.0154118
13203.9	0.0151732
13217.2	0.0149192
13230.5	0.0146496
13243.8	0.0143645
13257.1	0.0140639
13270.4	0.0137477
13283.7	0.013416
13297	0.0130688
13310.3	0.0127063
13323.6	0.0123285
13336.9	0.0119356
13350.2	0.0115277
13363.5	0.011105
13376.8	0.0106678
13390.1	0.0102164
13403.4	0.00975084
13416.7	0.00927162
13430	0.00877904
13443.3	0.00827348
13456.6	0.00775532
13469.9	0.00722501
13483.2	0.00668301
13496.5	0.00612981
13509.8	0.00556593
13523.1	0.00499193
13536.4	0.00440837
13549.7	0.00381588
13563	0.00321508
13576.3	0.00260662
13589.6	0.00199119
13602.9	0.0013695
13616.2	0.00074227
13629.4	0.000110247
13642.7	-0.000525802
13656	-0.00116509
13669.3	-0.00180683
13682.6	-0.0024502
13695.9	-0.00309438
13709.2	-0.00373852
13722.5	-0.0043818
13735.8	-0.00502335
13749.1	-0.00566233
13762.4	-0.00629787
13775.7	-0.00692912
13789	-0.00755522
13802.3	-0.00817532
13815.6	-0.00878857
13828.9	-0.00939413
13842.2	-0.00999117
13855.5	-0.0105789
13868.8	-0.0111564
13882.1	-0.0117231
13895.4	-0.012278
13908.7	-0.0128204
13922	-0.0133497
13935.3	-0.0138651
13948.6	-0.0143659
13961.9	-0.0148514
13975.2	-0.0153211
13988.5	-0.0157743
14001.8	-0.0162104
14015.1	-0.016629
14028.4	-0.0170295
14041.7	-0.0174114
14055	-0.0177743
14068.3	-0.0181178
14081.6	-0.0184416
14094.8	-0.0187452
14108.1	-0.0190285
14121.4	-0.0192911
14134.7	-0.0195329
14148	-0.0197537
14161.3	-0.0199533
14174.6	-0.0201316
14187.9	-0.0202887
14201.2	-0.0204244
14214.5	-0.0205389
14227.8	-0.020632
14241.1	-0.0207041
14254.4	-0.0207552
14267.7	-0.0207854
14281	-0.020795
14294.3	-0.0207842
14307.6	-0.0207534
14320.9	-0.0207028
14334.2	-0.0206328
14347.5	-0.0205438
14360.8	-0.0204361
14374.1	-0.0203103
14387.4	-0.0201668
14400.7	-0.020006
14414	-0.0198287
14427.3	-0.0196352
14440.6	-0.0194262
14453.9	-0.0192022
14467.2	-0.018964
14480.5	-0.0187121
14493.8	-0.0184473
14507.1	-0.0181702
14520.4	-0.0178814
14533.7	-0.0175818
14546.9	-0.0172721
14560.2	-0.0169529
14573.5	-0.0166252
14586.8	-0.0162895
14600.1	-0.0159468
14613.4	-0.0155978
14626.7	-0.0152433
14640	-0.014884
14653.3	-0.0145209
14666.6	-0.0141547
14679.9	-0.0137862
14693.2	-0.0134162
14706.5	-0.0130456
14719.8	-0.0126751
14733.1	-0.0123055
14746.4	-0.0119377
14759.7	-0.0115725
14773	-0.0112106
14786.3	-0.0108528
14799.6	-0.0105
14812.9	-0.0101529
14826.2	-0.00981214
14839.5	-0.00947862
14852.8	-0.00915303
14866.1	-0.00883609
14879.4	-0.00852852
14892.7	-0.008231
14906	-0.00794422
14919.3	-0.00766884
14932.6	-0.0074055
14945.9	-0.00715484
14959.2	-0.00691744
14972.5	-0.0066939
14985.8	-0.00648478
14999	-0.00629061
15012.3	-0.00611191
15025.6	-0.00594918
15038.9	-0.00580287
15052.2	-0.00567342
15065.5	-0.00556123
15078.8	-0.0054667
15092.1	-0.00539016
15105.4	-0.00533194
15118.7	-0.00529232
15132	-0.00527155
15145.3	-0.00526986
15158.6	-0.00528744
15171.9	-0.00532443
15185.2	-0.00538094
15198.5	-0.00545707
15211.8	-0.00555284
15225.1	-0.00566826
15238.4	-0.00580329
15251.7	-0.00595785
15265	-0.00613184
15278.3	-0.00632509
15291.6	-0.00653741
15304.9	-0.00676855
15318.2	-0.00701825
15331.5	-0.00728617
15344.8	-0.00757196
15358.1	-0.00787521
15371.4	-0.00819547
15384.7	-0.00853226
15398	-0.00888504
15411.3	-0.00925326
15424.6	-0.00963629
15437.9	-0.0100335
15451.1	-0.0104442
15464.4	-0.0108676
15477.7	-0.011303
15491	-0.0117497
15504.3	-0.0122066
15517.6	-0.0126731
15530.9	-0.0131481
15544.2	-0.0136307
15557.5	-0.0141201
15570.8	-0.0146151
15584.1	-0.0151147
15597.4	-0.015618
15610.7	-0.0161238
15624	-0.016631
15637.3	-0.0171386
15650.6	-0.0176454
15663.9	-0.0181503
15677.2	-0.0186521
15690.5	-0.0191496
15703.8	-0.0196417
15717.1	-0.0201272
15730.4	-0.020605
15743.7	-0.0210738
15757	-0.0215325
15770.3	-0.0219799
15783.6	-0.0224148
15796.9	-0.0228361
15810.2	-0.0232427
15823.5	-0.0236335
15836.8	-0.0240073
15850.1	-0.024363
15863.4	-0.0246997
15876.7	-0.0250162
15890	-0.0253117
15903.2	-0.0255851
15916.5	-0.0258355
15929.8	-0.026062
15943.1	-0.0262638
15956.4	-0.0264401
15969.7	-0.02659
15983	-0.0267129
15996.3	-0.0268082
16009.6	-0.0268752
16022.9	-0.0269133
16036.2	-0.026922
16049.5	-0.0269009
16062.8	-0.0268495
16076.1	-0.0267676
16089.4	-0.0266548
16102.7	-0.0265109
16116	-0.0263358
16129.3	-0.0261294
16142.6	-0.0258916
16155.9	-0.0256224
16169.2	-0.0253219
16182.5	-0.0249903
16195.8	-0.0246278
16209.1	-0.0242346
16222.4	-0.023811
16235.7	-0.0233575
16249	-0.0228746
16262.3	-0.0223626
16275.6	-0.0218222
16288.9	-0.021254
16302.2	-0.0206587
16315.5	-0.0200369
16328.8	-0.0193895
16342.1	-0.0187173
16355.4	-0.0180212
16368.6	-0.0173021
16381.9	-0.0165608
16395.2	-0.0157986
16408.5	-0.0150163
16421.8	-0.014215
16435.1	-0.0133959
16448.4	-0.0125601
16461.7	-0.0117088
16475	-0.0108431
16488.3	-0.0099643
16501.6	-0.00907358
16514.9	-0.00817219
16528.2	-0.0072614
16541.5	-0.00634249
16554.8	-0.00541673
16568.1	-0.00448541
16581.4	-0.00354982
16594.7	-0.00261124
16608	-0.00167095
16621.3	-0.000730225
16634.6	0.000209659
16647.9	0.00114745
16661.2	0.00208191
16674.5	0.00301181
16687.8	0.00393595
16701.1	0.00485314
16714.4	0.00576223
16727.7	0.00666207
16741	0.00755157
16754.3	0.00842965
16767.6	0.00929527
16780.9	0.0101474
16794.2	0.0109851
16807.5	0.0118074
16820.7	0.0126134
16834	0.0134023
16847.3	0.0141732
16860.6	0.0149254
16873.9	0.0156581
16887.2	0.0163706
16900.5	0.0170623
16913.8	0.0177326
16927.1	0.0183809
16940.4	0.0190067
16953.7	0.0196096
16967	0.0201891
16980.3	0.0207449
16993.6	0.0212766
17006.9	0.0217839
17020.2	0.0222666
17033.5	0.0227245
17046.8	0.0231575
17060.1	0.0235654
17073.4	0.0239482
17086.7	0.0243058
17100	0.0246383
17113.3	0.0249457
17126.6	0.0252281
17139.9	0.0254856
17153.2	0.0257185
17166.5	0.0259269
17179.8	0.026111
17193.1	0.0262711
17206.4	0.0264075
17219.7	0.0265205
17233	0.0266105
17246.3	0.0266778
17259.6	0.0267229
17272.8	0.0267462
17286.1	0.0267481
17299.4	0.0267292
17312.7	0.0266898
17326	0.0266305
17339.3	0.0265518
17352.6	0.0264542
17365.9	0.0263383
17379.2	0.0262047
17392.5	0.0260539
17405.8	0.0258864
17419.1	0.0257029
17432.4	0.0255039
17445.7	0.02529
17459	0.0250619
17472.3	0.02482
17485.6	0.024565
17498.9	0.0242975
17512.2	0.024018
17525.5	0.0237272
17538.8	0.0234255
17552.1	0.0231137
17565.4	0.0227921
17578.7	0.0224615
17592	0.0221223
17605.3	0.021775
17618.6	0.0214202
17631.9	0.0210585
17645.2	0.0206902
17658.5	0.0203159
17671.8	0.0199361
17685.1	0.0195512
17698.4	0.0191617
17711.7	0.0187679
17724.9	0.0183704
17738.2	0.0179695
17751.5	0.0175656
17764.8	0.017159
17778.1	0.0167502
17791.4	0.0163395
17804.7	0.0159271
17818	0.0155135
17831.3	0.0150988
17844.6	0.0146834
17857.9	0.0142675
17871.2	0.0138514
17884.5	0.0134352
17897.8	0.0130193
17911.1	0.0126038
17924.4	0.0121888
17937.7	0.0117746
17951	0.0113613
17964.3	0.010949
17977.6	0.010538
17990.9	0.0101282
18004.2	0.00971978
18017.5	0.00931288
18030.8	0.00890754
18044.1	0.00850384
18057.4	0.00810184
18070.7	0.00770158
18084	0.00730311
18097.3	0.00690646
18110.6	0.00651166
18123.9	0.00611873
18137.2	0.00572767
18150.5	0.00533849
18163.8	0.0049512
18177.1	0.00456579
18190.3	0.00418225
18203.6	0.00380058
18216.9	0.00342075
18230.2	0.00304275
18243.5	0.00266656
18256.8	0.00229217
18270.1	0.00191955
18283.4	0.00154869
18296.7	0.00117957
18310	0.000812166
18323.3	0.000446472
18336.6	8.24719e-05
18349.9	-0.000279844
18363.2	-0.000640484
18376.5	-0.000999449
18389.8	-0.00135674
18403.1	-0.00171235
18416.4	-0.00206627
18429.7	-0.00241848
18443	-0.00276897
18456.3	-0.0031177
18469.6	-0.00346465
18482.9	-0.00380977
18496.2	-0.00415302
18509.5	-0.00449435
18522.8	-0.0048337
18536.1	-0.005171
18549.4	-0.00550619
18562.7	-0.00583918
18576	-0.00616989
18589.3	-0.00649823
18602.6	-0.00682409
18615.9	-0.00714737
18629.2	-0.00746796
18642.4	-0.00778574
18655.7	-0.00810058
18669	-0.00841236
18682.3	-0.00872094
18695.6	-0.00902617
18708.9	-0.00932791
18722.2	-0.009626
18735.5	-0.00992029
18748.8	-0.0102106
18762.1	-0.0104968
18775.4	-0.0107787
18788.7	-0.0110562
18802	-0.011329
18815.3	-0.011597
18828.6	-0.01186
18841.9	-0.0121178
18855.2	-0.0123703
18868.5	-0.0126173
18881.8	-0.0128586
18895.1	-0.013094
18908.4	-0.0133233
18921.7	-0.0135465
18935	-0.0137632
18948.3	-0.0139734
18961.6	-0.0141769
18974.9	-0.0143735
18988.2	-0.0145631
19001.5	-0.0147455
19014.8	-0.0149206
19028.1	-0.0150882
19041.4	-0.0152482
19054.7	-0.0154006
19068	-0.0155452
19081.3	-0.0156818
19094.5	-0.0158104
19107.8	-0.0159309
19121.1	-0.0160433
19134.4	-0.0161474
19147.7	-0.0162433
19161	-0.0163308
19174.3	-0.0164099
19187.6	-0.0164807
19200.9	-0.016543
19214.2	-0.0165969
19227.5	-0.0166425
19240.8	-0.0166797
19254.1	-0.0167085
19267.4	-0.0167291
19280.7	-0.0167415
19294	-0.0167457
19307.3	-0.0167418
19320.6	-0.01673
19333.9	-0.0167103
19347.2	-0.0166829
19360.5	-0.0166478
19373.8	-0.0166053
19387.1	-0.0165554
19400.4	-0.0164982
19413.7	-0.016434
19427	-0.0163629
19440.3	-0.016285
19453.6	-0.0162005
19466.9	-0.0161095
19480.2	-0.0160122
19493.5	-0.0159087
19506.8	-0.0157991
19520.1	-0.0156836
19533.4	-0.0155623
19546.6	-0.0154351
19559.9	-0.0153024
19573.2	-0.0151641
19586.5	-0.0150202
19599.8	-0.0148709
19613.1	-0.0147162
19626.4	-0.0145561
19639.7	-0.0143906
19653	-0.0142198
19666.3	-0.0140436
19679.6	-0.0138622
19692.9	-0.0136754
19706.2	-0.0134833
19719.5	-0.013286
19732.8	-0.0130835
19746.1	-0.0128757
19759.4	-0.0126628
19772.7	-0.0124449
19786	-0.012222
19799.3	-0.0119943
19812.6	-0.0117619
19825.9	-0.0115249
19839.2	-0.0112836
19852.5	-0.0110381
19865.8	-0.0107888
19879.1	-0.0105357
19892.4	-0.0102794
19905.7	-0.0100199
19919	-0.0097578
19932.3	-0.00949327
19945.6	-0.00922673
19958.9	-0.00895855
19972.2	-0.00868911
19985.5	-0.00841883
19998.7	-0.00814809
