0	0
17.7294	0
26.5942	0
35.4589	0
44.3236	0
53.1883	0
62.053	0
70.9178	0
88.6472	0
97.5119	0
106.377	0
115.241	0
124.106	0
132.971	0
141.836	0
150.7	0
168.43	0
177.294	0
186.159	0
195.024	0
203.889	0
212.753	0
221.618	0
230.483	0
248.212	0
257.077	0
265.942	0
274.806	0
283.671	0
292.536	0
301.401	0
310.265	0
327.995	0
336.859	0
345.724	0
354.589	0
363.454	0
372.318	0
381.183	0
390.048	0
407.777	0
416.642	0
425.507	0
434.371	0
443.236	0
452.101	0
460.966	0
478.695	0
487.56	0
496.424	0
505.289	0
514.154	0
523.019	0
531.883	0
540.748	0
558.477	0
567.342	0
576.207	0
585.072	0
593.936	0
602.801	0
611.666	0
620.53	0
638.26	0
647.125	0
655.989	0
664.854	0
673.719	0
682.584	0
691.448	0
700.313	0
718.042	0
726.907	0
735.772	0
744.637	0
753.501	0
762.366	0
771.231	0
780.095	0
797.825	0
806.69	0
815.554	0
824.419	0
833.284	0
842.149	0
851.013	0
868.743	0
877.607	0
886.472	0
895.337	0
904.202	0
913.066	0
921.931	0
930.796	0
948.525	0
957.39	0
966.255	0
975.119	0
983.984	0
992.849	0
1001.71	0
1010.58	0
1028.31	0
1037.17	0
1046.04	0
1054.9	0
1063.77	0
1072.63	0
1081.5	0
1090.36	0
1108.09	0
1116.95	0
1125.82	0
1134.68	0
1143.55	0
1152.41	0
1161.28	0
1170.14	0
1187.87	0
1196.74	0
1205.6	0
1214.47	0
1223.33	0
1232.2	0
1241.06	0
1258.79	0
1267.66	0
1276.52	0
1285.38	0
1294.25	0
1303.11	0
1311.98	0
1320.84	0
1338.57	0
1347.44	0
1356.3	0
1365.17	0
1374.03	0
1382.9	0
1391.76	0
1400.63	0
1418.36	0
1427.22	0
1436.08	0
1444.95	0
1453.81	0
1462.68	0
1471.54	0
1480.41	0
1498.14	0
1507	0
1515.87	0
1524.73	0
1533.6	0
1542.46	0
1551.33	0
1560.19	0
1577.92	0
1586.79	0
1595.65	0
1604.51	0
1613.38	0
1622.24	0
1631.11	0
1648.84	0
1657.7	0
1666.57	0
1675.43	0
1684.3	0
1693.16	0
1702.03	0
1710.89	0
1728.62	0
1737.49	0
1746.35	0
1755.21	0
1764.08	0
1772.94	0
1781.81	0
1790.67	0
1808.4	0
1817.27	0
1826.13	0
1835	0
1843.86	0
1852.73	0
1861.59	0
1870.46	0
1888.19	9.09495e-13
1897.05	1.81899e-12
1905.92	2.72848e-12
1914.78	3.63798e-12
1923.64	4.54747e-12
1932.51	6.36646e-12
1941.37	8.18545e-12
1950.24	1.00044e-11
1967.97	1.63709e-11
1976.83	2.00089e-11
1985.7	2.54659e-11
1994.56	3.18323e-11
2003.43	4.00178e-11
2012.29	5.00222e-11
2021.16	6.27551e-11
2030.02	7.7307e-11
2047.75	1.19144e-10
2056.62	1.47338e-10
2065.48	1.81899e-10
2074.34	2.24645e-10
2083.21	2.76486e-10
2092.07	3.39242e-10
2100.94	4.15639e-10
2118.67	6.19366e-10
2127.53	7.53971e-10
2136.4	9.16771e-10
2145.26	1.1114e-09
2154.13	1.34514e-09
2162.99	1.62436e-09
2171.86	1.95814e-09
2180.72	2.3565e-09
2198.45	3.3906e-09
2207.32	4.05544e-09
2216.18	4.84215e-09
2225.05	5.77074e-09
2233.91	6.86487e-09
2242.77	8.15089e-09
2251.64	9.66156e-09
2260.5	1.14305e-08
2278.23	1.59171e-08
2287.1	1.87329e-08
2295.96	2.20098e-08
2304.83	2.5816e-08
2313.69	3.02289e-08
2322.56	3.53366e-08
2331.42	4.12401e-08
2340.29	4.80504e-08
2358.02	6.49134e-08
2366.88	7.52689e-08
2375.75	8.71387e-08
2384.61	1.00722e-07
2393.47	1.16243e-07
2402.34	1.33949e-07
2411.2	1.54118e-07
2420.07	1.77058e-07
2437.8	2.32646e-07
2446.66	2.6609e-07
2455.53	3.03901e-07
2464.39	3.46588e-07
2473.26	3.94708e-07
2482.12	4.48877e-07
2490.99	5.0977e-07
2508.72	6.54746e-07
2517.58	7.40522e-07
2526.45	8.36412e-07
2535.31	9.43467e-07
2544.17	1.06283e-06
2553.04	1.19573e-06
2561.9	1.34352e-06
2570.77	1.50766e-06
2588.5	1.89141e-06
2597.36	2.11455e-06
2606.23	2.36114e-06
2615.09	2.6333e-06
2623.96	2.93333e-06
2632.82	3.26369e-06
2641.69	3.62702e-06
2650.55	4.02615e-06
2668.28	4.94414e-06
2677.15	5.46969e-06
2686.01	6.04447e-06
2694.88	6.67242e-06
2703.74	7.35771e-06
2712.6	8.10483e-06
2721.47	8.91853e-06
2730.33	9.80385e-06
2748.06	1.18111e-05
2756.93	1.29449e-05
2765.79	1.41737e-05
2774.66	1.55045e-05
2783.52	1.69444e-05
2792.39	1.85011e-05
2801.25	2.01826e-05
2810.12	2.19976e-05
2827.85	2.60646e-05
2836.71	2.83364e-05
2845.58	3.07814e-05
2854.44	3.34109e-05
2863.3	3.62371e-05
2872.17	3.92728e-05
2881.03	4.25319e-05
2898.76	4.9779e-05
2907.63	5.37989e-05
2916.49	5.81062e-05
2925.36	6.27194e-05
2934.22	6.76585e-05
2943.09	7.29448e-05
2951.95	7.86012e-05
2960.82	8.46518e-05
2978.55	9.80425e-05
2987.41	0.00010544
2996.27	0.000113349
3005.14	0.000121803
3014	0.00013084
3022.87	0.000140499
3031.73	0.000150824
3040.6	0.000161863
3058.33	0.000186282
3067.19	0.000199777
3076.06	0.000214211
3084.92	0.000229653
3093.79	0.000246177
3102.65	0.000263864
3111.52	0.000282798
3120.38	0.000303075
3138.11	0.000348067
3146.97	0.00037301
3155.84	0.000399751
3164.7	0.000428428
3173.57	0.000459188
3182.43	0.000492193
3191.3	0.000527615
3200.16	0.000565641
3217.89	0.000650319
3226.76	0.000697419
3235.62	0.000748019
3244.48	0.000802388
3253.35	0.000860813
3262.21	0.000923599
3271.08	0.000991078
3288.81	0.00114155
3297.67	0.00122531
3306.54	0.00131533
3315.4	0.00141206
3324.27	0.00151598
3333.13	0.00162761
3342	0.00174751
3350.86	0.00187625
3368.59	0.00216276
3377.45	0.00232188
3386.32	0.00249254
3395.18	0.0026755
3404.05	0.00287157
3412.91	0.00308162
3421.78	0.00330653
3430.64	0.00354724
3448.37	0.00408008
3457.23	0.00437432
3466.1	0.00468859
3474.96	0.00502406
3483.83	0.00538196
3492.69	0.00576357
3501.56	0.0061702
3510.42	0.00660322
3528.15	0.00755416
3537.01	0.00807506
3545.88	0.00862831
3554.74	0.00921552
3563.61	0.00983834
3572.47	0.0104985
3581.34	0.0111976
3590.2	0.0119375
3607.93	0.0135471
3616.79	0.0144204
3625.66	0.0153419
3634.52	0.0163136
3643.39	0.0173373
3652.25	0.0184151
3661.12	0.0195488
3678.85	0.0219923
3687.71	0.0233059
3696.57	0.0246835
3705.44	0.0261268
3714.3	0.027638
3723.17	0.0292188
3732.03	0.0308711
3740.9	0.0325968
3758.62	0.0362753
3767.49	0.0382315
3776.35	0.0402678
3785.22	0.0423857
3794.08	0.0445867
3802.95	0.046872
3811.81	0.0492429
3820.68	0.0517005
3838.4	0.0568796
3847.27	0.0596028
3856.13	0.0624158
3865	0.0653192
3873.86	0.0683131
3882.73	0.0713978
3891.59	0.0745731
3900.45	0.0778388
3918.18	0.0846395
3927.05	0.088173
3935.91	0.091794
3944.78	0.0955012
3953.64	0.0992932
3962.51	0.103168
3971.37	0.107124
3980.23	0.111159
3997.96	0.119457
4006.83	0.123714
4015.69	0.128039
4024.56	0.132428
4033.42	0.136879
4042.28	0.141387
4051.15	0.145948
4060.01	0.150559
4077.74	0.159908
4086.61	0.164637
4095.47	0.169396
4104.34	0.174179
4113.2	0.17898
4122.06	0.183795
4130.93	0.188616
4148.66	0.198254
4157.52	0.203057
4166.39	0.207843
4175.25	0.212602
4184.12	0.217329
4192.98	0.222017
4201.84	0.226657
4210.71	0.231244
4228.44	0.240228
4237.3	0.24461
4246.17	0.248909
4255.03	0.253117
4263.9	0.257227
4272.76	0.261232
4281.62	0.265125
4290.49	0.268897
4308.22	0.276055
4317.08	0.279425
4325.95	0.282648
4334.81	0.285716
4343.68	0.288623
4352.54	0.291362
4361.41	0.293928
4370.27	0.296314
4388	0.300524
4396.86	0.302338
4405.73	0.30395
4414.59	0.305356
4423.46	0.306552
4432.32	0.307534
4441.19	0.308297
4450.05	0.308838
4467.78	0.309242
4476.65	0.309101
4485.51	0.308726
4494.38	0.308118
4503.24	0.307273
4512.1	0.306193
4520.97	0.304875
4538.7	0.301526
4547.56	0.299496
4556.43	0.29723
4565.29	0.294729
4574.16	0.291995
4583.02	0.28903
4591.89	0.285836
4600.75	0.282416
4618.48	0.27491
4627.35	0.270831
4636.21	0.266541
4645.07	0.262044
4653.94	0.257344
4662.8	0.252447
4671.67	0.247358
4680.53	0.242082
4698.26	0.230997
4707.13	0.225199
4715.99	0.219241
4724.86	0.213128
4733.72	0.206869
4742.59	0.20047
4751.45	0.193938
4760.32	0.187282
4778.05	0.173628
4786.91	0.166645
4795.77	0.15957
4804.64	0.15241
4813.5	0.145174
4822.37	0.13787
4831.23	0.130505
4840.1	0.12309
4857.83	0.108138
4866.69	0.100619
4875.56	0.0930807
4884.42	0.0855328
4893.29	0.0779829
4902.15	0.0704391
4911.02	0.0629093
4928.75	0.0479224
4937.61	0.0404806
4946.47	0.033083
4955.34	0.0257369
4964.2	0.0184492
4973.07	0.0112268
4981.93	0.0040762
4990.8	-0.00299604
5008.53	-0.016881
5017.39	-0.023682
5026.26	-0.0303812
5035.12	-0.0369733
5043.99	-0.0434534
5052.85	-0.0498166
5061.72	-0.0560584
5070.58	-0.0621745
5088.31	-0.0740139
5097.17	-0.0797299
5106.04	-0.0853058
5114.9	-0.0907386
5123.77	-0.0960256
5132.63	-0.101164
5141.5	-0.106153
5150.36	-0.110989
5168.09	-0.120198
5176.96	-0.124568
5185.82	-0.128781
5194.69	-0.132836
5203.55	-0.136732
5212.42	-0.140469
5221.28	-0.144048
5230.14	-0.147469
5247.87	-0.153837
5256.74	-0.156786
5265.6	-0.15958
5274.47	-0.16222
5283.33	-0.164708
5292.2	-0.167045
5301.06	-0.169232
5318.79	-0.173168
5327.66	-0.17492
5336.52	-0.176532
5345.39	-0.178006
5354.25	-0.179345
5363.12	-0.180551
5371.98	-0.181627
5380.84	-0.182576
5398.57	-0.184106
5407.44	-0.184692
5416.3	-0.185165
5425.17	-0.185526
5434.03	-0.185778
5442.9	-0.185927
5451.76	-0.185974
5460.63	-0.185923
5478.36	-0.18554
5487.22	-0.185216
5496.09	-0.184807
5504.95	-0.184317
5513.82	-0.18375
5522.68	-0.183109
5531.54	-0.182396
5540.41	-0.181616
5558.14	-0.179866
5567	-0.178903
5575.87	-0.177885
5584.73	-0.176815
5593.6	-0.175696
5602.46	-0.174531
5611.33	-0.173323
5620.19	-0.172076
5637.92	-0.16947
5646.79	-0.168118
5655.65	-0.166736
5664.52	-0.165328
5673.38	-0.163894
5682.24	-0.162437
5691.11	-0.160961
5708.84	-0.157955
5717.7	-0.156429
5726.57	-0.154891
5735.43	-0.153343
5744.3	-0.151786
5753.16	-0.150221
5762.03	-0.148651
5770.89	-0.147076
5788.62	-0.143919
5797.49	-0.14234
5806.35	-0.140761
5815.21	-0.139185
5824.08	-0.137611
5832.94	-0.13604
5841.81	-0.134475
5850.67	-0.132915
5868.4	-0.129814
5877.27	-0.128275
5886.13	-0.126743
5895	-0.12522
5903.86	-0.123706
5912.73	-0.122201
5921.59	-0.120706
5930.46	-0.119221
5948.19	-0.116282
5957.05	-0.114829
5965.92	-0.113386
5974.78	-0.111953
5983.64	-0.110532
5992.51	-0.109122
6001.37	-0.107722
6010.24	-0.106333
6027.97	-0.103589
6036.83	-0.102232
6045.7	-0.100887
6054.56	-0.0995512
6063.43	-0.0982263
6072.29	-0.0969115
6081.16	-0.0956067
6090.02	-0.0943117
6107.75	-0.0917508
6116.62	-0.0904844
6125.48	-0.0892271
6134.34	-0.0879789
6143.21	-0.0867394
6152.07	-0.0855086
6160.94	-0.0842862
6178.67	-0.0818662
6187.53	-0.0806682
6196.4	-0.0794781
6205.26	-0.0782957
6214.13	-0.0771208
6222.99	-0.0759533
6231.86	-0.0747932
6240.72	-0.0736404
6258.45	-0.071356
6267.32	-0.0702243
6276.18	-0.0690996
6285.04	-0.0679818
6293.91	-0.0668709
6302.77	-0.0657668
6311.64	-0.0646696
6320.5	-0.0635793
6338.23	-0.0614192
6347.1	-0.0603495
6355.96	-0.0592869
6364.83	-0.0582313
6373.69	-0.0571828
6382.56	-0.0561414
6391.42	-0.0551074
6400.29	-0.0540807
6418.02	-0.0520499
6426.88	-0.051046
6435.74	-0.0500499
6444.61	-0.0490617
6453.47	-0.0480817
6462.34	-0.0471098
6471.2	-0.0461463
6480.07	-0.0451912
6497.8	-0.0433071
6506.66	-0.0423783
6515.53	-0.0414586
6524.39	-0.0405481
6533.26	-0.0396469
6542.12	-0.0387551
6550.99	-0.037873
6568.72	-0.0361379
6577.58	-0.0352852
6586.45	-0.0344426
6595.31	-0.0336101
6604.17	-0.0327879
6613.04	-0.031976
6621.9	-0.0311745
6630.77	-0.0303836
6648.5	-0.0288333
6657.36	-0.0280741
6666.23	-0.0273256
6675.09	-0.0265877
6683.96	-0.0258605
6692.82	-0.025144
6701.69	-0.0244381
6710.55	-0.0237429
6728.28	-0.0223841
6737.15	-0.0217204
6746.01	-0.0210671
6754.88	-0.0204241
6763.74	-0.0197913
6772.6	-0.0191685
6781.47	-0.0185556
6790.33	-0.0179524
6808.06	-0.0167748
6816.93	-0.0161999
6825.79	-0.0156342
6834.66	-0.0150772
6843.52	-0.0145289
6852.39	-0.0139889
6861.25	-0.0134571
6870.12	-0.0129332
6887.85	-0.0119081
6896.71	-0.0114063
6905.58	-0.0109113
6914.44	-0.0104227
6923.31	-0.00994037
6932.17	-0.0094639
6941.03	-0.00899298
6958.76	-0.00806649
6967.63	-0.00761026
6976.49	-0.00715826
6985.36	-0.00671013
6994.22	-0.00626554
7003.09	-0.00582413
7011.95	-0.00538557
7020.82	-0.00494949
7038.55	-0.00408339
7047.41	-0.00365268
7056.28	-0.00322306
7065.14	-0.00279419
7074.01	-0.00236573
7082.87	-0.00193734
7091.74	-0.0015087
7100.6	-0.00107946
7118.33	-0.00021796
7127.19	0.000214929
7136.06	0.000649647
7144.92	0.00108648
7153.79	0.00152572
7162.65	0.00196763
7171.52	0.00241248
7180.38	0.00286052
7198.11	0.00376712
7206.98	0.00422613
7215.84	0.00468922
7224.71	0.00515658
7233.57	0.00562841
7242.44	0.00610485
7251.3	0.00658607
7260.16	0.0070722
7277.89	0.00805966
7286.76	0.0085612
7295.62	0.00906806
7304.49	0.00958029
7313.35	0.0100979
7322.22	0.0106211
7331.08	0.0111496
7348.81	0.0122232
7357.68	0.0127682
7366.54	0.0133185
7375.41	0.0138741
7384.27	0.014435
7393.14	0.015001
7402	0.015572
7410.86	0.0161479
7428.59	0.0173139
7437.46	0.0179036
7446.32	0.0184976
7455.19	0.0190957
7464.05	0.0196975
7472.92	0.020303
7481.78	0.0209118
7490.65	0.0215238
7508.38	0.0227559
7517.24	0.0233756
7526.11	0.0239972
7534.97	0.0246205
7543.84	0.0252451
7552.7	0.0258707
7561.56	0.026497
7570.43	0.0271236
7588.16	0.0283762
7597.02	0.0290015
7605.89	0.0296256
7614.75	0.0302482
7623.62	0.0308688
7632.48	0.031487
7641.35	0.0321024
7650.21	0.0327147
7667.94	0.0339279
7676.81	0.0345281
7685.67	0.0351234
7694.53	0.0357135
7703.4	0.0362978
7712.26	0.036876
7721.13	0.0374476
7738.86	0.0385696
7747.72	0.039119
7756.59	0.0396602
7765.45	0.0401927
7774.32	0.0407161
7783.18	0.0412301
7792.05	0.0417342
7800.91	0.042228
7818.64	0.0431832
7827.5	0.0436438
7836.37	0.0440926
7845.23	0.0445292
7854.1	0.0449533
7862.96	0.0453645
7871.83	0.0457624
7880.69	0.0461467
7898.42	0.0468733
7907.29	0.047215
7916.15	0.0475418
7925.02	0.0478535
7933.88	0.0481497
7942.75	0.0484304
7951.61	0.0486951
7960.47	0.0489436
7978.2	0.0493912
7987.07	0.0495898
7995.93	0.0497714
8004.8	0.0499358
8013.66	0.0500828
8022.53	0.0502122
8031.39	0.0503239
8040.26	0.0504177
8057.99	0.0505513
8066.85	0.0505909
8075.72	0.0506122
8084.58	0.0506151
8093.45	0.0505996
8102.31	0.0505657
8111.17	0.0505132
8120.04	0.0504422
8137.77	0.0502445
8146.63	0.0501178
8155.5	0.0499726
8164.36	0.0498089
8173.23	0.0496268
8182.09	0.0494263
8190.96	0.0492075
8208.69	0.0487152
8217.55	0.048442
8226.42	0.0481508
8235.28	0.0478419
8244.14	0.0475152
8253.01	0.0471711
8261.87	0.0468096
8270.74	0.0464309
8288.47	0.0456226
8297.33	0.0451934
8306.2	0.0447478
8315.06	0.044286
8323.93	0.0438081
8332.79	0.0433145
8341.66	0.0428053
8350.52	0.0422809
8368.25	0.0411871
8377.11	0.0406184
8385.98	0.0400354
8394.84	0.0394384
8403.71	0.0388278
8412.57	0.0382039
8421.44	0.0375668
8430.3	0.036917
8448.03	0.0355804
8456.9	0.0348942
8465.76	0.0341965
8474.63	0.0334877
8483.49	0.0327681
8492.36	0.0320379
8501.22	0.0312976
8510.08	0.0305476
8527.81	0.0290194
8536.68	0.0282421
8545.54	0.0274564
8554.41	0.0266626
8563.27	0.0258612
8572.14	0.0250524
8581	0.0242368
8598.73	0.0225861
8607.6	0.0217518
8616.46	0.020912
8625.33	0.0200671
8634.19	0.0192175
8643.05	0.0183635
8651.92	0.0175055
8660.78	0.0166439
8678.51	0.0149112
8687.38	0.0140408
8696.24	0.0131683
8705.11	0.0122939
8713.97	0.0114181
8722.84	0.0105412
8731.7	0.00966348
8740.57	0.00878541
8758.3	0.00702947
8767.16	0.0061523
8776.02	0.00527611
8784.89	0.00440125
8793.75	0.00352804
8802.62	0.00265683
8811.48	0.00178793
8820.35	0.000921675
8838.08	-0.000801637
8846.94	-0.00165807
8855.81	-0.0025106
8864.67	-0.00335894
8873.54	-0.00420279
8882.4	-0.00504185
8891.27	-0.00587583
8900.13	-0.00670446
8917.86	-0.00834455
8926.72	-0.00915547
8935.59	-0.00995995
8944.45	-0.0107578
8953.32	-0.0115486
8962.18	-0.0123323
8971.05	-0.0131086
8988.78	-0.0146379
8997.64	-0.0153906
9006.51	-0.0161349
9015.37	-0.0168708
9024.24	-0.0175979
9033.1	-0.0183161
9041.97	-0.0190253
9050.83	-0.0197251
9068.56	-0.0210964
9077.42	-0.0217674
9086.29	-0.0224285
9095.15	-0.0230796
9104.02	-0.0237204
9112.88	-0.0243509
9121.75	-0.0249709
9130.61	-0.0255804
9148.34	-0.0267671
9157.21	-0.0273441
9166.07	-0.0279101
9174.94	-0.0284651
9183.8	-0.0290089
9192.67	-0.0295414
9201.53	-0.0300627
9210.39	-0.0305727
9228.12	-0.0315583
9236.99	-0.0320338
9245.85	-0.0324979
9254.72	-0.0329505
9263.58	-0.0333914
9272.45	-0.0338208
9281.31	-0.0342387
9290.18	-0.0346449
9307.91	-0.0354227
9316.77	-0.0357943
9325.64	-0.0361544
9334.5	-0.036503
9343.37	-0.0368401
9352.23	-0.0371658
9361.09	-0.0374802
9378.82	-0.038075
9387.69	-0.0383556
9396.55	-0.0386251
9405.42	-0.0388835
9414.28	-0.0391309
9423.15	-0.0393674
9432.01	-0.0395932
9440.88	-0.0398082
9458.61	-0.0402064
9467.47	-0.0403898
9476.34	-0.0405629
9485.2	-0.0407258
9494.07	-0.0408786
9502.93	-0.0410213
9511.79	-0.0411543
9520.66	-0.0412774
9538.39	-0.041495
9547.25	-0.0415897
9556.12	-0.0416752
9564.98	-0.0417516
9573.85	-0.041819
9582.71	-0.0418776
9591.58	-0.0419275
9600.44	-0.0419688
9618.17	-0.0420266
9627.04	-0.0420432
9635.9	-0.0420519
9644.77	-0.0420527
9653.63	-0.0420459
9662.49	-0.0420316
9671.36	-0.04201
9680.22	-0.0419811
9697.95	-0.0419024
9706.82	-0.0418528
9715.68	-0.0417967
9724.55	-0.0417341
9733.41	-0.0416652
9742.28	-0.0415901
9751.14	-0.041509
9760.01	-0.0414221
9777.74	-0.0412314
9786.6	-0.0411278
9795.47	-0.041019
9804.33	-0.0409051
9813.19	-0.0407862
9822.06	-0.0406624
9830.92	-0.040534
9848.65	-0.0402636
9857.52	-0.0401219
9866.38	-0.039976
9875.25	-0.0398261
9884.11	-0.0396724
9892.98	-0.0395149
9901.84	-0.0393537
9910.71	-0.039189
9928.44	-0.0388496
9937.3	-0.0386751
9946.17	-0.0384975
9955.03	-0.038317
9963.89	-0.0381337
9972.76	-0.0379477
9981.62	-0.037759
9990.49	-0.0375678
10008.2	-0.0371784
10017.1	-0.0369803
10025.9	-0.03678
10034.8	-0.0365777
10043.7	-0.0363735
10052.5	-0.0361674
10061.4	-0.0359595
10070.3	-0.0357499
10088	-0.0353258
10096.9	-0.0351115
10105.7	-0.0348958
10114.6	-0.0346788
10123.5	-0.0344604
10132.3	-0.0342408
10141.2	-0.03402
10150.1	-0.0337982
10167.8	-0.0333512
10176.6	-0.0331263
10185.5	-0.0329005
10194.4	-0.0326738
10203.2	-0.0324462
10212.1	-0.0322178
10221	-0.0319887
10238.7	-0.0315284
10247.6	-0.0312972
10256.4	-0.0310654
10265.3	-0.0308329
10274.2	-0.0305999
10283	-0.0303664
10291.9	-0.0301322
10300.8	-0.0298976
10318.5	-0.0294268
10327.3	-0.0291907
10336.2	-0.0289541
10345.1	-0.028717
10353.9	-0.0284795
10362.8	-0.0282415
10371.7	-0.0280031
10380.5	-0.0277642
10398.3	-0.0272852
10407.1	-0.027045
10416	-0.0268044
10424.9	-0.0265633
10433.7	-0.0263218
10442.6	-0.0260798
10451.5	-0.0258373
10460.3	-0.0255943
10478	-0.025107
10486.9	-0.0248625
10495.8	-0.0246175
10504.6	-0.024372
10513.5	-0.024126
10522.4	-0.0238793
10531.2	-0.0236321
10540.1	-0.0233843
10557.8	-0.0228869
10566.7	-0.0226372
10575.6	-0.0223869
10584.4	-0.0221358
10593.3	-0.0218841
10602.2	-0.0216316
10611	-0.0213784
10628.7	-0.0208698
10637.6	-0.0206142
10646.5	-0.0203579
10655.3	-0.0201007
10664.2	-0.0198427
10673.1	-0.0195838
10681.9	-0.019324
10690.8	-0.0190633
10708.5	-0.0185391
10717.4	-0.0182755
10726.3	-0.018011
10735.1	-0.0177454
10744	-0.0174788
10752.9	-0.0172112
10761.7	-0.0169426
10770.6	-0.0166729
10788.3	-0.0161302
10797.2	-0.0158572
10806	-0.015583
10814.9	-0.0153078
10823.8	-0.0150314
10832.6	-0.0147538
10841.5	-0.0144751
10850.4	-0.0141951
10868.1	-0.0136318
10877	-0.0133483
10885.8	-0.0130636
10894.7	-0.0127777
10903.6	-0.0124906
10912.4	-0.0122023
10921.3	-0.0119127
10930.1	-0.011622
10947.9	-0.0110368
10956.7	-0.0107425
10965.6	-0.0104469
10974.5	-0.0101501
10983.3	-0.0098521
10992.2	-0.00955294
11001.1	-0.0092526
11018.8	-0.00864845
11027.7	-0.00834466
11036.5	-0.00803974
11045.4	-0.00773371
11054.3	-0.00742658
11063.1	-0.00711838
11072	-0.00680913
11080.8	-0.00649884
11098.6	-0.00587523
11107.4	-0.00556197
11116.3	-0.00524777
11125.2	-0.00493265
11134	-0.00461665
11142.9	-0.00429979
11151.8	-0.00398211
11160.6	-0.00366364
11178.4	-0.00302445
11187.2	-0.0027038
11196.1	-0.0023825
11205	-0.00206059
11213.8	-0.00173811
11222.7	-0.00141509
11231.5	-0.00109158
11240.4	-0.000767627
11258.1	-0.000118551
11267	0.000206477
11275.9	0.00053177
11284.7	0.000857279
11293.6	0.00118295
11302.5	0.00150875
11311.3	0.0018346
11320.2	0.00216047
11337.9	0.00281202
11346.8	0.0031376
11355.7	0.00346297
11364.5	0.00378808
11373.4	0.00411287
11382.2	0.00443728
11391.1	0.00476125
11408.8	0.00540763
11417.7	0.00572993
11426.6	0.00605154
11435.4	0.00637241
11444.3	0.00669248
11453.2	0.00701167
11462	0.00732994
11470.9	0.00764721
11488.6	0.00827851
11497.5	0.00859241
11506.4	0.00890506
11515.2	0.00921639
11524.1	0.00952633
11532.9	0.00983482
11541.8	0.0101418
11550.7	0.0104472
11568.4	0.011053
11577.3	0.0113532
11586.1	0.0116517
11595	0.0119482
11603.9	0.0122427
11612.7	0.0125352
11621.6	0.0128255
11630.5	0.0131138
11648.2	0.0136834
11657.1	0.0139647
11665.9	0.0142436
11674.8	0.01452
11683.7	0.0147938
11692.5	0.015065
11701.4	0.0153336
11710.2	0.0155994
11728	0.0161225
11736.8	0.0163797
11745.7	0.016634
11754.6	0.0168851
11763.4	0.0171332
11772.3	0.0173782
11781.2	0.0176199
11790	0.0178584
11807.8	0.0183253
11816.6	0.0185536
11825.5	0.0187785
11834.4	0.0189998
11843.2	0.0192175
11852.1	0.0194316
11860.9	0.019642
11878.7	0.0200515
11887.5	0.0202505
11896.4	0.0204457
11905.3	0.0206369
11914.1	0.0208242
11923	0.0210074
11931.9	0.0211866
11940.7	0.0213617
11958.5	0.0216994
11967.3	0.021862
11976.2	0.0220203
11985.1	0.0221743
11993.9	0.0223239
12002.8	0.0224692
12011.6	0.0226101
12020.5	0.0227466
12038.2	0.0230061
12047.1	0.0231291
12056	0.0232475
12064.8	0.0233613
12073.7	0.0234705
12082.6	0.0235751
12091.4	0.023675
12100.3	0.0237702
12118	0.0239464
12126.9	0.0240274
12135.8	0.0241036
12144.6	0.0241749
12153.5	0.0242415
12162.3	0.0243032
12171.2	0.0243601
12180.1	0.0244121
12197.8	0.0245014
12206.7	0.0245386
12215.5	0.024571
12224.4	0.0245984
12233.3	0.0246208
12242.1	0.0246383
12251	0.0246508
12268.7	0.0246608
12277.6	0.0246584
12286.5	0.0246509
12295.3	0.0246384
12304.2	0.024621
12313	0.0245985
12321.9	0.024571
12330.8	0.0245385
12348.5	0.0244585
12357.4	0.0244109
12366.2	0.0243584
12375.1	0.0243009
12384	0.0242384
12392.8	0.0241709
12401.7	0.0240984
12410.6	0.024021
12428.3	0.0238512
12437.2	0.023759
12446	0.0236618
12454.9	0.0235597
12463.7	0.0234527
12472.6	0.0233408
12481.5	0.023224
12490.3	0.0231025
12508.1	0.0228449
12516.9	0.0227089
12525.8	0.0225681
12534.7	0.0224226
12543.5	0.0222725
12552.4	0.0221176
12561.3	0.0219581
12570.1	0.0217939
12587.9	0.0214518
12596.7	0.021274
12605.6	0.0210916
12614.4	0.0209048
12623.3	0.0207135
12632.2	0.0205178
12641	0.0203178
12658.8	0.0199048
12667.6	0.0196919
12676.5	0.0194748
12685.4	0.0192536
12694.2	0.0190282
12703.1	0.0187988
12712	0.0185654
12720.8	0.018328
12738.6	0.0178414
12747.4	0.0175924
12756.3	0.0173396
12765.1	0.0170831
12774	0.016823
12782.9	0.0165592
12791.7	0.0162919
12800.6	0.0160211
12818.3	0.0154693
12827.2	0.0151885
12836.1	0.0149043
12844.9	0.014617
12853.8	0.0143266
12862.7	0.0140332
12871.5	0.0137368
12880.4	0.0134375
12898.1	0.0128304
12907	0.0125227
12915.8	0.0122125
12924.7	0.0118997
12933.6	0.0115844
12942.4	0.0112668
12951.3	0.0109468
12960.2	0.0106245
12977.9	0.00997361
12986.8	0.0096451
12995.6	0.00931467
13004.5	0.00898238
13013.4	0.00864832
13022.2	0.00831258
13031.1	0.00797524
13048.8	0.00729608
13057.7	0.00695443
13066.5	0.00661152
13075.4	0.00626743
13084.3	0.00592224
13093.1	0.00557605
13102	0.00522894
13110.9	0.004881
13128.6	0.00418296
13137.5	0.00383304
13146.3	0.00348264
13155.2	0.00313185
13164.1	0.00278076
13172.9	0.00242944
13181.8	0.002078
13190.7	0.00172652
13208.4	0.0010238
13217.2	0.000672737
13226.1	0.000321985
13235	-2.83646e-05
13243.8	-0.000378224
13252.7	-0.000727506
13261.6	-0.00107612
13270.4	-0.00142399
13288.2	-0.00211712
13297	-0.00246222
13305.9	-0.00280622
13314.8	-0.00314904
13323.6	-0.0034906
13332.5	-0.00383082
13341.4	-0.0041696
13350.2	-0.00450688
13367.9	-0.00517658
13376.8	-0.00550883
13385.7	-0.00583926
13394.5	-0.00616778
13403.4	-0.00649432
13412.3	-0.00681879
13421.1	-0.00714112
13438.9	-0.00777908
13447.7	-0.00809456
13456.6	-0.00840761
13465.5	-0.00871816
13474.3	-0.00902615
13483.2	-0.00933149
13492.1	-0.00963414
13500.9	-0.00993402
13518.6	-0.0105252
13527.5	-0.0108164
13536.4	-0.0111046
13545.2	-0.0113897
13554.1	-0.0116716
13563	-0.0119504
13571.8	-0.0122259
13580.7	-0.0124981
13598.4	-0.0130325
13607.3	-0.0132945
13616.2	-0.013553
13625	-0.0138079
13633.9	-0.0140593
13642.8	-0.014307
13651.6	-0.014551
13660.5	-0.0147914
13678.2	-0.0152606
13687.1	-0.0154895
13695.9	-0.0157146
13704.8	-0.0159357
13713.7	-0.0161529
13722.5	-0.0163661
13731.4	-0.0165753
13740.3	-0.0167805
13758	-0.0171786
13766.9	-0.0173715
13775.7	-0.0175603
13784.6	-0.017745
13793.5	-0.0179254
13802.3	-0.0181017
13811.2	-0.0182738
13820	-0.0184417
13837.8	-0.0187647
13846.6	-0.0189198
13855.5	-0.0190707
13864.4	-0.0192173
13873.2	-0.0193596
13882.1	-0.0194976
13891	-0.0196313
13908.7	-0.0198859
13917.6	-0.0200067
13926.4	-0.0201232
13935.3	-0.0202354
13944.2	-0.0203434
13953	-0.020447
13961.9	-0.0205464
13970.7	-0.0206415
13988.5	-0.0208189
13997.3	-0.0209012
14006.2	-0.0209792
14015.1	-0.0210531
14023.9	-0.0211227
14032.8	-0.0211881
14041.7	-0.0212493
14050.5	-0.0213064
14068.3	-0.0214081
14077.1	-0.0214528
14086	-0.0214933
14094.9	-0.0215298
14103.7	-0.0215623
14112.6	-0.0215907
14121.4	-0.0216151
14130.3	-0.0216355
14148	-0.0216645
14156.9	-0.0216732
14165.8	-0.0216779
14174.6	-0.0216788
14183.5	-0.0216759
14192.4	-0.0216692
14201.2	-0.0216588
14210.1	-0.0216446
14227.8	-0.0216052
14236.7	-0.02158
14245.6	-0.0215512
14254.4	-0.0215189
14263.3	-0.021483
14272.1	-0.0214436
14281	-0.0214008
14298.7	-0.021305
14307.6	-0.021252
14316.5	-0.0211957
14325.3	-0.0211362
14334.2	-0.0210734
14343.1	-0.0210074
14351.9	-0.0209383
14360.8	-0.0208661
14378.5	-0.0207124
14387.4	-0.0206311
14396.3	-0.0205468
14405.1	-0.0204596
14414	-0.0203695
14422.8	-0.0202767
14431.7	-0.020181
14440.6	-0.0200826
14458.3	-0.0198778
14467.2	-0.0197715
14476	-0.0196626
14484.9	-0.0195512
14493.8	-0.0194373
14502.6	-0.019321
14511.5	-0.0192023
14520.4	-0.0190813
14538.1	-0.0188325
14547	-0.0187047
14555.8	-0.0185749
14564.7	-0.0184429
14573.5	-0.0183089
14582.4	-0.0181728
14591.3	-0.0180348
14600.1	-0.0178949
14617.9	-0.0176095
14626.7	-0.0174642
14635.6	-0.0173171
14644.5	-0.0171684
14653.3	-0.017018
14662.2	-0.0168661
14671.1	-0.0167126
14688.8	-0.0164013
14697.7	-0.0162435
14706.5	-0.0160844
14715.4	-0.0159241
14724.2	-0.0157625
14733.1	-0.0155997
14742	-0.0154358
14750.8	-0.0152708
14768.6	-0.0149378
14777.4	-0.0147699
14786.3	-0.014601
14795.2	-0.0144314
14804	-0.0142609
14812.9	-0.0140898
14821.8	-0.0139179
14830.6	-0.0137454
14848.4	-0.0133987
14857.2	-0.0132245
14866.1	-0.01305
14874.9	-0.012875
14883.8	-0.0126998
14892.7	-0.0125242
14901.5	-0.0123484
14910.4	-0.0121724
14928.1	-0.01182
14937	-0.0116437
14945.9	-0.0114674
14954.7	-0.0112912
14963.6	-0.011115
14972.5	-0.0109391
14981.3	-0.0107633
14990.2	-0.0105877
15007.9	-0.0102376
15016.8	-0.0100631
15025.6	-0.00988897
15034.5	-0.00971537
15043.4	-0.0095423
15052.2	-0.00936981
15061.1	-0.00919793
15078.8	-0.00885623
15087.7	-0.0086865
15096.6	-0.00851757
15105.4	-0.0083495
15114.3	-0.00818231
15123.2	-0.00801607
15132	-0.0078508
15140.9	-0.00768656
15158.6	-0.00736134
15167.5	-0.00720044
15176.3	-0.00704073
15185.2	-0.00688226
15194.1	-0.00672507
15202.9	-0.00656921
15211.8	-0.0064147
15220.7	-0.0062616
15238.4	-0.00595975
15247.3	-0.00581108
15256.1	-0.00566397
15265	-0.00551845
15273.9	-0.00537457
15282.7	-0.00523235
15291.6	-0.00509184
15300.5	-0.00495306
15318.2	-0.00468087
15327	-0.00454753
15335.9	-0.00441606
15344.8	-0.00428649
15353.6	-0.00415887
15362.5	-0.00403323
15371.4	-0.00390958
15380.2	-0.00378797
15398	-0.00355097
15406.8	-0.00343564
15415.7	-0.00332245
15424.6	-0.00321145
15433.4	-0.00310264
15442.3	-0.00299606
15451.2	-0.00289174
15460	-0.00278969
15477.7	-0.00259252
15486.6	-0.00249745
15495.5	-0.00240474
15504.3	-0.00231442
15513.2	-0.00222651
15522.1	-0.00214102
15530.9	-0.00205798
15548.7	-0.00189932
15557.5	-0.00182372
15566.4	-0.00175064
15575.3	-0.00168008
15584.1	-0.00161206
15593	-0.0015466
15601.9	-0.00148371
15610.7	-0.00142339
15628.4	-0.00131053
15637.3	-0.00125801
15646.2	-0.0012081
15655	-0.00116081
15663.9	-0.00111616
15672.8	-0.00107414
15681.6	-0.00103476
15690.5	-0.000998022
15708.2	-0.000932497
15717.1	-0.000903711
15726	-0.000877577
15734.8	-0.000854095
15743.7	-0.000833265
15752.6	-0.000815084
15761.4	-0.00079955
15770.3	-0.000786659
15788	-0.000768789
15796.9	-0.000763798
15805.7	-0.000761428
15814.6	-0.000761671
15823.5	-0.000764518
15832.3	-0.00076996
15841.2	-0.000777986
15850.1	-0.000788586
15867.8	-0.000817456
15876.7	-0.000835699
15885.5	-0.000856463
15894.4	-0.000879731
15903.3	-0.000905487
15912.1	-0.000933715
15921	-0.000964396
15938.7	-0.00103304
15947.6	-0.00107096
15956.4	-0.00111126
15965.3	-0.00115391
15974.2	-0.00119888
15983	-0.00124616
15991.9	-0.00129572
16000.8	-0.00134754
16018.5	-0.00145782
16027.4	-0.00151624
16036.2	-0.0015768
16045.1	-0.00163947
16054	-0.00170423
16062.8	-0.00177105
16071.7	-0.00183988
16080.5	-0.00191071
16098.3	-0.0020582
16107.1	-0.0021348
16116	-0.00221325
16124.9	-0.00229352
16133.7	-0.00237556
16142.6	-0.00245935
16151.5	-0.00254485
16160.3	-0.00263201
16178.1	-0.00281116
16186.9	-0.00290308
16195.8	-0.0029965
16204.7	-0.00309138
16213.5	-0.00318768
16222.4	-0.00328536
16231.2	-0.00338437
16240.1	-0.00348467
16257.8	-0.00368894
16266.7	-0.00379282
16275.6	-0.00389781
16284.4	-0.00400386
16293.3	-0.00411091
16302.2	-0.00421893
16311	-0.00432786
16328.8	-0.00454825
16337.6	-0.00465962
16346.5	-0.0047717
16355.4	-0.00488445
16364.2	-0.00499781
16373.1	-0.00511173
16382	-0.00522615
16390.8	-0.00534104
16408.5	-0.00557197
16417.4	-0.00568791
16426.3	-0.0058041
16435.1	-0.00592049
16444	-0.00603701
16452.9	-0.00615362
16461.7	-0.00627026
16470.6	-0.00638689
16488.3	-0.00661986
16497.2	-0.0067361
16506.1	-0.0068521
16514.9	-0.00696782
16523.8	-0.00708319
16532.7	-0.00719816
16541.5	-0.00731268
16550.4	-0.0074267
16568.1	-0.00765301
16577	-0.00776519
16585.8	-0.00787665
16594.7	-0.00798735
16603.6	-0.00809722
16612.4	-0.00820621
16621.3	-0.00831428
16630.2	-0.00842137
16647.9	-0.00863241
16656.8	-0.00873625
16665.6	-0.00883892
16674.5	-0.00894035
16683.4	-0.00904051
16692.2	-0.00913934
16701.1	-0.00923679
16718.8	-0.00942737
16727.7	-0.00952041
16736.5	-0.00961189
16745.4	-0.00970176
16754.3	-0.00978998
16763.1	-0.00987651
16772	-0.0099613
16780.9	-0.0100443
16798.6	-0.0102048
16807.5	-0.0102823
16816.3	-0.0103578
16825.2	-0.0104313
16834.1	-0.0105028
16842.9	-0.0105723
16851.8	-0.0106396
16860.6	-0.0107049
16878.4	-0.0108289
16887.2	-0.0108877
16896.1	-0.0109442
16905	-0.0109984
16913.8	-0.0110503
16922.7	-0.0110999
16931.6	-0.0111471
16940.4	-0.011192
16958.2	-0.0112746
16967	-0.0113122
16975.9	-0.0113474
16984.8	-0.0113801
16993.6	-0.0114104
17002.5	-0.0114381
17011.3	-0.0114633
17020.2	-0.011486
17037.9	-0.0115238
17046.8	-0.0115388
17055.7	-0.0115513
17064.5	-0.0115612
17073.4	-0.0115685
17082.3	-0.0115733
17091.1	-0.0115755
17108.9	-0.0115721
17117.7	-0.0115666
17126.6	-0.0115584
17135.5	-0.0115478
17144.3	-0.0115345
17153.2	-0.0115187
17162	-0.0115004
17170.9	-0.0114796
17188.6	-0.0114303
17197.5	-0.011402
17206.4	-0.0113712
17215.2	-0.0113379
17224.1	-0.0113022
17233	-0.0112641
17241.8	-0.0112236
17250.7	-0.0111807
17268.4	-0.011088
17277.3	-0.0110382
17286.2	-0.0109862
17295	-0.0109319
17303.9	-0.0108755
17312.7	-0.0108168
17321.6	-0.0107561
17330.5	-0.0106932
17348.2	-0.0105614
17357.1	-0.0104925
17365.9	-0.0104217
17374.8	-0.010349
17383.7	-0.0102744
17392.5	-0.010198
17401.4	-0.0101198
17410.3	-0.0100399
17428	-0.00987517
17436.9	-0.0097904
17445.7	-0.0097041
17454.6	-0.00961632
17463.4	-0.00952711
17472.3	-0.00943652
17481.2	-0.00934461
17490	-0.00925142
17507.8	-0.00906145
17516.6	-0.00896477
17525.5	-0.00886704
17534.4	-0.00876832
17543.2	-0.00866866
17552.1	-0.00856812
17561	-0.00846676
17578.7	-0.0082618
17587.6	-0.00815833
17596.4	-0.00805427
17605.3	-0.00794969
17614.1	-0.00784464
17623	-0.00773919
17631.9	-0.0076334
17640.7	-0.00752732
17658.5	-0.00731457
17667.3	-0.00720802
17676.2	-0.00710144
17685.1	-0.00699487
17693.9	-0.0068884
17702.8	-0.00678207
17711.7	-0.00667595
17720.5	-0.0065701
17738.3	-0.00635945
17747.1	-0.00625477
17756	-0.0061506
17764.8	-0.00604699
17773.7	-0.00594402
17782.6	-0.00584173
17791.4	-0.00574018
17800.3	-0.00563944
17818	-0.00544058
17826.9	-0.00534258
17835.8	-0.00524561
17844.6	-0.00514971
17853.5	-0.00505495
17862.4	-0.00496137
17871.2	-0.00486903
17880.1	-0.00477797
17897.8	-0.00459993
17906.7	-0.00451303
17915.5	-0.00442762
17924.4	-0.00434374
17933.3	-0.00426144
17942.1	-0.00418075
17951	-0.00410172
17968.7	-0.00394882
17977.6	-0.00387503
17986.5	-0.00380306
17995.3	-0.00373295
18004.2	-0.00366474
18013.1	-0.00359846
18021.9	-0.00353414
18030.8	-0.00347182
18048.5	-0.00335328
18057.4	-0.00329713
18066.2	-0.00324309
18075.1	-0.00319119
18084	-0.00314145
18092.8	-0.00309389
18101.7	-0.00304853
18110.6	-0.0030054
18128.3	-0.00292588
18137.2	-0.00288953
18146	-0.00285546
18154.9	-0.00282369
18163.8	-0.00279423
18172.6	-0.00276709
18181.5	-0.00274228
18190.4	-0.0027198
18208.1	-0.00268185
18216.9	-0.00266639
18225.8	-0.00265327
18234.7	-0.00264248
18243.5	-0.00263404
18252.4	-0.00262793
18261.3	-0.00262414
18270.1	-0.00262267
18287.9	-0.00262664
18296.7	-0.00263206
18305.6	-0.00263975
18314.5	-0.0026497
18323.3	-0.00266188
18332.2	-0.00267629
18341.1	-0.0026929
18358.8	-0.00273263
18367.6	-0.00275571
18376.5	-0.0027809
18385.4	-0.00280817
18394.2	-0.0028375
18403.1	-0.00286884
18412	-0.00290219
18420.8	-0.00293749
18438.6	-0.00301385
18447.4	-0.00305484
18456.3	-0.00309765
18465.2	-0.00314224
18474	-0.00318858
18482.9	-0.00323662
18491.8	-0.00328632
18500.6	-0.00333765
18518.3	-0.00344499
18527.2	-0.00350091
18536.1	-0.00355828
18544.9	-0.00361704
18553.8	-0.00367715
18562.7	-0.00373855
18571.5	-0.0038012
18580.4	-0.00386505
18598.1	-0.00399614
18607	-0.00406327
18615.9	-0.00413138
18624.7	-0.00420044
18633.6	-0.00427037
18642.5	-0.00434112
18651.3	-0.00441265
18660.2	-0.00448489
18677.9	-0.00463128
18686.8	-0.00470531
18695.6	-0.00477984
18704.5	-0.00485479
18713.4	-0.00493011
18722.2	-0.00500574
18731.1	-0.00508163
18748.8	-0.00523393
18757.7	-0.00531023
18766.6	-0.00538654
18775.4	-0.00546282
18784.3	-0.005539
18793.2	-0.00561502
18802	-0.00569083
18810.9	-0.00576637
18828.6	-0.0059164
18837.5	-0.00599077
18846.3	-0.00606464
18855.2	-0.00613796
18864.1	-0.00621065
18872.9	-0.00628268
18881.8	-0.00635398
18890.7	-0.0064245
18908.4	-0.00656298
18917.3	-0.00663084
18926.1	-0.00669769
18935	-0.0067635
18943.9	-0.00682821
18952.7	-0.00689178
18961.6	-0.00695414
18970.4	-0.00701525
18988.2	-0.00713355
18997	-0.00719063
19005.9	-0.00724628
19014.8	-0.00730045
19023.6	-0.00735309
19032.5	-0.00740417
19041.4	-0.00745364
19050.2	-0.00750145
19068	-0.00759198
19076.8	-0.00763461
19085.7	-0.00767543
19094.6	-0.00771442
19103.4	-0.00775153
19112.3	-0.00778674
19121.1	-0.00782001
19130	-0.00785131
19147.7	-0.00790788
19156.6	-0.00793309
19165.5	-0.00795622
19174.3	-0.00797725
19183.2	-0.00799615
19192.1	-0.00801289
19200.9	-0.00802746
19218.7	-0.00804999
19227.5	-0.00805793
19236.4	-0.00806362
19245.3	-0.00806704
19254.1	-0.0080682
19263	-0.00806707
19271.8	-0.00806364
19280.7	-0.0080579
19298.4	-0.00803949
19307.3	-0.00802679
19316.2	-0.00801176
19325	-0.0079944
19333.9	-0.00797471
19342.8	-0.00795267
19351.6	-0.00792831
19360.5	-0.00790161
19378.2	-0.00784122
19387.1	-0.00780755
19396	-0.00777156
19404.8	-0.00773327
19413.7	-0.00769269
19422.5	-0.00764982
19431.4	-0.00760468
19440.3	-0.00755729
19458	-0.00745578
19466.9	-0.0074017
19475.7	-0.00734542
19484.6	-0.00728697
19493.5	-0.00722636
19502.3	-0.00716362
19511.2	-0.00709876
19520.1	-0.00703181
19537.8	-0.00689175
19546.7	-0.00681867
19555.5	-0.00674361
19564.4	-0.00666659
19573.2	-0.00658763
19582.1	-0.00650677
19591	-0.00642404
19608.7	-0.00625307
19617.6	-0.0061649
19626.4	-0.00607499
19635.3	-0.00598336
19644.2	-0.00589006
19653	-0.00579511
19661.9	-0.00569856
19670.8	-0.00560045
19688.5	-0.00539965
19697.4	-0.00529704
19706.2	-0.00519302
19715.1	-0.00508762
19723.9	-0.00498088
19732.8	-0.00487284
19741.7	-0.00476354
19750.5	-0.00465303
19768.3	-0.0044285
19777.1	-0.00431458
19786	-0.0041996
19794.9	-0.00408361
19803.7	-0.00396666
19812.6	-0.00384877
19821.5	-0.00373001
19830.3	-0.0036104
19848.1	-0.00336883
19856.9	-0.00324696
19865.8	-0.00312441
19874.6	-0.00300124
19883.5	-0.00287749
19892.4	-0.00275319
19901.2	-0.00262839
19910.1	-0.00250313
19927.8	-0.00225142
19936.7	-0.00212505
19945.6	-0.00199838
19954.4	-0.00187147
19963.3	-0.00174435
19972.2	-0.00161707
19981	-0.00148965
19998.8	-0.00123462
