%%MatrixMarket matrix array real general
10 10
1.
0.
0.
0.
0.
0.
0.
0.
0.
0.
.5000000000
-.5000000000
0.
0.
.5000000000
0.
0.
0.
0.
0.
.2500000000
-.5000000000
.2500000000
0.
.5000000000
-.5000000000
0.
.2500000000
0.
0.
.1250000000
-.3750000000
.3750000000
-.1250000000
.3750000000
-.7500000000
.3750000000
.3750000000
-.3750000000
.1250000000
.5000000000
-.5000000000
0.
0.
-.5000000000
0.
0.
0.
0.
0.
.2500000000
-.5000000000
.2500000000
0.
0.
0.
0.
-.2500000000
0.
0.
.1250000000
-.3750000000
.3750000000
-.1250000000
.1250000000
-.2500000000
.1250000000
-.1250000000
.1250000000
-.1250000000
.2500000000
-.5000000000
.2500000000
0.
-.5000000000
.5000000000
0.
.2500000000
0.
0.
.1250000000
-.3750000000
.3750000000
-.1250000000
-.1250000000
.2500000000
-.1250000000
-.1250000000
.1250000000
.1250000000
.1250000000
-.3750000000
.3750000000
-.1250000000
-.3750000000
.7500000000
-.3750000000
.3750000000
-.3750000000
-.1250000000
