%%MatrixMarket matrix array real general
10 4
-.8333333333e-1
0.
0.
0.
0.
0.
0.
0.
0.
-.2380952381e-2
-.4166666667
0.
0.
0.
-.1151638345
0.
0.
-.3183050109e-1
0.
-.3473762831e-2
-.4166666667
0.
0.
0.
-.3015028324
0.
0.
-.2181694990
0.
-.1631929039
-.8333333333e-1
0.
0.
0.
-.8333333333e-1
0.
0.
-.8333333333e-1
0.
-.8095238095e-1
