
SPLITTING_SIZE	INITIAL_DEPTH	MTPS	TIMESTEPS	TIMESTEP_SIZE	AVERAGE_TRIANGLES	AVERAGE_PARTITIONS
64	10	11.2585	65536	9.88212	2048	64
128	10	13.1867	65536	9.88212	2048	32
256	10	15.1562	65536	9.88212	2048	16
512	10	16.2564	65536	9.88212	2048	8
1024	10	12.6001	65536	9.88212	2048	4
2048	10	8.49063	65536	9.88212	2048	2
4096	10	8.28987	65536	9.88212	2048	2
8192	10	8.45637	65536	9.88212	2048	2
16384	10	8.33919	65536	9.88212	2048	2
32768	10	8.41425	65536	9.88212	2048	2

SPLITTING_SIZE	INITIAL_DEPTH	MTPS	TIMESTEPS	TIMESTEP_SIZE	AVERAGE_TRIANGLES	AVERAGE_PARTITIONS
64	11	14.5724	32768	6.98771	4096	128
128	11	17.9706	32768	6.98771	4096	64
256	11	20.655	32768	6.98771	4096	32
512	11	20.9767	32768	6.98771	4096	16
1024	11	21.1377	32768	6.98771	4096	8
2048	11	14.397	32768	6.98771	4096	4
4096	11	8.88529	32768	6.98771	4096	2
8192	11	8.94315	32768	6.98771	4096	2
16384	11	8.85364	32768	6.98771	4096	2
32768	11	8.80696	32768	6.98771	4096	2

SPLITTING_SIZE	INITIAL_DEPTH	MTPS	TIMESTEPS	TIMESTEP_SIZE	AVERAGE_TRIANGLES	AVERAGE_PARTITIONS
64	12	17.2175	16384	4.94106	8192	256
128	12	21.554	16384	4.94106	8192	128
256	12	25.2092	16384	4.94106	8192	64
512	12	25.9357	16384	4.94106	8192	32
1024	12	25.5567	16384	4.94106	8192	16
2048	12	25.4316	16384	4.94106	8192	8
4096	12	15.6757	16384	4.94106	8192	4
8192	12	8.94164	16384	4.94106	8192	2
16384	12	8.92792	16384	4.94106	8192	2
32768	12	8.88999	16384	4.94106	8192	2

SPLITTING_SIZE	INITIAL_DEPTH	MTPS	TIMESTEPS	TIMESTEP_SIZE	AVERAGE_TRIANGLES	AVERAGE_PARTITIONS
64	13	20.2897	8192	3.49386	16384	512
128	13	25.808	8192	3.49386	16384	256
256	13	30.3464	8192	3.49386	16384	128
512	13	32.8017	8192	3.49386	16384	64
1024	13	33.9401	8192	3.49386	16384	32
2048	13	29.8262	8192	3.49386	16384	16
4096	13	29.7865	8192	3.49386	16384	8
8192	13	17.1794	8192	3.49386	16384	4
16384	13	9.35041	8192	3.49386	16384	2
32768	13	9.40611	8192	3.49386	16384	2

SPLITTING_SIZE	INITIAL_DEPTH	MTPS	TIMESTEPS	TIMESTEP_SIZE	AVERAGE_TRIANGLES	AVERAGE_PARTITIONS
64	14	22.0586	4096	2.47053	32768	1024
128	14	28.7273	4096	2.47053	32768	512
256	14	34.5604	4096	2.47053	32768	256
512	14	38.0489	4096	2.47053	32768	128
1024	14	39.5233	4096	2.47053	32768	64
2048	14	39.8344	4096	2.47053	32768	32
4096	14	33.6437	4096	2.47053	32768	16
8192	14	32.4965	4096	2.47053	32768	8
16384	14	18.0532	4096	2.47053	32768	4
32768	14	9.86476	4096	2.47053	32768	2

SPLITTING_SIZE	INITIAL_DEPTH	MTPS	TIMESTEPS	TIMESTEP_SIZE	AVERAGE_TRIANGLES	AVERAGE_PARTITIONS
64	15	21.0359	2048	1.74693	65536	2048
128	15	29.5167	2048	1.74693	65536	1024
256	15	36.551	2048	1.74693	65536	512
512	15	41.2688	2048	1.74693	65536	256
1024	15	43.9728	2048	1.74693	65536	128
2048	15	43.631	2048	1.74693	65536	64
4096	15	43.5497	2048	1.74693	65536	32
8192	15	35.6961	2048	1.74693	65536	16
16384	15	33.9664	2048	1.74693	65536	8
32768	15	18.6345	2048	1.74693	65536	4

SPLITTING_SIZE	INITIAL_DEPTH	MTPS	TIMESTEPS	TIMESTEP_SIZE	AVERAGE_TRIANGLES	AVERAGE_PARTITIONS
64	16	19.4951	1024	1.23526	131072	4096
128	16	27.2398	1024	1.23526	131072	2048
256	16	35.0107	1024	1.23526	131072	1024
512	16	40.7351	1024	1.23526	131072	512
1024	16	44.6368	1024	1.23526	131072	256
2048	16	46.2281	1024	1.23526	131072	128
4096	16	45.6636	1024	1.23526	131072	64
8192	16	45.2404	1024	1.23526	131072	32
16384	16	36.2336	1024	1.23526	131072	16
32768	16	34.155	1024	1.23526	131072	8

SPLITTING_SIZE	INITIAL_DEPTH	MTPS	TIMESTEPS	TIMESTEP_SIZE	AVERAGE_TRIANGLES	AVERAGE_PARTITIONS
64	17	18.5004	512	0.873464	262144	8192
128	17	26.2406	512	0.873464	262144	4096
256	17	33.1286	512	0.873464	262144	2048
512	17	38.56	512	0.873464	262144	1024
1024	17	41.9426	512	0.873464	262144	512
2048	17	43.8998	512	0.873464	262144	256
4096	17	45.0571	512	0.873464	262144	128
8192	17	43.7027	512	0.873464	262144	64
16384	17	43.4763	512	0.873464	262144	32
32768	17	34.9319	512	0.873464	262144	16

SPLITTING_SIZE	INITIAL_DEPTH	MTPS	TIMESTEPS	TIMESTEP_SIZE	AVERAGE_TRIANGLES	AVERAGE_PARTITIONS
64	18	18.3815	256	0.617632	524288	16384
128	18	25.5715	256	0.617632	524288	8192
256	18	33.2883	256	0.617632	524288	4096
512	18	38.5023	256	0.617632	524288	2048
1024	18	41.4408	256	0.617632	524288	1024
2048	18	43.556	256	0.617632	524288	512
4096	18	44.6677	256	0.617632	524288	256
8192	18	45.1458	256	0.617632	524288	128
16384	18	43.6417	256	0.617632	524288	64
32768	18	43.1887	256	0.617632	524288	32

SPLITTING_SIZE	INITIAL_DEPTH	MTPS	TIMESTEPS	TIMESTEP_SIZE	AVERAGE_TRIANGLES	AVERAGE_PARTITIONS
64	19	17.8711	128	0.436732	1.04858e+06	32768
128	19	25.9559	128	0.436732	1.04858e+06	16384
256	19	33.3276	128	0.436732	1.04858e+06	8192
512	19	38.6555	128	0.436732	1.04858e+06	4096
1024	19	42.1905	128	0.436732	1.04858e+06	2048
2048	19	44.3748	128	0.436732	1.04858e+06	1024
4096	19	45.9377	128	0.436732	1.04858e+06	512
8192	19	45.7486	128	0.436732	1.04858e+06	256
16384	19	46.1518	128	0.436732	1.04858e+06	128
32768	19	43.3001	128	0.436732	1.04858e+06	64

SPLITTING_SIZE	INITIAL_DEPTH	MTPS	TIMESTEPS	TIMESTEP_SIZE	AVERAGE_TRIANGLES	AVERAGE_PARTITIONS
64	20	17.9933	64	0.308816	2.09715e+06	65536
128	20	25.3534	64	0.308816	2.09715e+06	32768
256	20	33.0295	64	0.308816	2.09715e+06	16384
512	20	38.9957	64	0.308816	2.09715e+06	8192
1024	20	42.4883	64	0.308816	2.09715e+06	4096
2048	20	44.4198	64	0.308816	2.09715e+06	2048
4096	20	46.4228	64	0.308816	2.09715e+06	1024
8192	20	47.2541	64	0.308816	2.09715e+06	512
16384	20	47.1572	64	0.308816	2.09715e+06	256
32768	20	46.9537	64	0.308816	2.09715e+06	128

SPLITTING_SIZE	INITIAL_DEPTH	MTPS	TIMESTEPS	TIMESTEP_SIZE	AVERAGE_TRIANGLES	AVERAGE_PARTITIONS
64	21	17.7356	32	0.218366	4.1943e+06	131072
128	21	25.4697	32	0.218366	4.1943e+06	65536
256	21	33.3932	32	0.218366	4.1943e+06	32768
512	21	39.1116	32	0.218366	4.1943e+06	16384
1024	21	42.704	32	0.218366	4.1943e+06	8192
2048	21	44.7306	32	0.218366	4.1943e+06	4096
4096	21	46.4375	32	0.218366	4.1943e+06	2048
8192	21	47.2549	32	0.218366	4.1943e+06	1024
16384	21	47.3459	32	0.218366	4.1943e+06	512
32768	21	46.6612	32	0.218366	4.1943e+06	256

SPLITTING_SIZE	INITIAL_DEPTH	MTPS	TIMESTEPS	TIMESTEP_SIZE	AVERAGE_TRIANGLES	AVERAGE_PARTITIONS
64	22	17.5853	16	0.154408	8.38861e+06	262144
128	22	25.218	16	0.154408	8.38861e+06	131072
256	22	32.9414	16	0.154408	8.38861e+06	65536
512	22	38.5828	16	0.154408	8.38861e+06	32768
1024	22	42.5035	16	0.154408	8.38861e+06	16384
2048	22	44.9184	16	0.154408	8.38861e+06	8192
4096	22	46.8001	16	0.154408	8.38861e+06	4096
8192	22	47.7701	16	0.154408	8.38861e+06	2048
16384	22	48.0328	16	0.154408	8.38861e+06	1024
32768	22	48.1447	16	0.154408	8.38861e+06	512

SPLITTING_SIZE	INITIAL_DEPTH	MTPS	TIMESTEPS	TIMESTEP_SIZE	AVERAGE_TRIANGLES	AVERAGE_PARTITIONS
64	23	17.3795	8	0.109183	1.67772e+07	524288
128	23	24.9455	8	0.109183	1.67772e+07	262144
256	23	32.3527	8	0.109183	1.67772e+07	131072
512	23	38.6485	8	0.109183	1.67772e+07	65536
1024	23	42.8976	8	0.109183	1.67772e+07	32768
2048	23	44.7519	8	0.109183	1.67772e+07	16384
4096	23	46.4476	8	0.109183	1.67772e+07	8192
8192	23	47.5796	8	0.109183	1.67772e+07	4096
16384	23	48.0196	8	0.109183	1.67772e+07	2048
32768	23	47.9226	8	0.109183	1.67772e+07	1024

SPLITTING_SIZE	INITIAL_DEPTH	MTPS	TIMESTEPS	TIMESTEP_SIZE	AVERAGE_TRIANGLES	AVERAGE_PARTITIONS
64	24	17.2758	4	0.077204	3.35544e+07	1.04858e+06
128	24	24.5832	4	0.077204	3.35544e+07	524288
256	24	32.5126	4	0.077204	3.35544e+07	262144
512	24	39.0498	4	0.077204	3.35544e+07	131072
1024	24	42.6146	4	0.077204	3.35544e+07	65536
2048	24	45.1465	4	0.077204	3.35544e+07	32768
4096	24	46.9024	4	0.077204	3.35544e+07	16384
8192	24	47.8594	4	0.077204	3.35544e+07	8192
16384	24	48.6973	4	0.077204	3.35544e+07	4096
32768	24	48.9558	4	0.077204	3.35544e+07	2048
