Executable + params: ../../build/sierpi_intel_tbb_scan_tsunami_parallel_release -o 32768 -A 1 -d 20 -a 8 -t 100
Problem size with different number of CPUs using function optimization
THREADS	MTPS	TIMESTEPS	TIMESTEP_SIZE	SECONDS_FOR_SIMULATION	AVERAGE_TRIANGLES	AVERAGE_PARTITIONS
40	61.75	100	0.000491318		1.9047e+07	963.71
32	50.9033	100	0.000491318		1.9047e+07	773.72
30	44.6314	100	0.000491318		1.9047e+07	756.66
20	25.0769	100	0.000491318		1.9047e+07	533.26
16	21.4086	100	0.000491318		1.9047e+07	433.08
10	13.541	100	0.000491318		1.9047e+07	289.05
8	12.6868	100	0.000491318		1.9047e+07	236.11
4	8.65305	100	0.000491318		1.9047e+07	133.26
2	4.60583	100	0.000491318		1.9047e+07	75.89
1	2.39727	100	0.000491318		1.9047e+07	48
