0	0
13.9714	0
23.2857	0
32.6	0
41.9143	0
51.2286	0
60.5429	0
74.5144	0
83.8287	0
93.143	0
102.457	0
111.772	0
121.086	0
130.4	0
144.372	0
153.686	0
163	0
172.315	0
181.629	0
190.943	0
200.257	0
214.229	0
223.543	0
232.857	0
242.172	0
251.486	0
260.8	0
270.115	0
284.086	0
293.4	0
302.715	0
312.029	0
321.343	0
330.658	0
344.629	0
353.943	0
363.258	0
372.572	0
381.886	0
391.201	0
400.515	0
414.486	0
423.801	0
433.115	0
442.429	0
451.744	0
461.058	0
470.372	0
484.344	0
493.658	0
502.972	0
512.286	0
521.601	0
530.915	0
540.229	0
554.201	0
563.515	0
572.829	0
582.144	0
591.458	0
600.772	0
610.087	0
624.058	0
633.372	0
642.687	0
652.001	0
661.315	0
670.63	0
684.601	0
693.915	0
703.23	0
712.544	0
721.858	0
731.172	0
740.487	0
754.458	0
763.773	0
773.087	0
782.401	0
791.715	0
801.03	0
810.344	0
824.315	0
833.63	0
842.944	0
852.258	0
861.573	0
870.887	0
880.201	0
894.173	0
903.487	0
912.801	0
922.116	0
931.43	0
940.744	0
950.059	0
964.03	0
973.344	0
982.659	0
991.973	0
1001.29	0
1010.6	0
1024.57	0
1033.89	0
1043.2	0
1052.52	0
1061.83	0
1071.14	0
1080.46	0
1094.43	0
1103.74	0
1113.06	0
1122.37	0
1131.69	0
1141	0
1150.32	0
1164.29	0
1173.6	0
1182.92	0
1192.23	0
1201.54	0
1210.86	0
1220.17	0
1234.14	0
1243.46	0
1252.77	0
1262.09	0
1271.4	0
1280.72	0
1290.03	0
1304	0
1313.32	0
1322.63	0
1331.94	0
1341.26	0
1350.57	0
1364.54	0
1373.86	0
1383.17	0
1392.49	0
1401.8	0
1411.12	0
1420.43	0
1434.4	0
1443.72	0
1453.03	0
1462.34	0
1471.66	0
1480.97	0
1490.29	0
1504.26	0
1513.57	0
1522.89	0
1532.2	0
1541.52	0
1550.83	0
1560.15	0
1574.12	0
1583.43	0
1592.75	0
1602.06	0
1611.37	0
1620.69	0
1630	0
1643.97	0
1653.29	0
1662.6	0
1671.92	0
1681.23	0
1690.55	0
1704.52	0
1713.83	0
1723.15	0
1732.46	0
1741.77	0
1751.09	0
1760.4	0
1774.37	0
1783.69	0
1793	0
1802.32	0
1811.63	0
1820.95	0
1830.26	0
1844.23	0
1853.55	0
1862.86	0
1872.17	0
1881.49	0
1890.8	0
1900.12	0
1914.09	0
1923.4	0
1932.72	0
1942.03	0
1951.35	0
1960.66	0
1974.63	0
1983.95	0
1993.26	0
2002.57	0
2011.89	0
2021.2	0
2030.52	0
2044.49	0
2053.8	0
2063.12	0
2072.43	0
2081.75	0
2091.06	0
2100.37	0
2114.35	0
2123.66	0
2132.97	0
2142.29	0
2151.6	0
2160.92	0
2170.23	0
2184.2	0
2193.52	0
2202.83	0
2212.15	0
2221.46	0
2230.77	0
2240.09	0
2254.06	0
2263.37	0
2272.69	0
2282	0
2291.32	0
2300.63	0
2314.6	0
2323.92	0
2333.23	0
2342.55	0
2351.86	0
2361.17	0
2370.49	0
2384.46	0
2393.77	0
2403.09	0
2412.4	0
2421.72	0
2431.03	0
2440.35	0
2454.32	0
2463.63	0
2472.95	0
2482.26	0
2491.57	0
2500.89	0
2510.2	0
2524.17	0
2533.49	0
2542.8	0
2552.12	0
2561.43	0
2570.75	0
2580.06	0
2594.03	0
2603.35	0
2612.66	0
2621.98	0
2631.29	0
2640.6	0
2654.58	0
2663.89	9.09495e-13
2673.2	1.81899e-12
2682.52	3.63798e-12
2691.83	6.36646e-12
2701.15	1.09139e-11
2710.46	1.63709e-11
2724.43	3.09228e-11
2733.75	4.72937e-11
2743.06	7.18501e-11
2752.38	1.06411e-10
2761.69	1.58252e-10
2771	2.31921e-10
2780.32	3.38332e-10
2794.29	5.91172e-10
2803.6	8.49468e-10
2812.92	1.21327e-09
2822.23	1.72258e-09
2831.55	2.43017e-09
2840.86	3.40788e-09
2850.18	4.7512e-09
2864.15	7.73161e-09
2873.46	1.06193e-08
2882.78	1.4501e-08
2892.09	1.96887e-08
2901.4	2.65809e-08
2910.72	3.56868e-08
2920.03	4.76466e-08
2934	7.27596e-08
2943.32	9.5838e-08
2952.63	1.25568e-07
2961.95	1.6366e-07
2971.26	2.12203e-07
2980.57	2.7374e-07
2994.55	3.97286e-07
3003.86	5.06108e-07
3013.17	6.41578e-07
3022.49	8.09373e-07
3031.8	1.01617e-06
3041.12	1.26978e-06
3050.43	1.57929e-06
3064.4	2.17175e-06
3073.72	2.67041e-06
3083.03	3.26894e-06
3092.35	3.98399e-06
3101.66	4.83435e-06
3110.97	5.84107e-06
3120.29	7.02758e-06
3134.26	9.20192e-06
3143.57	1.09572e-05
3152.89	1.29946e-05
3162.2	1.53497e-05
3171.52	1.80605e-05
3180.83	2.11681e-05
3190.14	2.4716e-05
3204.12	3.09653e-05
3213.43	3.58214e-05
3222.74	4.12897e-05
3232.06	4.74239e-05
3241.37	5.42792e-05
3250.69	6.19123e-05
3260	7.03802e-05
3273.97	8.47738e-05
3283.29	9.55811e-05
3292.6	0.000107424
3301.91	0.000120358
3311.23	0.000134436
3320.54	0.000149709
3334.51	0.000174967
3343.83	0.000193435
3353.14	0.000213254
3362.46	0.000234459
3371.77	0.00025708
3381.08	0.000281145
3390.4	0.000306673
3404.37	0.000347743
3413.68	0.000376989
3423	0.00040773
3432.31	0.000439965
3441.62	0.000473685
3450.94	0.00050888
3460.25	0.000545531
3474.22	0.000603193
3483.54	0.000643389
3492.85	0.000684955
3502.17	0.00072786
3511.48	0.000772073
3520.79	0.00081756
3530.11	0.000864287
3544.08	0.000936633
3553.39	0.000986322
3562.71	0.00103714
3572.02	0.00108907
3581.33	0.00114209
3590.65	0.00119619
3604.62	0.00127932
3613.93	0.00133607
3623.25	0.00139389
3632.56	0.00145281
3641.87	0.00151286
3651.19	0.00157409
3660.5	0.00163656
3674.47	0.00173276
3683.79	0.00179871
3693.1	0.00186628
3702.41	0.00193564
3711.73	0.00200697
3721.04	0.00208052
3730.36	0.00215656
3744.33	0.00227606
3753.64	0.00235995
3762.95	0.00244778
3772.27	0.00254013
3781.58	0.0026377
3790.9	0.00274127
3800.21	0.00285176
3814.18	0.00303284
3823.49	0.00316567
3832.81	0.00330992
3842.12	0.00346736
3851.44	0.00363999
3860.75	0.00383013
3870.06	0.00404038
3884.03	0.00440013
3893.35	0.00467464
3902.66	0.00498159
3911.97	0.00532556
3921.29	0.0057117
3930.6	0.0061458
3944.57	0.00690113
3953.89	0.00748487
3963.2	0.00814238
3972.51	0.00888287
3981.83	0.00971646
3991.14	0.0106542
4000.46	0.0117082
4014.43	0.013536
4023.74	0.0149403
4033.05	0.0165114
4042.37	0.0182662
4051.68	0.0202229
4061	0.0224004
4070.31	0.024819
4084.28	0.0289455
4093.6	0.0320615
4102.91	0.0354965
4112.22	0.0392745
4121.54	0.04342
4130.85	0.0479579
4140.16	0.0529134
4154.14	0.0611839
4163.45	0.0672918
4172.76	0.0739029
4182.08	0.0810404
4191.39	0.0887257
4200.71	0.0969792
4210.02	0.105819
4223.99	0.120213
4233.3	0.130584
4242.62	0.141586
4251.93	0.153224
4261.25	0.165502
4270.56	0.178417
4284.53	0.198969
4293.85	0.213441
4303.16	0.228508
4312.48	0.244148
4321.79	0.260333
4331.1	0.27703
4340.42	0.294202
4354.39	0.32075
4363.7	0.338904
4373.02	0.357356
4382.33	0.376046
4391.65	0.394909
4400.96	0.413874
4410.27	0.432867
4424.25	0.461242
4433.56	0.479964
4442.87	0.498432
4452.19	0.516561
4461.5	0.534265
4470.82	0.551457
4480.13	0.56805
4494.1	0.591628
4503.42	0.606348
4512.73	0.620175
4522.05	0.63303
4531.36	0.644837
4540.67	0.655524
4554.65	0.669313
4563.96	0.676923
4573.27	0.683204
4582.59	0.688108
4591.9	0.691595
4601.22	0.69363
4610.53	0.694188
4624.5	0.692209
4633.82	0.688998
4643.13	0.684269
4652.45	0.678026
4661.76	0.670282
4671.07	0.661054
4680.39	0.650369
4694.36	0.631677
4703.67	0.617497
4712.99	0.601994
4722.3	0.58522
4731.62	0.567229
4740.93	0.548083
4750.24	0.527845
4764.22	0.495588
4773.53	0.472921
4782.84	0.44941
4792.16	0.425131
4801.47	0.400162
4810.79	0.37458
4820.1	0.348466
4834.07	0.30847
4843.39	0.28137
4852.7	0.254015
4862.01	0.226481
4871.33	0.198844
4880.64	0.17118
4894.61	0.129792
4903.93	0.102376
4913.24	0.0751785
4922.56	0.0482666
4931.87	0.0217028
4941.19	-0.00445246
4950.5	-0.0301418
4964.47	-0.0676832
4973.79	-0.0919747
4983.1	-0.115622
4992.41	-0.138581
5001.73	-0.160811
5011.04	-0.182275
5020.36	-0.202937
5034.33	-0.232362
5043.64	-0.250892
5052.96	-0.268526
5062.27	-0.285243
5071.58	-0.301028
5080.9	-0.315865
5090.21	-0.329745
5104.18	-0.348754
5113.5	-0.360213
5122.81	-0.370702
5132.13	-0.380222
5141.44	-0.388779
5150.76	-0.396381
5160.07	-0.403039
5174.04	-0.411286
5183.36	-0.415648
5192.67	-0.419122
5201.98	-0.42173
5211.3	-0.423495
5220.61	-0.424443
5234.58	-0.42439
5243.9	-0.423414
5253.21	-0.421721
5262.53	-0.419343
5271.84	-0.416312
5281.16	-0.412664
5290.47	-0.408431
5304.44	-0.401066
5313.76	-0.395531
5323.07	-0.389537
5332.38	-0.383122
5341.7	-0.376321
5351.01	-0.369172
5360.33	-0.361709
5374.3	-0.350006
5383.61	-0.341915
5392.93	-0.333632
5402.24	-0.325192
5411.55	-0.316626
5420.87	-0.307965
5430.18	-0.29924
5444.15	-0.286094
5453.47	-0.277333
5462.78	-0.268603
5472.1	-0.259929
5481.41	-0.251335
5490.73	-0.242842
5500.04	-0.234471
5514.01	-0.222184
5523.33	-0.214197
5532.64	-0.206392
5541.95	-0.198784
5551.27	-0.191385
5560.58	-0.184205
5574.55	-0.173871
5583.87	-0.167284
5593.18	-0.160947
5602.5	-0.154866
5611.81	-0.149046
5621.12	-0.14349
5630.44	-0.138201
5644.41	-0.130772
5653.72	-0.126156
5663.04	-0.121808
5672.35	-0.117729
5681.67	-0.113915
5690.98	-0.110364
5700.3	-0.107073
5714.27	-0.102615
5723.58	-0.0999541
5732.9	-0.0975371
5742.21	-0.0953578
5751.52	-0.0934103
5760.84	-0.0916879
5770.15	-0.0901838
5784.12	-0.0883211
5793.44	-0.0873306
5802.75	-0.086532
5812.07	-0.085917
5821.38	-0.0854773
5830.7	-0.0852044
5840.01	-0.0850894
5853.98	-0.0851935
5863.29	-0.085434
5872.61	-0.0858005
5881.92	-0.0862838
5891.24	-0.0868743
5900.55	-0.0875625
5914.52	-0.0887569
5923.84	-0.0896471
5933.15	-0.0906012
5942.47	-0.0916097
5951.78	-0.0926627
5961.09	-0.0937508
5970.41	-0.0948645
5984.38	-0.0965624
5993.69	-0.097699
6003.01	-0.0988289
6012.32	-0.0999431
6021.64	-0.101033
6030.95	-0.10209
6040.27	-0.103106
6054.24	-0.104536
6063.55	-0.105416
6072.87	-0.106228
6082.18	-0.106966
6091.49	-0.107624
6100.81	-0.108196
6110.12	-0.108676
6124.09	-0.109212
6133.41	-0.109442
6142.72	-0.109563
6152.04	-0.109574
6161.35	-0.10947
6170.67	-0.10925
6184.64	-0.108699
6193.95	-0.108181
6203.27	-0.107542
6212.58	-0.106782
6221.89	-0.105901
6231.21	-0.1049
6240.52	-0.103781
6254.49	-0.101883
6263.81	-0.100475
6273.12	-0.0989561
6282.44	-0.0973295
6291.75	-0.0955987
6301.07	-0.0937675
6310.38	-0.0918401
6324.35	-0.0887783
6333.66	-0.0866304
6342.98	-0.0844029
6352.29	-0.0821011
6361.61	-0.0797305
6370.92	-0.0772967
6380.24	-0.0748052
6394.21	-0.0709727
6403.52	-0.0683627
6412.84	-0.0657155
6422.15	-0.063037
6431.46	-0.0603332
6440.78	-0.0576098
6450.09	-0.0548726
6464.06	-0.0507533
6473.38	-0.0480062
6482.69	-0.0452648
6492.01	-0.0425344
6501.32	-0.0398201
6510.64	-0.0371268
6524.61	-0.033137
6533.92	-0.0305173
6543.24	-0.0279348
6552.55	-0.0253938
6561.86	-0.0228984
6571.18	-0.0204524
6580.49	-0.0180594
6594.46	-0.0145771
6603.78	-0.0123316
6613.09	-0.0101507
6622.41	-0.00803708
6631.72	-0.00599348
6641.04	-0.00402238
6650.35	-0.00212611
6664.32	0.000573291
6673.64	0.00227338
6682.95	0.00389179
6692.26	0.00542693
6701.58	0.00687737
6710.89	0.00824183
6720.21	0.00951917
6734.18	0.0112698
6743.49	0.0123254
6752.81	0.0132912
6762.12	0.0141667
6771.44	0.0149516
6780.75	0.0156458
6790.06	0.0162493
6804.04	0.0169849
6813.35	0.0173627
6822.66	0.0176511
6831.98	0.0178508
6841.29	0.0179627
6850.61	0.0179879
6864.58	0.0178656
6873.89	0.0176794
6883.21	0.0174114
6892.52	0.0170634
6901.84	0.0166373
6911.15	0.0161352
6920.46	0.0155593
6934.43	0.0145626
6943.75	0.0138132
6953.06	0.0129993
6962.38	0.0121236
6971.69	0.0111893
6981.01	0.0101995
6990.32	0.00915765
7004.29	0.00750467
7013.61	0.00634777
7022.92	0.00515125
7032.24	0.00391889
7041.55	0.00265456
7050.86	0.0013622
7060.18	4.5816e-05
7074.15	-0.00196493
7083.46	-0.00332354
7092.78	-0.00469183
7102.09	-0.00606561
7111.41	-0.00744072
7120.72	-0.00881297
7130.04	-0.0101782
7144.01	-0.0122039
7153.32	-0.0135335
7162.64	-0.0148417
7171.95	-0.0161246
7181.26	-0.017378
7190.58	-0.0185983
7204.55	-0.0203579
7213.86	-0.0214785
7223.18	-0.0225528
7232.49	-0.0235774
7241.81	-0.0245488
7251.12	-0.0254638
7260.43	-0.0263192
7274.41	-0.0274838
7283.72	-0.028177
7293.03	-0.0288005
7302.35	-0.0293517
7311.66	-0.0298282
7320.98	-0.0302275
7330.29	-0.0305478
7344.26	-0.0308754
7353.58	-0.0309894
7362.89	-0.031018
7372.21	-0.0309599
7381.52	-0.0308139
7390.83	-0.0305789
7400.15	-0.030254
7414.12	-0.0295969
7423.43	-0.0290451
7432.75	-0.0284019
7442.06	-0.0276674
7451.38	-0.0268419
7460.69	-0.0259257
7470	-0.0249195
7483.98	-0.023243
7493.29	-0.0220156
7502.6	-0.0207018
7511.92	-0.0193031
7521.23	-0.0178213
7530.55	-0.0162582
7544.52	-0.0137659
7553.83	-0.0120092
7563.15	-0.0101794
7572.46	-0.00827921
7581.77	-0.00631157
7591.09	-0.00427956
7600.4	-0.00218641
7614.37	0.00106044
7623.69	0.00329119
7633	0.00557053
7642.32	0.00789456
7651.63	0.0102593
7660.95	0.0126606
7670.26	0.0150943
7684.23	0.0187961
7693.54	0.0212918
7702.86	0.0238045
7712.17	0.0263299
7721.49	0.0288632
7730.8	0.0314002
7740.12	0.0339361
7754.09	0.0377283
7763.4	0.0402421
7772.72	0.0427392
7782.03	0.0452153
7791.34	0.0476662
7800.66	0.0500876
7814.63	0.0536556
7823.94	0.0559857
7833.26	0.0582727
7842.57	0.0605128
7851.89	0.0627027
7861.2	0.064839
7870.51	0.0669185
7884.49	0.0699251
7893.8	0.0718505
7903.11	0.0737097
7912.43	0.0755005
7921.74	0.077221
7931.06	0.0788692
7940.37	0.0804436
7954.34	0.0826639
7963.66	0.0840482
7972.97	0.0853548
7982.28	0.0865831
7991.6	0.0877326
8000.91	0.0888031
8010.23	0.0897946
8024.2	0.0911342
8033.51	0.0919293
8042.83	0.0926468
8052.14	0.0932875
8061.46	0.0938522
8070.77	0.0943421
8080.08	0.0947584
8094.05	0.0952478
8103.37	0.0954862
8112.68	0.0956562
8122	0.0957594
8131.31	0.0957977
8140.63	0.095773
8154.6	0.0956218
8163.91	0.0954479
8173.23	0.0952179
8182.54	0.0949337
8191.85	0.0945976
8201.17	0.0942115
8210.48	0.0937776
8224.45	0.0930416
8233.77	0.0924974
8243.08	0.0919125
8252.4	0.0912892
8261.71	0.0906295
8271.03	0.0899352
8280.34	0.0892085
8294.31	0.0880616
8303.62	0.0872618
8312.94	0.0864361
8322.25	0.0855861
8331.57	0.0847136
8340.88	0.0838203
8350.2	0.0829077
8364.17	0.081506
8373.48	0.0805519
8382.8	0.0795837
8392.11	0.0786028
8401.42	0.0776104
8410.74	0.0766078
8420.05	0.075596
8434.02	0.0740638
8443.34	0.0730339
8452.65	0.0719985
8461.97	0.0709583
8471.28	0.0699141
8480.6	0.0688667
8494.57	0.0672908
8503.88	0.0662377
8513.2	0.0651833
8522.51	0.0641277
8531.82	0.0630714
8541.14	0.0620145
8550.45	0.0609571
8564.42	0.0593701
8573.74	0.0583115
8583.05	0.0572523
8592.37	0.0561921
8601.68	0.0551307
8611	0.0540677
8620.31	0.0530027
8634.28	0.0514004
8643.6	0.050328
8652.91	0.0492515
8662.22	0.0481703
8671.54	0.0470836
8680.85	0.0459905
8690.17	0.0448904
8704.14	0.0432249
8713.45	0.0421031
8722.77	0.0409711
8732.08	0.039828
8741.4	0.0386728
8750.71	0.0375047
8760.02	0.0363228
8774	0.0345223
8783.31	0.0333022
8792.62	0.0320655
8801.94	0.0308114
8811.25	0.0295392
8820.57	0.0282485
8834.54	0.0262762
8843.85	0.0249367
8853.17	0.0235771
8862.48	0.022197
8871.8	0.0207964
8881.11	0.0193751
8890.42	0.0179333
8904.4	0.0157322
8913.71	0.0142397
8923.02	0.0127276
8932.34	0.0111963
8941.65	0.00964641
8950.97	0.00807875
8960.28	0.00649408
8974.25	0.00408725
8983.57	0.00246434
8992.88	0.000828084
9002.2	-0.000820251
9011.51	-0.00247932
9020.82	-0.00414769
9030.14	-0.00582386
9044.11	-0.00834924
9053.42	-0.0100378
9062.74	-0.0117284
9072.05	-0.0134191
9081.37	-0.0151082
9090.68	-0.0167938
9104.65	-0.0193113
9113.97	-0.0209797
9123.28	-0.0226377
9132.59	-0.0242835
9141.91	-0.0259151
9151.22	-0.0275305
9160.54	-0.0291277
9174.51	-0.0314855
9183.82	-0.0330291
9193.14	-0.0345479
9202.45	-0.0360402
9211.77	-0.0375043
9221.08	-0.0389383
9230.39	-0.0403407
9244.37	-0.0423814
9253.68	-0.0436979
9262.99	-0.0449775
9272.31	-0.0462189
9281.62	-0.0474208
9290.94	-0.0485821
9300.25	-0.0497017
9314.22	-0.051301
9323.54	-0.0523124
9332.85	-0.0532791
9342.17	-0.0542005
9351.48	-0.0550761
9360.79	-0.0559055
9370.11	-0.0566882
9384.08	-0.0577745
9393.39	-0.05844
9402.71	-0.0590586
9412.02	-0.0596305
9421.34	-0.0601557
9430.65	-0.0606348
9444.62	-0.0612677
9453.94	-0.0616333
9463.25	-0.0619546
9472.57	-0.0622324
9481.88	-0.0624674
9491.19	-0.0626607
9500.51	-0.0628132
9514.48	-0.0629678
9523.79	-0.0630231
9533.11	-0.0630417
9542.42	-0.0630248
9551.74	-0.0629737
9561.05	-0.0628899
9570.37	-0.0627747
9584.34	-0.0625463
9593.65	-0.0623592
9602.97	-0.0621459
9612.28	-0.061908
9621.59	-0.0616469
9630.91	-0.0613643
9640.22	-0.0610616
9654.19	-0.0605734
9663.51	-0.0602272
9672.82	-0.0598662
9682.14	-0.0594918
9691.45	-0.0591054
9700.77	-0.0587084
9710.08	-0.0583021
9724.05	-0.057678
9733.37	-0.0572539
9742.68	-0.0568247
9751.99	-0.0563915
9761.31	-0.0559554
9770.62	-0.0555173
9784.59	-0.0548583
9793.91	-0.054419
9803.22	-0.0539805
9812.54	-0.0535436
9821.85	-0.0531089
9831.17	-0.0526768
9840.48	-0.052248
9854.45	-0.0516116
9863.77	-0.0511924
9873.08	-0.0507776
9882.39	-0.0503674
9891.71	-0.049962
9901.02	-0.0495616
9910.34	-0.0491661
9924.31	-0.0485824
9933.62	-0.0481995
9942.94	-0.0478216
9952.25	-0.0474486
9961.57	-0.0470803
9970.88	-0.0467167
9980.19	-0.0463576
9994.17	-0.045827
10003.5	-0.0454784
10012.8	-0.0451337
10022.1	-0.0447927
10031.4	-0.0444552
10040.7	-0.044121
10050.1	-0.04379
10064	-0.043299
10073.3	-0.0429751
10082.7	-0.0426538
10092	-0.0423351
10101.3	-0.0420187
10110.6	-0.0417046
10124.6	-0.0412377
10133.9	-0.0409292
10143.2	-0.0406229
10152.5	-0.0403188
10161.8	-0.0400169
10171.1	-0.0397175
10180.5	-0.0394204
10194.4	-0.0389797
10203.7	-0.0386894
10213.1	-0.038402
10222.4	-0.0381178
10231.7	-0.0378371
10241	-0.03756
10250.3	-0.0372869
10264.3	-0.0368852
10273.6	-0.0366233
10282.9	-0.0363664
10292.2	-0.036115
10301.5	-0.0358693
10310.9	-0.0356297
10320.2	-0.0353967
10334.1	-0.0350602
10343.5	-0.0348453
10352.8	-0.0346382
10362.1	-0.0344396
10371.4	-0.0342496
10380.7	-0.0340689
10390	-0.0338976
10404	-0.0336596
10413.3	-0.033514
10422.6	-0.0333793
10431.9	-0.0332559
10441.3	-0.0331442
10450.6	-0.0330444
10464.5	-0.0329178
10473.9	-0.0328492
10483.2	-0.0327937
10492.5	-0.0327514
10501.8	-0.0327226
10511.1	-0.0327074
10520.4	-0.0327061
10534.4	-0.0327304
10543.7	-0.0327642
10553	-0.0328123
10562.3	-0.0328747
10571.7	-0.0329514
10581	-0.0330424
10590.3	-0.0331476
10604.3	-0.033332
10613.6	-0.0334724
10622.9	-0.0336266
10632.2	-0.0337945
10641.5	-0.0339758
10650.8	-0.0341702
10660.1	-0.0343775
10674.1	-0.0347118
10683.4	-0.0349497
10692.7	-0.0351992
10702.1	-0.0354599
10711.4	-0.0357313
10720.7	-0.0360128
10734.7	-0.0364531
10744	-0.0367578
10753.3	-0.0370707
10762.6	-0.0373913
10771.9	-0.0377188
10781.2	-0.0380526
10790.5	-0.038392
10804.5	-0.03891
10813.8	-0.0392602
10823.1	-0.0396134
10832.5	-0.0399688
10841.8	-0.0403256
10851.1	-0.0406829
10860.4	-0.04104
10874.4	-0.0415732
10883.7	-0.0419257
10893	-0.042275
10902.3	-0.04262
10911.6	-0.0429598
10920.9	-0.0432936
10930.3	-0.0436204
10944.2	-0.0440954
10953.5	-0.0444007
10962.9	-0.0446957
10972.2	-0.0449796
10981.5	-0.0452513
10990.8	-0.04551
11000.1	-0.0457548
11014.1	-0.0460937
11023.4	-0.0462996
11032.7	-0.0464884
11042	-0.0466591
11051.3	-0.046811
11060.7	-0.0469432
11074.6	-0.0471026
11083.9	-0.0471819
11093.3	-0.0472386
11102.6	-0.047272
11111.9	-0.0472813
11121.2	-0.0472659
11130.5	-0.047225
11144.5	-0.0471146
11153.8	-0.0470073
11163.1	-0.0468723
11172.4	-0.0467092
11181.7	-0.0465175
11191.1	-0.0462965
11200.4	-0.046046
11214.3	-0.0456139
11223.7	-0.0452877
11233	-0.0449307
11242.3	-0.0445426
11251.6	-0.0441231
11260.9	-0.0436722
11270.2	-0.0431895
11284.2	-0.0424061
11293.5	-0.041844
11302.8	-0.0412501
11312.1	-0.0406244
11321.5	-0.039967
11330.8	-0.0392781
11340.1	-0.0385579
11354.1	-0.0374192
11363.4	-0.0366215
11372.7	-0.0357935
11382	-0.0349354
11391.3	-0.0340476
11400.6	-0.0331307
11414.6	-0.0317015
11423.9	-0.0307137
11433.2	-0.0296985
11442.5	-0.0286566
11451.8	-0.0275885
11461.2	-0.026495
11470.5	-0.0253768
11484.4	-0.0236547
11493.8	-0.022478
11503.1	-0.0212793
11512.4	-0.0200595
11521.7	-0.0188193
11531	-0.0175598
11540.3	-0.0162819
11554.3	-0.0143325
11563.6	-0.0130126
11572.9	-0.0116777
11582.2	-0.0103288
11591.6	-0.00896696
11600.9	-0.00759319
11610.2	-0.00620859
11624.2	-0.00411375
11633.5	-0.00270684
11642.8	-0.00129297
11652.1	0.000126755
11661.4	0.00155118
11670.7	0.00297918
11680	0.00440959
11694	0.00655722
11703.3	0.00798864
11712.6	0.00941843
11722	0.0108455
11731.3	0.0122686
11740.6	0.0136866
11754.6	0.0158017
11763.9	0.0172021
11773.2	0.0185936
11782.5	0.0199749
11791.8	0.0213452
11801.1	0.0227031
11810.4	0.0240479
11824.4	0.0260378
11833.7	0.027345
11843	0.0286355
11852.4	0.0299083
11861.7	0.0311625
11871	0.0323974
11880.3	0.0336121
11894.3	0.0353945
11903.6	0.0365553
11912.9	0.0376933
11922.2	0.0388079
11931.5	0.0398985
11940.8	0.0409645
11950.2	0.0420055
11964.1	0.043519
11973.4	0.0444955
11982.8	0.0454456
11992.1	0.0463691
