THREADS	MTPS	TIMESTEPS	TIMESTEP_SIZE	SECONDS_FOR_SIMULATION	AVERAGE_TRIANGLES	AVERAGE_PARTITIONS
80	68.4582	100	0.000491318	27.8227	1.90469e+07	1158.74
79	68.4528	100	0.000491318	27.8249	1.90469e+07	1158.74
78	68.4921	100	0.000491318	27.8089	1.90469e+07	1158.74
77	66.9186	100	0.000491318	28.4628	1.90469e+07	1158.74
76	64.8161	100	0.000491318	29.3861	1.90469e+07	1158.74
75	67.4064	100	0.000491318	28.2568	1.90469e+07	1158.74
74	65.5906	100	0.000491318	29.0391	1.90469e+07	1158.74
73	66.3371	100	0.000491318	28.7123	1.90469e+07	1158.74
72	65.9743	100	0.000491318	28.8702	1.90469e+07	1158.74
71	62.6549	100	0.000491318	30.3997	1.90469e+07	1158.74
70	64.8093	100	0.000491318	29.3892	1.90469e+07	1158.74
69	66.7839	100	0.000491318	28.5202	1.90469e+07	1158.74
68	66.6283	100	0.000491318	28.5868	1.90469e+07	1158.74
67	64.7497	100	0.000491318	29.4162	1.90469e+07	1158.74
66	65.5268	100	0.000491318	29.0674	1.90469e+07	1158.74
65	65.5827	100	0.000491318	29.0426	1.90469e+07	1158.74
64	64.327	100	0.000491318	29.6095	1.90469e+07	1158.74
63	67.3023	100	0.000491318	28.3006	1.90469e+07	1158.74
62	66.4286	100	0.000491318	28.6728	1.90469e+07	1158.74
61	67.1756	100	0.000491318	28.3539	1.90469e+07	1158.74
60	66.0248	100	0.000491318	28.8481	1.90469e+07	1158.74
59	66.3276	100	0.000491318	28.7164	1.90469e+07	1158.74
58	65.7739	100	0.000491318	28.9581	1.90469e+07	1158.74
57	64.81	100	0.000491318	29.3889	1.90469e+07	1158.74
56	64.3586	100	0.000491318	29.595	1.90469e+07	1158.74
55	63.2917	100	0.000491318	30.0939	1.90469e+07	1158.74
54	61.8036	100	0.000491318	30.8185	1.90469e+07	1158.74
53	61.7544	100	0.000491318	30.843	1.90469e+07	1158.74
52	61.4395	100	0.000491318	31.0011	1.90469e+07	1158.74
51	60.6985	100	0.000491318	31.3796	1.90469e+07	1158.74
50	58.976	100	0.000491318	32.2961	1.90469e+07	1158.74
49	57.8628	100	0.000491318	32.9174	1.90469e+07	1158.74
48	57.8197	100	0.000491318	32.9419	1.90469e+07	1158.74
47	57.1126	100	0.000491318	33.3498	1.90469e+07	1158.74
46	54.48	100	0.000491318	34.9613	1.90469e+07	1158.74
45	54.8817	100	0.000491318	34.7054	1.90469e+07	1158.74
44	53.6478	100	0.000491318	35.5036	1.90469e+07	1158.74
43	53.3884	100	0.000491318	35.6761	1.90469e+07	1158.74
42	52.8781	100	0.000491318	36.0204	1.90469e+07	1158.74
41	51.9553	100	0.000491318	36.6602	1.90469e+07	1158.74
40	50.4777	100	0.000491318	37.7333	1.90469e+07	1158.74
39	51.0201	100	0.000491318	37.3322	1.90469e+07	1158.74
38	50.0168	100	0.000491318	38.0811	1.90469e+07	1158.74
37	49.5699	100	0.000491318	38.4243	1.90469e+07	1158.74
36	48.7712	100	0.000491318	39.0536	1.90469e+07	1158.74
35	48.7553	100	0.000491318	39.0664	1.90469e+07	1158.74
34	47.6645	100	0.000491318	39.9604	1.90469e+07	1158.74
33	47.0985	100	0.000491318	40.4406	1.90469e+07	1158.74
32	47.1949	100	0.000491318	40.358	1.90469e+07	1158.74
31	47.093	100	0.000491318	40.4453	1.90469e+07	1158.74
30	45.7077	100	0.000491318	41.6711	1.90469e+07	1158.74
29	46.0518	100	0.000491318	41.3598	1.90469e+07	1158.74
28	44.3651	100	0.000491318	42.9322	1.90469e+07	1158.74
27	44.7688	100	0.000491318	42.5451	1.90469e+07	1158.74
26	43.912	100	0.000491318	43.3752	1.90469e+07	1158.74
25	43.5453	100	0.000491318	43.7404	1.90469e+07	1158.74
24	44.2097	100	0.000491318	43.0831	1.90469e+07	1158.74
23	44.6443	100	0.000491318	42.6637	1.90469e+07	1158.74
22	44.549	100	0.000491318	42.755	1.90469e+07	1158.74
21	44.809	100	0.000491318	42.5069	1.90469e+07	1158.74
20	44.6447	100	0.000491318	42.6633	1.90469e+07	1158.74
19	42.7147	100	0.000491318	44.591	1.90469e+07	1158.74
18	41.0935	100	0.000491318	46.3502	1.90469e+07	1158.74
17	38.4394	100	0.000491318	49.5505	1.90469e+07	1158.74
16	36.4642	100	0.000491318	52.2346	1.90469e+07	1158.74
15	33.8706	100	0.000491318	56.2343	1.90469e+07	1158.74
14	32.2669	100	0.000491318	59.0293	1.90469e+07	1158.74
13	30.0669	100	0.000491318	63.3483	1.90469e+07	1158.74
12	27.7573	100	0.000491318	68.6194	1.90469e+07	1158.74
11	25.328	100	0.000491318	75.2011	1.90469e+07	1158.74
10	22.952	100	0.000491318	82.9858	1.90469e+07	1158.74
9	21.1336	100	0.000491318	90.1261	1.90469e+07	1158.74
8	19.2926	100	0.000491318	98.7264	1.90469e+07	1158.74
7	16.8304	100	0.000491318	113.17	1.90469e+07	1158.74
6	14.5545	100	0.000491318	130.867	1.90469e+07	1158.74
5	12.1806	100	0.000491318	156.37	1.90469e+07	1158.74
4	10.1402	100	0.000491318	187.835	1.90469e+07	1158.74
3	7.81842	100	0.000491318	243.616	1.90469e+07	1158.74
2	5.2588	100	0.000491318	362.191	1.90469e+07	1158.74
1	2.66192	100	0.000491318	715.533	1.90469e+07	1158.74
