STARTING WORLD SCHEDULER SERVER
CLIENT SETUP: adding client 44864
 + TIMESTAMP: 0.133067
START TIMESTAMP: 0.133091
+++++++++++++++++++++++++++++++++++++++++++++++++++++++++++
+ Client Mapping:
  > Client 44864 (0):	

+ Core Mapping:	0 0 0 0 0 0 0 0 0 0 0 0 0 0 0 0 0 0 0 0 0 0 0 0 0 0 0 0 0 0 0 0 0 0 0 0 0 0 0 0 
+ Optimal point: 
+++++++++++++++++++++++++++++++++++++++++++++++++++++++++++
INVADE: client 44864
 + TIMESTAMP: 0.133148
RESSOURCE DISTRIBUTION CHANGED
++++++++++++++++++++++++++++++++++++++++++++++++
INVADE (44864)
  + pid: 44864
  + min_cores: 1
  + max_cores: 512
  + scalability graph: 
1, 1.36329, 1.52423, 1.62017, 1.68565, 1.73398, 1.77154, 1.80182, 1.8269, 1.84812, 1.86637, 1.88229, 1.89634, 1.90885, 1.92009, 1.93026, 1.93952, 1.94799, 1.95579, 1.963, 1.96968, 1.9759, 1.98172, 1.98716, 1.99228, 1.9971, 2.00164, 2.00594, 2.01002, 2.01389, 2.01757, 2.02108, 2.02443, 2.02763, 2.03069, 2.03362, 2.03644, 2.03914, 2.04173, 2.04423, 
Number of clients: 1

+++++++++++++++++++++++++++++++++++++++++++++++++++++++++++
+ Client Mapping:
  > Client 44864 (40):	0 1 2 3 4 5 6 7 8 9 10 11 12 13 14 15 16 17 18 19 20 21 22 23 24 25 26 27 28 29 30 31 32 33 34 35 36 37 38 39 

+ Core Mapping:	44864 44864 44864 44864 44864 44864 44864 44864 44864 44864 44864 44864 44864 44864 44864 44864 44864 44864 44864 44864 44864 44864 44864 44864 44864 44864 44864 44864 44864 44864 44864 44864 44864 44864 44864 44864 44864 44864 44864 44864 
+ Optimal point: 40 
+++++++++++++++++++++++++++++++++++++++++++++++++++++++++++
CLIENT SHUTDOWN: client 44864
 + TIMESTAMP: 30.2397
+++++++++++++++++++++++++++++++++++++++++++++++++++++++++++
+ Client Mapping:
  > Client 44864 (0):	

+ Core Mapping:	0 0 0 0 0 0 0 0 0 0 0 0 0 0 0 0 0 0 0 0 0 0 0 0 0 0 0 0 0 0 0 0 0 0 0 0 0 0 0 0 
+ Optimal point: 40 
+++++++++++++++++++++++++++++++++++++++++++++++++++++++++++
client (44864) shutdown hint: 437.984
sum_client_shutdown_hint: 437.984
sum_client_shutdown_hint_div_time: 0
END TIMESTAMP: 30.2398
OVERALL TIME: 30.1067
 + sum_client_shutdown_hint: 437.984
 + sum_client_shutdown_hint/time: 14.5477
sum_client_shutdown_hint: 437.984
sum_client_shutdown_hint_div_time: 14.5477
