MODE: ipmo_prog0
PARCOUNT: 35
PROBLEMS: 1
Running on INWEST
Using iPMO

Programs:
 + ../../build/sierpi_intel_ipmo_tsunami_parallel_release  -u 10 -U 10 -T 1000 -n 40 -d 12
 + ../../build/sierpi_intel_ipmo_tsunami_parallel_release  -u 10 -U 10 -T 1000 -n 40 -d 12
 + ../../build/sierpi_intel_ipmo_tsunami_parallel_release  -u 10 -U 10 -T 1000 -n 40 -d 10
 + ../../build/sierpi_intel_ipmo_tsunami_parallel_release  -u 10 -U 10 -T 1000 -n 40 -d 12
 + ../../build/sierpi_intel_ipmo_tsunami_parallel_release  -u 10 -U 10 -T 1000 -n 40 -d 10

Sat Mar 31 15:59:02 CEST 2012
iPMO: Prog0 parallel execution with ipmo (35 times)
Waiting for job 12296
12297: CHANGING RESSOURCES
12297: CHANGING RESSOURCES
12316: CHANGING RESSOURCES
12325: CHANGING RESSOURCES
12316: CHANGING RESSOURCES
12320: CHANGING RESSOURCES
12313: CHANGING RESSOURCES
12325: CHANGING RESSOURCES
12324: CHANGING RESSOURCES
12330: CHANGING RESSOURCES
12330: CHANGING RESSOURCES
12312: CHANGING RESSOURCES
12321: CHANGING RESSOURCES
12321: CHANGING RESSOURCES
12304: CHANGING RESSOURCES
12306: CHANGING RESSOURCES
12324: CHANGING RESSOURCES
12299: CHANGING RESSOURCES
12326: CHANGING RESSOURCES
12319: CHANGING RESSOURCES
12323: CHANGING RESSOURCES
12330: CHANGING RESSOURCES
12310: CHANGING RESSOURCES
12318: CHANGING RESSOURCES
12321: CHANGING RESSOURCES
12312: CHANGING RESSOURCES
12303: CHANGING RESSOURCES
12317: CHANGING RESSOURCES
12328: CHANGING RESSOURCES
12305: CHANGING RESSOURCES
12313: CHANGING RESSOURCES
12314: CHANGING RESSOURCES
12306: CHANGING RESSOURCES
12320: CHANGING RESSOURCES
12316: CHANGING RESSOURCES
12324: CHANGING RESSOURCES
12309: CHANGING RESSOURCES
12297: CHANGING RESSOURCES
12302: CHANGING RESSOURCES
12325: CHANGING RESSOURCES
12327: CHANGING RESSOURCES
12311: CHANGING RESSOURCES
12322: CHANGING RESSOURCES
12296: CHANGING RESSOURCES
12300: CHANGING RESSOURCES
12315: CHANGING RESSOURCES
12298: CHANGING RESSOURCES
12329: CHANGING RESSOURCES
12307: CHANGING RESSOURCES
12301: CHANGING RESSOURCES

 + Terminating after 1000 timesteps with equal number of triangles -> EXIT
 + Final timestep: 6749

6750 TS (Timesteps)
715.114 ST (SIMULATION_TIME)
0.100037 TSS (Timestep size)
74.8722 SFS (Overall seconds for Simulation)
437983904 TP (Triangles processed)
0.0110922 ASPT (Averaged Seconds per Timestep)
64886.5 TPST (Triangles Processed in Average per Simulation Timestep)
48.6681 PPST (Clusters Processed in Average per Simulation Timestep)
5.84975 MTPS (Million Triangles per Second)
-5.84975 MTPSPT (Million Triangles per Second per Thread)
1.98018 EDMBPT (ElementData Megabyte per Timestep (RW))
178.52 EDMBPS (ElementData Megabyte per Second (RW))
SUM CLIENT SHUTDOWN HINT: 437.984
SUM CLIENT SHUTDOWN HINT DIV TIME: 0
12315: CHANGING RESSOURCES
12300: CHANGING RESSOURCES
12301: CHANGING RESSOURCES
12307: CHANGING RESSOURCES

 + Terminating after 1000 timesteps with equal number of triangles -> EXIT
 + Final timestep: 6749

6750 TS (Timesteps)
715.114 ST (SIMULATION_TIME)
0.100037 TSS (Timestep size)
76.4978 SFS (Overall seconds for Simulation)
437983904 TP (Triangles processed)
0.011333 ASPT (Averaged Seconds per Timestep)
64886.5 TPST (Triangles Processed in Average per Simulation Timestep)
48.6681 PPST (Clusters Processed in Average per Simulation Timestep)
5.72545 MTPS (Million Triangles per Second)
-5.72545 MTPSPT (Million Triangles per Second per Thread)
1.98018 EDMBPT (ElementData Megabyte per Timestep (RW))
174.727 EDMBPS (ElementData Megabyte per Second (RW))
SUM CLIENT SHUTDOWN HINT: 875.968
SUM CLIENT SHUTDOWN HINT DIV TIME: 0
12300: CHANGING RESSOURCES
12322: CHANGING RESSOURCES
12316: CHANGING RESSOURCES
12309: CHANGING RESSOURCES

 + Terminating after 1000 timesteps with equal number of triangles -> EXIT
 + Final timestep: 6749

6750 TS (Timesteps)
715.114 ST (SIMULATION_TIME)
0.100037 TSS (Timestep size)
77.5014 SFS (Overall seconds for Simulation)
437983904 TP (Triangles processed)
0.0114817 ASPT (Averaged Seconds per Timestep)
64886.5 TPST (Triangles Processed in Average per Simulation Timestep)
48.6681 PPST (Clusters Processed in Average per Simulation Timestep)
5.65131 MTPS (Million Triangles per Second)
-5.65131 MTPSPT (Million Triangles per Second per Thread)
1.98018 EDMBPT (ElementData Megabyte per Timestep (RW))
172.464 EDMBPS (ElementData Megabyte per Second (RW))
SUM CLIENT SHUTDOWN HINT: 1313.95
SUM CLIENT SHUTDOWN HINT DIV TIME: 0
12320: CHANGING RESSOURCES
12327: CHANGING RESSOURCES
12322: CHANGING RESSOURCES
12325: CHANGING RESSOURCES

 + Terminating after 1000 timesteps with equal number of triangles -> EXIT
 + Final timestep: 6749

6750 TS (Timesteps)
715.114 ST (SIMULATION_TIME)
0.100037 TSS (Timestep size)
78.1239 SFS (Overall seconds for Simulation)
437983904 TP (Triangles processed)
0.0115739 ASPT (Averaged Seconds per Timestep)
64886.5 TPST (Triangles Processed in Average per Simulation Timestep)
48.6681 PPST (Clusters Processed in Average per Simulation Timestep)
5.60627 MTPS (Million Triangles per Second)
-5.60627 MTPSPT (Million Triangles per Second per Thread)
1.98018 EDMBPT (ElementData Megabyte per Timestep (RW))
171.09 EDMBPS (ElementData Megabyte per Second (RW))
SUM CLIENT SHUTDOWN HINT: 1751.94
SUM CLIENT SHUTDOWN HINT DIV TIME: 0
12327: CHANGING RESSOURCES
12324: CHANGING RESSOURCES
12314: CHANGING RESSOURCES

 + Terminating after 1000 timesteps with equal number of triangles -> EXIT
 + Final timestep: 6749

6750 TS (Timesteps)
715.114 ST (SIMULATION_TIME)
0.100037 TSS (Timestep size)
79.1944 SFS (Overall seconds for Simulation)
437983904 TP (Triangles processed)
0.0117325 ASPT (Averaged Seconds per Timestep)
64886.5 TPST (Triangles Processed in Average per Simulation Timestep)
48.6681 PPST (Clusters Processed in Average per Simulation Timestep)
5.53049 MTPS (Million Triangles per Second)
-5.53049 MTPSPT (Million Triangles per Second per Thread)
1.98018 EDMBPT (ElementData Megabyte per Timestep (RW))
168.777 EDMBPS (ElementData Megabyte per Second (RW))
SUM CLIENT SHUTDOWN HINT: 2189.92
SUM CLIENT SHUTDOWN HINT DIV TIME: 0
12330: CHANGING RESSOURCES
12314: CHANGING RESSOURCES
12321: CHANGING RESSOURCES

 + Terminating after 1000 timesteps with equal number of triangles -> EXIT
 + Final timestep: 6749

6750 TS (Timesteps)
715.114 ST (SIMULATION_TIME)
0.100037 TSS (Timestep size)
105.283 SFS (Overall seconds for Simulation)
437983904 TP (Triangles processed)
0.0155975 ASPT (Averaged Seconds per Timestep)
64886.5 TPST (Triangles Processed in Average per Simulation Timestep)
48.6681 PPST (Clusters Processed in Average per Simulation Timestep)
4.16006 MTPS (Million Triangles per Second)
-4.16006 MTPSPT (Million Triangles per Second per Thread)
1.98018 EDMBPT (ElementData Megabyte per Timestep (RW))
126.955 EDMBPS (ElementData Megabyte per Second (RW))
SUM CLIENT SHUTDOWN HINT: 2627.9
SUM CLIENT SHUTDOWN HINT DIV TIME: 0
12312: CHANGING RESSOURCES
12304: CHANGING RESSOURCES

 + Terminating after 1000 timesteps with equal number of triangles -> EXIT
 + Final timestep: 6749

6750 TS (Timesteps)
715.114 ST (SIMULATION_TIME)
0.100037 TSS (Timestep size)
107.148 SFS (Overall seconds for Simulation)
437983904 TP (Triangles processed)
0.0158737 ASPT (Averaged Seconds per Timestep)
64886.5 TPST (Triangles Processed in Average per Simulation Timestep)
48.6681 PPST (Clusters Processed in Average per Simulation Timestep)
4.08767 MTPS (Million Triangles per Second)
-4.08767 MTPSPT (Million Triangles per Second per Thread)
1.98018 EDMBPT (ElementData Megabyte per Timestep (RW))
124.746 EDMBPS (ElementData Megabyte per Second (RW))
SUM CLIENT SHUTDOWN HINT: 3065.89
SUM CLIENT SHUTDOWN HINT DIV TIME: 0
12299: CHANGING RESSOURCES
12306: CHANGING RESSOURCES

 + Terminating after 1000 timesteps with equal number of triangles -> EXIT
 + Final timestep: 6749

6750 TS (Timesteps)
715.114 ST (SIMULATION_TIME)
0.100037 TSS (Timestep size)
107.322 SFS (Overall seconds for Simulation)
437983904 TP (Triangles processed)
0.0158995 ASPT (Averaged Seconds per Timestep)
64886.5 TPST (Triangles Processed in Average per Simulation Timestep)
48.6681 PPST (Clusters Processed in Average per Simulation Timestep)
4.08103 MTPS (Million Triangles per Second)
-4.08103 MTPSPT (Million Triangles per Second per Thread)
1.98018 EDMBPT (ElementData Megabyte per Timestep (RW))
124.543 EDMBPS (ElementData Megabyte per Second (RW))
SUM CLIENT SHUTDOWN HINT: 3503.87
SUM CLIENT SHUTDOWN HINT DIV TIME: 0
12326: CHANGING RESSOURCES
12296: CHANGING RESSOURCES

 + Terminating after 1000 timesteps with equal number of triangles -> EXIT
 + Final timestep: 6749

6750 TS (Timesteps)
715.114 ST (SIMULATION_TIME)
0.100037 TSS (Timestep size)
110.037 SFS (Overall seconds for Simulation)
437983904 TP (Triangles processed)
0.0163018 ASPT (Averaged Seconds per Timestep)
64886.5 TPST (Triangles Processed in Average per Simulation Timestep)
48.6681 PPST (Clusters Processed in Average per Simulation Timestep)
3.98033 MTPS (Million Triangles per Second)
-3.98033 MTPSPT (Million Triangles per Second per Thread)
1.98018 EDMBPT (ElementData Megabyte per Timestep (RW))
121.47 EDMBPS (ElementData Megabyte per Second (RW))
SUM CLIENT SHUTDOWN HINT: 3941.86
SUM CLIENT SHUTDOWN HINT DIV TIME: 0
12323: CHANGING RESSOURCES
12319: CHANGING RESSOURCES

 + Terminating after 1000 timesteps with equal number of triangles -> EXIT
 + Final timestep: 6749

6750 TS (Timesteps)
715.114 ST (SIMULATION_TIME)
0.100037 TSS (Timestep size)
111.136 SFS (Overall seconds for Simulation)
437983904 TP (Triangles processed)
0.0164646 ASPT (Averaged Seconds per Timestep)
64886.5 TPST (Triangles Processed in Average per Simulation Timestep)
48.6681 PPST (Clusters Processed in Average per Simulation Timestep)
3.94097 MTPS (Million Triangles per Second)
-3.94097 MTPSPT (Million Triangles per Second per Thread)
1.98018 EDMBPT (ElementData Megabyte per Timestep (RW))
120.269 EDMBPS (ElementData Megabyte per Second (RW))
SUM CLIENT SHUTDOWN HINT: 4379.84
SUM CLIENT SHUTDOWN HINT DIV TIME: 0
12308: CHANGING RESSOURCES
12310: CHANGING RESSOURCES

 + Terminating after 1000 timesteps with equal number of triangles -> EXIT
 + Final timestep: 6749

6750 TS (Timesteps)
715.114 ST (SIMULATION_TIME)
0.100037 TSS (Timestep size)
111.291 SFS (Overall seconds for Simulation)
437983904 TP (Triangles processed)
0.0164876 ASPT (Averaged Seconds per Timestep)
64886.5 TPST (Triangles Processed in Average per Simulation Timestep)
48.6681 PPST (Clusters Processed in Average per Simulation Timestep)
3.93547 MTPS (Million Triangles per Second)
-3.93547 MTPSPT (Million Triangles per Second per Thread)
1.98018 EDMBPT (ElementData Megabyte per Timestep (RW))
120.101 EDMBPS (ElementData Megabyte per Second (RW))
SUM CLIENT SHUTDOWN HINT: 4817.82
SUM CLIENT SHUTDOWN HINT DIV TIME: 0
12318: CHANGING RESSOURCES
12329: CHANGING RESSOURCES

 + Terminating after 1000 timesteps with equal number of triangles -> EXIT
 + Final timestep: 6749

6750 TS (Timesteps)
715.114 ST (SIMULATION_TIME)
0.100037 TSS (Timestep size)
111.708 SFS (Overall seconds for Simulation)
437983904 TP (Triangles processed)
0.0165493 ASPT (Averaged Seconds per Timestep)
64886.5 TPST (Triangles Processed in Average per Simulation Timestep)
48.6681 PPST (Clusters Processed in Average per Simulation Timestep)
3.9208 MTPS (Million Triangles per Second)
-3.9208 MTPSPT (Million Triangles per Second per Thread)
1.98018 EDMBPT (ElementData Megabyte per Timestep (RW))
119.653 EDMBPS (ElementData Megabyte per Second (RW))
SUM CLIENT SHUTDOWN HINT: 5255.81
SUM CLIENT SHUTDOWN HINT DIV TIME: 0
12303: CHANGING RESSOURCES
12317: CHANGING RESSOURCES

 + Terminating after 1000 timesteps with equal number of triangles -> EXIT
 + Final timestep: 6749

6750 TS (Timesteps)
715.114 ST (SIMULATION_TIME)
0.100037 TSS (Timestep size)
112.186 SFS (Overall seconds for Simulation)
437983904 TP (Triangles processed)
0.0166202 ASPT (Averaged Seconds per Timestep)
64886.5 TPST (Triangles Processed in Average per Simulation Timestep)
48.6681 PPST (Clusters Processed in Average per Simulation Timestep)
3.90407 MTPS (Million Triangles per Second)
-3.90407 MTPSPT (Million Triangles per Second per Thread)
1.98018 EDMBPT (ElementData Megabyte per Timestep (RW))
119.143 EDMBPS (ElementData Megabyte per Second (RW))
SUM CLIENT SHUTDOWN HINT: 5693.79
SUM CLIENT SHUTDOWN HINT DIV TIME: 0
12305: CHANGING RESSOURCES
12328: CHANGING RESSOURCES

 + Terminating after 1000 timesteps with equal number of triangles -> EXIT
 + Final timestep: 6749

6750 TS (Timesteps)
715.114 ST (SIMULATION_TIME)
0.100037 TSS (Timestep size)
112.638 SFS (Overall seconds for Simulation)
437983904 TP (Triangles processed)
0.0166872 ASPT (Averaged Seconds per Timestep)
64886.5 TPST (Triangles Processed in Average per Simulation Timestep)
48.6681 PPST (Clusters Processed in Average per Simulation Timestep)
3.88841 MTPS (Million Triangles per Second)
-3.88841 MTPSPT (Million Triangles per Second per Thread)
1.98018 EDMBPT (ElementData Megabyte per Timestep (RW))
118.665 EDMBPS (ElementData Megabyte per Second (RW))
SUM CLIENT SHUTDOWN HINT: 6131.77
SUM CLIENT SHUTDOWN HINT DIV TIME: 0
12300: CHANGING RESSOURCES
12322: CHANGING RESSOURCES

 + Terminating after 1000 timesteps with equal number of triangles -> EXIT
 + Final timestep: 6749

6750 TS (Timesteps)
715.114 ST (SIMULATION_TIME)
0.100037 TSS (Timestep size)
112.994 SFS (Overall seconds for Simulation)
437983904 TP (Triangles processed)
0.0167398 ASPT (Averaged Seconds per Timestep)
64886.5 TPST (Triangles Processed in Average per Simulation Timestep)
48.6681 PPST (Clusters Processed in Average per Simulation Timestep)
3.87617 MTPS (Million Triangles per Second)
-3.87617 MTPSPT (Million Triangles per Second per Thread)
1.98018 EDMBPT (ElementData Megabyte per Timestep (RW))
118.291 EDMBPS (ElementData Megabyte per Second (RW))
SUM CLIENT SHUTDOWN HINT: 6569.76
SUM CLIENT SHUTDOWN HINT DIV TIME: 0
12314: CHANGING RESSOURCES
12327: CHANGING RESSOURCES

 + Terminating after 1000 timesteps with equal number of triangles -> EXIT
 + Final timestep: 6749

6750 TS (Timesteps)
715.114 ST (SIMULATION_TIME)
0.100037 TSS (Timestep size)
121.321 SFS (Overall seconds for Simulation)
437983904 TP (Triangles processed)
0.0179734 ASPT (Averaged Seconds per Timestep)
64886.5 TPST (Triangles Processed in Average per Simulation Timestep)
48.6681 PPST (Clusters Processed in Average per Simulation Timestep)
3.61014 MTPS (Million Triangles per Second)
-3.61014 MTPSPT (Million Triangles per Second per Thread)
1.98018 EDMBPT (ElementData Megabyte per Timestep (RW))
110.173 EDMBPS (ElementData Megabyte per Second (RW))
SUM CLIENT SHUTDOWN HINT: 7007.74
SUM CLIENT SHUTDOWN HINT DIV TIME: 0
12308: CHANGING RESSOURCES
12323: CHANGING RESSOURCES

 + Terminating after 1000 timesteps with equal number of triangles -> EXIT
 + Final timestep: 6749

6750 TS (Timesteps)
715.114 ST (SIMULATION_TIME)
0.100037 TSS (Timestep size)
122.083 SFS (Overall seconds for Simulation)
437983904 TP (Triangles processed)
0.0180863 ASPT (Averaged Seconds per Timestep)
64886.5 TPST (Triangles Processed in Average per Simulation Timestep)
48.6681 PPST (Clusters Processed in Average per Simulation Timestep)
3.5876 MTPS (Million Triangles per Second)
-3.5876 MTPSPT (Million Triangles per Second per Thread)
1.98018 EDMBPT (ElementData Megabyte per Timestep (RW))
109.485 EDMBPS (ElementData Megabyte per Second (RW))
SUM CLIENT SHUTDOWN HINT: 7445.73
SUM CLIENT SHUTDOWN HINT DIV TIME: 0
12323: CHANGING RESSOURCES
12318: CHANGING RESSOURCES
12310: CHANGING RESSOURCES
12329: CHANGING RESSOURCES

 + Terminating after 1000 timesteps with equal number of triangles -> EXIT
 + Final timestep: 6749

6750 TS (Timesteps)
715.114 ST (SIMULATION_TIME)
0.100037 TSS (Timestep size)
122.397 SFS (Overall seconds for Simulation)
437983904 TP (Triangles processed)
0.0181329 ASPT (Averaged Seconds per Timestep)
64886.5 TPST (Triangles Processed in Average per Simulation Timestep)
48.6681 PPST (Clusters Processed in Average per Simulation Timestep)
3.57838 MTPS (Million Triangles per Second)
-3.57838 MTPSPT (Million Triangles per Second per Thread)
1.98018 EDMBPT (ElementData Megabyte per Timestep (RW))
109.203 EDMBPS (ElementData Megabyte per Second (RW))
SUM CLIENT SHUTDOWN HINT: 7883.71
SUM CLIENT SHUTDOWN HINT DIV TIME: 0
12303: CHANGING RESSOURCES

 + Terminating after 1000 timesteps with equal number of triangles -> EXIT
 + Final timestep: 6749

6750 TS (Timesteps)
715.114 ST (SIMULATION_TIME)
0.100037 TSS (Timestep size)
122.698 SFS (Overall seconds for Simulation)
437983904 TP (Triangles processed)
0.0181775 ASPT (Averaged Seconds per Timestep)
64886.5 TPST (Triangles Processed in Average per Simulation Timestep)
48.6681 PPST (Clusters Processed in Average per Simulation Timestep)
3.5696 MTPS (Million Triangles per Second)
-3.5696 MTPSPT (Million Triangles per Second per Thread)
1.98018 EDMBPT (ElementData Megabyte per Timestep (RW))
108.936 EDMBPS (ElementData Megabyte per Second (RW))
SUM CLIENT SHUTDOWN HINT: 8321.69
SUM CLIENT SHUTDOWN HINT DIV TIME: 0
12305: CHANGING RESSOURCES
12328: CHANGING RESSOURCES
12322: CHANGING RESSOURCES
12327: CHANGING RESSOURCES
12317: CHANGING RESSOURCES

 + Terminating after 1000 timesteps with equal number of triangles -> EXIT
 + Final timestep: 6749

6750 TS (Timesteps)
715.114 ST (SIMULATION_TIME)
0.100037 TSS (Timestep size)
122.995 SFS (Overall seconds for Simulation)
437983904 TP (Triangles processed)
0.0182215 ASPT (Averaged Seconds per Timestep)
64886.5 TPST (Triangles Processed in Average per Simulation Timestep)
48.6681 PPST (Clusters Processed in Average per Simulation Timestep)
3.56098 MTPS (Million Triangles per Second)
-3.56098 MTPSPT (Million Triangles per Second per Thread)
1.98018 EDMBPT (ElementData Megabyte per Timestep (RW))
108.673 EDMBPS (ElementData Megabyte per Second (RW))
SUM CLIENT SHUTDOWN HINT: 8759.68
SUM CLIENT SHUTDOWN HINT DIV TIME: 0
12312: CHANGING RESSOURCES
12328: CHANGING RESSOURCES
12299: CHANGING RESSOURCES
12305: CHANGING RESSOURCES
12314: CHANGING RESSOURCES

 + Terminating after 1000 timesteps with equal number of triangles -> EXIT
 + Final timestep: 6749

6750 TS (Timesteps)
715.114 ST (SIMULATION_TIME)
0.100037 TSS (Timestep size)
123.361 SFS (Overall seconds for Simulation)
437983904 TP (Triangles processed)
0.0182757 ASPT (Averaged Seconds per Timestep)
64886.5 TPST (Triangles Processed in Average per Simulation Timestep)
48.6681 PPST (Clusters Processed in Average per Simulation Timestep)
3.55043 MTPS (Million Triangles per Second)
-3.55043 MTPSPT (Million Triangles per Second per Thread)
1.98018 EDMBPT (ElementData Megabyte per Timestep (RW))
108.351 EDMBPS (ElementData Megabyte per Second (RW))
SUM CLIENT SHUTDOWN HINT: 9197.66
SUM CLIENT SHUTDOWN HINT DIV TIME: 0
12296: CHANGING RESSOURCES
12326: CHANGING RESSOURCES

 + Terminating after 1000 timesteps with equal number of triangles -> EXIT
 + Final timestep: 6749

6750 TS (Timesteps)
715.114 ST (SIMULATION_TIME)
0.100037 TSS (Timestep size)
123.401 SFS (Overall seconds for Simulation)
437983904 TP (Triangles processed)
0.0182817 ASPT (Averaged Seconds per Timestep)
64886.5 TPST (Triangles Processed in Average per Simulation Timestep)
48.6681 PPST (Clusters Processed in Average per Simulation Timestep)
3.54926 MTPS (Million Triangles per Second)
-3.54926 MTPSPT (Million Triangles per Second per Thread)
1.98018 EDMBPT (ElementData Megabyte per Timestep (RW))
108.315 EDMBPS (ElementData Megabyte per Second (RW))
SUM CLIENT SHUTDOWN HINT: 9635.65
SUM CLIENT SHUTDOWN HINT DIV TIME: 0
12323: CHANGING RESSOURCES
12308: CHANGING RESSOURCES

 + Terminating after 1000 timesteps with equal number of triangles -> EXIT
 + Final timestep: 6749

6750 TS (Timesteps)
715.114 ST (SIMULATION_TIME)
0.100037 TSS (Timestep size)
123.448 SFS (Overall seconds for Simulation)
437983904 TP (Triangles processed)
0.0182886 ASPT (Averaged Seconds per Timestep)
64886.5 TPST (Triangles Processed in Average per Simulation Timestep)
48.6681 PPST (Clusters Processed in Average per Simulation Timestep)
3.54792 MTPS (Million Triangles per Second)
-3.54792 MTPSPT (Million Triangles per Second per Thread)
1.98018 EDMBPT (ElementData Megabyte per Timestep (RW))
108.274 EDMBPS (ElementData Megabyte per Second (RW))
SUM CLIENT SHUTDOWN HINT: 10073.6
SUM CLIENT SHUTDOWN HINT DIV TIME: 0
12312: CHANGING RESSOURCES
12314: CHANGING RESSOURCES

 + Terminating after 1000 timesteps with equal number of triangles -> EXIT
 + Final timestep: 6749

6750 TS (Timesteps)
715.114 ST (SIMULATION_TIME)
0.100037 TSS (Timestep size)
123.598 SFS (Overall seconds for Simulation)
437983904 TP (Triangles processed)
0.0183108 ASPT (Averaged Seconds per Timestep)
64886.5 TPST (Triangles Processed in Average per Simulation Timestep)
48.6681 PPST (Clusters Processed in Average per Simulation Timestep)
3.54362 MTPS (Million Triangles per Second)
-3.54362 MTPSPT (Million Triangles per Second per Thread)
1.98018 EDMBPT (ElementData Megabyte per Timestep (RW))
108.143 EDMBPS (ElementData Megabyte per Second (RW))
SUM CLIENT SHUTDOWN HINT: 10511.6
SUM CLIENT SHUTDOWN HINT DIV TIME: 0
12299: CHANGING RESSOURCES
12327: CHANGING RESSOURCES
12326: CHANGING RESSOURCES

 + Terminating after 1000 timesteps with equal number of triangles -> EXIT
 + Final timestep: 6749

6750 TS (Timesteps)
715.114 ST (SIMULATION_TIME)
0.100037 TSS (Timestep size)
124.12 SFS (Overall seconds for Simulation)
437983904 TP (Triangles processed)
0.0183881 ASPT (Averaged Seconds per Timestep)
64886.5 TPST (Triangles Processed in Average per Simulation Timestep)
48.6681 PPST (Clusters Processed in Average per Simulation Timestep)
3.52873 MTPS (Million Triangles per Second)
-3.52873 MTPSPT (Million Triangles per Second per Thread)
1.98018 EDMBPT (ElementData Megabyte per Timestep (RW))
107.688 EDMBPS (ElementData Megabyte per Second (RW))
SUM CLIENT SHUTDOWN HINT: 10949.6
SUM CLIENT SHUTDOWN HINT DIV TIME: 0
12318: CHANGING RESSOURCES
12327: CHANGING RESSOURCES
12317: CHANGING RESSOURCES

 + Terminating after 1000 timesteps with equal number of triangles -> EXIT
 + Final timestep: 6749

6750 TS (Timesteps)
715.114 ST (SIMULATION_TIME)
0.100037 TSS (Timestep size)
124.129 SFS (Overall seconds for Simulation)
437983904 TP (Triangles processed)
0.0183894 ASPT (Averaged Seconds per Timestep)
64886.5 TPST (Triangles Processed in Average per Simulation Timestep)
48.6681 PPST (Clusters Processed in Average per Simulation Timestep)
3.52846 MTPS (Million Triangles per Second)
-3.52846 MTPSPT (Million Triangles per Second per Thread)
1.98018 EDMBPT (ElementData Megabyte per Timestep (RW))
107.68 EDMBPS (ElementData Megabyte per Second (RW))
SUM CLIENT SHUTDOWN HINT: 11387.6
SUM CLIENT SHUTDOWN HINT DIV TIME: 0
12296: CHANGING RESSOURCES
12326: CHANGING RESSOURCES

 + Terminating after 1000 timesteps with equal number of triangles -> EXIT
 + Final timestep: 6749

6750 TS (Timesteps)
715.114 ST (SIMULATION_TIME)
0.100037 TSS (Timestep size)
124.145 SFS (Overall seconds for Simulation)
437983904 TP (Triangles processed)
0.0183918 ASPT (Averaged Seconds per Timestep)
64886.5 TPST (Triangles Processed in Average per Simulation Timestep)
48.6681 PPST (Clusters Processed in Average per Simulation Timestep)
3.528 MTPS (Million Triangles per Second)
-3.528 MTPSPT (Million Triangles per Second per Thread)
1.98018 EDMBPT (ElementData Megabyte per Timestep (RW))
107.666 EDMBPS (ElementData Megabyte per Second (RW))
SUM CLIENT SHUTDOWN HINT: 11825.6
SUM CLIENT SHUTDOWN HINT DIV TIME: 0
12327: CHANGING RESSOURCES
12329: CHANGING RESSOURCES
12317: CHANGING RESSOURCES

 + Terminating after 1000 timesteps with equal number of triangles -> EXIT
 + Final timestep: 6749

6750 TS (Timesteps)
715.114 ST (SIMULATION_TIME)
0.100037 TSS (Timestep size)
124.218 SFS (Overall seconds for Simulation)
437983904 TP (Triangles processed)
0.0184026 ASPT (Averaged Seconds per Timestep)
64886.5 TPST (Triangles Processed in Average per Simulation Timestep)
48.6681 PPST (Clusters Processed in Average per Simulation Timestep)
3.52594 MTPS (Million Triangles per Second)
-3.52594 MTPSPT (Million Triangles per Second per Thread)
1.98018 EDMBPT (ElementData Megabyte per Timestep (RW))
107.603 EDMBPS (ElementData Megabyte per Second (RW))
SUM CLIENT SHUTDOWN HINT: 12263.5
SUM CLIENT SHUTDOWN HINT DIV TIME: 0
12329: CHANGING RESSOURCES
12296: CHANGING RESSOURCES
12326: CHANGING RESSOURCES
12317: CHANGING RESSOURCES

 + Terminating after 1000 timesteps with equal number of triangles -> EXIT
 + Final timestep: 6749

6750 TS (Timesteps)
715.114 ST (SIMULATION_TIME)
0.100037 TSS (Timestep size)
124.366 SFS (Overall seconds for Simulation)
437983904 TP (Triangles processed)
0.0184246 ASPT (Averaged Seconds per Timestep)
64886.5 TPST (Triangles Processed in Average per Simulation Timestep)
48.6681 PPST (Clusters Processed in Average per Simulation Timestep)
3.52174 MTPS (Million Triangles per Second)
-3.52174 MTPSPT (Million Triangles per Second per Thread)
1.98018 EDMBPT (ElementData Megabyte per Timestep (RW))
107.475 EDMBPS (ElementData Megabyte per Second (RW))
SUM CLIENT SHUTDOWN HINT: 12701.5
SUM CLIENT SHUTDOWN HINT DIV TIME: 0
12317: CHANGING RESSOURCES
12326: CHANGING RESSOURCES
12314: CHANGING RESSOURCES

 + Terminating after 1000 timesteps with equal number of triangles -> EXIT
 + Final timestep: 6749

6750 TS (Timesteps)
715.114 ST (SIMULATION_TIME)
0.100037 TSS (Timestep size)
124.375 SFS (Overall seconds for Simulation)
437983904 TP (Triangles processed)
0.0184259 ASPT (Averaged Seconds per Timestep)
64886.5 TPST (Triangles Processed in Average per Simulation Timestep)
48.6681 PPST (Clusters Processed in Average per Simulation Timestep)
3.52149 MTPS (Million Triangles per Second)
-3.52149 MTPSPT (Million Triangles per Second per Thread)
1.98018 EDMBPT (ElementData Megabyte per Timestep (RW))
107.467 EDMBPS (ElementData Megabyte per Second (RW))
SUM CLIENT SHUTDOWN HINT: 13139.5
SUM CLIENT SHUTDOWN HINT DIV TIME: 0
12323: CHANGING RESSOURCES
12327: CHANGING RESSOURCES
12317: CHANGING RESSOURCES
12314: CHANGING RESSOURCES
Waiting for job 12297
Waiting for job 12298
Waiting for job 12299
Waiting for job 12300
Waiting for job 12301
Waiting for job 12302
Waiting for job 12303
Waiting for job 12304
Waiting for job 12305
Waiting for job 12306
Waiting for job 12307
Waiting for job 12308
Waiting for job 12309
Waiting for job 12310
Waiting for job 12311
Waiting for job 12312
Waiting for job 12313
Waiting for job 12314

 + Terminating after 1000 timesteps with equal number of triangles -> EXIT
 + Final timestep: 6749

6750 TS (Timesteps)
715.114 ST (SIMULATION_TIME)
0.100037 TSS (Timestep size)
124.711 SFS (Overall seconds for Simulation)
437983904 TP (Triangles processed)
0.0184758 ASPT (Averaged Seconds per Timestep)
64886.5 TPST (Triangles Processed in Average per Simulation Timestep)
48.6681 PPST (Clusters Processed in Average per Simulation Timestep)
3.51198 MTPS (Million Triangles per Second)
-3.51198 MTPSPT (Million Triangles per Second per Thread)
1.98018 EDMBPT (ElementData Megabyte per Timestep (RW))
107.177 EDMBPS (ElementData Megabyte per Second (RW))
SUM CLIENT SHUTDOWN HINT: 13577.5
SUM CLIENT SHUTDOWN HINT DIV TIME: 0
12317: CHANGING RESSOURCES
12314: CHANGING RESSOURCES

 + Terminating after 1000 timesteps with equal number of triangles -> EXIT
 + Final timestep: 6749

6750 TS (Timesteps)
715.114 ST (SIMULATION_TIME)
0.100037 TSS (Timestep size)
124.907 SFS (Overall seconds for Simulation)
437983904 TP (Triangles processed)
0.0185048 ASPT (Averaged Seconds per Timestep)
64886.5 TPST (Triangles Processed in Average per Simulation Timestep)
48.6681 PPST (Clusters Processed in Average per Simulation Timestep)
3.50647 MTPS (Million Triangles per Second)
-3.50647 MTPSPT (Million Triangles per Second per Thread)
1.98018 EDMBPT (ElementData Megabyte per Timestep (RW))
107.009 EDMBPS (ElementData Megabyte per Second (RW))
SUM CLIENT SHUTDOWN HINT: 14015.5
SUM CLIENT SHUTDOWN HINT DIV TIME: 0
12314: CHANGING RESSOURCES
12317: CHANGING RESSOURCES

 + Terminating after 1000 timesteps with equal number of triangles -> EXIT
 + Final timestep: 6749

6750 TS (Timesteps)
715.114 ST (SIMULATION_TIME)
0.100037 TSS (Timestep size)
125.353 SFS (Overall seconds for Simulation)
437983904 TP (Triangles processed)
0.0185708 ASPT (Averaged Seconds per Timestep)
64886.5 TPST (Triangles Processed in Average per Simulation Timestep)
48.6681 PPST (Clusters Processed in Average per Simulation Timestep)
3.49401 MTPS (Million Triangles per Second)
-3.49401 MTPSPT (Million Triangles per Second per Thread)
1.98018 EDMBPT (ElementData Megabyte per Timestep (RW))
106.629 EDMBPS (ElementData Megabyte per Second (RW))
SUM CLIENT SHUTDOWN HINT: 14453.5
SUM CLIENT SHUTDOWN HINT DIV TIME: 0
12314: CHANGING RESSOURCES
12317: CHANGING RESSOURCES

 + Terminating after 1000 timesteps with equal number of triangles -> EXIT
 + Final timestep: 6749

6750 TS (Timesteps)
715.114 ST (SIMULATION_TIME)
0.100037 TSS (Timestep size)
127.045 SFS (Overall seconds for Simulation)
437983904 TP (Triangles processed)
0.0188214 ASPT (Averaged Seconds per Timestep)
64886.5 TPST (Triangles Processed in Average per Simulation Timestep)
48.6681 PPST (Clusters Processed in Average per Simulation Timestep)
3.44748 MTPS (Million Triangles per Second)
-3.44748 MTPSPT (Million Triangles per Second per Thread)
1.98018 EDMBPT (ElementData Megabyte per Timestep (RW))
105.209 EDMBPS (ElementData Megabyte per Second (RW))
SUM CLIENT SHUTDOWN HINT: 14891.5
SUM CLIENT SHUTDOWN HINT DIV TIME: 0
12314: CHANGING RESSOURCES

 + Terminating after 1000 timesteps with equal number of triangles -> EXIT
 + Final timestep: 6749

6750 TS (Timesteps)
715.114 ST (SIMULATION_TIME)
0.100037 TSS (Timestep size)
127.508 SFS (Overall seconds for Simulation)
437983904 TP (Triangles processed)
0.01889 ASPT (Averaged Seconds per Timestep)
64886.5 TPST (Triangles Processed in Average per Simulation Timestep)
48.6681 PPST (Clusters Processed in Average per Simulation Timestep)
3.43496 MTPS (Million Triangles per Second)
-3.43496 MTPSPT (Million Triangles per Second per Thread)
1.98018 EDMBPT (ElementData Megabyte per Timestep (RW))
104.827 EDMBPS (ElementData Megabyte per Second (RW))
SUM CLIENT SHUTDOWN HINT: 15329.4
SUM CLIENT SHUTDOWN HINT DIV TIME: 120.589
Waiting for job 12315
Waiting for job 12316
Waiting for job 12317
Waiting for job 12318
Waiting for job 12319
Waiting for job 12320
Waiting for job 12321
Waiting for job 12322
Waiting for job 12323
Waiting for job 12324
Waiting for job 12325
Waiting for job 12326
Waiting for job 12327
Waiting for job 12328
Waiting for job 12329
Waiting for job 12330
Sat Mar 31 16:01:10 CEST 2012
Seconds: 128
