CPUS:  1 2 3 4 5 6 7 8 9 10 11 12
Problem size with different number of CPUs using function optimization

THREADS	INITIAL_DEPTH	MTPS	SPEEDUP_PER	TIMESTEPS	TIMESTEP_SIZE	AVERAGE_TRIANGLES	AVERAGE_PARTITIONS
1	12	4.3768	1.0000	12753	0.278857	66293.4	48.4983
2	12	8.52427	.9738	12753	0.278857	66293.4	48.4983
3	12	11.6535	.8875	12753	0.278857	66293.4	48.4983
4	12	14.9489	.8538	12753	0.278857	66293.4	48.4983
5	12	18.0856	.8264	12753	0.278857	66293.4	48.4983
6	12	21.019	.8003	12753	0.278857	66293.4	48.4983
7	12	23.7744	.7759	12753	0.278857	66293.4	48.4983
8	12	26.296	.7510	12753	0.278857	66293.4	48.4983
9	12	28.6419	.7271	12753	0.278857	66293.4	48.4983
10	12	30.6947	.7013	12753	0.278857	66293.4	48.4983
11	12	32.9637	.6846	12753	0.278857	66293.4	48.4983
12	12	34.2232	.6516	12753	0.278857	66293.4	48.4983

THREADS	INITIAL_DEPTH	MTPS	SPEEDUP_PER	TIMESTEPS	TIMESTEP_SIZE	AVERAGE_TRIANGLES	AVERAGE_PARTITIONS
1	13	4.19176	1.0000	17919	0.197186	122848	64.1522
2	13	8.36116	.9973	17919	0.197186	122848	64.1522
3	13	11.6322	.9250	17919	0.197186	122848	64.1522
4	13	15.0318	.8965	17919	0.197186	122848	64.1522
5	13	18.2882	.8725	17919	0.197186	122848	64.1522
6	13	21.3027	.8470	17919	0.197186	122848	64.1522
7	13	24.2289	.8257	17919	0.197186	122848	64.1522
8	13	26.9293	.8030	17919	0.197186	122848	64.1522
9	13	29.244	.7751	17919	0.197186	122848	64.1522
10	13	31.4476	.7502	17919	0.197186	122848	64.1522
11	13	33.8092	.7332	17919	0.197186	122848	64.1522
12	13	35.3098	.7019	17919	0.197186	122848	64.1522

THREADS	INITIAL_DEPTH	MTPS	SPEEDUP_PER	TIMESTEPS	TIMESTEP_SIZE	AVERAGE_TRIANGLES	AVERAGE_PARTITIONS
1	14	4.29981	1.0000	25312	0.139428	238091	84.484
2	14	8.46253	.9840	25312	0.139428	238091	84.484
3	14	12.0948	.9376	25312	0.139428	238091	84.484
4	14	15.588	.9063	25312	0.139428	238091	84.484
5	14	19.0687	.8869	25312	0.139428	238091	84.484
6	14	22.0532	.8548	25312	0.139428	238091	84.484
7	14	24.8487	.8255	25312	0.139428	238091	84.484
8	14	27.3648	.7955	25312	0.139428	238091	84.484
9	14	29.5847	.7644	25312	0.139428	238091	84.484
10	14	31.5007	.7326	25312	0.139428	238091	84.484
11	14	33.5302	.7089	25312	0.139428	238091	84.484
12	14	35.1033	.6803	25312	0.139428	238091	84.484

THREADS	INITIAL_DEPTH	MTPS	SPEEDUP_PER	TIMESTEPS	TIMESTEP_SIZE	AVERAGE_TRIANGLES	AVERAGE_PARTITIONS
1	15	4.18314	1.0000	35594	0.0985922	454542	124.192
2	15	8.0659	.9640	35594	0.0985922	454542	124.192
3	15	11.8365	.9431	35594	0.0985922	454542	124.192
4	15	15.3012	.9144	35594	0.0985922	454542	124.192
5	15	18.6791	.8930	35594	0.0985922	454542	124.192
6	15	21.6011	.8606	35594	0.0985922	454542	124.192
7	15	24.1592	.8250	35594	0.0985922	454542	124.192
8	15	26.6262	.7956	35594	0.0985922	454542	124.192
9	15	28.8266	.7656	35594	0.0985922	454542	124.192
10	15	30.7775	.7357	35594	0.0985922	454542	124.192
11	15	34.514	.7500	35594	0.0985922	454542	124.192
12	15	33.8016	.6733	35594	0.0985922	454542	124.192

THREADS	INITIAL_DEPTH	MTPS	SPEEDUP_PER	TIMESTEPS	TIMESTEP_SIZE	AVERAGE_TRIANGLES	AVERAGE_PARTITIONS
1	16	4.34567	1.0000	50210	0.069714	844746	148.832
2	16	8.36768	.9627	50210	0.069714	844746	148.832
3	16	12.3723	.9490	50210	0.069714	844746	148.832
4	16	15.9307	.9164	50210	0.069714	844746	148.832
5	16	19.3542	.8907	50210	0.069714	844746	148.832
6	16	22.2139	.8519	50210	0.069714	844746	148.832
7	16	24.921	.8192	50210	0.069714	844746	148.832
8	16	27.2775	.7846	50210	0.069714	844746	148.832
9	16	31.3183	.8007	50210	0.069714	844746	148.832
10	16	30.9735	.7127	50210	0.069714	844746	148.832
11	16	32.5531	.6809	50210	0.069714	844746	148.832
12	16	34.3809	.6592	50210	0.069714	844746	148.832

THREADS	INITIAL_DEPTH	MTPS	SPEEDUP_PER	TIMESTEPS	TIMESTEP_SIZE	AVERAGE_TRIANGLES	AVERAGE_PARTITIONS
