Problem size with different number of CPUs using function optimization
THREADS	INITIAL_DEPTH	MTPS	SPEEDUP_PER	TIMESTEPS	TIMESTEP_SIZE	SECONDS_FOR_SIMULATION	AVERAGE_TRIANGLES	AVERAGE_PARTITIONS
1	18	4.21291	1.0000	100	0.00868123	52.4444	2.20944e+06	1414.92
2	19	8.26097	.9804	200	0.00613612	107.093	4.42346e+06	1465.52
4	20	16.1537	.9585	300	0.00433813	164.267	8.84503e+06	2304.07
8	21	28.7003	.8515	400	0.00306726	246.341	1.76752e+07	2962.55
12	22	39.5754	.7828	500	0.00216856	446.168	3.53146e+07	5139.91
