0	0
14.7745	0
29.5491	0
44.3236	0
59.0981	0
73.8727	0
88.6472	0
103.422	0
118.196	0
132.971	0
147.745	0
162.52	0
177.294	0
192.069	0
206.843	0
221.618	0
236.393	0
251.167	0
265.942	0
280.716	0
295.491	0
310.265	0
325.04	0
339.814	0
354.589	0
369.363	0
384.138	0
398.912	0
413.687	0
428.462	0
443.236	0
458.011	0
472.785	0
487.56	0
502.334	0
517.109	0
531.883	0
546.658	0
561.432	0
576.207	0
590.981	0
605.756	0
620.53	0
635.305	0
650.08	0
664.854	0
679.629	0
694.403	0
709.178	0
723.952	0
738.727	0
753.501	0
768.276	0
783.05	0
797.825	0
812.599	0
827.374	0
842.149	0
856.923	0
871.698	0
886.472	0
901.247	0
916.021	0
930.796	0
945.57	0
960.345	0
975.119	0
989.894	0
1004.67	0
1019.44	0
1034.22	0
1048.99	0
1063.77	0
1078.54	0
1093.32	0
1108.09	0
1122.86	0
1137.64	0
1152.41	0
1167.19	0
1181.96	0
1196.74	0
1211.51	0
1226.29	0
1241.06	0
1255.84	0
1270.61	0
1285.38	0
1300.16	0
1314.93	0
1329.71	0
1344.48	0
1359.26	0
1374.03	0
1388.81	0
1403.58	0
1418.36	0
1433.13	0
1447.9	0
1462.68	0
1477.45	0
1492.23	0
1507	0
1521.78	0
1536.55	0
1551.33	0
1566.1	0
1580.88	0
1595.65	0
1610.42	0
1625.2	0
1639.97	0
1654.75	0
1669.52	0
1684.3	0
1699.07	0
1713.85	0
1728.62	0
1743.4	0
1758.17	0
1772.94	0
1787.72	0
1802.49	0
1817.27	0
1832.04	0
1846.82	0
1861.59	0
1876.37	0
1891.14	0
1905.92	0
1920.69	0
1935.46	0
1950.24	0
1965.01	0
1979.79	0
1994.56	0
2009.34	0
2024.11	0
2038.89	0
2053.66	0
2068.43	0
2083.21	0
2097.98	0
2112.76	0
2127.53	0
2142.31	0
2157.08	0
2171.86	0
2186.63	0
2201.41	0
2216.18	0
2230.95	0
2245.73	0
2260.5	0
2275.28	0
2290.05	0
2304.83	0
2319.6	0
2334.38	0
2349.15	0
2363.93	0
2378.7	0
2393.47	0
2408.25	0
2423.02	0
2437.8	0
2452.57	0
2467.35	0
2482.12	0
2496.9	0
2511.67	0
2526.45	0
2541.22	0
2555.99	0
2570.77	0
2585.54	0
2600.32	0
2615.09	-9.09495e-13
2629.87	-9.09495e-13
2644.64	-9.09495e-13
2659.42	-1.81899e-12
2674.19	-4.54747e-12
2688.97	-7.27596e-12
2703.74	-1.27329e-11
2718.51	-2.27374e-11
2733.29	-3.91083e-11
2748.06	-6.63931e-11
2762.84	-1.10958e-10
2777.61	-1.81899e-10
2792.39	-2.94676e-10
2807.16	-4.72937e-10
2821.94	-7.51243e-10
2836.71	-1.17871e-09
2851.49	-1.8299e-09
2866.26	-2.81307e-09
2881.03	-4.28099e-09
2895.81	-6.45377e-09
2910.58	-9.63701e-09
2925.36	-1.42581e-08
2940.13	-2.09056e-08
2954.91	-3.03835e-08
2969.68	-4.37794e-08
2984.46	-6.25514e-08
2999.23	-8.86384e-08
3014	-1.24595e-07
3028.78	-1.73759e-07
3043.55	-2.40459e-07
3058.33	-3.30257e-07
3073.1	-4.50248e-07
3087.88	-6.09414e-07
3102.65	-8.1903e-07
3117.43	-1.09315e-06
3132.2	-1.44917e-06
3146.97	-1.90846e-06
3161.75	-2.49706e-06
3176.52	-3.24655e-06
3191.3	-4.19489e-06
3206.07	-5.38744e-06
3220.85	-6.87806e-06
3235.62	-8.73027e-06
3250.39	-1.10185e-05
3265.17	-1.38294e-05
3279.94	-1.72633e-05
3294.72	-2.14357e-05
3309.49	-2.64784e-05
3324.27	-3.25417e-05
3339.04	-3.97951e-05
3353.81	-4.84293e-05
3368.59	-5.86574e-05
3383.36	-7.07163e-05
3398.14	-8.48679e-05
3412.91	-0.0001014
3427.69	-0.000120627
3442.46	-0.000142892
3457.23	-0.000168566
3472.01	-0.000198046
3486.78	-0.000231758
3501.56	-0.000270158
3516.33	-0.000313725
3531.1	-0.000362964
3545.88	-0.000418404
3560.65	-0.000480593
3575.43	-0.000550098
3590.2	-0.000627499
3604.97	-0.000713387
3619.75	-0.000808355
3634.52	-0.000912996
3649.3	-0.00102789
3664.07	-0.00115362
3678.84	-0.00129071
3693.62	-0.00143967
3708.39	-0.00160096
3723.17	-0.00177497
3737.94	-0.00196204
3752.71	-0.0021624
3767.49	-0.00237615
3782.26	-0.00260331
3797.04	-0.00284372
3811.81	-0.00309703
3826.58	-0.00336274
3841.36	-0.00364008
3856.13	-0.00392805
3870.91	-0.00422534
3885.68	-0.00453035
3900.45	-0.0048411
3915.23	-0.00515524
3930	-0.00546999
3944.77	-0.0057821
3959.55	-0.00608785
3974.32	-0.00638295
3989.1	-0.00666256
4003.87	-0.00692125
4018.64	-0.00715296
4033.42	-0.00735094
4048.19	-0.00750781
4062.97	-0.00761546
4077.74	-0.00766511
4092.51	-0.00764724
4107.29	-0.00755166
4122.06	-0.00736748
4136.83	-0.00708315
4151.61	-0.00668649
4166.38	-0.00616476
4181.16	-0.00550467
4195.93	-0.0046925
4210.7	-0.00371416
4225.48	-0.00255527
4240.25	-0.0012013
4255.03	0.000362345
4269.8	0.00215016
4284.58	0.00417644
4299.35	0.0064551
4314.12	0.0089995
4328.9	0.0118223
4343.67	0.0149355
4358.45	0.0183496
4373.22	0.0220744
4388	0.0261179
4402.77	0.0304868
4417.54	0.035186
4432.32	0.0402184
4447.09	0.045585
4461.87	0.0512846
4476.64	0.0573135
4491.42	0.0636658
4506.19	0.070333
4520.97	0.077304
4535.74	0.084565
4550.51	0.0920997
4565.29	0.099889
4580.06	0.107911
4594.84	0.116142
4609.61	0.124554
4624.39	0.133119
4639.16	0.141805
4653.94	0.150578
4668.71	0.159402
4683.48	0.168241
4698.26	0.177054
4713.03	0.185801
4727.81	0.194441
4742.58	0.202932
4757.36	0.211231
4772.13	0.219294
4786.91	0.227079
4801.68	0.234544
4816.46	0.241645
4831.23	0.248342
4846	0.254596
4860.78	0.260369
4875.55	0.265623
4890.33	0.270325
4905.1	0.274444
4919.88	0.27795
4934.65	0.280816
4949.43	0.28302
4964.2	0.284542
4978.97	0.285365
4993.75	0.285475
5008.52	0.284863
5023.3	0.283524
5038.07	0.281455
5052.85	0.278658
5067.62	0.275138
5082.4	0.270905
5097.17	0.265971
5111.94	0.260352
5126.72	0.254069
5141.49	0.247144
5156.27	0.239606
5171.04	0.231482
5185.82	0.222806
5200.59	0.213612
5215.37	0.203939
5230.14	0.193827
5244.91	0.183316
5259.69	0.172452
5274.46	0.161278
5289.24	0.149842
5304.01	0.13819
5318.79	0.126371
5333.56	0.114432
5348.34	0.102422
5363.11	0.0903887
5377.89	0.0783792
5392.66	0.0664404
5407.43	0.0546178
5422.21	0.0429556
5436.98	0.0314964
5451.76	0.020281
5466.53	0.00934806
5481.31	-0.001266
5496.08	-0.0115272
5510.86	-0.0214042
5525.63	-0.0308684
5540.4	-0.0398943
5555.18	-0.0484591
5569.95	-0.0565434
5584.73	-0.0641308
5599.5	-0.0712082
5614.28	-0.0777656
5629.05	-0.0837962
5643.83	-0.0892966
5658.6	-0.094266
5673.38	-0.0987072
5688.15	-0.102625
5702.92	-0.106029
5717.7	-0.108929
5732.47	-0.111338
5747.25	-0.113272
5762.02	-0.114749
5776.8	-0.115788
5791.57	-0.116411
5806.35	-0.11664
5821.12	-0.1165
5835.89	-0.116015
5850.67	-0.115212
5865.44	-0.114117
5880.22	-0.112756
5894.99	-0.111157
5909.77	-0.109346
5924.54	-0.107351
5939.32	-0.105196
5954.09	-0.102909
5968.87	-0.100513
5983.64	-0.0980321
5998.41	-0.0954896
6013.19	-0.0929069
6027.96	-0.0903044
6042.74	-0.0877011
6057.51	-0.0851147
6072.29	-0.0825612
6087.06	-0.0800554
6101.84	-0.0776105
6116.61	-0.075238
6131.39	-0.0729482
6146.16	-0.0707497
6160.93	-0.0686498
6175.71	-0.0666544
6190.48	-0.0647679
6205.26	-0.0629937
6220.03	-0.0613337
6234.81	-0.0597889
6249.58	-0.0583591
6264.36	-0.0570431
6279.13	-0.0558391
6293.91	-0.0547442
6308.68	-0.053755
6323.45	-0.0528672
6338.23	-0.0520763
6353	-0.0513771
6367.78	-0.0507642
6382.55	-0.0502317
6397.33	-0.0497736
6412.1	-0.0493838
6426.88	-0.0490559
6441.65	-0.0487836
6456.42	-0.0485606
6471.2	-0.0483806
6485.97	-0.0482375
6500.75	-0.0481251
6515.52	-0.0480378
6530.3	-0.0479697
6545.07	-0.0479154
6559.85	-0.0478698
6574.62	-0.0478278
6589.4	-0.0477849
6604.17	-0.0477366
6618.94	-0.0476788
6633.72	-0.0476078
6648.49	-0.0475199
6663.27	-0.047412
6678.04	-0.0472812
6692.82	-0.0471249
6707.59	-0.0469406
6722.37	-0.0467263
6737.14	-0.0464803
6751.92	-0.046201
6766.69	-0.0458871
6781.46	-0.0455377
6796.24	-0.045152
6811.01	-0.0447295
6825.79	-0.04427
6840.56	-0.0437733
6855.34	-0.0432396
6870.11	-0.0426694
6884.89	-0.0420631
6899.66	-0.0414217
6914.44	-0.0407459
6929.21	-0.040037
6943.99	-0.0392962
6958.76	-0.038525
6973.53	-0.0377251
6988.31	-0.036898
7003.08	-0.0360459
7017.86	-0.0351705
7032.63	-0.0342742
7047.41	-0.033359
7062.18	-0.0324273
7076.96	-0.0314816
7091.73	-0.0305242
7106.51	-0.0295577
7121.28	-0.0285848
7136.05	-0.0276079
7150.83	-0.0266299
7165.6	-0.0256532
7180.38	-0.0246808
7195.15	-0.0237151
7209.93	-0.0227589
7224.7	-0.0218147
7239.48	-0.0208853
7254.25	-0.019973
7269.02	-0.0190804
7283.8	-0.0182099
7298.57	-0.0173639
7313.35	-0.0165444
7328.12	-0.0157537
7342.9	-0.0149939
7357.67	-0.0142666
7372.45	-0.0135739
7387.22	-0.0129172
7402	-0.0122982
7416.77	-0.011718
7431.54	-0.011178
7446.32	-0.0106792
7461.09	-0.0102225
7475.87	-0.00980858
7490.64	-0.00943798
7505.42	-0.00911111
7520.19	-0.00882819
7534.97	-0.00858927
7549.74	-0.00839423
7564.51	-0.00824278
7579.29	-0.00813448
7594.06	-0.00806871
7608.84	-0.0080447
7623.61	-0.00806154
7638.39	-0.00811815
7653.16	-0.00821332
7667.94	-0.00834569
7682.71	-0.00851379
7697.48	-0.008716
7712.26	-0.0089506
7727.03	-0.00921577
7741.81	-0.00950958
7756.58	-0.00983
7771.36	-0.0101749
7786.13	-0.0105422
7800.91	-0.0109296
7815.68	-0.0113348
7830.45	-0.0117555
7845.23	-0.0121893
7860	-0.0126339
7874.78	-0.0130867
7889.55	-0.0135456
7904.33	-0.0140079
7919.1	-0.0144714
7933.88	-0.0149337
7948.65	-0.0153925
7963.42	-0.0158455
7978.2	-0.0162904
7992.97	-0.0167251
8007.75	-0.0171475
8022.52	-0.0175555
8037.3	-0.0179472
8052.07	-0.0183207
8066.85	-0.0186742
8081.62	-0.019006
8096.39	-0.0193147
8111.17	-0.0195986
8125.94	-0.0198564
8140.72	-0.0200868
8155.49	-0.0202887
8170.27	-0.0204611
8185.04	-0.020603
8199.82	-0.0207136
8214.59	-0.0207923
8229.36	-0.0208384
8244.14	-0.0208515
8258.91	-0.0208313
8273.69	-0.0207775
8288.46	-0.0206901
8303.24	-0.020569
8318.01	-0.0204142
8332.79	-0.0202261
8347.56	-0.0200049
8362.33	-0.0197509
8377.11	-0.0194648
8391.88	-0.019147
8406.66	-0.0187983
8421.43	-0.0184193
8436.21	-0.0180109
8450.98	-0.0175739
8465.76	-0.0171094
8480.53	-0.0166183
8495.3	-0.0161017
8510.08	-0.0155608
8524.85	-0.0149966
8539.63	-0.0144105
8554.4	-0.0138037
8569.18	-0.0131775
8583.95	-0.0125332
8598.73	-0.0118721
8613.5	-0.0111956
8628.27	-0.0105052
8643.05	-0.00980225
8657.82	-0.00908811
8672.6	-0.00836424
8687.37	-0.00763207
8702.15	-0.00689302
8716.92	-0.00614852
8731.7	-0.00539998
8746.47	-0.00464881
8761.24	-0.00389641
8776.02	-0.00314415
8790.79	-0.00239338
8805.57	-0.00164545
8820.34	-0.000901671
8835.12	-0.000163325
8849.89	0.000568332
8864.67	0.00129207
8879.44	0.00200671
8894.22	0.00271108
8908.99	0.00340408
8923.76	0.00408463
8938.54	0.00475169
8953.31	0.00540427
8968.09	0.00604143
8982.86	0.00666228
8997.64	0.00726596
9012.41	0.00785167
9027.19	0.00841868
9041.96	0.00896628
9056.73	0.00949384
9071.51	0.0100008
9086.28	0.0104865
9101.06	0.0109507
9115.83	0.0113928
9130.61	0.0118124
9145.38	0.0122094
9160.16	0.0125834
9174.93	0.0129342
9189.7	0.0132617
9204.48	0.0135659
9219.25	0.0138466
9234.03	0.0141039
9248.8	0.0143379
9263.58	0.0145488
9278.35	0.0147366
9293.13	0.0149016
9307.9	0.0150441
9322.68	0.0151644
9337.45	0.0152628
9352.22	0.0153397
9367	0.0153956
9381.77	0.0154308
9396.55	0.0154459
9411.32	0.0154414
9426.1	0.0154178
9440.87	0.0153757
9455.65	0.0153156
9470.42	0.0152381
9485.19	0.0151439
9499.97	0.0150334
9514.74	0.0149074
9529.52	0.0147663
9544.29	0.0146109
9559.07	0.0144418
9573.84	0.0142594
9588.62	0.0140645
9603.39	0.0138575
9618.17	0.0136391
9632.94	0.0134097
9647.71	0.0131699
9662.49	0.0129202
9677.26	0.012661
9692.04	0.0123928
9706.81	0.012116
9721.59	0.011831
9736.36	0.0115382
9751.14	0.0112379
9765.91	0.0109304
9780.68	0.0106159
9795.46	0.0102949
9810.23	0.00996742
9825.01	0.00963372
9839.78	0.00929398
9854.56	0.00894835
9869.33	0.00859696
9884.11	0.0082399
9898.88	0.00787728
9913.66	0.00750916
9928.43	0.00713559
9943.2	0.00675662
9957.98	0.00637228
9972.75	0.00598257
9987.53	0.00558753
10002.3	0.00518715
10017.1	0.00478145
10031.9	0.00437043
10046.6	0.0039541
10061.4	0.00353247
10076.2	0.00310557
10090.9	0.00267342
10105.7	0.00223606
10120.5	0.00179355
10135.3	0.00134596
10150	0.000893357
10164.8	0.000435848
10179.6	-2.64526e-05
10194.4	-0.00049341
10209.1	-0.000964871
10223.9	-0.00144066
10238.7	-0.00192059
10253.5	-0.00240444
10268.2	-0.00289198
10283	-0.00338296
10297.8	-0.0038771
10312.6	-0.00437412
10327.3	-0.00487371
10342.1	-0.00537556
10356.9	-0.00587931
10371.7	-0.00638463
10386.4	-0.00689114
10401.2	-0.00739849
10416	-0.00790629
10430.8	-0.00841415
10445.5	-0.00892169
10460.3	-0.00942851
10475.1	-0.00993423
10489.9	-0.0104384
10504.6	-0.0109408
10519.4	-0.0114409
10534.2	-0.0119383
10549	-0.0124327
10563.7	-0.0129238
10578.5	-0.0134113
10593.3	-0.0138947
10608.1	-0.0143738
10622.8	-0.0148483
10637.6	-0.0153179
10652.4	-0.0157825
10667.2	-0.0162417
10681.9	-0.0166953
10696.7	-0.0171433
10711.5	-0.0175853
10726.3	-0.0180214
10741	-0.0184513
10755.8	-0.018875
10770.6	-0.0192924
10785.4	-0.0197035
10800.1	-0.0201083
10814.9	-0.0205067
10829.7	-0.0208987
10844.5	-0.0212845
10859.2	-0.021664
10874	-0.0220373
10888.8	-0.0224045
10903.5	-0.0227657
10918.3	-0.0231209
10933.1	-0.0234704
10947.9	-0.0238142
10962.6	-0.0241525
10977.4	-0.0244853
10992.2	-0.0248128
11007	-0.0251352
11021.7	-0.0254525
11036.5	-0.0257648
11051.3	-0.0260724
11066.1	-0.0263752
11080.8	-0.0266735
11095.6	-0.0269672
11110.4	-0.0272564
11125.2	-0.0275412
11139.9	-0.0278216
11154.7	-0.0280976
11169.5	-0.0283693
11184.3	-0.0286366
11199	-0.0288994
11213.8	-0.0291578
11228.6	-0.0294116
11243.4	-0.0296607
11258.1	-0.029905
11272.9	-0.0301443
11287.7	-0.0303784
11302.5	-0.0306073
11317.2	-0.0308305
11332	-0.0310479
11346.8	-0.0312593
11361.6	-0.0314643
11376.3	-0.0316626
11391.1	-0.031854
11405.9	-0.032038
11420.7	-0.0322143
11435.4	-0.0323826
11450.2	-0.0325425
11465	-0.0326935
11479.8	-0.0328354
11494.5	-0.0329676
11509.3	-0.0330897
11524.1	-0.0332013
11538.9	-0.0333021
11553.6	-0.0333915
11568.4	-0.0334691
11583.2	-0.0335346
11598	-0.0335875
11612.7	-0.0336273
11627.5	-0.0336537
11642.3	-0.0336663
11657	-0.0336647
11671.8	-0.0336485
11686.6	-0.0336174
11701.4	-0.0335709
11716.1	-0.0335088
11730.9	-0.0334308
11745.7	-0.0333365
11760.5	-0.0332257
11775.2	-0.0330981
11790	-0.0329536
11804.8	-0.0327918
11819.6	-0.0326126
11834.3	-0.0324158
11849.1	-0.0322012
11863.9	-0.0319688
11878.7	-0.0317185
11893.4	-0.0314501
11908.2	-0.0311636
11923	-0.030859
11937.8	-0.0305362
11952.5	-0.0301954
11967.3	-0.0298364
11982.1	-0.0294595
11996.9	-0.0290645
12011.6	-0.0286518
12026.4	-0.0282213
12041.2	-0.0277732
12056	-0.0273076
12070.7	-0.0268248
12085.5	-0.0263249
12100.3	-0.0258082
12115.1	-0.0252748
12129.8	-0.024725
12144.6	-0.024159
12159.4	-0.0235772
12174.2	-0.0229798
12188.9	-0.022367
12203.7	-0.0217393
12218.5	-0.0210968
12233.3	-0.02044
12248	-0.0197692
12262.8	-0.0190847
12277.6	-0.0183869
12292.4	-0.0176761
12307.1	-0.0169528
12321.9	-0.0162173
12336.7	-0.01547
12351.5	-0.0147113
12366.2	-0.0139416
12381	-0.0131613
12395.8	-0.012371
12410.6	-0.0115709
12425.3	-0.0107616
12440.1	-0.00994341
12454.9	-0.00911691
12469.6	-0.00828252
12484.4	-0.00744072
12499.2	-0.00659198
12514	-0.0057368
12528.7	-0.00487566
12543.5	-0.00400908
12558.3	-0.00313755
12573.1	-0.00226159
12587.8	-0.00138173
12602.6	-0.000498499
12617.4	0.00038757
12632.2	0.00127593
12646.9	0.00216605
12661.7	0.00305735
12676.5	0.00394929
12691.3	0.00484131
12706	0.00573283
12720.8	0.00662328
12735.6	0.00751209
12750.4	0.00839868
12765.1	0.00928248
12779.9	0.0101629
12794.7	0.0110394
12809.5	0.0119113
12824.2	0.0127781
12839	0.0136392
12853.8	0.014494
12868.6	0.015342
12883.3	0.0161826
12898.1	0.0170151
12912.9	0.0178392
12927.7	0.0186541
12942.4	0.0194593
12957.2	0.0202544
12972	0.0210387
12986.8	0.0218118
13001.5	0.0225731
13016.3	0.0233221
13031.1	0.0240583
13045.9	0.0247813
13060.6	0.0254905
13075.4	0.0261855
13090.2	0.0268659
13105	0.0275311
13119.7	0.0281808
13134.5	0.0288146
13149.3	0.029432
13164.1	0.0300327
13178.8	0.0306162
13193.6	0.0311823
13208.4	0.0317305
13223.1	0.0322605
13237.9	0.0327721
13252.7	0.0332648
13267.5	0.0337385
13282.2	0.0341927
13297	0.0346273
13311.8	0.0350419
13326.6	0.0354363
13341.3	0.0358104
13356.1	0.0361637
13370.9	0.0364962
13385.7	0.0368077
13400.4	0.0370978
13415.2	0.0373665
13430	0.0376136
13444.8	0.0378389
13459.5	0.0380422
13474.3	0.0382235
13489.1	0.0383825
13503.9	0.0385192
13518.6	0.0386333
13533.4	0.0387249
13548.2	0.0387938
13563	0.03884
13577.7	0.0388632
13592.5	0.0388635
13607.3	0.0388408
13622.1	0.038795
13636.8	0.0387261
13651.6	0.038634
13666.4	0.0385187
13681.2	0.0383801
13695.9	0.0382183
13710.7	0.0380332
13725.5	0.0378248
13740.3	0.0375931
13755	0.0373382
13769.8	0.0370601
13784.6	0.0367587
13799.4	0.0364342
13814.1	0.0360866
13828.9	0.0357159
13843.7	0.0353223
13858.5	0.0349058
13873.2	0.0344665
13888	0.0340046
13902.8	0.0335201
13917.6	0.0330132
13932.3	0.0324841
13947.1	0.0319329
13961.9	0.0313598
13976.7	0.0307649
13991.4	0.0301485
14006.2	0.0295109
14021	0.0288522
14035.7	0.0281727
14050.5	0.0274727
14065.3	0.0267524
14080.1	0.0260122
14094.8	0.0252525
14109.6	0.0244735
14124.4	0.0236756
14139.2	0.0228592
14153.9	0.0220248
14168.7	0.0211726
14183.5	0.0203033
14198.3	0.0194172
14213	0.0185149
14227.8	0.0175968
14242.6	0.0166635
14257.4	0.0157156
14272.1	0.0147536
14286.9	0.0137782
14301.7	0.0127899
14316.5	0.0117894
14331.2	0.0107775
14346	0.00975479
14360.8	0.008722
14375.6	0.0076799
14390.3	0.00662926
14405.1	0.00557087
14419.9	0.00450557
14434.7	0.00343419
14449.4	0.0023576
14464.2	0.0012767
14479	0.000192388
14493.8	-0.000894394
14508.5	-0.00198269
14523.3	-0.00307154
14538.1	-0.00415994
14552.9	-0.00524688
14567.6	-0.00633135
14582.4	-0.00741229
14597.2	-0.00848865
14612	-0.00955938
14626.7	-0.0106234
14641.5	-0.0116796
14656.3	-0.0127269
14671.1	-0.0137642
14685.8	-0.0147904
14700.6	-0.0158044
14715.4	-0.0168051
14730.2	-0.0177914
14744.9	-0.0187622
14759.7	-0.0197165
14774.5	-0.0206531
14789.2	-0.0215709
14804	-0.022469
14818.8	-0.0233463
14833.6	-0.0242019
14848.3	-0.0250346
14863.1	-0.0258436
14877.9	-0.026628
14892.7	-0.0273868
14907.4	-0.0281191
14922.2	-0.0288243
14937	-0.0295014
14951.8	-0.0301497
14966.5	-0.0307686
14981.3	-0.0313573
14996.1	-0.0319153
15010.9	-0.0324421
15025.6	-0.0329371
15040.4	-0.0333998
15055.2	-0.03383
15070	-0.0342273
15084.7	-0.0345914
15099.5	-0.0349221
15114.3	-0.0352192
15129.1	-0.0354828
15143.8	-0.0357128
15158.6	-0.0359091
15173.4	-0.0360721
15188.2	-0.0362017
15202.9	-0.0362984
15217.7	-0.0363623
15232.5	-0.0363939
15247.3	-0.0363937
15262	-0.036362
15276.8	-0.0362995
15291.6	-0.0362068
15306.4	-0.0360845
15321.1	-0.0359335
15335.9	-0.0357544
15350.7	-0.0355482
15365.5	-0.0353158
15380.2	-0.0350579
15395	-0.0347757
15409.8	-0.0344702
15424.6	-0.0341423
15439.3	-0.0337933
15454.1	-0.0334242
15468.9	-0.0330361
15483.7	-0.0326302
15498.4	-0.0322078
15513.2	-0.0317699
15528	-0.0313179
15542.8	-0.030853
15557.5	-0.0303763
15572.3	-0.0298891
15587.1	-0.0293926
15601.8	-0.0288881
15616.6	-0.0283767
15631.4	-0.0278596
15646.2	-0.0273381
15660.9	-0.0268131
15675.7	-0.026286
15690.5	-0.0257576
15705.3	-0.0252293
15720	-0.0247018
15734.8	-0.0241763
15749.6	-0.0236537
15764.4	-0.0231349
15779.1	-0.0226207
15793.9	-0.022112
15808.7	-0.0216095
15823.5	-0.021114
15838.2	-0.0206261
15853	-0.0201465
15867.8	-0.0196756
15882.6	-0.0192141
15897.3	-0.0187624
15912.1	-0.0183208
15926.9	-0.0178897
15941.7	-0.0174694
15956.4	-0.0170601
15971.2	-0.0166621
15986	-0.0162754
16000.8	-0.0159002
16015.5	-0.0155364
16030.3	-0.0151841
16045.1	-0.0148431
16059.9	-0.0145135
16074.6	-0.0141949
16089.4	-0.0138873
16104.2	-0.0135904
16119	-0.013304
16133.7	-0.0130277
16148.5	-0.0127611
16163.3	-0.012504
16178.1	-0.012256
16192.8	-0.0120166
16207.6	-0.0117853
16222.4	-0.0115618
16237.2	-0.0113456
16251.9	-0.0111361
16266.7	-0.010933
16281.5	-0.0107356
16296.3	-0.0105434
16311	-0.010356
16325.8	-0.0101729
16340.6	-0.00999344
16355.3	-0.00981721
16370.1	-0.00964367
16384.9	-0.00947234
16399.7	-0.00930272
16414.4	-0.00913434
16429.2	-0.00896674
16444	-0.00879946
16458.8	-0.00863208
16473.5	-0.00846418
16488.3	-0.00829538
16503.1	-0.00812529
16517.9	-0.00795356
16532.6	-0.00777986
16547.4	-0.0076039
16562.2	-0.00742538
16577	-0.00724405
16591.7	-0.00705966
16606.5	-0.00687203
16621.3	-0.00668095
16636.1	-0.00648628
16650.8	-0.00628787
16665.6	-0.00608563
16680.4	-0.00587946
16695.2	-0.00566931
16709.9	-0.00545513
16724.7	-0.00523693
16739.5	-0.00501471
16754.3	-0.0047885
16769	-0.00455835
16783.8	-0.00432435
16798.6	-0.00408657
16813.4	-0.00384515
16828.1	-0.0036002
16842.9	-0.00335189
16857.7	-0.00310036
16872.5	-0.00284579
16887.2	-0.00258839
16902	-0.00232836
16916.8	-0.00206591
16931.6	-0.00180126
16946.3	-0.00153467
16961.1	-0.00126637
16975.9	-0.000996611
16990.7	-0.00072566
17005.4	-0.000453779
17020.2	-0.000181238
17035	9.16904e-05
17049.8	0.000364732
17064.5	0.00063761
17079.3	0.000910047
17094.1	0.00118177
17108.9	0.00145249
17123.6	0.00172195
17138.4	0.00198986
17153.2	0.00225597
17167.9	0.00252001
17182.7	0.00278171
17197.5	0.00304083
17212.3	0.00329711
17227	0.00355032
17241.8	0.00380022
17256.6	0.00404657
17271.4	0.00428916
17286.1	0.00452778
17300.9	0.00476221
17315.7	0.00499227
17330.5	0.00521777
17345.2	0.00543853
17360	0.00565437
17374.8	0.00586514
17389.6	0.00607069
17404.3	0.00627088
17419.1	0.00646556
17433.9	0.00665463
17448.7	0.00683796
17463.4	0.00701546
17478.2	0.00718702
17493	0.00735256
17507.8	0.00751201
17522.5	0.00766529
17537.3	0.00781235
17552.1	0.00795313
17566.9	0.00808759
17581.6	0.0082157
17596.4	0.00833743
17611.2	0.00845276
17626	0.00856168
17640.7	0.00866418
17655.5	0.00876027
17670.3	0.00884996
17685.1	0.00893325
17699.8	0.00901018
17714.6	0.00908077
17729.4	0.00914506
17744.2	0.00920307
17758.9	0.00925486
17773.7	0.00930048
17788.5	0.00933997
17803.3	0.0093734
17818	0.00940083
17832.8	0.00942232
17847.6	0.00943795
17862.4	0.00944778
17877.1	0.0094519
17891.9	0.00945039
17906.7	0.00944333
17921.4	0.00943081
17936.2	0.00941292
17951	0.00938975
17965.8	0.0093614
17980.5	0.00932796
17995.3	0.00928954
18010.1	0.00924624
18024.9	0.00919817
18039.6	0.00914543
18054.4	0.00908814
18069.2	0.00902641
18084	0.00896036
18098.7	0.00889009
18113.5	0.00881574
18128.3	0.00873742
18143.1	0.00865527
18157.8	0.0085694
18172.6	0.00847994
18187.4	0.00838704
18202.2	0.00829081
18216.9	0.0081914
18231.7	0.00808894
18246.5	0.00798358
18261.3	0.00787545
18276	0.00776471
18290.8	0.00765149
18305.6	0.00753595
18320.4	0.00741824
18335.1	0.0072985
18349.9	0.0071769
18364.7	0.00705359
18379.5	0.00692873
18394.2	0.00680247
18409	0.00667497
18423.8	0.00654641
18438.6	0.00641693
18453.3	0.0062867
18468.1	0.00615589
18482.9	0.00602465
18497.7	0.00589316
18512.4	0.00576157
18527.2	0.00563005
18542	0.00549876
18556.8	0.00536785
18571.5	0.0052375
18586.3	0.00510785
18601.1	0.00497906
18615.9	0.00485129
18630.6	0.00472468
18645.4	0.00459938
18660.2	0.00447553
18675	0.00435327
18689.7	0.00423273
18704.5	0.00411405
18719.3	0.00399734
18734	0.00388273
18748.8	0.00377032
18763.6	0.00366023
18778.4	0.00355255
18793.1	0.00344737
18807.9	0.00334478
18822.7	0.00324485
18837.5	0.00314764
18852.2	0.00305323
18867	0.00296165
18881.8	0.00287295
18896.6	0.00278717
18911.3	0.00270431
18926.1	0.00262439
18940.9	0.00254742
18955.7	0.00247338
18970.4	0.00240226
18985.2	0.00233403
19000	0.00226863
19014.8	0.00220604
19029.5	0.00214617
19044.3	0.00208896
19059.1	0.00203432
19073.9	0.00198216
19088.6	0.00193238
19103.4	0.00188487
19118.2	0.00183949
19133	0.00179611
19147.7	0.0017546
19162.5	0.00171481
19177.3	0.00167656
19192.1	0.00163971
19206.8	0.00160408
19221.6	0.00156948
19236.4	0.00153575
19251.2	0.00150269
19265.9	0.00147012
19280.7	0.00143784
19295.5	0.00140568
19310.3	0.00137344
19325	0.00134093
19339.8	0.00130798
19354.6	0.00127441
19369.4	0.00124004
19384.1	0.00120472
19398.9	0.00116829
19413.7	0.0011306
19428.5	0.00109152
19443.2	0.00105092
19458	0.00100869
19472.8	0.000964721
19487.5	0.000918931
19502.3	0.000871237
19517.1	0.000821571
19531.9	0.000769875
19546.6	0.000716102
19561.4	0.000660214
19576.2	0.000602178
19591	0.000541973
19605.7	0.00047958
19620.5	0.000414984
19635.3	0.000348173
19650.1	0.000279138
19664.8	0.000207867
19679.6	0.000134348
19694.4	5.85648e-05
19709.2	-1.95016e-05
19723.9	-9.98765e-05
19738.7	-0.000182591
19753.5	-0.000267683
19768.3	-0.000355199
19783	-0.00044519
19797.8	-0.000537718
19812.6	-0.00063285
19827.4	-0.00073066
19842.1	-0.000831231
19856.9	-0.000934649
19871.7	-0.00104101
19886.5	-0.00115039
19901.2	-0.00126291
19916	-0.00137866
19930.8	-0.00149773
19945.6	-0.00162022
19960.3	-0.00174622
19975.1	-0.00187581
19989.9	-0.00200909
