0	0
14.7745	0
29.5491	0
44.3236	0
59.0981	0
73.8727	0
88.6472	0
103.422	0
118.196	0
132.971	0
147.745	0
162.52	0
177.294	0
192.069	0
206.843	0
221.618	0
236.393	0
251.167	0
265.942	0
280.716	0
295.491	0
310.265	0
325.04	0
339.814	0
354.589	0
369.363	0
384.138	0
398.912	0
413.687	0
428.462	0
443.236	0
458.011	0
472.785	0
487.56	0
502.334	0
517.109	0
531.883	0
546.658	0
561.432	0
576.207	0
590.981	0
605.756	0
620.53	0
635.305	0
650.08	0
664.854	0
679.629	0
694.403	0
709.178	0
723.952	0
738.727	0
753.501	0
768.276	0
783.05	0
797.825	0
812.599	0
827.374	0
842.149	0
856.923	0
871.698	0
886.472	0
901.247	0
916.021	0
930.796	0
945.57	0
960.345	0
975.119	0
989.894	0
1004.67	0
1019.44	0
1034.22	0
1048.99	0
1063.77	0
1078.54	0
1093.32	0
1108.09	0
1122.86	0
1137.64	0
1152.41	0
1167.19	0
1181.96	0
1196.74	0
1211.51	0
1226.29	0
1241.06	0
1255.84	0
1270.61	0
1285.38	0
1300.16	0
1314.93	0
1329.71	0
1344.48	0
1359.26	0
1374.03	0
1388.81	0
1403.58	0
1418.36	0
1433.13	0
1447.9	0
1462.68	0
1477.45	0
1492.23	0
1507	0
1521.78	0
1536.55	0
1551.33	0
1566.1	0
1580.88	0
1595.65	0
1610.42	0
1625.2	0
1639.97	0
1654.75	0
1669.52	-9.09495e-13
1684.3	-2.72848e-12
1699.07	-6.36646e-12
1713.85	-1.27329e-11
1728.62	-2.63753e-11
1743.4	-5.18412e-11
1758.17	-1.00954e-10
1772.94	-1.91903e-10
1787.72	-3.57431e-10
1802.49	-6.53017e-10
1817.27	-1.17052e-09
1832.04	-2.06182e-09
1846.82	-3.5725e-09
1861.59	-6.0918e-09
1876.37	-1.02264e-08
1891.14	-1.69111e-08
1905.92	-2.75613e-08
1920.69	-4.42915e-08
1935.46	-7.02121e-08
1950.24	-1.09839e-07
1965.01	-1.69638e-07
1979.79	-2.5875e-07
1994.56	-3.89929e-07
2009.34	-5.80749e-07
2024.11	-8.55132e-07
2038.89	-1.24526e-06
2053.66	-1.7939e-06
2068.43	-2.55729e-06
2083.21	-3.60848e-06
2097.98	-5.04142e-06
2112.76	-6.97552e-06
2127.53	-9.56106e-06
2142.31	-1.29852e-05
2157.08	-1.74784e-05
2171.86	-2.33222e-05
2186.63	-3.08565e-05
2201.41	-4.04877e-05
2216.18	-5.26974e-05
2230.95	-6.80505e-05
2245.73	-8.72035e-05
2260.5	-0.000110912
2275.28	-0.000140037
2290.05	-0.000175551
2304.83	-0.000218541
2319.6	-0.000270213
2334.38	-0.000331887
2349.15	-0.000404997
2363.93	-0.000491084
2378.7	-0.000591787
2393.47	-0.000708827
2408.25	-0.00084399
2423.02	-0.000999108
2437.8	-0.00117603
2452.57	-0.00137658
2467.35	-0.00160255
2482.12	-0.00185563
2496.9	-0.00213738
2511.67	-0.00244916
2526.45	-0.00279209
2541.22	-0.003167
2555.99	-0.00357432
2570.77	-0.00401407
2585.54	-0.00448574
2600.32	-0.00498819
2615.09	-0.00551964
2629.87	-0.0060775
2644.64	-0.00665832
2659.42	-0.00725767
2674.19	-0.00787005
2688.97	-0.00848878
2703.74	-0.00910591
2718.51	-0.00971211
2733.29	-0.0102965
2748.06	-0.0108469
2762.84	-0.011349
2777.61	-0.0117872
2792.39	-0.0121439
2807.16	-0.0123997
2821.94	-0.0125336
2836.71	-0.0125225
2851.49	-0.0123416
2866.26	-0.0119644
2881.03	-0.011363
2895.81	-0.0105079
2910.58	-0.00936836
2925.36	-0.0079127
2940.13	-0.00610851
2954.91	-0.00392298
2969.68	-0.00132326
2984.46	0.00172312
2999.23	0.00524787
3014	0.00928141
3028.78	0.0138524
3043.55	0.0189873
3058.33	0.0247098
3073.1	0.0310402
3087.88	0.037995
3102.65	0.0455867
3117.43	0.0538227
3132.2	0.0627052
3146.97	0.072231
3161.75	0.0823908
3176.52	0.0931691
3191.3	0.104544
3206.07	0.116487
3220.85	0.128962
3235.62	0.141928
3250.39	0.155336
3265.17	0.169131
3279.94	0.183252
3294.72	0.197631
3309.49	0.212196
3324.27	0.22687
3339.04	0.241571
3353.81	0.256213
3368.59	0.270707
3383.36	0.284963
3398.14	0.298888
3412.91	0.312389
3427.69	0.325373
3442.46	0.337748
3457.23	0.349422
3472.01	0.360309
3486.78	0.370324
3501.56	0.379386
3516.33	0.387422
3531.1	0.394359
3545.88	0.400137
3560.65	0.404697
3575.43	0.407991
3590.2	0.409978
3604.97	0.410624
3619.75	0.409904
3634.52	0.407804
3649.3	0.404315
3664.07	0.39944
3678.84	0.39319
3693.62	0.385584
3708.39	0.37665
3723.17	0.366426
3737.94	0.354956
3752.71	0.342293
3767.49	0.328497
3782.26	0.313636
3797.04	0.297782
3811.81	0.281016
3826.58	0.263421
3841.36	0.245086
3856.13	0.226105
3870.91	0.206575
3885.68	0.186592
3900.45	0.166259
3915.23	0.145677
3930	0.124949
3944.77	0.104174
3959.55	0.0834553
3974.32	0.0628904
3989.1	0.042576
4003.87	0.0226053
4018.64	0.00306803
4033.42	-0.0159506
4048.19	-0.0343699
4062.97	-0.0521149
4077.74	-0.0691159
4092.51	-0.0853095
4107.29	-0.100639
4122.06	-0.115054
4136.83	-0.12851
4151.61	-0.140973
4166.38	-0.152412
4181.16	-0.162806
4195.93	-0.172138
4210.7	-0.180403
4225.48	-0.187598
4240.25	-0.193728
4255.03	-0.198807
4269.8	-0.202851
4284.58	-0.205884
4299.35	-0.207935
4314.12	-0.209038
4328.9	-0.209231
4343.67	-0.208557
4358.45	-0.20706
4373.22	-0.204791
4388	-0.201799
4402.77	-0.198138
4417.54	-0.193864
4432.32	-0.189031
4447.09	-0.183697
4461.87	-0.177917
4476.64	-0.171749
4491.42	-0.165248
4506.19	-0.158468
4520.97	-0.151463
4535.74	-0.144284
4550.51	-0.136982
4565.29	-0.129604
4580.06	-0.122195
4594.84	-0.114797
4609.61	-0.107452
4624.39	-0.100196
4639.16	-0.0930626
4653.94	-0.0860847
4668.71	-0.0792903
4683.48	-0.0727052
4698.26	-0.0663521
4713.03	-0.060251
4727.81	-0.054419
4742.58	-0.0488706
4757.36	-0.0436177
4772.13	-0.0386696
4786.91	-0.0340334
4801.68	-0.0297138
4816.46	-0.0257135
4831.23	-0.0220331
4846	-0.0186715
4860.78	-0.0156259
4875.55	-0.0128918
4890.33	-0.0104634
4905.1	-0.00833383
4919.88	-0.00649475
4934.65	-0.00493702
4949.43	-0.00365063
4964.2	-0.00262479
4978.97	-0.00184813
4993.75	-0.00130874
5008.52	-0.000994345
5023.3	-0.000892337
5038.07	-0.000989924
5052.85	-0.00127419
5067.62	-0.00173216
5082.4	-0.00235092
5097.17	-0.00311762
5111.94	-0.00401959
5126.72	-0.00504436
5141.49	-0.0061797
5156.27	-0.00741369
5171.04	-0.00873473
5185.82	-0.0101316
5200.59	-0.0115934
5215.37	-0.0131096
5230.14	-0.0146703
5244.91	-0.0162658
5259.69	-0.0178869
5274.46	-0.0195248
5289.24	-0.0211713
5304.01	-0.0228184
5318.79	-0.0244587
5333.56	-0.0260852
5348.34	-0.0276912
5363.11	-0.0292706
5377.89	-0.0308177
5392.66	-0.032327
5407.43	-0.0337935
5422.21	-0.0352127
5436.98	-0.0365803
5451.76	-0.0378924
5466.53	-0.0391456
5481.31	-0.0403366
5496.08	-0.0414626
5510.86	-0.0425212
5525.63	-0.0435101
5540.4	-0.0444274
5555.18	-0.0452716
5569.95	-0.0460415
5584.73	-0.046736
5599.5	-0.0473545
5614.28	-0.0478965
5629.05	-0.0483619
5643.83	-0.0487507
5658.6	-0.0490635
5673.38	-0.0493007
5688.15	-0.0494632
5702.92	-0.0495521
5717.7	-0.0495686
5732.47	-0.0495144
5747.25	-0.0493909
5762.02	-0.0492001
5776.8	-0.0489441
5791.57	-0.048625
5806.35	-0.0482452
5821.12	-0.0478072
5835.89	-0.0473134
5850.67	-0.0467667
5865.44	-0.0461698
5880.22	-0.0455255
5894.99	-0.0448368
5909.77	-0.0441066
5924.54	-0.0433379
5939.32	-0.0425338
5954.09	-0.0416972
5968.87	-0.0408311
5983.64	-0.0399386
5998.41	-0.0390224
6013.19	-0.0380857
6027.96	-0.0371311
6042.74	-0.0361614
6057.51	-0.0351794
6072.29	-0.0341875
6087.06	-0.0331883
6101.84	-0.0321842
6116.61	-0.0311774
6131.39	-0.0301701
6146.16	-0.0291642
6160.93	-0.0281618
6175.71	-0.0271644
6190.48	-0.0261738
6205.26	-0.0251914
6220.03	-0.0242185
6234.81	-0.0232563
6249.58	-0.0223059
6264.36	-0.0213682
6279.13	-0.0204439
6293.91	-0.0195337
6308.68	-0.018638
6323.45	-0.0177574
6338.23	-0.0168919
6353	-0.0160418
6367.78	-0.015207
6382.55	-0.0143874
6397.33	-0.013583
6412.1	-0.0127933
6426.88	-0.0120181
6441.65	-0.0112569
6456.42	-0.0105091
6471.2	-0.00977429
6485.97	-0.00905176
6500.75	-0.00834087
6515.52	-0.00764093
6530.3	-0.00695123
6545.07	-0.00627104
6559.85	-0.00559964
6574.62	-0.00493628
6589.4	-0.00428026
6604.17	-0.00363087
6618.94	-0.00298747
6633.72	-0.00234942
6648.49	-0.00171613
6663.27	-0.00108707
6678.04	-0.000461776
6692.82	0.000160175
6707.59	0.000779124
6722.37	0.00139534
6737.14	0.00200902
6751.92	0.00262028
6766.69	0.00322915
6781.46	0.00383558
6796.24	0.00443943
6811.01	0.0050405
6825.79	0.00563846
6840.56	0.00623294
6855.34	0.00682347
6870.11	0.0074095
6884.89	0.00799042
6899.66	0.00856553
6914.44	0.00913409
6929.21	0.00969527
6943.99	0.0102482
6958.76	0.010792
6973.53	0.0113256
6988.31	0.0118481
7003.08	0.0123585
7017.86	0.0128557
7032.63	0.0133386
7047.41	0.0138062
7062.18	0.0142574
7076.96	0.0146911
7091.73	0.0151064
7106.51	0.0155022
7121.28	0.0158775
7136.05	0.0162313
7150.83	0.0165628
7165.6	0.0168711
7180.38	0.0171553
7195.15	0.0174149
7209.93	0.0176489
7224.7	0.0178569
7239.48	0.0180384
7254.25	0.0181927
7269.02	0.0183196
7283.8	0.0184186
7298.57	0.0184897
7313.35	0.0185325
7328.12	0.018547
7342.9	0.0185331
7357.67	0.018491
7372.45	0.0184208
7387.22	0.0183226
7402	0.0181967
7416.77	0.0180434
7431.54	0.0178632
7446.32	0.0176563
7461.09	0.0174234
7475.87	0.017165
7490.64	0.0168815
7505.42	0.0165737
7520.19	0.0162421
7534.97	0.0158874
7549.74	0.0155103
7564.51	0.0151114
7579.29	0.0146914
7594.06	0.0142512
7608.84	0.0137912
7623.61	0.0133123
7638.39	0.0128152
7653.16	0.0123004
7667.94	0.0117688
7682.71	0.0112208
7697.48	0.0106572
7712.26	0.0100785
7727.03	0.00948538
7741.81	0.00887831
7756.58	0.00825785
7771.36	0.0076245
7786.13	0.00697873
7800.91	0.00632099
7815.68	0.0056517
7830.45	0.00497128
7845.23	0.00428008
7860	0.00357848
7874.78	0.00286681
7889.55	0.00214539
7904.33	0.00141453
7919.1	0.000674519
7933.88	-7.43444e-05
7948.65	-0.000831783
7963.42	-0.00159752
7978.2	-0.00237127
7992.97	-0.00315276
8007.75	-0.00394169
8022.52	-0.00473776
8037.3	-0.00554068
8052.07	-0.00635011
8066.85	-0.00716571
8081.62	-0.00798712
8096.39	-0.00881396
8111.17	-0.00964582
8125.94	-0.0104823
8140.72	-0.0113229
8155.49	-0.0121671
8170.27	-0.0130145
8185.04	-0.0138644
8199.82	-0.0147164
8214.59	-0.0155698
8229.36	-0.016424
8244.14	-0.0172783
8258.91	-0.018132
8273.69	-0.0189845
8288.46	-0.019835
8303.24	-0.0206827
8318.01	-0.0215268
8332.79	-0.0223667
8347.56	-0.0232013
8362.33	-0.0240299
8377.11	-0.0248518
8391.88	-0.0256659
8406.66	-0.0264714
8421.43	-0.0272676
8436.21	-0.0280535
8450.98	-0.0288283
8465.76	-0.029591
8480.53	-0.030341
8495.3	-0.0310773
8510.08	-0.0317991
8524.85	-0.0325056
8539.63	-0.0331961
8554.4	-0.0338697
8569.18	-0.0345259
8583.95	-0.0351637
8598.73	-0.0357826
8613.5	-0.0363819
8628.27	-0.036961
8643.05	-0.0375194
8657.82	-0.0380563
8672.6	-0.0385715
8687.37	-0.0390643
8702.15	-0.0395344
8716.92	-0.0399813
8731.7	-0.0404047
8746.47	-0.0408042
8761.24	-0.0411796
8776.02	-0.0415306
8790.79	-0.0418569
8805.57	-0.0421585
8820.34	-0.0424352
8835.12	-0.0426868
8849.89	-0.0429133
8864.67	-0.0431147
8879.44	-0.0432908
8894.22	-0.0434418
8908.99	-0.0435677
8923.76	-0.0436684
8938.54	-0.0437442
8953.31	-0.0437952
8968.09	-0.0438214
8982.86	-0.043823
8997.64	-0.0438002
9012.41	-0.0437532
9027.19	-0.0436822
9041.96	-0.0435875
9056.73	-0.0434691
9071.51	-0.0433275
9086.28	-0.0431629
9101.06	-0.0429755
9115.83	-0.0427656
9130.61	-0.0425335
9145.38	-0.0422796
9160.16	-0.0420041
9174.93	-0.0417073
9189.7	-0.0413896
9204.48	-0.0410514
9219.25	-0.0406929
9234.03	-0.0403145
9248.8	-0.0399165
9263.58	-0.0394994
9278.35	-0.0390636
9293.13	-0.0386093
9307.9	-0.0381369
9322.68	-0.037647
9337.45	-0.0371399
9352.22	-0.0366159
9367	-0.0360757
9381.77	-0.0355195
9396.55	-0.0349478
9411.32	-0.0343611
9426.1	-0.0337599
9440.87	-0.0331446
9455.65	-0.0325157
9470.42	-0.0318738
9485.19	-0.0312194
9499.97	-0.0305529
9514.74	-0.0298749
9529.52	-0.0291861
9544.29	-0.0284868
9559.07	-0.0277778
9573.84	-0.0270596
9588.62	-0.0263329
9603.39	-0.0255981
9618.17	-0.024856
9632.94	-0.0241071
9647.71	-0.0233522
9662.49	-0.0225919
9677.26	-0.0218268
9692.04	-0.0210577
9706.81	-0.0202852
9721.59	-0.0195099
9736.36	-0.0187326
9751.14	-0.0179541
9765.91	-0.0171749
9780.68	-0.0163959
9795.46	-0.0156178
9810.23	-0.0148412
9825.01	-0.0140669
9839.78	-0.0132956
9854.56	-0.0125281
9869.33	-0.011765
9884.11	-0.0110072
9898.88	-0.0102553
9913.66	-0.00951005
9928.43	-0.00877218
9943.2	-0.0080424
9957.98	-0.00732142
9972.75	-0.00660992
9987.53	-0.0059086
10002.3	-0.00521814
10017.1	-0.00453921
10031.9	-0.00387245
10046.6	-0.00321852
10061.4	-0.00257803
10076.2	-0.00195161
10090.9	-0.00133984
10105.7	-0.000743295
10120.5	-0.000162538
10135.3	0.000401896
10150	0.000949494
10164.8	0.00147976
10179.6	0.00199223
10194.4	0.00248646
10209.1	0.00296203
10223.9	0.00341855
10238.7	0.00385564
10253.5	0.00427298
10268.2	0.00467025
10283	0.00504718
10297.8	0.0054035
10312.6	0.005739
10327.3	0.00605349
10342.1	0.00634681
10356.9	0.00661882
10371.7	0.00686943
10386.4	0.00709856
10401.2	0.00730618
10416	0.00749227
10430.8	0.00765686
10445.5	0.00780001
10460.3	0.00792178
10475.1	0.00802228
10489.9	0.00810167
10504.6	0.00816008
10519.4	0.00819773
10534.2	0.00821481
10549	0.00821159
10563.7	0.00818831
10578.5	0.00814527
10593.3	0.00808278
10608.1	0.00800117
10622.8	0.0079008
10637.6	0.00778203
10652.4	0.00764527
10667.2	0.00749091
10681.9	0.00731939
10696.7	0.00713115
10711.5	0.00692665
10726.3	0.00670636
10741	0.00647077
10755.8	0.00622037
10770.6	0.00595569
10785.4	0.00567724
10800.1	0.00538557
10814.9	0.00508122
10829.7	0.00476475
10844.5	0.00443674
10859.2	0.00409776
10874	0.00374841
10888.8	0.00338929
10903.5	0.003021
10918.3	0.00264418
10933.1	0.00225945
10947.9	0.00186746
10962.6	0.00146885
10977.4	0.00106429
10992.2	0.000654451
11007	0.000240009
11021.7	-0.000178343
11036.5	-0.000599906
11051.3	-0.00102397
11066.1	-0.00144982
11080.8	-0.00187672
11095.6	-0.00230395
11110.4	-0.00273076
11125.2	-0.0031564
11139.9	-0.00358011
11154.7	-0.00400114
11169.5	-0.00441871
11184.3	-0.00483206
11199	-0.00524041
11213.8	-0.00564299
11228.6	-0.00603902
11243.4	-0.00642773
11258.1	-0.00680835
11272.9	-0.00718011
11287.7	-0.00754225
11302.5	-0.00789402
11317.2	-0.00823468
11332	-0.00856349
11346.8	-0.00887975
11361.6	-0.00918274
11376.3	-0.00947178
11391.1	-0.00974622
11405.9	-0.0100054
11420.7	-0.0102487
11435.4	-0.0104756
11450.2	-0.0106854
11465	-0.0108777
11479.8	-0.0110519
11494.5	-0.0112076
11509.3	-0.0113444
11524.1	-0.0114618
11538.9	-0.0115595
11553.6	-0.0116372
11568.4	-0.0116946
11583.2	-0.0117316
11598	-0.0117478
11612.7	-0.0117432
11627.5	-0.0117177
11642.3	-0.0116712
11657	-0.0116037
11671.8	-0.0115153
11686.6	-0.0114061
11701.4	-0.0112762
11716.1	-0.0111258
11730.9	-0.0109551
11745.7	-0.0107644
11760.5	-0.0105541
11775.2	-0.0103244
11790	-0.0100758
11804.8	-0.0098087
11819.6	-0.00952362
11834.3	-0.00922106
11849.1	-0.00890157
11863.9	-0.00856573
11878.7	-0.00821417
11893.4	-0.00784751
11908.2	-0.00746644
11923	-0.00707163
11937.8	-0.00666381
11952.5	-0.00624371
11967.3	-0.00581207
11982.1	-0.00536966
11996.9	-0.00491725
12011.6	-0.00445562
12026.4	-0.00398556
12041.2	-0.00350785
12056	-0.0030233
12070.7	-0.00253269
12085.5	-0.00203681
12100.3	-0.00153645
12115.1	-0.00103236
12129.8	-0.000525327
12144.6	-1.60881e-05
12159.4	0.000494617
12174.2	0.00100607
12188.9	0.00151756
12203.7	0.00202841
12218.5	0.00253796
12233.3	0.00304557
12248	0.00355061
12262.8	0.00405249
12277.6	0.00455064
12292.4	0.00504452
12307.1	0.00553361
12321.9	0.00601741
12336.7	0.00649546
12351.5	0.00696732
12366.2	0.00743257
12381	0.00789082
12395.8	0.00834172
12410.6	0.00878492
12425.3	0.0092201
12440.1	0.00964699
12454.9	0.0100653
12469.6	0.0104748
12484.4	0.0108752
12499.2	0.0112664
12514	0.0116482
12528.7	0.0120203
12543.5	0.0123826
12558.3	0.012735
12573.1	0.0130774
12587.8	0.0134095
12602.6	0.0137313
12617.4	0.0140426
12632.2	0.0143434
12646.9	0.0146336
12661.7	0.0149129
12676.5	0.0151814
12691.3	0.0154389
12706	0.0156853
12720.8	0.0159204
12735.6	0.0161441
12750.4	0.0163563
12765.1	0.0165569
12779.9	0.0167456
12794.7	0.0169223
12809.5	0.0170868
12824.2	0.0172389
12839	0.0173784
12853.8	0.017505
12868.6	0.0176186
12883.3	0.0177188
12898.1	0.0178053
12912.9	0.017878
12927.7	0.0179364
12942.4	0.0179803
12957.2	0.0180094
12972	0.0180232
12986.8	0.0180216
13001.5	0.018004
13016.3	0.0179702
13031.1	0.0179197
13045.9	0.0178523
13060.6	0.0177675
13075.4	0.017665
13090.2	0.0175445
13105	0.0174055
13119.7	0.0172477
13134.5	0.0170709
13149.3	0.0168746
13164.1	0.0166587
13178.8	0.0164227
13193.6	0.0161666
13208.4	0.01589
13223.1	0.0155927
13237.9	0.0152747
13252.7	0.0149357
13267.5	0.0145757
13282.2	0.0141947
13297	0.0137926
13311.8	0.0133695
13326.6	0.0129255
13341.3	0.0124607
13356.1	0.0119753
13370.9	0.0114695
13385.7	0.0109437
13400.4	0.0103983
13415.2	0.00983356
13430	0.00925003
13444.8	0.00864823
13459.5	0.00802874
13474.3	0.00739222
13489.1	0.00673935
13503.9	0.0060709
13518.6	0.00538769
13533.4	0.00469058
13548.2	0.00398049
13563	0.0032584
13577.7	0.00252533
13592.5	0.00178235
13607.3	0.00103057
13622.1	0.000271144
13636.8	-0.000494729
13651.6	-0.00126582
13666.4	-0.00204088
13681.2	-0.0028186
13695.9	-0.00359769
13710.7	-0.00437679
13725.5	-0.00515458
13740.3	-0.00592967
13755	-0.00670071
13769.8	-0.00746631
13784.6	-0.00822511
13799.4	-0.00897573
13814.1	-0.00971683
13828.9	-0.010447
13843.7	-0.011165
13858.5	-0.0118695
13873.2	-0.0125592
13888	-0.0132329
13902.8	-0.0138893
13917.6	-0.0145273
13932.3	-0.0151458
13947.1	-0.0157436
13961.9	-0.0163197
13976.7	-0.0168732
13991.4	-0.0174031
14006.2	-0.0179085
14021	-0.0183886
14035.7	-0.0188427
14050.5	-0.0192701
14065.3	-0.0196701
14080.1	-0.0200423
14094.8	-0.0203861
14109.6	-0.0207011
14124.4	-0.0209871
14139.2	-0.0212436
14153.9	-0.0214705
14168.7	-0.0216677
14183.5	-0.0218352
14198.3	-0.0219729
14213	-0.0220809
14227.8	-0.0221593
14242.6	-0.0222085
14257.4	-0.0222286
14272.1	-0.0222201
14286.9	-0.0221833
14301.7	-0.0221187
14316.5	-0.0220269
14331.2	-0.0219084
14346	-0.0217639
14360.8	-0.0215941
14375.6	-0.0213997
14390.3	-0.0211816
14405.1	-0.0209405
14419.9	-0.0206774
14434.7	-0.0203931
14449.4	-0.0200887
14464.2	-0.0197652
14479	-0.0194235
14493.8	-0.0190647
14508.5	-0.01869
14523.3	-0.0183003
14538.1	-0.017897
14552.9	-0.017481
14567.6	-0.0170536
14582.4	-0.016616
14597.2	-0.0161693
14612	-0.0157148
14626.7	-0.0152536
14641.5	-0.014787
14656.3	-0.0143163
14671.1	-0.0138425
14685.8	-0.013367
14700.6	-0.012891
14715.4	-0.0124157
14730.2	-0.0119423
14744.9	-0.011472
14759.7	-0.011006
14774.5	-0.0105454
14789.2	-0.0100916
14804	-0.00964547
14818.8	-0.00920833
14833.6	-0.00878125
14848.3	-0.00836534
14863.1	-0.00796168
14877.9	-0.00757133
14892.7	-0.00719532
14907.4	-0.00683468
14922.2	-0.00649038
14937	-0.00616337
14951.8	-0.00585459
14966.5	-0.00556493
14981.3	-0.00529525
14996.1	-0.00504638
15010.9	-0.0048191
15025.6	-0.00461417
15040.4	-0.00443229
15055.2	-0.00427414
15070	-0.00414033
15084.7	-0.00403145
15099.5	-0.00394803
15114.3	-0.00389053
15129.1	-0.00385941
15143.8	-0.00385501
15158.6	-0.00387768
15173.4	-0.00392767
15188.2	-0.00400518
15202.9	-0.00411035
15217.7	-0.00424327
15232.5	-0.00440396
15247.3	-0.00459235
15262	-0.00480835
15276.8	-0.00505176
15291.6	-0.00532232
15306.4	-0.00561972
15321.1	-0.00594356
15335.9	-0.00629336
15350.7	-0.00666859
15365.5	-0.00706864
15380.2	-0.0074928
15395	-0.00794033
15409.8	-0.00841038
15424.6	-0.00890204
15439.3	-0.00941434
15454.1	-0.00994622
15468.9	-0.0104966
15483.7	-0.0110642
15498.4	-0.0116478
15513.2	-0.0122461
15528	-0.0128576
15542.8	-0.013481
15557.5	-0.0141148
15572.3	-0.0147573
15587.1	-0.015407
15601.8	-0.0160622
15616.6	-0.0167211
15631.4	-0.0173821
15646.2	-0.0180434
15660.9	-0.0187031
15675.7	-0.0193594
15690.5	-0.0200104
15705.3	-0.0206543
15720	-0.0212891
15734.8	-0.0219129
15749.6	-0.022524
15764.4	-0.0231202
15779.1	-0.0236998
15793.9	-0.0242609
15808.7	-0.0248016
15823.5	-0.0253201
15838.2	-0.0258146
15853	-0.0262834
15867.8	-0.0267247
15882.6	-0.0271369
15897.3	-0.0275184
15912.1	-0.0278676
15926.9	-0.0281831
15941.7	-0.0284634
15956.4	-0.0287073
15971.2	-0.0289135
15986	-0.0290807
16000.8	-0.0292081
16015.5	-0.0292945
16030.3	-0.0293391
16045.1	-0.0293411
16059.9	-0.0292999
16074.6	-0.0292149
16089.4	-0.0290856
16104.2	-0.0289116
16119	-0.0286928
16133.7	-0.028429
16148.5	-0.0281203
16163.3	-0.0277666
16178.1	-0.0273684
16192.8	-0.0269258
16207.6	-0.0264393
16222.4	-0.0259096
16237.2	-0.0253372
16251.9	-0.024723
16266.7	-0.0240679
16281.5	-0.0233729
16296.3	-0.022639
16311	-0.0218675
16325.8	-0.0210596
16340.6	-0.0202168
16355.3	-0.0193405
16370.1	-0.0184322
16384.9	-0.0174936
16399.7	-0.0165264
16414.4	-0.0155324
16429.2	-0.0145133
16444	-0.013471
16458.8	-0.0124075
16473.5	-0.0113248
16488.3	-0.0102248
16503.1	-0.00910957
16517.9	-0.00798119
16532.6	-0.00684174
16547.4	-0.00569331
16562.2	-0.004538
16577	-0.00337791
16591.7	-0.00221512
16606.5	-0.00105173
16621.3	0.0001102
16636.1	0.00126863
16650.8	0.00242156
16665.6	0.00356699
16680.4	0.004703
16695.2	0.00582768
16709.9	0.00693919
16724.7	0.00803575
16739.5	0.00911561
16754.3	0.0101771
16769	0.0112186
16783.8	0.0122386
16798.6	0.0132356
16813.4	0.0142082
16828.1	0.0151552
16842.9	0.0160752
16857.7	0.0169671
16872.5	0.0178298
16887.2	0.0186623
16902	0.0194638
16916.8	0.0202334
16931.6	0.0209704
16946.3	0.021674
16961.1	0.0223439
16975.9	0.0229793
16990.7	0.0235801
17005.4	0.0241458
17020.2	0.0246762
17035	0.0251712
17049.8	0.0256306
17064.5	0.0260546
17079.3	0.0264431
17094.1	0.0267963
17108.9	0.0271144
17123.6	0.0273978
17138.4	0.0276467
17153.2	0.0278615
17167.9	0.0280428
17182.7	0.0281911
17197.5	0.0283068
17212.3	0.0283908
17227	0.0284435
17241.8	0.0284658
17256.6	0.0284584
17271.4	0.0284221
17286.1	0.0283577
17300.9	0.028266
17315.7	0.0281479
17330.5	0.0280043
17345.2	0.0278362
17360	0.0276444
17374.8	0.02743
17389.6	0.0271938
17404.3	0.0269369
17419.1	0.0266601
17433.9	0.0263645
17448.7	0.026051
17463.4	0.0257206
17478.2	0.0253743
17493	0.025013
17507.8	0.0246376
17522.5	0.024249
17537.3	0.0238482
17552.1	0.0234361
17566.9	0.0230135
17581.6	0.0225813
17596.4	0.0221403
17611.2	0.0216913
17626	0.0212351
17640.7	0.0207724
17655.5	0.020304
17670.3	0.0198306
17685.1	0.0193529
17699.8	0.0188715
17714.6	0.0183869
17729.4	0.0178999
17744.2	0.0174109
17758.9	0.0169205
17773.7	0.0164291
17788.5	0.0159373
17803.3	0.0154454
17818	0.0149539
17832.8	0.0144631
17847.6	0.0139734
17862.4	0.013485
17877.1	0.0129983
17891.9	0.0125135
17906.7	0.0120308
17921.4	0.0115505
17936.2	0.0110727
17951	0.0105975
17965.8	0.010125
17980.5	0.00965549
17995.3	0.00918889
18010.1	0.0087253
18024.9	0.00826475
18039.6	0.00780726
18054.4	0.00735284
18069.2	0.00690146
18084	0.00645309
18098.7	0.00600769
18113.5	0.00556521
18128.3	0.00512557
18143.1	0.0046887
18157.8	0.00425451
18172.6	0.00382291
18187.4	0.00339379
18202.2	0.00296705
18216.9	0.00254258
18231.7	0.00212028
18246.5	0.00170003
18261.3	0.00128171
18276	0.000865234
18290.8	0.000450477
18305.6	3.73424e-05
18320.4	-0.000374269
18335.1	-0.00078445
18349.9	-0.00119329
18364.7	-0.00160085
18379.5	-0.00200722
18394.2	-0.00241246
18409	-0.0028166
18423.8	-0.00321969
18438.6	-0.00362177
18453.3	-0.00402284
18468.1	-0.0044229
18482.9	-0.00482196
18497.7	-0.00521998
18512.4	-0.00561694
18527.2	-0.00601277
18542	-0.00640743
18556.8	-0.00680082
18571.5	-0.00719286
18586.3	-0.00758344
18601.1	-0.00797243
18615.9	-0.0083597
18630.6	-0.00874508
18645.4	-0.00912839
18660.2	-0.00950944
18675	-0.00988801
18689.7	-0.0102638
18704.5	-0.0106367
18719.3	-0.0110062
18734	-0.0113721
18748.8	-0.0117341
18763.6	-0.0120916
18778.4	-0.0124444
18793.1	-0.0127919
18807.9	-0.0131336
18822.7	-0.0134691
18837.5	-0.0137977
18852.2	-0.0141189
18867	-0.014432
18881.8	-0.0147364
18896.6	-0.0150314
18911.3	-0.0153163
18926.1	-0.0155905
18940.9	-0.0158533
18955.7	-0.0161039
18970.4	-0.0163418
18985.2	-0.0165663
19000	-0.0167767
19014.8	-0.0169725
19029.5	-0.0171532
19044.3	-0.0173182
19059.1	-0.0174672
19073.9	-0.0175997
19088.6	-0.0177156
19103.4	-0.0178145
19118.2	-0.0178963
19133	-0.0179609
19147.7	-0.0180083
19162.5	-0.0180385
19177.3	-0.0180517
19192.1	-0.0180481
19206.8	-0.0180279
19221.6	-0.0179913
19236.4	-0.0179389
19251.2	-0.0178709
19265.9	-0.0177878
19280.7	-0.0176901
19295.5	-0.0175783
19310.3	-0.017453
19325	-0.0173147
19339.8	-0.017164
19354.6	-0.0170014
19369.4	-0.0168276
19384.1	-0.0166431
19398.9	-0.0164485
19413.7	-0.0162443
19428.5	-0.0160313
19443.2	-0.0158098
19458	-0.0155806
19472.8	-0.015344
19487.5	-0.0151006
19502.3	-0.0148511
19517.1	-0.0145957
19531.9	-0.0143352
19546.6	-0.0140699
19561.4	-0.0138003
19576.2	-0.0135269
19591	-0.0132502
19605.7	-0.0129706
19620.5	-0.0126886
19635.3	-0.0124047
19650.1	-0.0121192
19664.8	-0.0118327
19679.6	-0.0115455
19694.4	-0.0112581
19709.2	-0.0109709
19723.9	-0.0106843
19738.7	-0.0103988
19753.5	-0.0101146
19768.3	-0.00983221
19783	-0.00955197
19797.8	-0.00927424
19812.6	-0.00899935
19827.4	-0.00872762
19842.1	-0.00845936
19856.9	-0.00819485
19871.7	-0.00793437
19886.5	-0.00767817
19901.2	-0.00742647
19916	-0.00717949
19930.8	-0.00693742
19945.6	-0.00670043
19960.3	-0.00646867
19975.1	-0.00624227
19989.9	-0.00602133
