Problem size with different number of CPUs using function optimization
THREADS	MTPS	TIMESTEPS	TIMESTEP_SIZE	SECONDS_FOR_SIMULATION	AVERAGE_TRIANGLES	AVERAGE_PARTITIONS
64	74.2146	100	0.000491318	25.6647	1.90469e+07	1158.74
63	75.4711	100	0.000491318	25.2373	1.90469e+07	1158.74
62	74.5861	100	0.000491318	25.5368	1.90469e+07	1158.74
61	74.1595	100	0.000491318	25.6837	1.90469e+07	1158.74
60	72.9643	100	0.000491318	26.1044	1.90469e+07	1158.74
59	72.3218	100	0.000491318	26.3363	1.90469e+07	1158.74
58	73.3465	100	0.000491318	25.9684	1.90469e+07	1158.74
57	72.4129	100	0.000491318	26.3032	1.90469e+07	1158.74
56	71.5226	100	0.000491318	26.6306	1.90469e+07	1158.74
55	71.3607	100	0.000491318	26.691	1.90469e+07	1158.74
54	70.7595	100	0.000491318	26.9178	1.90469e+07	1158.74
53	69.8552	100	0.000491318	27.2663	1.90469e+07	1158.74
52	69.1041	100	0.000491318	27.5627	1.90469e+07	1158.74
51	68.2049	100	0.000491318	27.926	1.90469e+07	1158.74
50	67.6534	100	0.000491318	28.1537	1.90469e+07	1158.74
49	66.7221	100	0.000491318	28.5466	1.90469e+07	1158.74
48	65.2136	100	0.000491318	29.207	1.90469e+07	1158.74
47	64.0527	100	0.000491318	29.7363	1.90469e+07	1158.74
46	64.1637	100	0.000491318	29.6849	1.90469e+07	1158.74
45	62.9703	100	0.000491318	30.2475	1.90469e+07	1158.74
44	62.3752	100	0.000491318	30.536	1.90469e+07	1158.74
43	60.3701	100	0.000491318	31.5503	1.90469e+07	1158.74
42	58.1819	100	0.000491318	32.7369	1.90469e+07	1158.74
41	58.5979	100	0.000491318	32.5044	1.90469e+07	1158.74
40	57.3815	100	0.000491318	33.1935	1.90469e+07	1158.74
39	56.3806	100	0.000491318	33.7827	1.90469e+07	1158.74
38	54.1594	100	0.000491318	35.1683	1.90469e+07	1158.74
37	53.8396	100	0.000491318	35.3771	1.90469e+07	1158.74
36	52.391	100	0.000491318	36.3553	1.90469e+07	1158.74
35	50.5629	100	0.000491318	37.6698	1.90469e+07	1158.74
34	49.0571	100	0.000491318	38.826	1.90469e+07	1158.74
33	47.5736	100	0.000491318	40.0368	1.90469e+07	1158.74
32	46.2255	100	0.000491318	41.2044	1.90469e+07	1158.74
31	45.0952	100	0.000491318	42.2371	1.90469e+07	1158.74
30	44.9961	100	0.000491318	42.3302	1.90469e+07	1158.74
29	44.0169	100	0.000491318	43.2719	1.90469e+07	1158.74
28	44.006	100	0.000491318	43.2825	1.90469e+07	1158.74
27	43.2476	100	0.000491318	44.0416	1.90469e+07	1158.74
26	42.4212	100	0.000491318	44.8995	1.90469e+07	1158.74
25	41.5804	100	0.000491318	45.8074	1.90469e+07	1158.74
24	40.6092	100	0.000491318	46.903	1.90469e+07	1158.74
23	39.8942	100	0.000491318	47.7435	1.90469e+07	1158.74
22	38.7732	100	0.000491318	49.1239	1.90469e+07	1158.74
21	38.1688	100	0.000491318	49.9018	1.90469e+07	1158.74
20	37.3206	100	0.000491318	51.0359	1.90469e+07	1158.74
19	35.9027	100	0.000491318	53.0515	1.90469e+07	1158.74
18	34.3205	100	0.000491318	55.4973	1.90469e+07	1158.74
17	32.878	100	0.000491318	57.9321	1.90469e+07	1158.74
16	31.3491	100	0.000491318	60.7574	1.90469e+07	1158.74
15	30.3222	100	0.000491318	62.815	1.90469e+07	1158.74
14	28.9537	100	0.000491318	65.784	1.90469e+07	1158.74
13	27.8725	100	0.000491318	68.3359	1.90469e+07	1158.74
12	26.6368	100	0.000491318	71.506	1.90469e+07	1158.74
11	24.566	100	0.000491318	77.5337	1.90469e+07	1158.74
10	22.4291	100	0.000491318	84.9207	1.90469e+07	1158.74
9	20.2563	100	0.000491318	94.0296	1.90469e+07	1158.74
8	17.9753	100	0.000491318	105.962	1.90469e+07	1158.74
7	16.6541	100	0.000491318	114.368	1.90469e+07	1158.74
6	15.3366	100	0.000491318	124.193	1.90469e+07	1158.74
5	14.0018	100	0.000491318	136.032	1.90469e+07	1158.74
4	12.6507	100	0.000491318	150.56	1.90469e+07	1158.74
3	9.53006	100	0.000491318	199.861	1.90469e+07	1158.74
2	6.63088	100	0.000491318	287.246	1.90469e+07	1158.74
1	3.3433	100	0.000491318	569.703	1.90469e+07	1158.74
